[
  {
    "model": "Antlia LRGB-V Pro Astronomy Filters",
    "name": "Antlia R",
    "type": "MONO_FILTER",
    "dataQualityMarker": 2,
    "dataSource": "Scanned from Transmission Chart",
    "manufacturer": "Antlia Pro Series",
    "version": 1,
    "channel": "RED",
    "wavelength": { 
       "value":  [584.64,589.28,593.92,598.56,603.2,607.84,611.7,613.93,615.01,615.61,616.28,616.76,616.91,617.4,617.85,618.18,618.27,618.53,618.69,619.02,619.23,619.44,619.53,619.87,619.94,620.08,620.29,620.38,620.71,620.8,621.13,621.22,621.34,621.55,621.62,621.76,621.97,622.06,622.19,622.4,622.49,624.29,628.93,633.57,638.21,642.85,647.49,652.13,656.77,661.41,666.05,670.69,675.33,679.97,683.98,686.24,686.89,687.63,687.78,688.33,688.49,688.83,689.04,689.42,689.53,689.76,689.89,690.1,690.18,690.31,690.52,690.6,690.73,690.94,691.03,691.15,691.36,691.45,691.57,691.78,691.87,692,692.21,692.42,692.71,692.88,693.05,693.13,693.68,694.19,694.4,694.88,695.24,695.75,696.17,696.99,697.48,698.53,699.98,702.96,706.97,711.61,716.25],
       "units": "nm"
    },
    "values": {
      "value": [0.323581299617771,0.323581299617771,0.386490604367708,0.400470449867697,0.421440218117667,0.680067359867437,1.78447515436638,3.51997311715043,5.44439870626286,7.38200529256102,8.83264726060963,10.8361588328363,12.9334019406057,15.1503724394786,17.9641491998152,20.0456483387239,21.6767967404545,24.133588160345,26.0484941403789,30.8742036655886,32.6939135548368,34.2124742722729,36.5493552316546,40.3059394295795,42.4075762030775,45.7906988140743,47.2259629520729,49.5765741168564,53.8384298735666,56.1890410383501,60.3355630696854,62.6916663166296,65.0642458100559,67.9860335195531,70.0876702930511,73.4707929040478,80.0576301087915,82.3533204519679,86.5419484465353,89.8994413407821,92.2390683412442,95.3306113175269,95.5892384592767,95.5962283820267,95.8688353692764,95.9107749057764,95.8199059100265,95.8967950602764,95.9107749057764,95.6591376867766,95.9457245195263,95.9317446740264,95.5752586137767,95.5822485365267,95.0798478388709,92.733355735708,90.4069097324316,88.0650858991053,85.8819832402235,83.9020876212879,81.5492796236401,79.9807409585416,78.2122905027933,74.2601881799471,72.8300499852984,69.0471037930021,70.9462658041753,67.4221797510536,63.6956189356072,65.5640252866804,61.9886798000588,58.3287562481623,60.1817847691855,56.606439282564,53.0080270508674,54.8764334019406,51.4292364990689,47.7949426639224,49.6864157600706,46.2520337155739,42.6741252572773,44.5348426933255,41.1260903655788,39.4601587768304,33.555072037636,35.5080564539841,31.7456140350877,30.0489267862394,27.5679702048417,22.8411181585248,20.0994707438989,18.096365992573,15.9935901205528,13.9483387239047,11.6877977065569,9.52464961285898,7.72416201117319,5.96211898461237,3.86048221111439,2.03436489267862,0.875785196867241,0.498329368367592,0.379500681617714],
      "range": 100
    }
  },
  {
    "model": "Antlia LRGB-V Pro Astronomy Filters",
    "name": "Antlia G",
    "type": "MONO_FILTER",
    "dataQualityMarker": 2,
    "dataSource": "Scanned from Transmission Chart",
    "manufacturer": "Antlia Pro Series",
    "version": 1,
    "channel": "GREEN",
    "wavelength": { 
       "value":   [480.74,484.67,487.21,487.96,488.72,489.37,489.65,489.74,490.07,490.46,490.79,490.86,491.21,491.28,491.42,491.7,491.76,491.99,492.06,492.15,492.48,492.6,492.63,492.9,492.99,493.11,493.32,493.41,493.74,493.83,494.17,494.26,494.38,494.59,494.68,495.01,495.08,495.22,495.43,495.64,495.99,498.05,502.94,507.45,512.09,516.73,521.37,526.01,530.65,535.29,539.93,544.57,549.21,553.85,557.65,558.91,559.41,559.88,560.26,560.43,560.69,560.81,561.14,561.53,561.7,561.87,561.95,562.08,562.29,562.37,562.5,562.79,562.92,563.22,563.34,563.64,563.85,564.06,564.19,564.54,564.61,564.65,564.9,564.99,565.45,565.87,566.17,566.67,566.72,567.21,567.63,568.33,568.83,569.46,570.23,571.57,574.05,578.32,582.75],
       "units": "nm"
    },
    "values": {
      "value":[0.571335228200866,1.31459701395015,3.34422648800773,5.25986474566305,7.397383122611,9.92374091653716,12.1952660982064,15.8551896501029,14.1174948544546,17.2282101902802,19.7188694501617,21.8115358227972,23.9669950014702,25.9020386160933,28.1574536900912,32.0019112025875,29.5568362246398,34.1035479760855,39.9983828285798,37.7136766497249,43.1508379888268,41.2778182887386,45.3586550174319,49.0328579829462,51.3120720796404,53.8025482701166,56.9524404586886,59.2694888991566,63.3342399294325,65.6793590120553,69.8698177006763,72.2039526189776,74.7522787415466,76.1362834460453,78.4429579535431,84.3890522395374,80.9802999117907,86.5163187297854,87.6888782710967,89.8719809299786,92.4367832990297,94.3051373445585,94.5051014407527,94.6665686562776,94.7085081927775,95.0859640212772,94.8413167250274,94.6106492742776,94.4149314372778,94.4498810510278,94.5127903557777,94.7993771885274,94.9741252572773,94.7224880382775,93.8537404964926,91.9139370773302,89.5406253062825,86.8568278237493,82.1797706556895,84.1327550720376,78.519847103793,80.2882975595413,75.9605368169026,71.1692443399,73.3990296971479,69.5238165245516,65.986915613055,67.8322552190532,64.2953543075566,60.75845339606,62.6806821523081,56.3603940017642,58.6141004279787,50.0247280211703,53.9153190238165,45.042311084975,47.3138362666443,41.1363422522787,42.997059688327,35.5644418308341,36.9612613937077,38.829667744781,31.6635989414878,33.601205527786,28.8846969028717,25.6297228756248,22.8279371613391,20.6530726256983,18.7769773596001,16.6112662942272,14.0995540527296,11.7031755366069,9.72327991767128,7.99711849456043,6.01337841811233,4.10396452023916,2.16037766669935,0.889765042367216,0.64651573066746],
      "range": 100
    }
  },
  {
    "model": "Antlia LRGB-V Pro Astronomy Filters",
    "name": "Antlia B",
    "type": "MONO_FILTER",
    "dataQualityMarker": 2,
    "dataSource": "Scanned from Transmission Chart",
    "manufacturer": "Antlia Pro Series",
    "version": 1,
    "channel": "BLUE",
    "wavelength": { 
       "value":   [412.12,416.76,421.63,424.28,425.2,426.04,426.46,426.89,427.07,427.4,427.73,427.82,427.87,428.31,428.36,428.67,428.78,429.05,429.21,429.51,429.56,429.84,429.98,430.26,430.4,430.68,430.89,431.1,431.31,431.53,431.74,431.95,432,432.37,432.58,432.79,433,433.31,433.42,433.69,433.85,434.36,434.76,435.8,439.12,443.76,448.4,453.04,457.68,462.32,466.96,471.6,476.24,480.88,485.52,490.16,494.8,499.44,503.23,503.4,503.66,504.08,504.2,504.58,504.8,505.13,505.22,505.34,505.62,505.69,505.85,505.98,506.4,506.47,506.54,506.82,506.89,507.11,507.31,507.66,507.73,507.75,508.08,508.13,508.3,508.58,508.65,508.93,509,509.39,509.42,509.77,509.98,510.4,510.83,511.19,512.09,512.51,513.72,515.41,519.12,523.9,528.54,531.5],
       "units": "nm"
    },
        "values": {
        "value": [0.0160246986180681,0.0160246986180681,0.459615950059956,2.52773694011566,5.85960011761247,7.35893854748603,10.393924172629,18.3156424581006,13.1750535556769,16.4361298964357,25.8507791825934,20.007203763599,22.3651377045967,24.1976624522199,26.8503381358424,29.092463727081,31.0792413995884,32.9245810055866,35.1543663628345,37.5379300205822,39.84460452808,41.9782784475154,44.2016563755758,46.3417377241988,48.5074487895717,50.6240362311738,52.9542046456925,55.1235770991725,57.2215524845634,59.6435607174361,61.834901499559,65.5153288248554,63.4495736548074,67.6304211996472,69.9082622758012,72.2822147897677,74.5985004410468,77.0418667712111,79.4809614819171,81.8453028521023,84.4915711065373,87.4060360398202,90.2198128001568,92.4367832990297,94.2961027505279,94.6525888107776,94.5127903557777,94.5547298922777,94.5896795060276,94.5058004330277,94.6386089652776,94.5687097377777,94.6246291197776,94.5337601240277,94.4149314372778,94.4918205875277,94.6344150116276,94.5407500467777,91.7140252866804,93.85239798752,89.8353670489072,87.7465451337842,85.3410131473936,80.2267862393414,82.6608770529676,75.6365039694208,77.9596547234007,73.9833872390474,69.464013852135,71.6767127315495,64.1415760070568,67.7169214936783,60.1048956189356,58.1057777124375,62.1937175340586,56.3757718318142,51.2498284818191,46.7646280505734,49.0456728413212,42.3050573360776,40.4725325884544,44.6337001722183,36.5768156424581,38.4298441634813,34.8929432519847,30.425683622464,32.6042095462119,28.5418994413408,26.5940409683427,24.5897971184946,22.5445457218465,20.7376506909733,19.0606128916332,16.4991362834461,13.9483387239047,11.6702230436426,8.79099897089093,6.59773596001176,4.57445289200656,2.58220008820936,0.789126797440531,0.35853091336773,0.120873539867958,0.0929138488679939],
        "range": 100
      }
  },
  {
    "model": "Antlia LRGB-V Pro Astronomy Filters",
    "name": "Antlia L",
    "type": "MONO_FILTER",
    "dataQualityMarker": 2,
    "dataSource": "Scanned from Transmission Chart",
    "manufacturer": "Antlia Pro Series",
    "version": 1,
    "channel": "LUM",
    "wavelength": { 
       "value":   [366.14,370.78,375.42,380.06,384.70,389.34,393.98,396.94,398.62,403.26,407.90,412.54,417.18,421.21,422.67,423.30,423.86,424.43,424.52,425.20,425.71,426.04,426.18,426.46,426.60,426.77,427.03,427.31,427.52,427.73,427.94,428.15,428.36,428.57,428.85,429.21,429.28,429.63,429.84,430.26,430.54,430.68,430.98,431.39,431.67,431.83,432.25,432.72,433.28,433.63,434.48,436.17,440.12,441.68,446.29,450.93,455.57,460.21,464.22,468.22,472.86,476.87,480.88,485.52,489.53,493.53,497.75,501.97,506.61,511.25,515.89,520.53,525.17,529.81,534.45,539.09,543.73,548.37,553.01,557.65,562.29,566.93,571.57,576.21,580.85,585.49,590.13,594.77,599.41,604.05,608.69,613.33,617.97,622.61,627.25,631.89,636.53,641.17,645.81,650.45,655.09,659.73,664.37,669.01,673.65,678.29,682.93,687.57,692.21,694.74,695.72,696.09,696.73,697.18,697.48,697.77,697.90,698.20,698.32,698.83,698.96,699.03,699.46,699.68,699.88,700.14,700.31,700.43,700.73,700.98,701.28,701.57,701.70,701.99,702.21,702.51,702.84,702.92,703.38,703.68,704.10,704.23,704.51,705.28,705.63,706.34,706.90,707.74,708.73,710.45,713.93,718.36,723.00,727.64,732.28,736.92,741.56,746.20,750.84,755.48,760.12,764.76,769.40,774.04,778.68,783.32,787.96,790.49],
       "units": "nm"
    },
    "values": {
      "value": [0.400470449867697,0.379500681617714,0.400470449867697,0.400470449867697,0.400470449867697,0.400470449867697,0.400470449867697,0.0,0.400470449867697,0.400470449867697,0.400470449867697,0.400470449867697,0.456389831867639,1.42565911986671,3.47603645986476,5.26370920317554,7.30767911398608,9.74506517690875,12.0722434578065,20.6223169655984,18.8282367931001,22.5061011467216,24.6718122120945,26.9368384298736,29.1313829265902,31.2286260343597,33.3602861903362,35.6637569832402,38.0377094972067,40.4933567333137,42.6126139370773,44.515620405763,46.8030726256983,51.6855336665687,53.428354405567,55.5492134666275,57.631627952563,59.7588944428109,64.0390571400569,72.5993825345487,68.2423306870528,70.5425977653631,74.0053555676902,77.9303636185436,79.9038518082917,82.0040240265468,84.9675515604654,87.6440262667843,90.1813682250319,92.4917041206368,94.8587915319024,96.8524173562398,97.6061000158325,96.2569832402235,98.0916308037743,97.0990617732752,96.5398679532758,98.1195904947743,97.2327440458689,96.316190425276,98.2174494132742,97.4057446339312,96.5049183395258,98.1894897222742,97.5499117906498,96.337160193526,97.7165049495247,98.0986207265243,96.8124749405255,97.4625377562749,98.0007618080244,97.1549811552752,97.6512656705247,98.1964796450242,97.1200315415252,97.0361524685253,98.2104594905242,98.2314292587742,97.4345780652749,97.9029028895245,98.6648044692738,98.0147416535244,97.0641121595253,97.5464168292748,98.5180160915239,98.2454091042742,97.2947796102751,97.2039106145251,98.1964796450242,98.7486835422737,98.1824997995242,97.4066183742749,97.5534067520248,98.1475501857742,98.5040362460239,98.2593889497741,97.8749431985245,97.8469835075245,98.0986207265243,98.3362781000241,97.9867819625244,98.0287214990244,97.7351447435246,97.9797920397744,97.8469835075245,97.7700943572746,97.9937718852744,97.1759509235252,96.260271043276,94.1027148877781,91.9370038224052,89.8686856806822,87.5378460116772,85.1323140252867,82.7551577967265,79.0580711555425,80.8265216112908,75.4596589238459,77.2511761246692,73.0826857646911,70.7079094384005,68.2679604038028,63.2189062040576,65.6793590120553,59.4052043516613,61.4145741448594,54.0053891712522,57.4906645104381,49.9632167009703,51.9623346074684,48.225521905322,41.2388611192786,43.1123934137019,36.5076154072332,38.8340614105095,34.0669340950141,29.6337253748898,31.6543722434578,27.1771170244046,24.5129079682446,20.976007056748,22.7752131725963,18.90512594335,16.258857688915,13.676663726355,11.7800646868568,9.80657649710869,7.79464373223563,5.69300695873763,3.63942590414585,1.68451925904147,0.694047205367411,0.477359600117623,0.400470449867697,0.400470449867697,0.400470449867697,0.400470449867697,0.400470449867697,0.400470449867697,0.386490604367708,0.372510758867733,0.393480527117703,0.400470449867697,0.400470449867697,0.400470449867697,0.400470449867697,0.400470449867697,0.400470449867697],
      "range": 100
  }
}
]
