[
  {
    "model": "Sa",
    "name": "Galaxy, spiral, Sa",
    "type": "WB_REF",
    "dataQualityMarker": 3,
    "dataSource": "http://www.iasf-milano.inaf.it/~polletta/templates/swire_templates.html",
    "manufacturer": "SWIRE Template Library",
    "version": 1,
    "wavelength": { 
       "value": [1005,1015,1025,1035,1045,1055,1065,1075,1085,1095,1105,1115,1125,1135,1145,1155,1165,1175,1185,1195,1205,1215,1225,1235,1245,1255,1265,1275,1285,1295,1305,1315,1325,1335,1345,1355,1365,1375,1385,1395,1405,1415,1425,1435,1442,1447,1455,1465,1475,1485,1495,1505,1512,1517,1525,1535,1545,1555,1565,1575,1585,1595,1605,1615,1625,1635,1645,1655,1665,1672,1677,1685,1695,1705,1715,1725,1735,1745,1755,1765,1775,1785,1795,1805,1815,1825,1835,1845,1855,1865,1875,1885,1895,1905,1915,1925,1935,1945,1955,1967,1976,1984,1995,2005,2015,2025,2035,2045,2055,2065,2074,2078,2085,2095,2105,2115,2125,2135,2145,2155,2165,2175,2185,2195,2205,2215,2225,2235,2245,2255,2265,2275,2285,2295,2305,2315,2325,2335,2345,2355,2365,2375,2385,2395,2405,2415,2425,2435,2445,2455,2465,2475,2485,2495,2505,2513,2518,2525,2535,2545,2555,2565,2575,2585,2595,2605,2615,2625,2635,2645,2655,2665,2675,2685,2695,2705,2715,2725,2735,2745,2755,2765,2775,2785,2795,2805,2815,2825,2835,2845,2855,2865,2875,2885,2895,2910,2930,2950,2970,2990,3010,3030,3050,3070,3090,3110,3130,3150,3170,3190,3210,3230,3250,3270,3290,3310,3330,3350,3370,3390,3410,3430,3450,3470,3490,3510,3530,3550,3570,3590,3610,3630,3640,3650,3670,3690,3710,3730,3750,3770,3790,3810,3830,3850,3870,3890,3910,3930,3950,3970,3990,4010,4030,4050,4070,4090,4110,4130,4150,4170,4190,4210,4230,4250,4270,4290,4310,4330,4350,4370,4390,4410,4430,4450,4470,4490,4510,4530,4550,4570,4590,4610,4630,4650,4670,4690,4710,4730,4750,4770,4790,4810,4830,4850,4870,4890,4910,4930,4950,4970,4990,5010,5030,5050,5070,5090,5110,5130,5150,5170,5190,5210,5230,5250,5270,5290,5310,5330,5350,5370,5390,5410,5430,5450,5470,5490,5510,5530,5550,5570,5590,5610,5630,5650,5670,5690,5710,5730,5750,5770,5790,5810,5830,5850,5870,5890,5910,5930,5950,5970,5990,6010,6030,6050,6070,6090,6110,6130,6150,6170,6190,6210,6230,6250,6270,6290,6310,6330,6350,6370,6390,6410,6430,6450,6470,6490,6510,6530,6550,6570,6590,6610,6630,6650,6670,6690,6710,6730,6750,6770,6790,6810,6830,6850,6870,6890,6910,6930,6950,6970,6990,7010,7030,7050,7070,7090,7110,7130,7150,7170,7190,7210,7230,7250,7270,7290,7310,7330,7350,7370,7390,7410,7430,7450,7470,7490,7510,7530,7550,7570,7590,7610,7630,7650,7670,7690,7710,7730,7750,7770,7790,7810,7830,7850,7870,7890,7910,7930,7950,7970,7990,8010,8030,8050,8070,8090,8110,8130,8150,8170,8190,8210,8230,8250,8270,8290,8310,8330,8350,8370,8390,8410,8430,8450,8470,8490,8510,8530,8550,8570,8590,8610,8630,8650,8670,8690,8710,8730,8750,8770,8790,8810,8830,8850,8870,8890,8910,8930,8950,8970,8990,9010,9030,9050,9070,9090,9110,9130,9150,9170,9190,9210,9230,9250,9270,9290,9310,9330,9350,9370,9390,9410,9430,9450,9470,9490,9510,9530,9550,9570,9590,9610,9630,9650,9670,9690,9710,9730,9750,9770,9790,9810,9830,9850,9870,9890,9910,9930,9950,9970,9990,10030,10070,10130,10170,10220,10280,10320,10380,10430,10480,10520,10580,10630,10680,10720,10780,10820,10870,10920,10980,11020,11080,11130,11170,11220,11280,11330,11380,11430,11470,11530,11570,11620,11670,11730,11770,11830,11870,11920,11980,12030,12070,12120,12180,12230,12270,12320,12370,12430,12480,12530,12580,12620,12670,12720,12780,12830,12880,12920,12980,13020,13080,13130,13180,13230,13280,13320,13380,13430,13470,13520,13570,13630,13670,13730,13770,13820,13880,13930,13970,14020,14080,14120,14180,14230,14280,14330,14380,14420,14480,14520,14570,14620,14670,14720,14770,14830,14880,14920,14980,15030,15070,15120,15170,15220,15280,15330,15370,15430,15480,15520,15570,15620,15670,15720,15780,15830,15870,15930,15980,16050,16150,16250,16350,16450,16550,16650,16750,16850,16950,17050,17150,17250,17350,17450,17550,17650,17750,17850,17950,18050,18150,18250,18350,18450,18550,18650,18750,18850,18950,19050,19150,19250,19350,19450,19550,19650,19750,19850,19950,20050,20150,20250,20350,20450,20550,20650,20750,20850,20950,21050,21150,21250,21350,21450,21550,21650,21750,21850,21950,22050,22150,22250,22350,22450,22550,22650,22750,22850,22950,23050,23150,23250,23350,23450,23550,23650,23750,23850,23950,24050,24150,24250,24350,24450,24550,24650,24750,24850,24950,25050],
       "units": "angstrom"
    },
    "values": {
      "value": [0.124965,0.11815,0.0641097,0.0847702,0.146384,0.150625,0.123643,0.14249,0.112587,0.144576,0.149513,0.144714,0.139777,0.167176,0.151321,0.164047,0.172184,0.137274,0.1605,0.0892906,0.0747564,0.0498886,0.0913767,0.162447,0.190821,0.179832,0.135675,0.207649,0.225382,0.175799,0.159666,0.211891,0.20744,0.171906,0.22267,0.213281,0.185396,0.203824,0.206814,0.196731,0.198123,0.188247,0.198053,0.188804,0.203198,0.211473,0.20285,0.184979,0.180041,0.187203,0.193741,0.185048,0.162726,0.177815,0.162795,0.141308,0.167802,0.153685,0.149304,0.157649,0.168567,0.173434,0.165508,0.166272,0.152921,0.161822,0.164951,0.145828,0.162935,0.134631,0.160639,0.173574,0.160848,0.151251,0.142281,0.14082,0.150834,0.147356,0.161127,0.140194,0.149095,0.149999,0.163351,0.159179,0.148678,0.14847,0.141099,0.128581,0.128929,0.13331,0.144854,0.134631,0.131154,0.134492,0.13178,0.130389,0.129972,0.136996,0.130111,0.142351,0.144576,0.136926,0.131641,0.133379,0.126704,0.132267,0.127468,0.133588,0.126355,0.12566,0.134979,0.135396,0.140055,0.131571,0.129206,0.131224,0.13178,0.118081,0.127537,0.131015,0.123296,0.121557,0.123087,0.128998,0.123504,0.112795,0.110501,0.124825,0.115924,0.106814,0.108067,0.113073,0.121279,0.112309,0.113283,0.105006,0.0794156,0.0929067,0.0851179,0.101182,0.0849094,0.091168,0.0785117,0.0874825,0.0833796,0.0869956,0.100834,0.0971485,0.106885,0.105981,0.101808,0.095271,0.0915854,0.0909595,0.107163,0.0846313,0.084353,0.0803892,0.0874825,0.0867869,0.107718,0.0967313,0.109528,0.104589,0.100487,0.0936021,0.0903336,0.101808,0.124896,0.149235,0.179832,0.133518,0.145619,0.156676,0.129763,0.147217,0.121974,0.109736,0.125729,0.0930457,0.104728,0.119958,0.127051,0.10139,0.0673572,0.0755214,0.119611,0.144646,0.135675,0.113004,0.0927674,0.135257,0.162378,0.154798,0.176634,0.225244,0.200903,0.18783,0.193046,0.195132,0.194366,0.205145,0.210291,0.227537,0.222531,0.252156,0.234979,0.237273,0.25591,0.224826,0.243949,0.212169,0.282613,0.323852,0.318984,0.298609,0.306815,0.296314,0.230389,0.255562,0.261265,0.273087,0.283935,0.292489,0.326356,0.347565,0.313212,0.357441,0.250001,0.254798,0.315507,0.33338,0.347148,0.391584,0.415994,0.36954,0.390402,0.269888,0.314255,0.398539,0.421,0.406536,0.250208,0.340611,0.347913,0.376285,0.485534,0.271904,0.423017,0.28164,0.600486,0.665368,0.65584,0.630248,0.591445,0.703059,0.646244,0.655006,0.645061,0.65431,0.641236,0.648051,0.612238,0.654729,0.615506,0.580944,0.509387,0.700277,0.69228,0.776078,0.688523,0.726702,0.780944,0.789288,0.84353,0.863699,0.986785,0.855352,0.897077,0.97079,0.917245,0.940193,0.916549,0.928371,0.971485,0.954796,0.921417,0.9541,0.984698,0.96801,0.971485,0.971485,1.00487,0.940193,0.854658,0.965227,0.967313,0.945062,0.98748,0.964532,0.894295,0.840054,0.897773,0.89221,0.932544,0.87691,0.90264,0.867175,0.829622,0.757302,0.787898,0.863002,0.940193,0.98748,0.860917,1.00208,1.07093,0.928371,1.02642,1.01808,0.993737,0.977049,0.992348,1.02086,0.999305,1.00765,0.992348,1.03407,1.05006,1.02573,0.996526,1.03616,1.0292,1.04798,1.01947,1.05563,1.01599,1.11057,1.06536,1.07649,1.0292,1.07718,1.11196,1.07232,1.06954,0.931153,1.04867,1.05911,1.05911,1.07997,1.0605,1.04589,1.07718,1.09875,1.09597,1.05285,1.05841,0.993737,1.02503,0.96036,1.0292,1.01808,0.982612,0.949927,0.99861,1.02016,0.991653,1.00765,1.00973,1.00416,1.02642,1.00556,1.01599,1.00765,1.00556,0.984698,1.02434,1.02364,0.996526,0.942278,1.00625,1.01599,1.00416,1.00347,0.977049,0.990959,0.947842,0.975658,0.956882,0.962446,0.949233,0.956187,0.969399,0.941584,0.959665,0.974962,0.973572,0.965227,0.966618,0.98122,0.977049,0.963838,0.986785,0.990959,0.954796,0.920027,0.894295,0.872737,0.869261,0.882473,0.860222,0.882473,0.906812,0.914464,0.922806,0.910986,0.941584,0.945757,0.958272,0.986785,0.967313,0.968705,0.996526,0.995127,1.01529,1.0139,1.02573,1.04589,1.05424,1.05006,1.02364,1.00069,0.973572,0.948537,0.896382,0.920723,0.901945,0.904726,0.898467,0.910986,0.920027,0.91933,0.91168,0.898467,0.915854,0.904031,0.881777,0.886646,0.880388,0.912378,0.913767,0.925588,0.930457,0.931847,0.947842,0.940889,0.953405,0.98609,1.00069,1.01251,0.977049,0.963141,0.969399,0.967313,0.977049,0.965227,0.92976,0.922112,0.921417,0.927674,0.892906,0.925588,0.87552,0.851875,0.853266,0.859525,0.822668,0.859525,0.794852,0.889429,0.879692,0.891515,0.91168,0.913767,0.82545,0.892906,0.929067,0.938106,0.92976,0.948537,0.962446,0.94367,0.9541,0.95132,0.91029,0.922806,0.935325,0.91794,0.920723,0.925588,0.92698,0.898467,0.936021,0.968705,0.97079,0.95271,0.965923,0.984004,0.977049,0.976355,0.98748,0.945757,0.917245,0.913767,0.920027,0.905422,0.91168,0.914464,0.91029,0.893601,0.912378,0.894991,0.920027,0.906118,0.92976,0.931847,0.913073,0.920027,0.903336,0.913767,0.932544,0.918636,0.925588,0.906118,0.907508,0.923503,0.906812,0.897077,0.894295,0.89986,0.885257,0.91029,0.89986,0.907508,0.90125,0.89986,0.889429,0.896382,0.899164,0.89986,0.897077,0.896382,0.885257,0.895687,0.885257,0.888036,0.890124,0.879692,0.872737,0.87691,0.863002,0.853962,0.835186,0.826841,0.819191,0.824754,0.818497,0.805978,0.803197,0.801807,0.790679,0.784422,0.770512,0.767731,0.762167,0.762167,0.751737,0.750345,0.744087,0.735742,0.745479,0.742002,0.733657,0.721138,0.720443,0.72253,0.705145,0.697495,0.684769,0.694992,0.671418,0.684282,0.67851,0.678998,0.680041,0.675381,0.670097,0.664671,0.662863,0.651667,0.649443,0.642837,0.640541,0.636299,0.630248,0.630179,0.629762,0.60883,0.618079,0.610639,0.616479,0.608274,0.609526,0.594923,0.593253,0.592766,0.58164,0.580527,0.573574,0.575103,0.569748,0.564673,0.556605,0.553267,0.55591,0.557022,0.555423,0.555701,0.549929,0.523643,0.51961,0.514324,0.518079,0.511126,0.516063,0.510986,0.502363,0.510708,0.515089,0.502711,0.510916,0.506953,0.509317,0.497634,0.494087,0.490055,0.493184,0.495826,0.489985,0.503199,0.498677,0.490403,0.492489,0.501876,0.503545,0.503337,0.506396,0.505353,0.504102,0.500069,0.501112,0.496521,0.483587,0.487482,0.485673,0.496173,0.466133,0.467801,0.467176,0.481362,0.472113,0.474686,0.481919,0.468219,0.481501,0.462865,0.472669,0.461752,0.45897,0.451807,0.452433,0.443045,0.435814,0.426564,0.414185,0.408275,0.39986,0.391166,0.380041,0.373295,0.363351,0.353407,0.346801,0.341863,0.337134,0.328094,0.324339,0.315924,0.308065,0.307649,0.296592,0.300069,0.294784,0.290959,0.28317,0.276356,0.274826,0.270166,0.262933,0.260222,0.257232,0.25591,0.252295,0.246871,0.244575,0.243741,0.239846,0.237065,0.235187,0.231988,0.227955,0.228094,0.223991,0.221558,0.220932,0.217942,0.214812,0.211334,0.208414,0.206467,0.204103,0.199096,0.199374,0.194715,0.19249,0.190125,0.188039,0.183936,0.183588,0.179207,0.152642,0.161822,0.160987,0.138943,0.148191,0.142698,0.128094,0.137274,0.132059,0.120306,0.127051,0.124339,0.114187,0.118498,0.115438,0.109318,0.107163,0.108136,0.103338,0.0940194,0.0931849,0.0943671],
      "range": 1
    }
  }
]
