[
  {
    "model":"Star, type A3(v)",
    "name":"Star, type A3(v)",
    "type":"WB_REF",
    "dataQualityMarker":3,
    "dataSource":"https://www.eso.org/sci/facilities/paranal/decommissioned/isaac/tools/lib.html",
    "manufacturer":"A. Pickles (A.J. Pickles, PASP 110,863, 1998)",
    "version":1,
    "wavelength":{
      "value":[
        1150.0,
        1155.0,
        1160.0,
        1165.0,
        1170.0,
        1175.0,
        1180.0,
        1185.0,
        1190.0,
        1195.0,
        1200.0,
        1205.0,
        1210.0,
        1215.0,
        1220.0,
        1225.0,
        1230.0,
        1235.0,
        1240.0,
        1245.0,
        1250.0,
        1255.0,
        1260.0,
        1265.0,
        1270.0,
        1275.0,
        1280.0,
        1285.0,
        1290.0,
        1295.0,
        1300.0,
        1305.0,
        1310.0,
        1315.0,
        1320.0,
        1325.0,
        1330.0,
        1335.0,
        1340.0,
        1345.0,
        1350.0,
        1355.0,
        1360.0,
        1365.0,
        1370.0,
        1375.0,
        1380.0,
        1385.0,
        1390.0,
        1395.0,
        1400.0,
        1405.0,
        1410.0,
        1415.0,
        1420.0,
        1425.0,
        1430.0,
        1435.0,
        1440.0,
        1445.0,
        1450.0,
        1455.0,
        1460.0,
        1465.0,
        1470.0,
        1475.0,
        1480.0,
        1485.0,
        1490.0,
        1495.0,
        1500.0,
        1505.0,
        1510.0,
        1515.0,
        1520.0,
        1525.0,
        1530.0,
        1535.0,
        1540.0,
        1545.0,
        1550.0,
        1555.0,
        1560.0,
        1565.0,
        1570.0,
        1575.0,
        1580.0,
        1585.0,
        1590.0,
        1595.0,
        1600.0,
        1605.0,
        1610.0,
        1615.0,
        1620.0,
        1625.0,
        1630.0,
        1635.0,
        1640.0,
        1645.0,
        1650.0,
        1655.0,
        1660.0,
        1665.0,
        1670.0,
        1675.0,
        1680.0,
        1685.0,
        1690.0,
        1695.0,
        1700.0,
        1705.0,
        1710.0,
        1715.0,
        1720.0,
        1725.0,
        1730.0,
        1735.0,
        1740.0,
        1745.0,
        1750.0,
        1755.0,
        1760.0,
        1765.0,
        1770.0,
        1775.0,
        1780.0,
        1785.0,
        1790.0,
        1795.0,
        1800.0,
        1805.0,
        1810.0,
        1815.0,
        1820.0,
        1825.0,
        1830.0,
        1835.0,
        1840.0,
        1845.0,
        1850.0,
        1855.0,
        1860.0,
        1865.0,
        1870.0,
        1875.0,
        1880.0,
        1885.0,
        1890.0,
        1895.0,
        1900.0,
        1905.0,
        1910.0,
        1915.0,
        1920.0,
        1925.0,
        1930.0,
        1935.0,
        1940.0,
        1945.0,
        1950.0,
        1955.0,
        1960.0,
        1965.0,
        1970.0,
        1975.0,
        1980.0,
        1985.0,
        1990.0,
        1995.0,
        2000.0,
        2005.0,
        2010.0,
        2015.0,
        2020.0,
        2025.0,
        2030.0,
        2035.0,
        2040.0,
        2045.0,
        2050.0,
        2055.0,
        2060.0,
        2065.0,
        2070.0,
        2075.0,
        2080.0,
        2085.0,
        2090.0,
        2095.0,
        2100.0,
        2105.0,
        2110.0,
        2115.0,
        2120.0,
        2125.0,
        2130.0,
        2135.0,
        2140.0,
        2145.0,
        2150.0,
        2155.0,
        2160.0,
        2165.0,
        2170.0,
        2175.0,
        2180.0,
        2185.0,
        2190.0,
        2195.0,
        2200.0,
        2205.0,
        2210.0,
        2215.0,
        2220.0,
        2225.0,
        2230.0,
        2235.0,
        2240.0,
        2245.0,
        2250.0,
        2255.0,
        2260.0,
        2265.0,
        2270.0,
        2275.0,
        2280.0,
        2285.0,
        2290.0,
        2295.0,
        2300.0,
        2305.0,
        2310.0,
        2315.0,
        2320.0,
        2325.0,
        2330.0,
        2335.0,
        2340.0,
        2345.0,
        2350.0,
        2355.0,
        2360.0,
        2365.0,
        2370.0,
        2375.0,
        2380.0,
        2385.0,
        2390.0,
        2395.0,
        2400.0,
        2405.0,
        2410.0,
        2415.0,
        2420.0,
        2425.0,
        2430.0,
        2435.0,
        2440.0,
        2445.0,
        2450.0,
        2455.0,
        2460.0,
        2465.0,
        2470.0,
        2475.0,
        2480.0,
        2485.0,
        2490.0,
        2495.0,
        2500.0,
        2505.0,
        2510.0,
        2515.0,
        2520.0,
        2525.0,
        2530.0,
        2535.0,
        2540.0,
        2545.0,
        2550.0,
        2555.0,
        2560.0,
        2565.0,
        2570.0,
        2575.0,
        2580.0,
        2585.0,
        2590.0,
        2595.0,
        2600.0,
        2605.0,
        2610.0,
        2615.0,
        2620.0,
        2625.0,
        2630.0,
        2635.0,
        2640.0,
        2645.0,
        2650.0,
        2655.0,
        2660.0,
        2665.0,
        2670.0,
        2675.0,
        2680.0,
        2685.0,
        2690.0,
        2695.0,
        2700.0,
        2705.0,
        2710.0,
        2715.0,
        2720.0,
        2725.0,
        2730.0,
        2735.0,
        2740.0,
        2745.0,
        2750.0,
        2755.0,
        2760.0,
        2765.0,
        2770.0,
        2775.0,
        2780.0,
        2785.0,
        2790.0,
        2795.0,
        2800.0,
        2805.0,
        2810.0,
        2815.0,
        2820.0,
        2825.0,
        2830.0,
        2835.0,
        2840.0,
        2845.0,
        2850.0,
        2855.0,
        2860.0,
        2865.0,
        2870.0,
        2875.0,
        2880.0,
        2885.0,
        2890.0,
        2895.0,
        2900.0,
        2905.0,
        2910.0,
        2915.0,
        2920.0,
        2925.0,
        2930.0,
        2935.0,
        2940.0,
        2945.0,
        2950.0,
        2955.0,
        2960.0,
        2965.0,
        2970.0,
        2975.0,
        2980.0,
        2985.0,
        2990.0,
        2995.0,
        3000.0,
        3005.0,
        3010.0,
        3015.0,
        3020.0,
        3025.0,
        3030.0,
        3035.0,
        3040.0,
        3045.0,
        3050.0,
        3055.0,
        3060.0,
        3065.0,
        3070.0,
        3075.0,
        3080.0,
        3085.0,
        3090.0,
        3095.0,
        3100.0,
        3105.0,
        3110.0,
        3115.0,
        3120.0,
        3125.0,
        3130.0,
        3135.0,
        3140.0,
        3145.0,
        3150.0,
        3155.0,
        3160.0,
        3165.0,
        3170.0,
        3175.0,
        3180.0,
        3185.0,
        3190.0,
        3195.0,
        3200.0,
        3205.0,
        3210.0,
        3215.0,
        3220.0,
        3225.0,
        3230.0,
        3235.0,
        3240.0,
        3245.0,
        3250.0,
        3255.0,
        3260.0,
        3265.0,
        3270.0,
        3275.0,
        3280.0,
        3285.0,
        3290.0,
        3295.0,
        3300.0,
        3305.0,
        3310.0,
        3315.0,
        3320.0,
        3325.0,
        3330.0,
        3335.0,
        3340.0,
        3345.0,
        3350.0,
        3355.0,
        3360.0,
        3365.0,
        3370.0,
        3375.0,
        3380.0,
        3385.0,
        3390.0,
        3395.0,
        3400.0,
        3405.0,
        3410.0,
        3415.0,
        3420.0,
        3425.0,
        3430.0,
        3435.0,
        3440.0,
        3445.0,
        3450.0,
        3455.0,
        3460.0,
        3465.0,
        3470.0,
        3475.0,
        3480.0,
        3485.0,
        3490.0,
        3495.0,
        3500.0,
        3505.0,
        3510.0,
        3515.0,
        3520.0,
        3525.0,
        3530.0,
        3535.0,
        3540.0,
        3545.0,
        3550.0,
        3555.0,
        3560.0,
        3565.0,
        3570.0,
        3575.0,
        3580.0,
        3585.0,
        3590.0,
        3595.0,
        3600.0,
        3605.0,
        3610.0,
        3615.0,
        3620.0,
        3625.0,
        3630.0,
        3635.0,
        3640.0,
        3645.0,
        3650.0,
        3655.0,
        3660.0,
        3665.0,
        3670.0,
        3675.0,
        3680.0,
        3685.0,
        3690.0,
        3695.0,
        3700.0,
        3705.0,
        3710.0,
        3715.0,
        3720.0,
        3725.0,
        3730.0,
        3735.0,
        3740.0,
        3745.0,
        3750.0,
        3755.0,
        3760.0,
        3765.0,
        3770.0,
        3775.0,
        3780.0,
        3785.0,
        3790.0,
        3795.0,
        3800.0,
        3805.0,
        3810.0,
        3815.0,
        3820.0,
        3825.0,
        3830.0,
        3835.0,
        3840.0,
        3845.0,
        3850.0,
        3855.0,
        3860.0,
        3865.0,
        3870.0,
        3875.0,
        3880.0,
        3885.0,
        3890.0,
        3895.0,
        3900.0,
        3905.0,
        3910.0,
        3915.0,
        3920.0,
        3925.0,
        3930.0,
        3935.0,
        3940.0,
        3945.0,
        3950.0,
        3955.0,
        3960.0,
        3965.0,
        3970.0,
        3975.0,
        3980.0,
        3985.0,
        3990.0,
        3995.0,
        4000.0,
        4005.0,
        4010.0,
        4015.0,
        4020.0,
        4025.0,
        4030.0,
        4035.0,
        4040.0,
        4045.0,
        4050.0,
        4055.0,
        4060.0,
        4065.0,
        4070.0,
        4075.0,
        4080.0,
        4085.0,
        4090.0,
        4095.0,
        4100.0,
        4105.0,
        4110.0,
        4115.0,
        4120.0,
        4125.0,
        4130.0,
        4135.0,
        4140.0,
        4145.0,
        4150.0,
        4155.0,
        4160.0,
        4165.0,
        4170.0,
        4175.0,
        4180.0,
        4185.0,
        4190.0,
        4195.0,
        4200.0,
        4205.0,
        4210.0,
        4215.0,
        4220.0,
        4225.0,
        4230.0,
        4235.0,
        4240.0,
        4245.0,
        4250.0,
        4255.0,
        4260.0,
        4265.0,
        4270.0,
        4275.0,
        4280.0,
        4285.0,
        4290.0,
        4295.0,
        4300.0,
        4305.0,
        4310.0,
        4315.0,
        4320.0,
        4325.0,
        4330.0,
        4335.0,
        4340.0,
        4345.0,
        4350.0,
        4355.0,
        4360.0,
        4365.0,
        4370.0,
        4375.0,
        4380.0,
        4385.0,
        4390.0,
        4395.0,
        4400.0,
        4405.0,
        4410.0,
        4415.0,
        4420.0,
        4425.0,
        4430.0,
        4435.0,
        4440.0,
        4445.0,
        4450.0,
        4455.0,
        4460.0,
        4465.0,
        4470.0,
        4475.0,
        4480.0,
        4485.0,
        4490.0,
        4495.0,
        4500.0,
        4505.0,
        4510.0,
        4515.0,
        4520.0,
        4525.0,
        4530.0,
        4535.0,
        4540.0,
        4545.0,
        4550.0,
        4555.0,
        4560.0,
        4565.0,
        4570.0,
        4575.0,
        4580.0,
        4585.0,
        4590.0,
        4595.0,
        4600.0,
        4605.0,
        4610.0,
        4615.0,
        4620.0,
        4625.0,
        4630.0,
        4635.0,
        4640.0,
        4645.0,
        4650.0,
        4655.0,
        4660.0,
        4665.0,
        4670.0,
        4675.0,
        4680.0,
        4685.0,
        4690.0,
        4695.0,
        4700.0,
        4705.0,
        4710.0,
        4715.0,
        4720.0,
        4725.0,
        4730.0,
        4735.0,
        4740.0,
        4745.0,
        4750.0,
        4755.0,
        4760.0,
        4765.0,
        4770.0,
        4775.0,
        4780.0,
        4785.0,
        4790.0,
        4795.0,
        4800.0,
        4805.0,
        4810.0,
        4815.0,
        4820.0,
        4825.0,
        4830.0,
        4835.0,
        4840.0,
        4845.0,
        4850.0,
        4855.0,
        4860.0,
        4865.0,
        4870.0,
        4875.0,
        4880.0,
        4885.0,
        4890.0,
        4895.0,
        4900.0,
        4905.0,
        4910.0,
        4915.0,
        4920.0,
        4925.0,
        4930.0,
        4935.0,
        4940.0,
        4945.0,
        4950.0,
        4955.0,
        4960.0,
        4965.0,
        4970.0,
        4975.0,
        4980.0,
        4985.0,
        4990.0,
        4995.0,
        5000.0,
        5005.0,
        5010.0,
        5015.0,
        5020.0,
        5025.0,
        5030.0,
        5035.0,
        5040.0,
        5045.0,
        5050.0,
        5055.0,
        5060.0,
        5065.0,
        5070.0,
        5075.0,
        5080.0,
        5085.0,
        5090.0,
        5095.0,
        5100.0,
        5105.0,
        5110.0,
        5115.0,
        5120.0,
        5125.0,
        5130.0,
        5135.0,
        5140.0,
        5145.0,
        5150.0,
        5155.0,
        5160.0,
        5165.0,
        5170.0,
        5175.0,
        5180.0,
        5185.0,
        5190.0,
        5195.0,
        5200.0,
        5205.0,
        5210.0,
        5215.0,
        5220.0,
        5225.0,
        5230.0,
        5235.0,
        5240.0,
        5245.0,
        5250.0,
        5255.0,
        5260.0,
        5265.0,
        5270.0,
        5275.0,
        5280.0,
        5285.0,
        5290.0,
        5295.0,
        5300.0,
        5305.0,
        5310.0,
        5315.0,
        5320.0,
        5325.0,
        5330.0,
        5335.0,
        5340.0,
        5345.0,
        5350.0,
        5355.0,
        5360.0,
        5365.0,
        5370.0,
        5375.0,
        5380.0,
        5385.0,
        5390.0,
        5395.0,
        5400.0,
        5405.0,
        5410.0,
        5415.0,
        5420.0,
        5425.0,
        5430.0,
        5435.0,
        5440.0,
        5445.0,
        5450.0,
        5455.0,
        5460.0,
        5465.0,
        5470.0,
        5475.0,
        5480.0,
        5485.0,
        5490.0,
        5495.0,
        5500.0,
        5505.0,
        5510.0,
        5515.0,
        5520.0,
        5525.0,
        5530.0,
        5535.0,
        5540.0,
        5545.0,
        5550.0,
        5555.0,
        5560.0,
        5565.0,
        5570.0,
        5575.0,
        5580.0,
        5585.0,
        5590.0,
        5595.0,
        5600.0,
        5605.0,
        5610.0,
        5615.0,
        5620.0,
        5625.0,
        5630.0,
        5635.0,
        5640.0,
        5645.0,
        5650.0,
        5655.0,
        5660.0,
        5665.0,
        5670.0,
        5675.0,
        5680.0,
        5685.0,
        5690.0,
        5695.0,
        5700.0,
        5705.0,
        5710.0,
        5715.0,
        5720.0,
        5725.0,
        5730.0,
        5735.0,
        5740.0,
        5745.0,
        5750.0,
        5755.0,
        5760.0,
        5765.0,
        5770.0,
        5775.0,
        5780.0,
        5785.0,
        5790.0,
        5795.0,
        5800.0,
        5805.0,
        5810.0,
        5815.0,
        5820.0,
        5825.0,
        5830.0,
        5835.0,
        5840.0,
        5845.0,
        5850.0,
        5855.0,
        5860.0,
        5865.0,
        5870.0,
        5875.0,
        5880.0,
        5885.0,
        5890.0,
        5895.0,
        5900.0,
        5905.0,
        5910.0,
        5915.0,
        5920.0,
        5925.0,
        5930.0,
        5935.0,
        5940.0,
        5945.0,
        5950.0,
        5955.0,
        5960.0,
        5965.0,
        5970.0,
        5975.0,
        5980.0,
        5985.0,
        5990.0,
        5995.0,
        6000.0,
        6005.0,
        6010.0,
        6015.0,
        6020.0,
        6025.0,
        6030.0,
        6035.0,
        6040.0,
        6045.0,
        6050.0,
        6055.0,
        6060.0,
        6065.0,
        6070.0,
        6075.0,
        6080.0,
        6085.0,
        6090.0,
        6095.0,
        6100.0,
        6105.0,
        6110.0,
        6115.0,
        6120.0,
        6125.0,
        6130.0,
        6135.0,
        6140.0,
        6145.0,
        6150.0,
        6155.0,
        6160.0,
        6165.0,
        6170.0,
        6175.0,
        6180.0,
        6185.0,
        6190.0,
        6195.0,
        6200.0,
        6205.0,
        6210.0,
        6215.0,
        6220.0,
        6225.0,
        6230.0,
        6235.0,
        6240.0,
        6245.0,
        6250.0,
        6255.0,
        6260.0,
        6265.0,
        6270.0,
        6275.0,
        6280.0,
        6285.0,
        6290.0,
        6295.0,
        6300.0,
        6305.0,
        6310.0,
        6315.0,
        6320.0,
        6325.0,
        6330.0,
        6335.0,
        6340.0,
        6345.0,
        6350.0,
        6355.0,
        6360.0,
        6365.0,
        6370.0,
        6375.0,
        6380.0,
        6385.0,
        6390.0,
        6395.0,
        6400.0,
        6405.0,
        6410.0,
        6415.0,
        6420.0,
        6425.0,
        6430.0,
        6435.0,
        6440.0,
        6445.0,
        6450.0,
        6455.0,
        6460.0,
        6465.0,
        6470.0,
        6475.0,
        6480.0,
        6485.0,
        6490.0,
        6495.0,
        6500.0,
        6505.0,
        6510.0,
        6515.0,
        6520.0,
        6525.0,
        6530.0,
        6535.0,
        6540.0,
        6545.0,
        6550.0,
        6555.0,
        6560.0,
        6565.0,
        6570.0,
        6575.0,
        6580.0,
        6585.0,
        6590.0,
        6595.0,
        6600.0,
        6605.0,
        6610.0,
        6615.0,
        6620.0,
        6625.0,
        6630.0,
        6635.0,
        6640.0,
        6645.0,
        6650.0,
        6655.0,
        6660.0,
        6665.0,
        6670.0,
        6675.0,
        6680.0,
        6685.0,
        6690.0,
        6695.0,
        6700.0,
        6705.0,
        6710.0,
        6715.0,
        6720.0,
        6725.0,
        6730.0,
        6735.0,
        6740.0,
        6745.0,
        6750.0,
        6755.0,
        6760.0,
        6765.0,
        6770.0,
        6775.0,
        6780.0,
        6785.0,
        6790.0,
        6795.0,
        6800.0,
        6805.0,
        6810.0,
        6815.0,
        6820.0,
        6825.0,
        6830.0,
        6835.0,
        6840.0,
        6845.0,
        6850.0,
        6855.0,
        6860.0,
        6865.0,
        6870.0,
        6875.0,
        6880.0,
        6885.0,
        6890.0,
        6895.0,
        6900.0,
        6905.0,
        6910.0,
        6915.0,
        6920.0,
        6925.0,
        6930.0,
        6935.0,
        6940.0,
        6945.0,
        6950.0,
        6955.0,
        6960.0,
        6965.0,
        6970.0,
        6975.0,
        6980.0,
        6985.0,
        6990.0,
        6995.0,
        7000.0,
        7005.0,
        7010.0,
        7015.0,
        7020.0,
        7025.0,
        7030.0,
        7035.0,
        7040.0,
        7045.0,
        7050.0,
        7055.0,
        7060.0,
        7065.0,
        7070.0,
        7075.0,
        7080.0,
        7085.0,
        7090.0,
        7095.0,
        7100.0,
        7105.0,
        7110.0,
        7115.0,
        7120.0,
        7125.0,
        7130.0,
        7135.0,
        7140.0,
        7145.0,
        7150.0,
        7155.0,
        7160.0,
        7165.0,
        7170.0,
        7175.0,
        7180.0,
        7185.0,
        7190.0,
        7195.0,
        7200.0,
        7205.0,
        7210.0,
        7215.0,
        7220.0,
        7225.0,
        7230.0,
        7235.0,
        7240.0,
        7245.0,
        7250.0,
        7255.0,
        7260.0,
        7265.0,
        7270.0,
        7275.0,
        7280.0,
        7285.0,
        7290.0,
        7295.0,
        7300.0,
        7305.0,
        7310.0,
        7315.0,
        7320.0,
        7325.0,
        7330.0,
        7335.0,
        7340.0,
        7345.0,
        7350.0,
        7355.0,
        7360.0,
        7365.0,
        7370.0,
        7375.0,
        7380.0,
        7385.0,
        7390.0,
        7395.0,
        7400.0,
        7405.0,
        7410.0,
        7415.0,
        7420.0,
        7425.0,
        7430.0,
        7435.0,
        7440.0,
        7445.0,
        7450.0,
        7455.0,
        7460.0,
        7465.0,
        7470.0,
        7475.0,
        7480.0,
        7485.0,
        7490.0,
        7495.0,
        7500.0,
        7505.0,
        7510.0,
        7515.0,
        7520.0,
        7525.0,
        7530.0,
        7535.0,
        7540.0,
        7545.0,
        7550.0,
        7555.0,
        7560.0,
        7565.0,
        7570.0,
        7575.0,
        7580.0,
        7585.0,
        7590.0,
        7595.0,
        7600.0,
        7605.0,
        7610.0,
        7615.0,
        7620.0,
        7625.0,
        7630.0,
        7635.0,
        7640.0,
        7645.0,
        7650.0,
        7655.0,
        7660.0,
        7665.0,
        7670.0,
        7675.0,
        7680.0,
        7685.0,
        7690.0,
        7695.0,
        7700.0,
        7705.0,
        7710.0,
        7715.0,
        7720.0,
        7725.0,
        7730.0,
        7735.0,
        7740.0,
        7745.0,
        7750.0,
        7755.0,
        7760.0,
        7765.0,
        7770.0,
        7775.0,
        7780.0,
        7785.0,
        7790.0,
        7795.0,
        7800.0,
        7805.0,
        7810.0,
        7815.0,
        7820.0,
        7825.0,
        7830.0,
        7835.0,
        7840.0,
        7845.0,
        7850.0,
        7855.0,
        7860.0,
        7865.0,
        7870.0,
        7875.0,
        7880.0,
        7885.0,
        7890.0,
        7895.0,
        7900.0,
        7905.0,
        7910.0,
        7915.0,
        7920.0,
        7925.0,
        7930.0,
        7935.0,
        7940.0,
        7945.0,
        7950.0,
        7955.0,
        7960.0,
        7965.0,
        7970.0,
        7975.0,
        7980.0,
        7985.0,
        7990.0,
        7995.0,
        8000.0,
        8005.0,
        8010.0,
        8015.0,
        8020.0,
        8025.0,
        8030.0,
        8035.0,
        8040.0,
        8045.0,
        8050.0,
        8055.0,
        8060.0,
        8065.0,
        8070.0,
        8075.0,
        8080.0,
        8085.0,
        8090.0,
        8095.0,
        8100.0,
        8105.0,
        8110.0,
        8115.0,
        8120.0,
        8125.0,
        8130.0,
        8135.0,
        8140.0,
        8145.0,
        8150.0,
        8155.0,
        8160.0,
        8165.0,
        8170.0,
        8175.0,
        8180.0,
        8185.0,
        8190.0,
        8195.0,
        8200.0,
        8205.0,
        8210.0,
        8215.0,
        8220.0,
        8225.0,
        8230.0,
        8235.0,
        8240.0,
        8245.0,
        8250.0,
        8255.0,
        8260.0,
        8265.0,
        8270.0,
        8275.0,
        8280.0,
        8285.0,
        8290.0,
        8295.0,
        8300.0,
        8305.0,
        8310.0,
        8315.0,
        8320.0,
        8325.0,
        8330.0,
        8335.0,
        8340.0,
        8345.0,
        8350.0,
        8355.0,
        8360.0,
        8365.0,
        8370.0,
        8375.0,
        8380.0,
        8385.0,
        8390.0,
        8395.0,
        8400.0,
        8405.0,
        8410.0,
        8415.0,
        8420.0,
        8425.0,
        8430.0,
        8435.0,
        8440.0,
        8445.0,
        8450.0,
        8455.0,
        8460.0,
        8465.0,
        8470.0,
        8475.0,
        8480.0,
        8485.0,
        8490.0,
        8495.0,
        8500.0,
        8505.0,
        8510.0,
        8515.0,
        8520.0,
        8525.0,
        8530.0,
        8535.0,
        8540.0,
        8545.0,
        8550.0,
        8555.0,
        8560.0,
        8565.0,
        8570.0,
        8575.0,
        8580.0,
        8585.0,
        8590.0,
        8595.0,
        8600.0,
        8605.0,
        8610.0,
        8615.0,
        8620.0,
        8625.0,
        8630.0,
        8635.0,
        8640.0,
        8645.0,
        8650.0,
        8655.0,
        8660.0,
        8665.0,
        8670.0,
        8675.0,
        8680.0,
        8685.0,
        8690.0,
        8695.0,
        8700.0,
        8705.0,
        8710.0,
        8715.0,
        8720.0,
        8725.0,
        8730.0,
        8735.0,
        8740.0,
        8745.0,
        8750.0,
        8755.0,
        8760.0,
        8765.0,
        8770.0,
        8775.0,
        8780.0,
        8785.0,
        8790.0,
        8795.0,
        8800.0,
        8805.0,
        8810.0,
        8815.0,
        8820.0,
        8825.0,
        8830.0,
        8835.0,
        8840.0,
        8845.0,
        8850.0,
        8855.0,
        8860.0,
        8865.0,
        8870.0,
        8875.0,
        8880.0,
        8885.0,
        8890.0,
        8895.0,
        8900.0,
        8905.0,
        8910.0,
        8915.0,
        8920.0,
        8925.0,
        8930.0,
        8935.0,
        8940.0,
        8945.0,
        8950.0,
        8955.0,
        8960.0,
        8965.0,
        8970.0,
        8975.0,
        8980.0,
        8985.0,
        8990.0,
        8995.0,
        9000.0,
        9005.0,
        9010.0,
        9015.0,
        9020.0,
        9025.0,
        9030.0,
        9035.0,
        9040.0,
        9045.0,
        9050.0,
        9055.0,
        9060.0,
        9065.0,
        9070.0,
        9075.0,
        9080.0,
        9085.0,
        9090.0,
        9095.0,
        9100.0,
        9105.0,
        9110.0,
        9115.0,
        9120.0,
        9125.0,
        9130.0,
        9135.0,
        9140.0,
        9145.0,
        9150.0,
        9155.0,
        9160.0,
        9165.0,
        9170.0,
        9175.0,
        9180.0,
        9185.0,
        9190.0,
        9195.0,
        9200.0,
        9205.0,
        9210.0,
        9215.0,
        9220.0,
        9225.0,
        9230.0,
        9235.0,
        9240.0,
        9245.0,
        9250.0,
        9255.0,
        9260.0,
        9265.0,
        9270.0,
        9275.0,
        9280.0,
        9285.0,
        9290.0,
        9295.0,
        9300.0,
        9305.0,
        9310.0,
        9315.0,
        9320.0,
        9325.0,
        9330.0,
        9335.0,
        9340.0,
        9345.0,
        9350.0,
        9355.0,
        9360.0,
        9365.0,
        9370.0,
        9375.0,
        9380.0,
        9385.0,
        9390.0,
        9395.0,
        9400.0,
        9405.0,
        9410.0,
        9415.0,
        9420.0,
        9425.0,
        9430.0,
        9435.0,
        9440.0,
        9445.0,
        9450.0,
        9455.0,
        9460.0,
        9465.0,
        9470.0,
        9475.0,
        9480.0,
        9485.0,
        9490.0,
        9495.0,
        9500.0,
        9505.0,
        9510.0,
        9515.0,
        9520.0,
        9525.0,
        9530.0,
        9535.0,
        9540.0,
        9545.0,
        9550.0,
        9555.0,
        9560.0,
        9565.0,
        9570.0,
        9575.0,
        9580.0,
        9585.0,
        9590.0,
        9595.0,
        9600.0,
        9605.0,
        9610.0,
        9615.0,
        9620.0,
        9625.0,
        9630.0,
        9635.0,
        9640.0,
        9645.0,
        9650.0,
        9655.0,
        9660.0,
        9665.0,
        9670.0,
        9675.0,
        9680.0,
        9685.0,
        9690.0,
        9695.0,
        9700.0,
        9705.0,
        9710.0,
        9715.0,
        9720.0,
        9725.0,
        9730.0,
        9735.0,
        9740.0,
        9745.0,
        9750.0,
        9755.0,
        9760.0,
        9765.0,
        9770.0,
        9775.0,
        9780.0,
        9785.0,
        9790.0,
        9795.0,
        9800.0,
        9805.0,
        9810.0,
        9815.0,
        9820.0,
        9825.0,
        9830.0,
        9835.0,
        9840.0,
        9845.0,
        9850.0,
        9855.0,
        9860.0,
        9865.0,
        9870.0,
        9875.0,
        9880.0,
        9885.0,
        9890.0,
        9895.0,
        9900.0,
        9905.0,
        9910.0,
        9915.0,
        9920.0,
        9925.0,
        9930.0,
        9935.0,
        9940.0,
        9945.0,
        9950.0,
        9955.0,
        9960.0,
        9965.0,
        9970.0,
        9975.0,
        9980.0,
        9985.0,
        9990.0,
        9995.0,
        10000.0,
        10005.0,
        10010.0,
        10015.0,
        10020.0,
        10025.0,
        10030.0,
        10035.0,
        10040.0,
        10045.0,
        10050.0,
        10055.0,
        10060.0,
        10065.0,
        10070.0,
        10075.0,
        10080.0,
        10085.0,
        10090.0,
        10095.0,
        10100.0,
        10105.0,
        10110.0,
        10115.0,
        10120.0,
        10125.0,
        10130.0,
        10135.0,
        10140.0,
        10145.0,
        10150.0,
        10155.0,
        10160.0,
        10165.0,
        10170.0,
        10175.0,
        10180.0,
        10185.0,
        10190.0,
        10195.0,
        10200.0,
        10205.0,
        10210.0,
        10215.0,
        10220.0,
        10225.0,
        10230.0,
        10235.0,
        10240.0,
        10245.0,
        10250.0,
        10255.0,
        10260.0,
        10265.0,
        10270.0,
        10275.0,
        10280.0,
        10285.0,
        10290.0,
        10295.0,
        10300.0,
        10305.0,
        10310.0,
        10315.0,
        10320.0,
        10325.0,
        10330.0,
        10335.0,
        10340.0,
        10345.0,
        10350.0,
        10355.0,
        10360.0,
        10365.0,
        10370.0,
        10375.0,
        10380.0,
        10385.0,
        10390.0,
        10395.0,
        10400.0,
        10405.0,
        10410.0,
        10415.0,
        10420.0,
        10425.0,
        10430.0,
        10435.0,
        10440.0,
        10445.0,
        10450.0,
        10455.0,
        10460.0,
        10465.0,
        10470.0,
        10475.0,
        10480.0,
        10485.0,
        10490.0,
        10495.0,
        10500.0
      ],
      "units":"angstrom"
    },
    "values":{
      "value":[
        0.0,
        0.031472,
        0.041861,
        0.0,
        0.0,
        0.0,
        0.0,
        0.0,
        0.0,
        0.0,
        0.0,
        0.007763,
        0.032597,
        0.049138,
        0.035107,
        0.012297,
        0.008853,
        0.009024,
        0.015564,
        0.005788,
        0.008141,
        0.01038,
        0.009908,
        0.015776,
        0.02256,
        0.028252,
        0.044197,
        0.056652,
        0.049619,
        0.068418,
        0.064254,
        0.048627,
        0.054869,
        0.098457,
        0.123269,
        0.117805,
        0.11076,
        0.118982,
        0.156111,
        0.176466,
        0.156372,
        0.135375,
        0.147126,
        0.152137,
        0.143659,
        0.162518,
        0.163347,
        0.167811,
        0.166477,
        0.160943,
        0.156764,
        0.169611,
        0.172429,
        0.190395,
        0.210136,
        0.208977,
        0.204553,
        0.189658,
        0.214908,
        0.234664,
        0.254696,
        0.263577,
        0.255723,
        0.243311,
        0.229754,
        0.239523,
        0.250504,
        0.269883,
        0.302688,
        0.308387,
        0.348699,
        0.32029,
        0.277526,
        0.28474,
        0.31543,
        0.285902,
        0.278463,
        0.308885,
        0.360926,
        0.388254,
        0.392958,
        0.390193,
        0.38923,
        0.46069,
        0.467526,
        0.504887,
        0.591349,
        0.592767,
        0.557535,
        0.54823,
        0.598859,
        0.610749,
        0.607378,
        0.603066,
        0.60336,
        0.627023,
        0.610169,
        0.601846,
        0.641903,
        0.695675,
        0.67676,
        0.579837,
        0.590097,
        0.707265,
        0.631649,
        0.632344,
        0.712219,
        0.723268,
        0.726292,
        0.707626,
        0.719414,
        0.746126,
        0.767696,
        0.789036,
        0.787056,
        0.760873,
        0.820652,
        0.830157,
        0.848679,
        0.859384,
        0.900829,
        0.960421,
        0.913352,
        0.844615,
        0.888232,
        0.952519,
        0.987326,
        0.937554,
        0.885167,
        0.989087,
        1.077985,
        1.014981,
        0.973626,
        1.002433,
        1.021064,
        1.014267,
        0.973733,
        0.944397,
        0.898711,
        0.857289,
        0.873393,
        0.883804,
        0.905337,
        0.919287,
        0.948111,
        0.952265,
        0.959722,
        0.98424,
        0.967093,
        0.939858,
        0.902296,
        0.89668,
        0.899496,
        0.920315,
        0.939878,
        0.920474,
        0.885326,
        0.89146,
        0.951299,
        0.98625,
        0.983661,
        0.962449,
        0.935132,
        0.956161,
        0.963449,
        0.995171,
        0.974115,
        0.960774,
        0.938083,
        0.89194,
        0.906586,
        0.931401,
        0.883368,
        0.911852,
        0.900239,
        0.902125,
        0.915106,
        0.938406,
        0.913104,
        0.880299,
        0.951679,
        0.991395,
        0.897929,
        0.874686,
        0.919249,
        0.956698,
        0.998548,
        1.014821,
        1.00034,
        0.964088,
        0.923543,
        0.911347,
        0.927912,
        0.909672,
        0.905545,
        0.931691,
        0.931987,
        0.821748,
        0.734855,
        0.813165,
        0.866613,
        0.869463,
        0.869573,
        0.821737,
        0.800069,
        0.771982,
        0.75681,
        0.807072,
        0.853384,
        0.85309,
        0.840772,
        0.830116,
        0.794878,
        0.745113,
        0.71705,
        0.726328,
        0.743144,
        0.75074,
        0.781806,
        0.744625,
        0.703536,
        0.707747,
        0.686971,
        0.685037,
        0.717806,
        0.725609,
        0.758137,
        0.763654,
        0.783798,
        0.752984,
        0.699532,
        0.675568,
        0.708516,
        0.728642,
        0.689717,
        0.694214,
        0.693517,
        0.69279,
        0.642624,
        0.604273,
        0.581407,
        0.620933,
        0.657986,
        0.6412,
        0.621508,
        0.649716,
        0.651033,
        0.600068,
        0.549994,
        0.573416,
        0.596802,
        0.582153,
        0.544306,
        0.547222,
        0.612505,
        0.677521,
        0.692488,
        0.657627,
        0.627139,
        0.660394,
        0.674038,
        0.678716,
        0.697739,
        0.69733,
        0.64359,
        0.622886,
        0.635535,
        0.628828,
        0.623372,
        0.63104,
        0.695555,
        0.701033,
        0.684577,
        0.674473,
        0.654566,
        0.611149,
        0.571473,
        0.573292,
        0.580326,
        0.57806,
        0.589949,
        0.61268,
        0.655936,
        0.661054,
        0.712949,
        0.734788,
        0.626161,
        0.594806,
        0.669941,
        0.726037,
        0.705974,
        0.66752,
        0.651613,
        0.63378,
        0.672468,
        0.701797,
        0.674764,
        0.679337,
        0.754484,
        0.826649,
        0.865225,
        0.864785,
        0.833859,
        0.76619,
        0.730603,
        0.734791,
        0.768082,
        0.770655,
        0.750917,
        0.710296,
        0.696371,
        0.730903,
        0.723487,
        0.693514,
        0.70363,
        0.697509,
        0.727741,
        0.755193,
        0.724671,
        0.654234,
        0.61853,
        0.608333,
        0.64514,
        0.690645,
        0.703078,
        0.697383,
        0.715559,
        0.673098,
        0.652657,
        0.586834,
        0.44788,
        0.461069,
        0.598645,
        0.721918,
        0.780668,
        0.785518,
        0.760652,
        0.746353,
        0.74697,
        0.726763,
        0.724001,
        0.703783,
        0.708963,
        0.742947,
        0.736801,
        0.72917,
        0.719359,
        0.747995,
        0.747739,
        0.741196,
        0.753384,
        0.784272,
        0.815969,
        0.832476,
        0.838894,
        0.795901,
        0.780415,
        0.78763,
        0.777172,
        0.798871,
        0.778604,
        0.791762,
        0.820901,
        0.823829,
        0.803839,
        0.798581,
        0.829048,
        0.809438,
        0.815796,
        0.836693,
        0.826645,
        0.794143,
        0.835852,
        0.835393,
        0.798415,
        0.793957,
        0.792117,
        0.809455,
        0.818849,
        0.804329,
        0.789985,
        0.807367,
        0.782458,
        0.767501,
        0.784333,
        0.804126,
        0.831064,
        0.832743,
        0.830733,
        0.809201,
        0.775977,
        0.794708,
        0.830839,
        0.825617,
        0.797305,
        0.796812,
        0.805727,
        0.819487,
        0.86756,
        0.859897,
        0.852049,
        0.870719,
        0.821461,
        0.814684,
        0.848516,
        0.87985,
        0.855968,
        0.838113,
        0.860774,
        0.856167,
        0.876807,
        0.876997,
        0.873128,
        0.864385,
        0.855409,
        0.852046,
        0.859508,
        0.878275,
        0.890532,
        0.882512,
        0.874941,
        0.88728,
        0.899454,
        0.889104,
        0.864267,
        0.839981,
        0.828876,
        0.838436,
        0.85797,
        0.873718,
        0.877824,
        0.867519,
        0.854457,
        0.850192,
        0.851442,
        0.85164,
        0.8459,
        0.833364,
        0.827572,
        0.839199,
        0.853045,
        0.853001,
        0.845202,
        0.839006,
        0.834428,
        0.83042,
        0.831012,
        0.838994,
        0.847116,
        0.848565,
        0.848327,
        0.85245,
        0.859438,
        0.866063,
        0.869718,
        0.868628,
        0.863738,
        0.856412,
        0.846998,
        0.836579,
        0.830196,
        0.831407,
        0.833865,
        0.831363,
        0.828144,
        0.828679,
        0.827904,
        0.821022,
        0.813834,
        0.812771,
        0.81618,
        0.820852,
        0.823904,
        0.807517,
        0.809341,
        0.808258,
        0.814745,
        0.811617,
        0.800713,
        0.810908,
        0.814938,
        0.814761,
        0.81663,
        0.801318,
        0.783382,
        0.771784,
        0.765851,
        0.767994,
        0.772593,
        0.781289,
        0.784247,
        0.791597,
        0.779237,
        0.781573,
        0.780098,
        0.790291,
        0.782748,
        0.783447,
        0.784719,
        0.778428,
        0.780389,
        0.788142,
        0.804102,
        0.79954,
        0.782884,
        0.783038,
        0.779111,
        0.767642,
        0.773424,
        0.795562,
        0.795463,
        0.771574,
        0.833982,
        0.878834,
        0.868714,
        0.905853,
        0.917093,
        0.88975,
        0.999053,
        0.961444,
        0.900343,
        1.06701,
        1.151274,
        1.070042,
        0.962722,
        1.165335,
        1.433434,
        1.485155,
        1.303058,
        1.036171,
        1.055854,
        1.369198,
        1.607129,
        1.7005,
        1.689239,
        1.45549,
        1.137518,
        0.961174,
        1.196093,
        1.554736,
        1.817418,
        1.962554,
        2.026053,
        2.077668,
        1.999287,
        1.780175,
        1.483611,
        1.148365,
        1.062189,
        1.324905,
        1.633009,
        1.875839,
        2.054314,
        2.130157,
        2.110272,
        2.073843,
        1.731571,
        1.679722,
        1.940196,
        2.000699,
        1.952223,
        1.742299,
        1.398793,
        1.049805,
        0.917796,
        1.217155,
        1.566812,
        1.789913,
        1.975971,
        2.107779,
        2.150726,
        2.178254,
        2.204294,
        2.2288,
        2.241989,
        2.222133,
        2.209704,
        2.222958,
        2.219635,
        2.206004,
        2.193592,
        2.161935,
        2.121491,
        2.070059,
        2.02602,
        1.940941,
        1.844878,
        1.695484,
        1.481755,
        1.192498,
        0.962537,
        1.08645,
        1.385843,
        1.625731,
        1.786811,
        1.868513,
        1.925321,
        2.005296,
        2.036113,
        2.072924,
        2.067378,
        2.048235,
        2.056211,
        2.065502,
        2.003869,
        1.9774,
        1.99281,
        2.00792,
        2.032908,
        2.033768,
        2.01111,
        1.984106,
        2.004058,
        1.997361,
        1.965173,
        1.942423,
        1.947577,
        1.950138,
        1.950071,
        1.898411,
        1.892576,
        1.912675,
        1.907999,
        1.944465,
        1.916386,
        1.910413,
        1.913732,
        1.877266,
        1.836078,
        1.81116,
        1.763486,
        1.747649,
        1.718626,
        1.638936,
        1.572482,
        1.447026,
        1.28413,
        1.02966,
        0.86695,
        0.999144,
        1.211004,
        1.427093,
        1.596056,
        1.6802,
        1.718956,
        1.747316,
        1.747298,
        1.747666,
        1.745734,
        1.759506,
        1.757351,
        1.75513,
        1.749709,
        1.735605,
        1.744238,
        1.779311,
        1.780816,
        1.755517,
        1.739853,
        1.729688,
        1.735467,
        1.753612,
        1.746646,
        1.733662,
        1.713036,
        1.699998,
        1.65912,
        1.684115,
        1.695319,
        1.707584,
        1.741309,
        1.729274,
        1.719125,
        1.692978,
        1.680895,
        1.672508,
        1.656939,
        1.65051,
        1.681875,
        1.623021,
        1.608256,
        1.612818,
        1.628229,
        1.640859,
        1.643155,
        1.618727,
        1.59173,
        1.586063,
        1.59783,
        1.61886,
        1.618382,
        1.622546,
        1.620857,
        1.599559,
        1.577905,
        1.607436,
        1.566189,
        1.581225,
        1.586752,
        1.578565,
        1.573241,
        1.581182,
        1.583099,
        1.551314,
        1.542487,
        1.571982,
        1.568931,
        1.566686,
        1.558487,
        1.551594,
        1.514979,
        1.505634,
        1.512652,
        1.507412,
        1.505862,
        1.504305,
        1.479247,
        1.470812,
        1.482942,
        1.493977,
        1.482133,
        1.469887,
        1.450533,
        1.439854,
        1.445316,
        1.441393,
        1.435974,
        1.430755,
        1.429353,
        1.423725,
        1.400051,
        1.396119,
        1.399069,
        1.384185,
        1.357366,
        1.33359,
        1.313216,
        1.276366,
        1.210964,
        1.117995,
        0.991662,
        0.80312,
        0.675596,
        0.763575,
        0.91689,
        1.068485,
        1.15522,
        1.208567,
        1.250382,
        1.294282,
        1.321496,
        1.350362,
        1.34113,
        1.337983,
        1.296569,
        1.310098,
        1.352908,
        1.348401,
        1.353239,
        1.364887,
        1.359601,
        1.333151,
        1.333148,
        1.345992,
        1.342445,
        1.331579,
        1.29725,
        1.304159,
        1.325833,
        1.320738,
        1.314877,
        1.29142,
        1.282075,
        1.257889,
        1.245882,
        1.277605,
        1.280784,
        1.266238,
        1.265678,
        1.277787,
        1.275157,
        1.261395,
        1.272289,
        1.273519,
        1.26777,
        1.254615,
        1.254345,
        1.261924,
        1.26736,
        1.253285,
        1.24667,
        1.25595,
        1.251811,
        1.244183,
        1.246151,
        1.228732,
        1.221265,
        1.224696,
        1.217186,
        1.222857,
        1.230227,
        1.217005,
        1.197622,
        1.146335,
        1.135291,
        1.179649,
        1.182136,
        1.159261,
        1.159262,
        1.161842,
        1.169829,
        1.16539,
        1.164745,
        1.169717,
        1.176307,
        1.148112,
        1.13589,
        1.140577,
        1.160112,
        1.166042,
        1.154256,
        1.145429,
        1.12259,
        1.086746,
        1.080381,
        1.09671,
        1.107653,
        1.119535,
        1.14508,
        1.146402,
        1.123427,
        1.118343,
        1.112939,
        1.098021,
        1.102417,
        1.091555,
        1.090644,
        1.080001,
        1.076255,
        1.093123,
        1.092588,
        1.106341,
        1.094428,
        1.064195,
        1.063048,
        1.079755,
        1.077138,
        1.074673,
        1.074124,
        1.061375,
        1.047881,
        1.046845,
        1.052648,
        1.060693,
        1.064301,
        1.051041,
        1.05352,
        1.063238,
        1.069718,
        1.062622,
        1.059383,
        1.053775,
        1.052551,
        1.046415,
        1.042282,
        1.034138,
        1.032239,
        1.034982,
        1.036765,
        1.038644,
        1.040503,
        1.023395,
        1.017495,
        1.030066,
        1.026663,
        1.005417,
        1.00417,
        1.010756,
        1.004763,
        1.002463,
        1.013167,
        1.00659,
        0.99543,
        0.99865,
        0.994369,
        1.000479,
        1.00076,
        0.981703,
        0.970234,
        0.976518,
        0.976698,
        0.977057,
        0.982112,
        0.974374,
        0.969137,
        0.970444,
        0.969616,
        0.968472,
        0.968958,
        0.968758,
        0.96621,
        0.953169,
        0.94724,
        0.951082,
        0.950007,
        0.946071,
        0.941873,
        0.932247,
        0.930288,
        0.930613,
        0.93722,
        0.927812,
        0.920582,
        0.916694,
        0.917083,
        0.918799,
        0.925168,
        0.929383,
        0.921376,
        0.913643,
        0.91195,
        0.909897,
        0.902384,
        0.896754,
        0.894403,
        0.898141,
        0.890772,
        0.8881,
        0.892429,
        0.892513,
        0.889786,
        0.889991,
        0.891367,
        0.892118,
        0.896324,
        0.888817,
        0.891279,
        0.886817,
        0.886942,
        0.883055,
        0.879879,
        0.874315,
        0.871487,
        0.875394,
        0.88208,
        0.879754,
        0.870492,
        0.840382,
        0.806979,
        0.813136,
        0.836872,
        0.857398,
        0.860701,
        0.854257,
        0.850916,
        0.843739,
        0.840917,
        0.840258,
        0.835483,
        0.826961,
        0.823756,
        0.825235,
        0.823643,
        0.82005,
        0.817163,
        0.817751,
        0.814592,
        0.805955,
        0.808758,
        0.82252,
        0.816725,
        0.802876,
        0.802427,
        0.802368,
        0.79768,
        0.797389,
        0.801041,
        0.796292,
        0.792911,
        0.78972,
        0.786111,
        0.790319,
        0.792703,
        0.788747,
        0.789452,
        0.786411,
        0.782614,
        0.782292,
        0.783543,
        0.776367,
        0.770069,
        0.768203,
        0.776321,
        0.775744,
        0.774961,
        0.768445,
        0.768193,
        0.758633,
        0.748698,
        0.743202,
        0.740239,
        0.740071,
        0.744194,
        0.743319,
        0.741588,
        0.750634,
        0.744948,
        0.745673,
        0.747573,
        0.748721,
        0.749317,
        0.749683,
        0.746502,
        0.740547,
        0.74109,
        0.735343,
        0.726734,
        0.722945,
        0.723031,
        0.721956,
        0.72079,
        0.724869,
        0.721286,
        0.715986,
        0.712621,
        0.696687,
        0.686605,
        0.698825,
        0.702796,
        0.703532,
        0.699042,
        0.70149,
        0.701856,
        0.693802,
        0.692214,
        0.697624,
        0.69872,
        0.70155,
        0.696759,
        0.684816,
        0.688593,
        0.693605,
        0.6916,
        0.680171,
        0.673071,
        0.680378,
        0.67668,
        0.678874,
        0.681304,
        0.678803,
        0.676026,
        0.670525,
        0.669275,
        0.662098,
        0.662332,
        0.664428,
        0.664139,
        0.662233,
        0.659265,
        0.659744,
        0.652956,
        0.642377,
        0.64433,
        0.649912,
        0.653359,
        0.650633,
        0.647936,
        0.643833,
        0.638866,
        0.631956,
        0.638145,
        0.641561,
        0.637244,
        0.629432,
        0.633505,
        0.628235,
        0.615201,
        0.601087,
        0.584222,
        0.561773,
        0.518567,
        0.460086,
        0.392355,
        0.403167,
        0.472718,
        0.531106,
        0.567227,
        0.585633,
        0.597577,
        0.605922,
        0.61219,
        0.613878,
        0.61721,
        0.61551,
        0.614487,
        0.620492,
        0.620637,
        0.61826,
        0.620385,
        0.6123,
        0.609583,
        0.608402,
        0.608244,
        0.610659,
        0.608603,
        0.602716,
        0.601768,
        0.600981,
        0.605932,
        0.604711,
        0.599619,
        0.600849,
        0.597102,
        0.5928,
        0.586278,
        0.58723,
        0.590073,
        0.594392,
        0.594522,
        0.59337,
        0.586871,
        0.58387,
        0.588121,
        0.589795,
        0.584305,
        0.584198,
        0.582157,
        0.579127,
        0.575825,
        0.575463,
        0.57667,
        0.577358,
        0.58152,
        0.582239,
        0.580441,
        0.582077,
        0.584143,
        0.578716,
        0.575162,
        0.574161,
        0.57316,
        0.572159,
        0.571158,
        0.570158,
        0.569157,
        0.568156,
        0.567155,
        0.566154,
        0.565154,
        0.564153,
        0.563152,
        0.562151,
        0.56115,
        0.56015,
        0.559149,
        0.558148,
        0.557147,
        0.556146,
        0.555146,
        0.554145,
        0.553144,
        0.552143,
        0.551142,
        0.550142,
        0.549141,
        0.5414,
        0.542352,
        0.53755,
        0.533709,
        0.5329,
        0.525985,
        0.523833,
        0.528134,
        0.524552,
        0.524903,
        0.52571,
        0.525335,
        0.528338,
        0.521257,
        0.523368,
        0.524924,
        0.520041,
        0.518653,
        0.519151,
        0.515072,
        0.516989,
        0.512886,
        0.508892,
        0.505161,
        0.50588,
        0.505242,
        0.503068,
        0.499812,
        0.496585,
        0.496995,
        0.505008,
        0.512842,
        0.515283,
        0.511972,
        0.503575,
        0.501636,
        0.505696,
        0.503881,
        0.498941,
        0.491667,
        0.485768,
        0.479477,
        0.474177,
        0.475375,
        0.476777,
        0.475512,
        0.481013,
        0.491667,
        0.500703,
        0.496688,
        0.490153,
        0.484639,
        0.480105,
        0.476417,
        0.478571,
        0.478276,
        0.480265,
        0.4803,
        0.469095,
        0.468938,
        0.467789,
        0.468733,
        0.471798,
        0.464805,
        0.463226,
        0.459375,
        0.462299,
        0.462965,
        0.465812,
        0.464088,
        0.465355,
        0.461357,
        0.460809,
        0.462599,
        0.467196,
        0.464877,
        0.46044,
        0.456791,
        0.456413,
        0.450888,
        0.446293,
        0.450662,
        0.448119,
        0.445712,
        0.444784,
        0.444661,
        0.441549,
        0.438446,
        0.43958,
        0.443291,
        0.450314,
        0.452973,
        0.45271,
        0.450303,
        0.446467,
        0.448485,
        0.449105,
        0.446709,
        0.446172,
        0.447612,
        0.447329,
        0.446204,
        0.445016,
        0.443051,
        0.441926,
        0.442315,
        0.440549,
        0.437438,
        0.437333,
        0.441253,
        0.439918,
        0.438268,
        0.43645,
        0.437417,
        0.437616,
        0.435546,
        0.434656,
        0.433766,
        0.432876,
        0.431986,
        0.431096,
        0.430206,
        0.429316,
        0.428426,
        0.427536,
        0.426646,
        0.425756,
        0.424867,
        0.423977,
        0.423087,
        0.422197,
        0.421307,
        0.420417,
        0.419527,
        0.418637,
        0.417747,
        0.416857,
        0.415967,
        0.415077,
        0.414187,
        0.413297,
        0.412407,
        0.411518,
        0.410628,
        0.409738,
        0.408848,
        0.407958,
        0.407068,
        0.406178,
        0.405288,
        0.404398,
        0.403508,
        0.403445,
        0.400565,
        0.400544,
        0.402899,
        0.401711,
        0.400313,
        0.394542,
        0.379984,
        0.374866,
        0.388992,
        0.396087,
        0.398295,
        0.396497,
        0.393102,
        0.394385,
        0.394111,
        0.393691,
        0.394647,
        0.391788,
        0.387227,
        0.386659,
        0.388141,
        0.388046,
        0.389413,
        0.388866,
        0.385492,
        0.383653,
        0.382991,
        0.379995,
        0.378576,
        0.380636,
        0.376863,
        0.370934,
        0.372185,
        0.376768,
        0.378198,
        0.376957,
        0.372637,
        0.370756,
        0.36899,
        0.367813,
        0.36796,
        0.367497,
        0.368685,
        0.369148,
        0.3696,
        0.368927,
        0.36756,
        0.369106,
        0.368401,
        0.368054,
        0.367939,
        0.364638,
        0.361674,
        0.361401,
        0.361916,
        0.362273,
        0.363041,
        0.362032,
        0.359509,
        0.359498,
        0.357491,
        0.356902,
        0.358552,
        0.358426,
        0.358584,
        0.358037,
        0.356671,
        0.355662,
        0.354726,
        0.353717,
        0.354117,
        0.35275,
        0.352205,
        0.351659,
        0.351113,
        0.350567,
        0.350022,
        0.349476,
        0.34893,
        0.348385,
        0.347839,
        0.347293,
        0.346747,
        0.346202,
        0.345656,
        0.34511,
        0.344564,
        0.344019,
        0.343473,
        0.342927,
        0.342382,
        0.341836,
        0.34129,
        0.340744,
        0.340199,
        0.339653,
        0.339107,
        0.338561,
        0.338016,
        0.33747,
        0.336924,
        0.336379,
        0.335833,
        0.335287,
        0.334741,
        0.334196,
        0.33365,
        0.333104,
        0.332558,
        0.332013,
        0.331467,
        0.330921,
        0.330376,
        0.32983,
        0.329284,
        0.328738,
        0.328193,
        0.327647,
        0.327101,
        0.326555,
        0.32601,
        0.325464,
        0.324918,
        0.324373,
        0.323827,
        0.323281,
        0.322735,
        0.32219,
        0.321644,
        0.321098,
        0.320552,
        0.320007,
        0.319461,
        0.318915,
        0.319241,
        0.319241,
        0.320072,
        0.32312,
        0.322416,
        0.314564,
        0.307574,
        0.305051,
        0.311242,
        0.315016,
        0.3149,
        0.313292,
        0.30996,
        0.312619,
        0.314543,
        0.315037,
        0.309214,
        0.295518,
        0.293027,
        0.302224,
        0.307059,
        0.30914,
        0.310832,
        0.311358,
        0.308036,
        0.292743,
        0.271826,
        0.272362,
        0.291776,
        0.301036,
        0.306828,
        0.309897,
        0.309382,
        0.308268,
        0.306155,
        0.300016,
        0.292659,
        0.284155,
        0.283167,
        0.28959,
        0.29803,
        0.303958,
        0.308057,
        0.310864,
        0.310223,
        0.307448,
        0.303748,
        0.297431,
        0.291608,
        0.277355,
        0.254588,
        0.250446,
        0.267338,
        0.280519,
        0.286394,
        0.290136,
        0.294656,
        0.298146,
        0.300384,
        0.301614,
        0.301425,
        0.298787,
        0.297736,
        0.293762,
        0.289411,
        0.281254,
        0.270449,
        0.253726,
        0.246547,
        0.258803,
        0.276461,
        0.294498,
        0.295728,
        0.294845,
        0.296727,
        0.295844,
        0.296558,
        0.297221,
        0.296674,
        0.294645,
        0.296117,
        0.297378,
        0.299922,
        0.302487,
        0.296674,
        0.289947,
        0.281654,
        0.274422,
        0.264552,
        0.246841,
        0.231642,
        0.234438,
        0.250268,
        0.264247,
        0.276524,
        0.286405,
        0.285364,
        0.286625,
        0.29309,
        0.294923,
        0.294099,
        0.297342,
        0.297406,
        0.291584,
        0.297094,
        0.295842,
        0.29411,
        0.291833,
        0.288765,
        0.284616,
        0.279098,
        0.27206,
        0.263914,
        0.255209,
        0.246497,
        0.238398,
        0.231813,
        0.227712,
        0.227066,
        0.230438,
        0.236765,
        0.24458,
        0.252413,
        0.25906,
        0.26437,
        0.268459,
        0.27144,
        0.273395,
        0.274275,
        0.273997,
        0.272481,
        0.269839,
        0.266972,
        0.264975,
        0.264942,
        0.267559,
        0.271873,
        0.276518,
        0.280131,
        0.28168,
        0.281465,
        0.280116,
        0.278265,
        0.276434,
        0.274705,
        0.273051,
        0.271444,
        0.269861,
        0.268293,
        0.266735,
        0.265183,
        0.263598,
        0.261806,
        0.2596,
        0.256771,
        0.253124,
        0.248505,
        0.242772,
        0.235782,
        0.227726,
        0.22012,
        0.214815,
        0.21366,
        0.21778,
        0.225399,
        0.234016,
        0.241129,
        0.244938,
        0.246445,
        0.247353,
        0.249365,
        0.253578,
        0.258656,
        0.26266,
        0.263647,
        0.260267,
        0.253524,
        0.245011,
        0.236324,
        0.228868,
        0.223301,
        0.220095,
        0.219719,
        0.222286,
        0.226471,
        0.230591,
        0.232961,
        0.232439,
        0.230032,
        0.227291,
        0.225763,
        0.226593,
        0.229301,
        0.233006,
        0.236823,
        0.239936,
        0.241787,
        0.241889,
        0.23975,
        0.235193,
        0.229284,
        0.223401,
        0.218923,
        0.216861,
        0.216753,
        0.217769,
        0.219081,
        0.220039,
        0.220707,
        0.221332,
        0.222157,
        0.223268,
        0.224116,
        0.223991,
        0.222185,
        0.218247,
        0.212755,
        0.206546,
        0.200458,
        0.19516,
        0.190656,
        0.186779,
        0.183367,
        0.180326,
        0.177848,
        0.176198,
        0.175641,
        0.176433,
        0.178809,
        0.182995,
        0.189219,
        0.197431,
        0.206477,
        0.214928,
        0.221353,
        0.224714,
        0.225535,
        0.224732,
        0.22322,
        0.221797,
        0.220781,
        0.220373,
        0.220771,
        0.222094,
        0.224127,
        0.226573,
        0.229135,
        0.231573,
        0.233876,
        0.236094,
        0.238271,
        0.240377,
        0.242058,
        0.242878,
        0.242405,
        0.240384,
        0.237279,
        0.233733,
        0.230389,
        0.227792,
        0.226083,
        0.225305,
        0.225502,
        0.226619,
        0.22822,
        0.229773,
        0.230745,
        0.230745,
        0.22994,
        0.22864,
        0.227152,
        0.225784,
        0.224835,
        0.224605,
        0.22539,
        0.227265,
        0.229409,
        0.230775,
        0.230318,
        0.227415,
        0.223129,
        0.218949,
        0.216361,
        0.216392,
        0.218226,
        0.220588,
        0.222203,
        0.222124,
        0.22071,
        0.218652,
        0.216637,
        0.215217,
        0.21439,
        0.214017,
        0.213959,
        0.214082,
        0.214267,
        0.214402,
        0.214375,
        0.214112,
        0.213704,
        0.21328,
        0.212971,
        0.212842,
        0.212709,
        0.212323,
        0.211437,
        0.20994,
        0.208274,
        0.207021,
        0.20676,
        0.207818,
        0.209501,
        0.210863,
        0.210954,
        0.209083,
        0.205573,
        0.201003,
        0.195952,
        0.190872,
        0.185701,
        0.180253,
        0.174339,
        0.168015,
        0.162309,
        0.158492,
        0.157834,
        0.161132,
        0.167285,
        0.174716,
        0.181851,
        0.187404,
        0.191253,
        0.193567,
        0.194515,
        0.194322,
        0.193437,
        0.192365,
        0.19161,
        0.19157,
        0.192206,
        0.193372,
        0.194919,
        0.196661,
        0.198244,
        0.199274,
        0.199358,
        0.198263,
        0.196412,
        0.194389,
        0.192779,
        0.192034,
        0.192075,
        0.19269,
        0.193666,
        0.194755,
        0.195556,
        0.195633,
        0.194548,
        0.192074,
        0.188819,
        0.1856,
        0.183233,
        0.182317,
        0.182567,
        0.18348,
        0.184553,
        0.185383,
        0.18596,
        0.186378,
        0.186727,
        0.187066,
        0.187321,
        0.187386,
        0.187155,
        0.18657,
        0.185783,
        0.184994,
        0.184405,
        0.184738,
        0.184657,
        0.184684,
        0.184776,
        0.184886,
        0.184978,
        0.185014,
        0.184957,
        0.184777,
        0.184467,
        0.184025,
        0.18345,
        0.182764,
        0.182077,
        0.181524,
        0.181237,
        0.181299,
        0.181584,
        0.181917,
        0.182121,
        0.182056,
        0.18173,
        0.181188,
        0.180475,
        0.179661,
        0.178924,
        0.178462,
        0.178479,
        0.179064,
        0.17985,
        0.180363,
        0.180125,
        0.178837,
        0.176915,
        0.174953,
        0.173544,
        0.173114,
        0.173414,
        0.174025,
        0.174528
      ],
      "range":1
    }
  }
]
