[
  {
    "model":"Star, type WF5(v)",
    "name":"Star, type WF5(v)",
    "type":"WB_REF",
    "dataQualityMarker":3,
    "dataSource":"https://www.eso.org/sci/facilities/paranal/decommissioned/isaac/tools/lib.html",
    "manufacturer":"A. Pickles (A.J. Pickles, PASP 110,863, 1998)",
    "version":1,
    "wavelength":{
      "value":[
        1150.0,
        1155.0,
        1160.0,
        1165.0,
        1170.0,
        1175.0,
        1180.0,
        1185.0,
        1190.0,
        1195.0,
        1200.0,
        1205.0,
        1210.0,
        1215.0,
        1220.0,
        1225.0,
        1230.0,
        1235.0,
        1240.0,
        1245.0,
        1250.0,
        1255.0,
        1260.0,
        1265.0,
        1270.0,
        1275.0,
        1280.0,
        1285.0,
        1290.0,
        1295.0,
        1300.0,
        1305.0,
        1310.0,
        1315.0,
        1320.0,
        1325.0,
        1330.0,
        1335.0,
        1340.0,
        1345.0,
        1350.0,
        1355.0,
        1360.0,
        1365.0,
        1370.0,
        1375.0,
        1380.0,
        1385.0,
        1390.0,
        1395.0,
        1400.0,
        1405.0,
        1410.0,
        1415.0,
        1420.0,
        1425.0,
        1430.0,
        1435.0,
        1440.0,
        1445.0,
        1450.0,
        1455.0,
        1460.0,
        1465.0,
        1470.0,
        1475.0,
        1480.0,
        1485.0,
        1490.0,
        1495.0,
        1500.0,
        1505.0,
        1510.0,
        1515.0,
        1520.0,
        1525.0,
        1530.0,
        1535.0,
        1540.0,
        1545.0,
        1550.0,
        1555.0,
        1560.0,
        1565.0,
        1570.0,
        1575.0,
        1580.0,
        1585.0,
        1590.0,
        1595.0,
        1600.0,
        1605.0,
        1610.0,
        1615.0,
        1620.0,
        1625.0,
        1630.0,
        1635.0,
        1640.0,
        1645.0,
        1650.0,
        1655.0,
        1660.0,
        1665.0,
        1670.0,
        1675.0,
        1680.0,
        1685.0,
        1690.0,
        1695.0,
        1700.0,
        1705.0,
        1710.0,
        1715.0,
        1720.0,
        1725.0,
        1730.0,
        1735.0,
        1740.0,
        1745.0,
        1750.0,
        1755.0,
        1760.0,
        1765.0,
        1770.0,
        1775.0,
        1780.0,
        1785.0,
        1790.0,
        1795.0,
        1800.0,
        1805.0,
        1810.0,
        1815.0,
        1820.0,
        1825.0,
        1830.0,
        1835.0,
        1840.0,
        1845.0,
        1850.0,
        1855.0,
        1860.0,
        1865.0,
        1870.0,
        1875.0,
        1880.0,
        1885.0,
        1890.0,
        1895.0,
        1900.0,
        1905.0,
        1910.0,
        1915.0,
        1920.0,
        1925.0,
        1930.0,
        1935.0,
        1940.0,
        1945.0,
        1950.0,
        1955.0,
        1960.0,
        1965.0,
        1970.0,
        1975.0,
        1980.0,
        1985.0,
        1990.0,
        1995.0,
        2000.0,
        2005.0,
        2010.0,
        2015.0,
        2020.0,
        2025.0,
        2030.0,
        2035.0,
        2040.0,
        2045.0,
        2050.0,
        2055.0,
        2060.0,
        2065.0,
        2070.0,
        2075.0,
        2080.0,
        2085.0,
        2090.0,
        2095.0,
        2100.0,
        2105.0,
        2110.0,
        2115.0,
        2120.0,
        2125.0,
        2130.0,
        2135.0,
        2140.0,
        2145.0,
        2150.0,
        2155.0,
        2160.0,
        2165.0,
        2170.0,
        2175.0,
        2180.0,
        2185.0,
        2190.0,
        2195.0,
        2200.0,
        2205.0,
        2210.0,
        2215.0,
        2220.0,
        2225.0,
        2230.0,
        2235.0,
        2240.0,
        2245.0,
        2250.0,
        2255.0,
        2260.0,
        2265.0,
        2270.0,
        2275.0,
        2280.0,
        2285.0,
        2290.0,
        2295.0,
        2300.0,
        2305.0,
        2310.0,
        2315.0,
        2320.0,
        2325.0,
        2330.0,
        2335.0,
        2340.0,
        2345.0,
        2350.0,
        2355.0,
        2360.0,
        2365.0,
        2370.0,
        2375.0,
        2380.0,
        2385.0,
        2390.0,
        2395.0,
        2400.0,
        2405.0,
        2410.0,
        2415.0,
        2420.0,
        2425.0,
        2430.0,
        2435.0,
        2440.0,
        2445.0,
        2450.0,
        2455.0,
        2460.0,
        2465.0,
        2470.0,
        2475.0,
        2480.0,
        2485.0,
        2490.0,
        2495.0,
        2500.0,
        2505.0,
        2510.0,
        2515.0,
        2520.0,
        2525.0,
        2530.0,
        2535.0,
        2540.0,
        2545.0,
        2550.0,
        2555.0,
        2560.0,
        2565.0,
        2570.0,
        2575.0,
        2580.0,
        2585.0,
        2590.0,
        2595.0,
        2600.0,
        2605.0,
        2610.0,
        2615.0,
        2620.0,
        2625.0,
        2630.0,
        2635.0,
        2640.0,
        2645.0,
        2650.0,
        2655.0,
        2660.0,
        2665.0,
        2670.0,
        2675.0,
        2680.0,
        2685.0,
        2690.0,
        2695.0,
        2700.0,
        2705.0,
        2710.0,
        2715.0,
        2720.0,
        2725.0,
        2730.0,
        2735.0,
        2740.0,
        2745.0,
        2750.0,
        2755.0,
        2760.0,
        2765.0,
        2770.0,
        2775.0,
        2780.0,
        2785.0,
        2790.0,
        2795.0,
        2800.0,
        2805.0,
        2810.0,
        2815.0,
        2820.0,
        2825.0,
        2830.0,
        2835.0,
        2840.0,
        2845.0,
        2850.0,
        2855.0,
        2860.0,
        2865.0,
        2870.0,
        2875.0,
        2880.0,
        2885.0,
        2890.0,
        2895.0,
        2900.0,
        2905.0,
        2910.0,
        2915.0,
        2920.0,
        2925.0,
        2930.0,
        2935.0,
        2940.0,
        2945.0,
        2950.0,
        2955.0,
        2960.0,
        2965.0,
        2970.0,
        2975.0,
        2980.0,
        2985.0,
        2990.0,
        2995.0,
        3000.0,
        3005.0,
        3010.0,
        3015.0,
        3020.0,
        3025.0,
        3030.0,
        3035.0,
        3040.0,
        3045.0,
        3050.0,
        3055.0,
        3060.0,
        3065.0,
        3070.0,
        3075.0,
        3080.0,
        3085.0,
        3090.0,
        3095.0,
        3100.0,
        3105.0,
        3110.0,
        3115.0,
        3120.0,
        3125.0,
        3130.0,
        3135.0,
        3140.0,
        3145.0,
        3150.0,
        3155.0,
        3160.0,
        3165.0,
        3170.0,
        3175.0,
        3180.0,
        3185.0,
        3190.0,
        3195.0,
        3200.0,
        3205.0,
        3210.0,
        3215.0,
        3220.0,
        3225.0,
        3230.0,
        3235.0,
        3240.0,
        3245.0,
        3250.0,
        3255.0,
        3260.0,
        3265.0,
        3270.0,
        3275.0,
        3280.0,
        3285.0,
        3290.0,
        3295.0,
        3300.0,
        3305.0,
        3310.0,
        3315.0,
        3320.0,
        3325.0,
        3330.0,
        3335.0,
        3340.0,
        3345.0,
        3350.0,
        3355.0,
        3360.0,
        3365.0,
        3370.0,
        3375.0,
        3380.0,
        3385.0,
        3390.0,
        3395.0,
        3400.0,
        3405.0,
        3410.0,
        3415.0,
        3420.0,
        3425.0,
        3430.0,
        3435.0,
        3440.0,
        3445.0,
        3450.0,
        3455.0,
        3460.0,
        3465.0,
        3470.0,
        3475.0,
        3480.0,
        3485.0,
        3490.0,
        3495.0,
        3500.0,
        3505.0,
        3510.0,
        3515.0,
        3520.0,
        3525.0,
        3530.0,
        3535.0,
        3540.0,
        3545.0,
        3550.0,
        3555.0,
        3560.0,
        3565.0,
        3570.0,
        3575.0,
        3580.0,
        3585.0,
        3590.0,
        3595.0,
        3600.0,
        3605.0,
        3610.0,
        3615.0,
        3620.0,
        3625.0,
        3630.0,
        3635.0,
        3640.0,
        3645.0,
        3650.0,
        3655.0,
        3660.0,
        3665.0,
        3670.0,
        3675.0,
        3680.0,
        3685.0,
        3690.0,
        3695.0,
        3700.0,
        3705.0,
        3710.0,
        3715.0,
        3720.0,
        3725.0,
        3730.0,
        3735.0,
        3740.0,
        3745.0,
        3750.0,
        3755.0,
        3760.0,
        3765.0,
        3770.0,
        3775.0,
        3780.0,
        3785.0,
        3790.0,
        3795.0,
        3800.0,
        3805.0,
        3810.0,
        3815.0,
        3820.0,
        3825.0,
        3830.0,
        3835.0,
        3840.0,
        3845.0,
        3850.0,
        3855.0,
        3860.0,
        3865.0,
        3870.0,
        3875.0,
        3880.0,
        3885.0,
        3890.0,
        3895.0,
        3900.0,
        3905.0,
        3910.0,
        3915.0,
        3920.0,
        3925.0,
        3930.0,
        3935.0,
        3940.0,
        3945.0,
        3950.0,
        3955.0,
        3960.0,
        3965.0,
        3970.0,
        3975.0,
        3980.0,
        3985.0,
        3990.0,
        3995.0,
        4000.0,
        4005.0,
        4010.0,
        4015.0,
        4020.0,
        4025.0,
        4030.0,
        4035.0,
        4040.0,
        4045.0,
        4050.0,
        4055.0,
        4060.0,
        4065.0,
        4070.0,
        4075.0,
        4080.0,
        4085.0,
        4090.0,
        4095.0,
        4100.0,
        4105.0,
        4110.0,
        4115.0,
        4120.0,
        4125.0,
        4130.0,
        4135.0,
        4140.0,
        4145.0,
        4150.0,
        4155.0,
        4160.0,
        4165.0,
        4170.0,
        4175.0,
        4180.0,
        4185.0,
        4190.0,
        4195.0,
        4200.0,
        4205.0,
        4210.0,
        4215.0,
        4220.0,
        4225.0,
        4230.0,
        4235.0,
        4240.0,
        4245.0,
        4250.0,
        4255.0,
        4260.0,
        4265.0,
        4270.0,
        4275.0,
        4280.0,
        4285.0,
        4290.0,
        4295.0,
        4300.0,
        4305.0,
        4310.0,
        4315.0,
        4320.0,
        4325.0,
        4330.0,
        4335.0,
        4340.0,
        4345.0,
        4350.0,
        4355.0,
        4360.0,
        4365.0,
        4370.0,
        4375.0,
        4380.0,
        4385.0,
        4390.0,
        4395.0,
        4400.0,
        4405.0,
        4410.0,
        4415.0,
        4420.0,
        4425.0,
        4430.0,
        4435.0,
        4440.0,
        4445.0,
        4450.0,
        4455.0,
        4460.0,
        4465.0,
        4470.0,
        4475.0,
        4480.0,
        4485.0,
        4490.0,
        4495.0,
        4500.0,
        4505.0,
        4510.0,
        4515.0,
        4520.0,
        4525.0,
        4530.0,
        4535.0,
        4540.0,
        4545.0,
        4550.0,
        4555.0,
        4560.0,
        4565.0,
        4570.0,
        4575.0,
        4580.0,
        4585.0,
        4590.0,
        4595.0,
        4600.0,
        4605.0,
        4610.0,
        4615.0,
        4620.0,
        4625.0,
        4630.0,
        4635.0,
        4640.0,
        4645.0,
        4650.0,
        4655.0,
        4660.0,
        4665.0,
        4670.0,
        4675.0,
        4680.0,
        4685.0,
        4690.0,
        4695.0,
        4700.0,
        4705.0,
        4710.0,
        4715.0,
        4720.0,
        4725.0,
        4730.0,
        4735.0,
        4740.0,
        4745.0,
        4750.0,
        4755.0,
        4760.0,
        4765.0,
        4770.0,
        4775.0,
        4780.0,
        4785.0,
        4790.0,
        4795.0,
        4800.0,
        4805.0,
        4810.0,
        4815.0,
        4820.0,
        4825.0,
        4830.0,
        4835.0,
        4840.0,
        4845.0,
        4850.0,
        4855.0,
        4860.0,
        4865.0,
        4870.0,
        4875.0,
        4880.0,
        4885.0,
        4890.0,
        4895.0,
        4900.0,
        4905.0,
        4910.0,
        4915.0,
        4920.0,
        4925.0,
        4930.0,
        4935.0,
        4940.0,
        4945.0,
        4950.0,
        4955.0,
        4960.0,
        4965.0,
        4970.0,
        4975.0,
        4980.0,
        4985.0,
        4990.0,
        4995.0,
        5000.0,
        5005.0,
        5010.0,
        5015.0,
        5020.0,
        5025.0,
        5030.0,
        5035.0,
        5040.0,
        5045.0,
        5050.0,
        5055.0,
        5060.0,
        5065.0,
        5070.0,
        5075.0,
        5080.0,
        5085.0,
        5090.0,
        5095.0,
        5100.0,
        5105.0,
        5110.0,
        5115.0,
        5120.0,
        5125.0,
        5130.0,
        5135.0,
        5140.0,
        5145.0,
        5150.0,
        5155.0,
        5160.0,
        5165.0,
        5170.0,
        5175.0,
        5180.0,
        5185.0,
        5190.0,
        5195.0,
        5200.0,
        5205.0,
        5210.0,
        5215.0,
        5220.0,
        5225.0,
        5230.0,
        5235.0,
        5240.0,
        5245.0,
        5250.0,
        5255.0,
        5260.0,
        5265.0,
        5270.0,
        5275.0,
        5280.0,
        5285.0,
        5290.0,
        5295.0,
        5300.0,
        5305.0,
        5310.0,
        5315.0,
        5320.0,
        5325.0,
        5330.0,
        5335.0,
        5340.0,
        5345.0,
        5350.0,
        5355.0,
        5360.0,
        5365.0,
        5370.0,
        5375.0,
        5380.0,
        5385.0,
        5390.0,
        5395.0,
        5400.0,
        5405.0,
        5410.0,
        5415.0,
        5420.0,
        5425.0,
        5430.0,
        5435.0,
        5440.0,
        5445.0,
        5450.0,
        5455.0,
        5460.0,
        5465.0,
        5470.0,
        5475.0,
        5480.0,
        5485.0,
        5490.0,
        5495.0,
        5500.0,
        5505.0,
        5510.0,
        5515.0,
        5520.0,
        5525.0,
        5530.0,
        5535.0,
        5540.0,
        5545.0,
        5550.0,
        5555.0,
        5560.0,
        5565.0,
        5570.0,
        5575.0,
        5580.0,
        5585.0,
        5590.0,
        5595.0,
        5600.0,
        5605.0,
        5610.0,
        5615.0,
        5620.0,
        5625.0,
        5630.0,
        5635.0,
        5640.0,
        5645.0,
        5650.0,
        5655.0,
        5660.0,
        5665.0,
        5670.0,
        5675.0,
        5680.0,
        5685.0,
        5690.0,
        5695.0,
        5700.0,
        5705.0,
        5710.0,
        5715.0,
        5720.0,
        5725.0,
        5730.0,
        5735.0,
        5740.0,
        5745.0,
        5750.0,
        5755.0,
        5760.0,
        5765.0,
        5770.0,
        5775.0,
        5780.0,
        5785.0,
        5790.0,
        5795.0,
        5800.0,
        5805.0,
        5810.0,
        5815.0,
        5820.0,
        5825.0,
        5830.0,
        5835.0,
        5840.0,
        5845.0,
        5850.0,
        5855.0,
        5860.0,
        5865.0,
        5870.0,
        5875.0,
        5880.0,
        5885.0,
        5890.0,
        5895.0,
        5900.0,
        5905.0,
        5910.0,
        5915.0,
        5920.0,
        5925.0,
        5930.0,
        5935.0,
        5940.0,
        5945.0,
        5950.0,
        5955.0,
        5960.0,
        5965.0,
        5970.0,
        5975.0,
        5980.0,
        5985.0,
        5990.0,
        5995.0,
        6000.0,
        6005.0,
        6010.0,
        6015.0,
        6020.0,
        6025.0,
        6030.0,
        6035.0,
        6040.0,
        6045.0,
        6050.0,
        6055.0,
        6060.0,
        6065.0,
        6070.0,
        6075.0,
        6080.0,
        6085.0,
        6090.0,
        6095.0,
        6100.0,
        6105.0,
        6110.0,
        6115.0,
        6120.0,
        6125.0,
        6130.0,
        6135.0,
        6140.0,
        6145.0,
        6150.0,
        6155.0,
        6160.0,
        6165.0,
        6170.0,
        6175.0,
        6180.0,
        6185.0,
        6190.0,
        6195.0,
        6200.0,
        6205.0,
        6210.0,
        6215.0,
        6220.0,
        6225.0,
        6230.0,
        6235.0,
        6240.0,
        6245.0,
        6250.0,
        6255.0,
        6260.0,
        6265.0,
        6270.0,
        6275.0,
        6280.0,
        6285.0,
        6290.0,
        6295.0,
        6300.0,
        6305.0,
        6310.0,
        6315.0,
        6320.0,
        6325.0,
        6330.0,
        6335.0,
        6340.0,
        6345.0,
        6350.0,
        6355.0,
        6360.0,
        6365.0,
        6370.0,
        6375.0,
        6380.0,
        6385.0,
        6390.0,
        6395.0,
        6400.0,
        6405.0,
        6410.0,
        6415.0,
        6420.0,
        6425.0,
        6430.0,
        6435.0,
        6440.0,
        6445.0,
        6450.0,
        6455.0,
        6460.0,
        6465.0,
        6470.0,
        6475.0,
        6480.0,
        6485.0,
        6490.0,
        6495.0,
        6500.0,
        6505.0,
        6510.0,
        6515.0,
        6520.0,
        6525.0,
        6530.0,
        6535.0,
        6540.0,
        6545.0,
        6550.0,
        6555.0,
        6560.0,
        6565.0,
        6570.0,
        6575.0,
        6580.0,
        6585.0,
        6590.0,
        6595.0,
        6600.0,
        6605.0,
        6610.0,
        6615.0,
        6620.0,
        6625.0,
        6630.0,
        6635.0,
        6640.0,
        6645.0,
        6650.0,
        6655.0,
        6660.0,
        6665.0,
        6670.0,
        6675.0,
        6680.0,
        6685.0,
        6690.0,
        6695.0,
        6700.0,
        6705.0,
        6710.0,
        6715.0,
        6720.0,
        6725.0,
        6730.0,
        6735.0,
        6740.0,
        6745.0,
        6750.0,
        6755.0,
        6760.0,
        6765.0,
        6770.0,
        6775.0,
        6780.0,
        6785.0,
        6790.0,
        6795.0,
        6800.0,
        6805.0,
        6810.0,
        6815.0,
        6820.0,
        6825.0,
        6830.0,
        6835.0,
        6840.0,
        6845.0,
        6850.0,
        6855.0,
        6860.0,
        6865.0,
        6870.0,
        6875.0,
        6880.0,
        6885.0,
        6890.0,
        6895.0,
        6900.0,
        6905.0,
        6910.0,
        6915.0,
        6920.0,
        6925.0,
        6930.0,
        6935.0,
        6940.0,
        6945.0,
        6950.0,
        6955.0,
        6960.0,
        6965.0,
        6970.0,
        6975.0,
        6980.0,
        6985.0,
        6990.0,
        6995.0,
        7000.0,
        7005.0,
        7010.0,
        7015.0,
        7020.0,
        7025.0,
        7030.0,
        7035.0,
        7040.0,
        7045.0,
        7050.0,
        7055.0,
        7060.0,
        7065.0,
        7070.0,
        7075.0,
        7080.0,
        7085.0,
        7090.0,
        7095.0,
        7100.0,
        7105.0,
        7110.0,
        7115.0,
        7120.0,
        7125.0,
        7130.0,
        7135.0,
        7140.0,
        7145.0,
        7150.0,
        7155.0,
        7160.0,
        7165.0,
        7170.0,
        7175.0,
        7180.0,
        7185.0,
        7190.0,
        7195.0,
        7200.0,
        7205.0,
        7210.0,
        7215.0,
        7220.0,
        7225.0,
        7230.0,
        7235.0,
        7240.0,
        7245.0,
        7250.0,
        7255.0,
        7260.0,
        7265.0,
        7270.0,
        7275.0,
        7280.0,
        7285.0,
        7290.0,
        7295.0,
        7300.0,
        7305.0,
        7310.0,
        7315.0,
        7320.0,
        7325.0,
        7330.0,
        7335.0,
        7340.0,
        7345.0,
        7350.0,
        7355.0,
        7360.0,
        7365.0,
        7370.0,
        7375.0,
        7380.0,
        7385.0,
        7390.0,
        7395.0,
        7400.0,
        7405.0,
        7410.0,
        7415.0,
        7420.0,
        7425.0,
        7430.0,
        7435.0,
        7440.0,
        7445.0,
        7450.0,
        7455.0,
        7460.0,
        7465.0,
        7470.0,
        7475.0,
        7480.0,
        7485.0,
        7490.0,
        7495.0,
        7500.0,
        7505.0,
        7510.0,
        7515.0,
        7520.0,
        7525.0,
        7530.0,
        7535.0,
        7540.0,
        7545.0,
        7550.0,
        7555.0,
        7560.0,
        7565.0,
        7570.0,
        7575.0,
        7580.0,
        7585.0,
        7590.0,
        7595.0,
        7600.0,
        7605.0,
        7610.0,
        7615.0,
        7620.0,
        7625.0,
        7630.0,
        7635.0,
        7640.0,
        7645.0,
        7650.0,
        7655.0,
        7660.0,
        7665.0,
        7670.0,
        7675.0,
        7680.0,
        7685.0,
        7690.0,
        7695.0,
        7700.0,
        7705.0,
        7710.0,
        7715.0,
        7720.0,
        7725.0,
        7730.0,
        7735.0,
        7740.0,
        7745.0,
        7750.0,
        7755.0,
        7760.0,
        7765.0,
        7770.0,
        7775.0,
        7780.0,
        7785.0,
        7790.0,
        7795.0,
        7800.0,
        7805.0,
        7810.0,
        7815.0,
        7820.0,
        7825.0,
        7830.0,
        7835.0,
        7840.0,
        7845.0,
        7850.0,
        7855.0,
        7860.0,
        7865.0,
        7870.0,
        7875.0,
        7880.0,
        7885.0,
        7890.0,
        7895.0,
        7900.0,
        7905.0,
        7910.0,
        7915.0,
        7920.0,
        7925.0,
        7930.0,
        7935.0,
        7940.0,
        7945.0,
        7950.0,
        7955.0,
        7960.0,
        7965.0,
        7970.0,
        7975.0,
        7980.0,
        7985.0,
        7990.0,
        7995.0,
        8000.0,
        8005.0,
        8010.0,
        8015.0,
        8020.0,
        8025.0,
        8030.0,
        8035.0,
        8040.0,
        8045.0,
        8050.0,
        8055.0,
        8060.0,
        8065.0,
        8070.0,
        8075.0,
        8080.0,
        8085.0,
        8090.0,
        8095.0,
        8100.0,
        8105.0,
        8110.0,
        8115.0,
        8120.0,
        8125.0,
        8130.0,
        8135.0,
        8140.0,
        8145.0,
        8150.0,
        8155.0,
        8160.0,
        8165.0,
        8170.0,
        8175.0,
        8180.0,
        8185.0,
        8190.0,
        8195.0,
        8200.0,
        8205.0,
        8210.0,
        8215.0,
        8220.0,
        8225.0,
        8230.0,
        8235.0,
        8240.0,
        8245.0,
        8250.0,
        8255.0,
        8260.0,
        8265.0,
        8270.0,
        8275.0,
        8280.0,
        8285.0,
        8290.0,
        8295.0,
        8300.0,
        8305.0,
        8310.0,
        8315.0,
        8320.0,
        8325.0,
        8330.0,
        8335.0,
        8340.0,
        8345.0,
        8350.0,
        8355.0,
        8360.0,
        8365.0,
        8370.0,
        8375.0,
        8380.0,
        8385.0,
        8390.0,
        8395.0,
        8400.0,
        8405.0,
        8410.0,
        8415.0,
        8420.0,
        8425.0,
        8430.0,
        8435.0,
        8440.0,
        8445.0,
        8450.0,
        8455.0,
        8460.0,
        8465.0,
        8470.0,
        8475.0,
        8480.0,
        8485.0,
        8490.0,
        8495.0,
        8500.0,
        8505.0,
        8510.0,
        8515.0,
        8520.0,
        8525.0,
        8530.0,
        8535.0,
        8540.0,
        8545.0,
        8550.0,
        8555.0,
        8560.0,
        8565.0,
        8570.0,
        8575.0,
        8580.0,
        8585.0,
        8590.0,
        8595.0,
        8600.0,
        8605.0,
        8610.0,
        8615.0,
        8620.0,
        8625.0,
        8630.0,
        8635.0,
        8640.0,
        8645.0,
        8650.0,
        8655.0,
        8660.0,
        8665.0,
        8670.0,
        8675.0,
        8680.0,
        8685.0,
        8690.0,
        8695.0,
        8700.0,
        8705.0,
        8710.0,
        8715.0,
        8720.0,
        8725.0,
        8730.0,
        8735.0,
        8740.0,
        8745.0,
        8750.0,
        8755.0,
        8760.0,
        8765.0,
        8770.0,
        8775.0,
        8780.0,
        8785.0,
        8790.0,
        8795.0,
        8800.0,
        8805.0,
        8810.0,
        8815.0,
        8820.0,
        8825.0,
        8830.0,
        8835.0,
        8840.0,
        8845.0,
        8850.0,
        8855.0,
        8860.0,
        8865.0,
        8870.0,
        8875.0,
        8880.0,
        8885.0,
        8890.0,
        8895.0,
        8900.0,
        8905.0,
        8910.0,
        8915.0,
        8920.0,
        8925.0,
        8930.0,
        8935.0,
        8940.0,
        8945.0,
        8950.0,
        8955.0,
        8960.0,
        8965.0,
        8970.0,
        8975.0,
        8980.0,
        8985.0,
        8990.0,
        8995.0,
        9000.0,
        9005.0,
        9010.0,
        9015.0,
        9020.0,
        9025.0,
        9030.0,
        9035.0,
        9040.0,
        9045.0,
        9050.0,
        9055.0,
        9060.0,
        9065.0,
        9070.0,
        9075.0,
        9080.0,
        9085.0,
        9090.0,
        9095.0,
        9100.0,
        9105.0,
        9110.0,
        9115.0,
        9120.0,
        9125.0,
        9130.0,
        9135.0,
        9140.0,
        9145.0,
        9150.0,
        9155.0,
        9160.0,
        9165.0,
        9170.0,
        9175.0,
        9180.0,
        9185.0,
        9190.0,
        9195.0,
        9200.0,
        9205.0,
        9210.0,
        9215.0,
        9220.0,
        9225.0,
        9230.0,
        9235.0,
        9240.0,
        9245.0,
        9250.0,
        9255.0,
        9260.0,
        9265.0,
        9270.0,
        9275.0,
        9280.0,
        9285.0,
        9290.0,
        9295.0,
        9300.0,
        9305.0,
        9310.0,
        9315.0,
        9320.0,
        9325.0,
        9330.0,
        9335.0,
        9340.0,
        9345.0,
        9350.0,
        9355.0,
        9360.0,
        9365.0,
        9370.0,
        9375.0,
        9380.0,
        9385.0,
        9390.0,
        9395.0,
        9400.0,
        9405.0,
        9410.0,
        9415.0,
        9420.0,
        9425.0,
        9430.0,
        9435.0,
        9440.0,
        9445.0,
        9450.0,
        9455.0,
        9460.0,
        9465.0,
        9470.0,
        9475.0,
        9480.0,
        9485.0,
        9490.0,
        9495.0,
        9500.0,
        9505.0,
        9510.0,
        9515.0,
        9520.0,
        9525.0,
        9530.0,
        9535.0,
        9540.0,
        9545.0,
        9550.0,
        9555.0,
        9560.0,
        9565.0,
        9570.0,
        9575.0,
        9580.0,
        9585.0,
        9590.0,
        9595.0,
        9600.0,
        9605.0,
        9610.0,
        9615.0,
        9620.0,
        9625.0,
        9630.0,
        9635.0,
        9640.0,
        9645.0,
        9650.0,
        9655.0,
        9660.0,
        9665.0,
        9670.0,
        9675.0,
        9680.0,
        9685.0,
        9690.0,
        9695.0,
        9700.0,
        9705.0,
        9710.0,
        9715.0,
        9720.0,
        9725.0,
        9730.0,
        9735.0,
        9740.0,
        9745.0,
        9750.0,
        9755.0,
        9760.0,
        9765.0,
        9770.0,
        9775.0,
        9780.0,
        9785.0,
        9790.0,
        9795.0,
        9800.0,
        9805.0,
        9810.0,
        9815.0,
        9820.0,
        9825.0,
        9830.0,
        9835.0,
        9840.0,
        9845.0,
        9850.0,
        9855.0,
        9860.0,
        9865.0,
        9870.0,
        9875.0,
        9880.0,
        9885.0,
        9890.0,
        9895.0,
        9900.0,
        9905.0,
        9910.0,
        9915.0,
        9920.0,
        9925.0,
        9930.0,
        9935.0,
        9940.0,
        9945.0,
        9950.0,
        9955.0,
        9960.0,
        9965.0,
        9970.0,
        9975.0,
        9980.0,
        9985.0,
        9990.0,
        9995.0,
        10000.0,
        10005.0,
        10010.0,
        10015.0,
        10020.0,
        10025.0,
        10030.0,
        10035.0,
        10040.0,
        10045.0,
        10050.0,
        10055.0,
        10060.0,
        10065.0,
        10070.0,
        10075.0,
        10080.0,
        10085.0,
        10090.0,
        10095.0,
        10100.0,
        10105.0,
        10110.0,
        10115.0,
        10120.0,
        10125.0,
        10130.0,
        10135.0,
        10140.0,
        10145.0,
        10150.0,
        10155.0,
        10160.0,
        10165.0,
        10170.0,
        10175.0,
        10180.0,
        10185.0,
        10190.0,
        10195.0,
        10200.0,
        10205.0,
        10210.0,
        10215.0,
        10220.0,
        10225.0,
        10230.0,
        10235.0,
        10240.0,
        10245.0,
        10250.0,
        10255.0,
        10260.0,
        10265.0,
        10270.0,
        10275.0,
        10280.0,
        10285.0,
        10290.0,
        10295.0,
        10300.0,
        10305.0,
        10310.0,
        10315.0,
        10320.0,
        10325.0,
        10330.0,
        10335.0,
        10340.0,
        10345.0,
        10350.0,
        10355.0,
        10360.0,
        10365.0,
        10370.0,
        10375.0,
        10380.0,
        10385.0,
        10390.0,
        10395.0,
        10400.0,
        10405.0,
        10410.0,
        10415.0,
        10420.0,
        10425.0,
        10430.0,
        10435.0,
        10440.0,
        10445.0,
        10450.0,
        10455.0,
        10460.0,
        10465.0,
        10470.0,
        10475.0,
        10480.0,
        10485.0,
        10490.0,
        10495.0,
        10500.0
      ],
      "units":"angstrom"
    },
    "values":{
      "value":[
        0.006516,
        0.018401,
        0.015602,
        0.0,
        0.0,
        0.0,
        0.0,
        0.0,
        0.0,
        0.0,
        0.0,
        0.000336,
        0.01618,
        0.020992,
        0.013106,
        0.004364,
        0.000387,
        0.00082,
        0.002452,
        0.004063,
        0.00232,
        0.003562,
        0.00399,
        0.000336,
        0.002562,
        0.002182,
        0.004004,
        0.004936,
        0.001029,
        0.0,
        0.000781,
        0.003788,
        0.004194,
        0.002025,
        0.0,
        0.001903,
        0.001492,
        0.001223,
        0.00312,
        0.001672,
        0.000585,
        0.002153,
        0.002374,
        0.000724,
        0.0,
        0.001066,
        0.000383,
        0.0,
        0.0,
        0.0,
        0.0018,
        0.004077,
        0.0,
        0.0,
        0.00023,
        0.001268,
        0.001453,
        0.0,
        0.000123,
        0.002174,
        0.001482,
        0.00142,
        0.002608,
        0.001518,
        0.004072,
        0.002981,
        0.0,
        0.0,
        0.0,
        0.001286,
        0.0,
        0.000231,
        0.002091,
        0.001498,
        0.0,
        0.0,
        0.0,
        0.005198,
        0.006111,
        0.003826,
        0.001275,
        0.004071,
        0.003948,
        0.004145,
        0.000134,
        0.00038,
        0.004094,
        0.002963,
        0.0,
        0.00412,
        0.004887,
        0.0,
        0.000346,
        0.001533,
        0.00399,
        0.002185,
        0.000202,
        0.002062,
        0.001308,
        0.000721,
        0.000129,
        0.00165,
        0.003305,
        0.005093,
        0.004683,
        0.004413,
        0.003959,
        0.003988,
        0.007293,
        0.006833,
        0.013473,
        0.020165,
        0.026598,
        0.031218,
        0.030793,
        0.035054,
        0.03916,
        0.037813,
        0.043114,
        0.052198,
        0.063501,
        0.073784,
        0.070752,
        0.069438,
        0.08427,
        0.10452,
        0.10969,
        0.105533,
        0.108915,
        0.10707,
        0.115619,
        0.102064,
        0.104677,
        0.116443,
        0.11758,
        0.125514,
        0.128547,
        0.12013,
        0.099231,
        0.081585,
        0.079463,
        0.09764,
        0.109949,
        0.119585,
        0.133288,
        0.13367,
        0.144082,
        0.147677,
        0.139935,
        0.13369,
        0.127989,
        0.133968,
        0.142612,
        0.15435,
        0.155658,
        0.138397,
        0.100566,
        0.096943,
        0.148169,
        0.185213,
        0.183559,
        0.159956,
        0.167002,
        0.173065,
        0.172882,
        0.190741,
        0.166393,
        0.15838,
        0.145467,
        0.125976,
        0.121498,
        0.158699,
        0.155724,
        0.161793,
        0.165154,
        0.169128,
        0.173882,
        0.172225,
        0.183948,
        0.195727,
        0.22011,
        0.222203,
        0.20596,
        0.211849,
        0.197372,
        0.210773,
        0.245565,
        0.273278,
        0.259609,
        0.225616,
        0.217125,
        0.229304,
        0.227303,
        0.225826,
        0.241999,
        0.255474,
        0.261674,
        0.230617,
        0.226352,
        0.248335,
        0.246989,
        0.252625,
        0.269217,
        0.232858,
        0.200038,
        0.211613,
        0.207311,
        0.229359,
        0.258531,
        0.262641,
        0.264112,
        0.267018,
        0.267822,
        0.229503,
        0.228892,
        0.212049,
        0.225332,
        0.249005,
        0.293472,
        0.277648,
        0.241421,
        0.246126,
        0.248381,
        0.228078,
        0.216883,
        0.220231,
        0.220131,
        0.217178,
        0.240128,
        0.247741,
        0.249121,
        0.213004,
        0.21962,
        0.242211,
        0.24139,
        0.223174,
        0.226018,
        0.214319,
        0.207227,
        0.177476,
        0.153699,
        0.162062,
        0.196049,
        0.211723,
        0.186104,
        0.204096,
        0.201997,
        0.16389,
        0.146088,
        0.166222,
        0.165175,
        0.147066,
        0.13901,
        0.122271,
        0.159909,
        0.220658,
        0.249321,
        0.249031,
        0.242686,
        0.249199,
        0.253475,
        0.224227,
        0.211453,
        0.237325,
        0.229275,
        0.214304,
        0.210716,
        0.222585,
        0.208135,
        0.189588,
        0.213226,
        0.241907,
        0.217977,
        0.208921,
        0.184377,
        0.156371,
        0.166571,
        0.165092,
        0.176618,
        0.185265,
        0.179832,
        0.203152,
        0.222137,
        0.231991,
        0.261677,
        0.289213,
        0.283062,
        0.274223,
        0.270498,
        0.289499,
        0.257424,
        0.219532,
        0.222364,
        0.210825,
        0.236063,
        0.273106,
        0.256697,
        0.259844,
        0.341871,
        0.41052,
        0.435537,
        0.441651,
        0.447268,
        0.427348,
        0.40399,
        0.390473,
        0.43489,
        0.448929,
        0.440903,
        0.397875,
        0.387452,
        0.397458,
        0.404061,
        0.376313,
        0.377295,
        0.365082,
        0.393303,
        0.420689,
        0.375888,
        0.293731,
        0.262085,
        0.280875,
        0.282987,
        0.327029,
        0.346511,
        0.366949,
        0.378748,
        0.356053,
        0.331771,
        0.239253,
        0.130613,
        0.103486,
        0.167497,
        0.292417,
        0.406158,
        0.481317,
        0.476623,
        0.464466,
        0.455417,
        0.441778,
        0.426822,
        0.382612,
        0.396329,
        0.451765,
        0.46647,
        0.450756,
        0.482865,
        0.473273,
        0.44865,
        0.482308,
        0.487353,
        0.480962,
        0.523744,
        0.529762,
        0.539807,
        0.504619,
        0.481749,
        0.506623,
        0.490546,
        0.529389,
        0.541192,
        0.508656,
        0.545498,
        0.580471,
        0.55926,
        0.569161,
        0.553521,
        0.541834,
        0.53708,
        0.568898,
        0.570764,
        0.518654,
        0.55307,
        0.558363,
        0.536711,
        0.513377,
        0.543219,
        0.545255,
        0.526695,
        0.518156,
        0.532793,
        0.54973,
        0.560882,
        0.536653,
        0.543488,
        0.535516,
        0.56165,
        0.596122,
        0.581026,
        0.529006,
        0.502766,
        0.50775,
        0.558864,
        0.581061,
        0.561329,
        0.557401,
        0.5561,
        0.56566,
        0.598073,
        0.590608,
        0.561044,
        0.567107,
        0.593092,
        0.599733,
        0.600678,
        0.603763,
        0.582952,
        0.572806,
        0.594757,
        0.594491,
        0.662738,
        0.655942,
        0.637716,
        0.6128,
        0.592222,
        0.585486,
        0.589707,
        0.60048,
        0.619693,
        0.648386,
        0.677899,
        0.698141,
        0.703015,
        0.691986,
        0.682778,
        0.692015,
        0.71365,
        0.736649,
        0.752701,
        0.756392,
        0.751167,
        0.742268,
        0.733259,
        0.726471,
        0.720979,
        0.715855,
        0.713419,
        0.715745,
        0.720682,
        0.724808,
        0.723848,
        0.715311,
        0.70471,
        0.6989,
        0.702114,
        0.715493,
        0.730429,
        0.737844,
        0.736537,
        0.728426,
        0.72005,
        0.717467,
        0.720206,
        0.725479,
        0.727763,
        0.722385,
        0.710814,
        0.697231,
        0.690512,
        0.697242,
        0.710136,
        0.719738,
        0.721776,
        0.714986,
        0.704954,
        0.698083,
        0.697204,
        0.703735,
        0.717033,
        0.73448,
        0.747612,
        0.748997,
        0.781551,
        0.771053,
        0.766869,
        0.770538,
        0.788552,
        0.812351,
        0.825816,
        0.842279,
        0.835919,
        0.815267,
        0.797229,
        0.764033,
        0.741669,
        0.748998,
        0.741392,
        0.74493,
        0.788188,
        0.822183,
        0.81085,
        0.785994,
        0.801662,
        0.800946,
        0.818149,
        0.841253,
        0.83422,
        0.842363,
        0.844903,
        0.843046,
        0.87422,
        0.907612,
        0.917853,
        0.914509,
        0.898458,
        0.885157,
        0.87248,
        0.881965,
        0.911643,
        0.913872,
        0.890788,
        0.868077,
        0.88565,
        0.915369,
        0.896309,
        0.899085,
        0.877468,
        0.844542,
        0.879813,
        0.860164,
        0.851832,
        0.921603,
        0.965337,
        0.934377,
        0.911748,
        0.998549,
        1.096184,
        1.087206,
        1.01032,
        0.932279,
        0.954186,
        1.060609,
        1.101424,
        1.073042,
        1.031524,
        0.947459,
        0.826176,
        0.774626,
        0.905265,
        1.072122,
        1.143949,
        1.146134,
        1.14966,
        1.174512,
        1.148046,
        1.105018,
        1.028873,
        0.922567,
        0.898149,
        0.986612,
        1.06051,
        1.097454,
        1.132222,
        1.125091,
        1.061905,
        0.899411,
        0.676372,
        0.656489,
        0.884429,
        1.051995,
        1.105044,
        1.083402,
        0.932167,
        0.716794,
        0.693389,
        0.91318,
        1.088421,
        1.165662,
        1.210503,
        1.221789,
        1.222847,
        1.233756,
        1.250756,
        1.258182,
        1.262285,
        1.254386,
        1.240675,
        1.2486,
        1.246353,
        1.246697,
        1.245063,
        1.240156,
        1.224036,
        1.214796,
        1.211516,
        1.199536,
        1.207811,
        1.211388,
        1.179034,
        1.075648,
        0.979289,
        1.029331,
        1.151216,
        1.212575,
        1.234277,
        1.234559,
        1.238057,
        1.253611,
        1.258441,
        1.254184,
        1.251455,
        1.247186,
        1.251138,
        1.25686,
        1.226277,
        1.217329,
        1.221324,
        1.224509,
        1.237287,
        1.233743,
        1.217979,
        1.231652,
        1.245508,
        1.229297,
        1.206232,
        1.194724,
        1.192904,
        1.216656,
        1.221653,
        1.212281,
        1.206666,
        1.213644,
        1.220255,
        1.215032,
        1.195181,
        1.186401,
        1.195024,
        1.172486,
        1.145685,
        1.110629,
        1.064775,
        1.044936,
        1.075779,
        1.142028,
        1.166696,
        1.162732,
        1.135666,
        1.034437,
        0.961845,
        1.024139,
        1.119146,
        1.179733,
        1.221102,
        1.234274,
        1.223457,
        1.209404,
        1.196224,
        1.186339,
        1.206012,
        1.215114,
        1.207435,
        1.209433,
        1.224159,
        1.22838,
        1.236935,
        1.244551,
        1.236478,
        1.237539,
        1.23455,
        1.225516,
        1.210517,
        1.204961,
        1.208812,
        1.216314,
        1.219359,
        1.231652,
        1.226423,
        1.222713,
        1.227824,
        1.234687,
        1.246378,
        1.254057,
        1.246722,
        1.239954,
        1.22858,
        1.215997,
        1.195987,
        1.200472,
        1.214136,
        1.208826,
        1.200574,
        1.213221,
        1.230181,
        1.219731,
        1.212283,
        1.213471,
        1.206671,
        1.205923,
        1.210886,
        1.203456,
        1.20694,
        1.203448,
        1.195555,
        1.192439,
        1.212346,
        1.204912,
        1.200389,
        1.202789,
        1.20578,
        1.199367,
        1.192262,
        1.192025,
        1.196327,
        1.203311,
        1.197811,
        1.190436,
        1.204014,
        1.206665,
        1.205264,
        1.199786,
        1.184507,
        1.181019,
        1.173723,
        1.165334,
        1.15855,
        1.176456,
        1.181136,
        1.17255,
        1.166102,
        1.17024,
        1.17533,
        1.169652,
        1.162288,
        1.158253,
        1.162064,
        1.163431,
        1.177068,
        1.175579,
        1.177357,
        1.171108,
        1.165223,
        1.164131,
        1.158984,
        1.161068,
        1.166964,
        1.166173,
        1.165733,
        1.160213,
        1.149452,
        1.138366,
        1.106827,
        1.036297,
        0.989131,
        0.971669,
        1.000633,
        1.037901,
        1.092518,
        1.109622,
        1.12885,
        1.147553,
        1.149301,
        1.148148,
        1.140868,
        1.134142,
        1.135452,
        1.134432,
        1.129702,
        1.134773,
        1.148462,
        1.144072,
        1.144262,
        1.147785,
        1.136528,
        1.138681,
        1.142963,
        1.140769,
        1.132734,
        1.128004,
        1.126941,
        1.123984,
        1.126325,
        1.114175,
        1.108269,
        1.1025,
        1.106815,
        1.111376,
        1.117519,
        1.118561,
        1.112951,
        1.103561,
        1.107644,
        1.110033,
        1.116363,
        1.122257,
        1.117168,
        1.108665,
        1.099649,
        1.10184,
        1.109587,
        1.110649,
        1.115354,
        1.110296,
        1.11152,
        1.110587,
        1.100402,
        1.099857,
        1.090515,
        1.082017,
        1.079147,
        1.07786,
        1.079398,
        1.076578,
        1.072271,
        1.051263,
        1.027678,
        1.020493,
        1.017652,
        1.024204,
        1.029524,
        1.037797,
        1.046107,
        1.050493,
        1.054048,
        1.056886,
        1.060901,
        1.056237,
        1.049094,
        1.054759,
        1.066501,
        1.071932,
        1.069418,
        1.061582,
        1.047945,
        1.02502,
        1.008532,
        1.019972,
        1.038323,
        1.049625,
        1.054233,
        1.06082,
        1.066447,
        1.059068,
        1.05513,
        1.052933,
        1.043548,
        1.036932,
        1.032986,
        1.038378,
        1.04485,
        1.04293,
        1.043607,
        1.049568,
        1.049121,
        1.040021,
        1.030933,
        1.031593,
        1.03966,
        1.035615,
        1.034754,
        1.032392,
        1.023724,
        1.018053,
        1.017263,
        1.025125,
        1.027432,
        1.026301,
        1.024426,
        1.022545,
        1.023612,
        1.018827,
        1.008621,
        1.010123,
        1.015551,
        1.018515,
        1.009877,
        1.011483,
        1.011416,
        1.016473,
        1.016839,
        1.01374,
        1.016124,
        1.013159,
        1.008655,
        1.009517,
        1.008315,
        1.006991,
        1.002815,
        1.005143,
        1.01006,
        1.015608,
        1.017231,
        1.008532,
        1.005334,
        1.001808,
        0.993954,
        0.995426,
        0.999918,
        0.983748,
        0.977675,
        0.977474,
        0.980436,
        0.989571,
        0.995699,
        0.983013,
        0.980099,
        0.987762,
        0.987377,
        0.992051,
        0.990732,
        0.991942,
        0.989633,
        0.978714,
        0.972309,
        0.971686,
        0.977714,
        0.981377,
        0.973805,
        0.964204,
        0.967012,
        0.973552,
        0.972156,
        0.965371,
        0.96084,
        0.964327,
        0.962891,
        0.965958,
        0.966902,
        0.966828,
        0.964035,
        0.958161,
        0.957865,
        0.956624,
        0.953846,
        0.955869,
        0.95986,
        0.962765,
        0.956699,
        0.949188,
        0.951825,
        0.950017,
        0.950229,
        0.952921,
        0.951369,
        0.94952,
        0.952496,
        0.955634,
        0.956826,
        0.956045,
        0.953615,
        0.948235,
        0.940944,
        0.932009,
        0.937783,
        0.948719,
        0.946395,
        0.940383,
        0.922026,
        0.89489,
        0.882013,
        0.896694,
        0.918845,
        0.927642,
        0.923591,
        0.919951,
        0.916453,
        0.916421,
        0.917772,
        0.921388,
        0.908251,
        0.900869,
        0.902743,
        0.911232,
        0.918996,
        0.914393,
        0.909856,
        0.905637,
        0.908493,
        0.903132,
        0.908289,
        0.913106,
        0.909748,
        0.903849,
        0.900552,
        0.896912,
        0.893585,
        0.891586,
        0.889554,
        0.893578,
        0.895623,
        0.89931,
        0.894728,
        0.894784,
        0.890796,
        0.888189,
        0.88689,
        0.876034,
        0.87492,
        0.880846,
        0.879173,
        0.874945,
        0.873343,
        0.876218,
        0.874055,
        0.868206,
        0.867301,
        0.864095,
        0.856508,
        0.847866,
        0.858493,
        0.859574,
        0.86655,
        0.85933,
        0.856008,
        0.848682,
        0.849835,
        0.86235,
        0.864172,
        0.853388,
        0.856066,
        0.863091,
        0.863432,
        0.864638,
        0.860025,
        0.851949,
        0.844296,
        0.841899,
        0.844092,
        0.845425,
        0.84606,
        0.845047,
        0.837657,
        0.840143,
        0.833804,
        0.82992,
        0.820282,
        0.815653,
        0.807537,
        0.816917,
        0.830037,
        0.826238,
        0.828121,
        0.825129,
        0.825658,
        0.819216,
        0.821866,
        0.829639,
        0.820709,
        0.820239,
        0.823091,
        0.820915,
        0.817295,
        0.814281,
        0.815732,
        0.816513,
        0.819561,
        0.815746,
        0.807117,
        0.807407,
        0.804192,
        0.801036,
        0.804517,
        0.805095,
        0.808931,
        0.803481,
        0.803092,
        0.802533,
        0.804639,
        0.800975,
        0.800549,
        0.795551,
        0.79081,
        0.787478,
        0.778747,
        0.779441,
        0.785637,
        0.781074,
        0.781351,
        0.771868,
        0.768986,
        0.773409,
        0.776051,
        0.774216,
        0.776143,
        0.775608,
        0.770825,
        0.765924,
        0.757245,
        0.74567,
        0.733659,
        0.707375,
        0.669414,
        0.633942,
        0.652101,
        0.674252,
        0.711097,
        0.741874,
        0.751939,
        0.754771,
        0.75146,
        0.75301,
        0.75837,
        0.760171,
        0.762456,
        0.760988,
        0.756489,
        0.760035,
        0.758541,
        0.756114,
        0.752707,
        0.751939,
        0.752898,
        0.750805,
        0.744034,
        0.750389,
        0.751879,
        0.749034,
        0.750269,
        0.752475,
        0.75112,
        0.743391,
        0.740959,
        0.741888,
        0.735934,
        0.736005,
        0.736222,
        0.735913,
        0.728959,
        0.732315,
        0.731399,
        0.731263,
        0.73141,
        0.732059,
        0.728361,
        0.722785,
        0.718785,
        0.725751,
        0.727663,
        0.722475,
        0.725964,
        0.727723,
        0.725596,
        0.727281,
        0.730692,
        0.728147,
        0.7252,
        0.72933,
        0.727718,
        0.727164,
        0.726138,
        0.725111,
        0.724085,
        0.723058,
        0.722032,
        0.721005,
        0.719979,
        0.718952,
        0.717926,
        0.7169,
        0.715873,
        0.714847,
        0.71382,
        0.712794,
        0.711767,
        0.710741,
        0.709714,
        0.708688,
        0.707661,
        0.706635,
        0.705608,
        0.704582,
        0.703555,
        0.702529,
        0.701503,
        0.700476,
        0.69945,
        0.698423,
        0.689352,
        0.687578,
        0.685859,
        0.690926,
        0.686979,
        0.680811,
        0.680204,
        0.680691,
        0.675403,
        0.670792,
        0.675067,
        0.676856,
        0.675904,
        0.67919,
        0.679804,
        0.674159,
        0.669452,
        0.667058,
        0.672168,
        0.678652,
        0.675925,
        0.670724,
        0.672526,
        0.674239,
        0.670499,
        0.675135,
        0.674643,
        0.674157,
        0.673386,
        0.672931,
        0.673131,
        0.67035,
        0.670759,
        0.667811,
        0.664365,
        0.663439,
        0.664344,
        0.660972,
        0.64421,
        0.639151,
        0.635577,
        0.628178,
        0.634832,
        0.63569,
        0.630209,
        0.633441,
        0.656774,
        0.66714,
        0.667958,
        0.660178,
        0.652838,
        0.638137,
        0.641022,
        0.64347,
        0.638973,
        0.633777,
        0.639439,
        0.636647,
        0.634421,
        0.627565,
        0.631665,
        0.636975,
        0.624699,
        0.628957,
        0.62496,
        0.616954,
        0.625219,
        0.622509,
        0.624074,
        0.634377,
        0.63381,
        0.627102,
        0.627491,
        0.631825,
        0.636336,
        0.637632,
        0.627426,
        0.620893,
        0.618396,
        0.619429,
        0.611913,
        0.60576,
        0.601431,
        0.602834,
        0.609842,
        0.610989,
        0.611676,
        0.60305,
        0.604725,
        0.608014,
        0.612027,
        0.612997,
        0.610308,
        0.607276,
        0.607082,
        0.608548,
        0.607854,
        0.605968,
        0.605083,
        0.604939,
        0.604016,
        0.603576,
        0.599843,
        0.596528,
        0.59611,
        0.596488,
        0.592953,
        0.592449,
        0.594118,
        0.592694,
        0.590783,
        0.592167,
        0.592643,
        0.592308,
        0.589742,
        0.589005,
        0.588268,
        0.587532,
        0.586795,
        0.586058,
        0.585322,
        0.584585,
        0.583848,
        0.583112,
        0.582375,
        0.581638,
        0.580901,
        0.580165,
        0.579428,
        0.578691,
        0.577955,
        0.577218,
        0.576481,
        0.575744,
        0.575008,
        0.574271,
        0.573534,
        0.572798,
        0.572061,
        0.571324,
        0.570588,
        0.569851,
        0.569114,
        0.568377,
        0.567641,
        0.566904,
        0.566167,
        0.565431,
        0.564694,
        0.563957,
        0.563221,
        0.563325,
        0.561752,
        0.5581,
        0.557599,
        0.558613,
        0.56052,
        0.559111,
        0.55342,
        0.546239,
        0.549197,
        0.553901,
        0.5546,
        0.554545,
        0.552101,
        0.552879,
        0.553021,
        0.553213,
        0.554601,
        0.552763,
        0.549015,
        0.547502,
        0.548706,
        0.550189,
        0.54986,
        0.547509,
        0.548238,
        0.547711,
        0.54633,
        0.545451,
        0.543336,
        0.542929,
        0.540548,
        0.538156,
        0.537741,
        0.539379,
        0.539068,
        0.536704,
        0.535495,
        0.535165,
        0.531857,
        0.532006,
        0.532327,
        0.531137,
        0.533821,
        0.534941,
        0.531737,
        0.529316,
        0.532071,
        0.532391,
        0.53336,
        0.532834,
        0.530055,
        0.527904,
        0.523771,
        0.523797,
        0.5237,
        0.523593,
        0.524426,
        0.52125,
        0.520244,
        0.521536,
        0.520768,
        0.517881,
        0.518661,
        0.522573,
        0.522753,
        0.52216,
        0.521487,
        0.52025,
        0.519105,
        0.516317,
        0.514913,
        0.513043,
        0.512445,
        0.511847,
        0.511249,
        0.51065,
        0.510052,
        0.509454,
        0.508856,
        0.508258,
        0.507659,
        0.507061,
        0.506463,
        0.505865,
        0.505267,
        0.504668,
        0.50407,
        0.503472,
        0.502874,
        0.502276,
        0.501677,
        0.501079,
        0.500481,
        0.499883,
        0.499285,
        0.498686,
        0.498088,
        0.49749,
        0.496892,
        0.496294,
        0.495695,
        0.495097,
        0.494499,
        0.493901,
        0.493303,
        0.492704,
        0.492106,
        0.491508,
        0.49091,
        0.490312,
        0.489713,
        0.489115,
        0.488517,
        0.487919,
        0.487321,
        0.486722,
        0.486124,
        0.485526,
        0.484928,
        0.48433,
        0.483732,
        0.483133,
        0.482535,
        0.481937,
        0.481339,
        0.480741,
        0.480142,
        0.479544,
        0.478946,
        0.478348,
        0.47775,
        0.477151,
        0.476553,
        0.475955,
        0.476877,
        0.47743,
        0.475546,
        0.476825,
        0.475379,
        0.473121,
        0.468193,
        0.467522,
        0.468012,
        0.471239,
        0.470088,
        0.466702,
        0.466829,
        0.468276,
        0.466327,
        0.467284,
        0.462021,
        0.444089,
        0.432169,
        0.447464,
        0.457724,
        0.455188,
        0.456959,
        0.458622,
        0.454352,
        0.436405,
        0.39715,
        0.391097,
        0.429372,
        0.44907,
        0.450413,
        0.453134,
        0.452143,
        0.451041,
        0.448751,
        0.449024,
        0.447667,
        0.446542,
        0.445076,
        0.446952,
        0.447872,
        0.448456,
        0.449302,
        0.44805,
        0.446161,
        0.447522,
        0.447482,
        0.444312,
        0.43955,
        0.428869,
        0.39867,
        0.388574,
        0.42181,
        0.436963,
        0.440469,
        0.439767,
        0.438481,
        0.44053,
        0.442611,
        0.443833,
        0.440372,
        0.441347,
        0.441018,
        0.442076,
        0.441423,
        0.437822,
        0.434659,
        0.430607,
        0.425384,
        0.428508,
        0.432894,
        0.435537,
        0.436855,
        0.436034,
        0.436894,
        0.437693,
        0.434926,
        0.434291,
        0.433424,
        0.425865,
        0.426216,
        0.432771,
        0.433546,
        0.430925,
        0.431203,
        0.431131,
        0.429828,
        0.428806,
        0.425571,
        0.421653,
        0.415073,
        0.411525,
        0.419419,
        0.425476,
        0.427559,
        0.429718,
        0.431677,
        0.430383,
        0.431116,
        0.428753,
        0.427263,
        0.42569,
        0.425028,
        0.418552,
        0.412423,
        0.407445,
        0.401917,
        0.395957,
        0.389682,
        0.383208,
        0.376654,
        0.370164,
        0.363995,
        0.358433,
        0.353763,
        0.350323,
        0.34867,
        0.34941,
        0.353152,
        0.360188,
        0.369543,
        0.379924,
        0.39004,
        0.398712,
        0.405205,
        0.408901,
        0.409178,
        0.405774,
        0.399859,
        0.392959,
        0.386604,
        0.382038,
        0.379376,
        0.378452,
        0.379098,
        0.381035,
        0.383532,
        0.385743,
        0.386825,
        0.386178,
        0.384183,
        0.381467,
        0.378657,
        0.376308,
        0.374695,
        0.374022,
        0.374496,
        0.376216,
        0.378872,
        0.382051,
        0.385338,
        0.388384,
        0.391093,
        0.393433,
        0.395373,
        0.396861,
        0.397763,
        0.397924,
        0.39719,
        0.395525,
        0.393371,
        0.391289,
        0.389839,
        0.389493,
        0.390365,
        0.392479,
        0.39586,
        0.400339,
        0.404977,
        0.40864,
        0.410197,
        0.408726,
        0.404148,
        0.396597,
        0.386203,
        0.373254,
        0.358643,
        0.343418,
        0.328626,
        0.315223,
        0.303793,
        0.29483,
        0.288824,
        0.286167,
        0.286834,
        0.290698,
        0.297635,
        0.307411,
        0.319377,
        0.332777,
        0.346856,
        0.360787,
        0.373454,
        0.383671,
        0.390251,
        0.392254,
        0.389736,
        0.382998,
        0.372344,
        0.35843,
        0.343331,
        0.329476,
        0.319296,
        0.314573,
        0.314516,
        0.317685,
        0.322643,
        0.328148,
        0.333751,
        0.3392,
        0.344241,
        0.348656,
        0.352361,
        0.355303,
        0.357433,
        0.358706,
        0.359107,
        0.358626,
        0.357255,
        0.355103,
        0.352741,
        0.350859,
        0.350146,
        0.351073,
        0.353244,
        0.356046,
        0.358867,
        0.361148,
        0.362554,
        0.362805,
        0.361621,
        0.358855,
        0.354891,
        0.350249,
        0.345448,
        0.340947,
        0.336981,
        0.333725,
        0.331353,
        0.329945,
        0.329192,
        0.328691,
        0.328037,
        0.327011,
        0.326133,
        0.326109,
        0.327643,
        0.331222,
        0.336447,
        0.3427,
        0.349365,
        0.355832,
        0.361528,
        0.365889,
        0.368351,
        0.368548,
        0.366893,
        0.363998,
        0.360476,
        0.356849,
        0.353283,
        0.349857,
        0.346648,
        0.343716,
        0.34105,
        0.338621,
        0.336398,
        0.33435,
        0.332426,
        0.330574,
        0.328741,
        0.326888,
        0.325034,
        0.323213,
        0.321457,
        0.319825,
        0.318473,
        0.317586,
        0.317343,
        0.317863,
        0.318997,
        0.320532,
        0.322255,
        0.323959,
        0.325458,
        0.326573,
        0.327125,
        0.32698,
        0.326186,
        0.324838,
        0.32303,
        0.320856,
        0.318416,
        0.315812,
        0.313144,
        0.310568,
        0.308452,
        0.307223,
        0.307303,
        0.308945,
        0.311716,
        0.31501,
        0.318222,
        0.320843,
        0.322739,
        0.323873,
        0.324208,
        0.323769,
        0.322829,
        0.321726,
        0.320797,
        0.320284,
        0.320053,
        0.319872,
        0.319513,
        0.318772,
        0.317558,
        0.315806,
        0.31345,
        0.310511,
        0.307343,
        0.304383,
        0.302072,
        0.300757,
        0.30043,
        0.300995,
        0.302353,
        0.304335,
        0.30648,
        0.308256,
        0.309131,
        0.308746,
        0.307436,
        0.305711,
        0.304079,
        0.302946,
        0.302299,
        0.302021,
        0.301996,
        0.302124,
        0.302369,
        0.302714,
        0.30314,
        0.303624,
        0.304111,
        0.304542,
        0.304855,
        0.305007,
        0.305023,
        0.304945,
        0.304815,
        0.304698,
        0.304765,
        0.305206,
        0.306215,
        0.307832,
        0.309474,
        0.31041,
        0.309903,
        0.307481,
        0.30372,
        0.299453,
        0.295519,
        0.292645,
        0.291129,
        0.291164,
        0.292939,
        0.296444,
        0.300854,
        0.305141,
        0.308278,
        0.309452,
        0.308712,
        0.306324,
        0.302551,
        0.297759,
        0.292711,
        0.288273,
        0.285308,
        0.288158,
        0.28832,
        0.288891,
        0.28949,
        0.289804,
        0.289795,
        0.289493,
        0.288927,
        0.288141,
        0.287241,
        0.286347,
        0.285579,
        0.285036,
        0.284726,
        0.284636,
        0.284752,
        0.285066,
        0.285594,
        0.286359,
        0.287384,
        0.288629,
        0.289805,
        0.29056,
        0.290544,
        0.289522,
        0.287731,
        0.285522,
        0.283249,
        0.281227,
        0.27961,
        0.278514,
        0.278057,
        0.278285,
        0.278971,
        0.279817,
        0.280526,
        0.280865,
        0.280855,
        0.280581,
        0.280125
      ],
      "range":1
    }
  }
]
