[
  {
    "model": "M82",
    "name": "Galaxy, starburst (M82)",
    "type": "WB_REF",
    "dataQualityMarker": 3,
    "dataSource": "http://www.iasf-milano.inaf.it/~polletta/templates/swire_templates.html",
    "manufacturer": "SWIRE Template Library",
    "version": 1,
    "wavelength": { 
       "value": [1005,1015,1025,1035,1045,1055,1065,1075,1085,1095,1105,1115,1125,1135,1145,1155,1165,1175,1185,1195,1205,1215,1225,1235,1245,1255,1265,1275,1285,1295,1305,1315,1325,1335,1345,1355,1365,1375,1385,1395,1405,1415,1425,1435,1442,1447,1455,1465,1475,1485,1495,1505,1512,1517,1525,1535,1545,1555,1565,1575,1585,1595,1605,1615,1625,1635,1645,1655,1665,1672,1677,1685,1695,1705,1715,1725,1735,1745,1755,1765,1775,1785,1795,1805,1815,1825,1835,1845,1855,1865,1875,1885,1895,1905,1915,1925,1935,1945,1955,1967,1976,1984,1995,2005,2015,2025,2035,2045,2055,2065,2074,2078,2085,2095,2105,2115,2125,2135,2145,2155,2165,2175,2185,2195,2205,2215,2225,2235,2245,2255,2265,2275,2285,2295,2305,2315,2325,2335,2345,2355,2365,2375,2385,2395,2405,2415,2425,2435,2445,2455,2465,2475,2485,2495,2505,2513,2518,2525,2535,2545,2555,2565,2575,2585,2595,2605,2615,2625,2635,2645,2655,2665,2675,2685,2695,2705,2715,2725,2735,2745,2755,2765,2775,2785,2795,2805,2815,2825,2835,2845,2855,2865,2875,2885,2895,2910,2930,2950,2970,2990,3010,3030,3050,3070,3090,3110,3130,3150,3170,3190,3210,3230,3250,3270,3290,3310,3330,3350,3370,3390,3410,3430,3450,3470,3490,3510,3530,3550,3570,3590,3610,3630,3640,3650,3670,3690,3710,3730,3750,3770,3790,3810,3830,3850,3870,3890,3910,3930,3950,3970,3990,4010,4030,4050,4070,4090,4110,4130,4150,4170,4190,4210,4230,4250,4270,4290,4310,4330,4350,4370,4390,4410,4430,4450,4470,4490,4510,4530,4550,4570,4590,4610,4630,4650,4670,4690,4710,4730,4750,4770,4790,4810,4830,4850,4870,4890,4910,4930,4950,4970,4990,5010,5030,5050,5070,5090,5110,5130,5150,5170,5190,5210,5230,5250,5270,5290,5310,5330,5350,5370,5390,5410,5430,5450,5470,5490,5510,5530,5550,5570,5590,5610,5630,5650,5670,5690,5710,5730,5750,5770,5790,5810,5830,5850,5870,5890,5910,5930,5950,5970,5990,6010,6030,6050,6070,6090,6110,6130,6150,6170,6190,6210,6230,6250,6270,6290,6310,6330,6350,6370,6390,6410,6430,6450,6470,6490,6510,6530,6550,6570,6590,6610,6630,6650,6670,6690,6710,6730,6750,6770,6790,6810,6830,6850,6870,6890,6910,6930,6950,6970,6990,7010,7030,7050,7070,7090,7110,7130,7150,7170,7190,7210,7230,7250,7270,7290,7310,7330,7350,7370,7390,7410,7430,7450,7470,7490,7510,7530,7550,7570,7590,7610,7630,7650,7670,7690,7710,7730,7750,7770,7790,7810,7830,7850,7870,7890,7910,7930,7950,7970,7990,8010,8030,8050,8070,8090,8110,8130,8150,8170,8190,8210,8230,8250,8270,8290,8310,8330,8350,8370,8390,8410,8430,8450,8470,8490,8510,8530,8550,8570,8590,8610,8630,8650,8670,8690,8710,8730,8750,8770,8790,8810,8830,8850,8870,8890,8910,8930,8950,8970,8990,9010,9030,9050,9070,9090,9110,9130,9150,9170,9190,9210,9230,9250,9270,9290,9310,9330,9350,9370,9390,9410,9430,9450,9470,9490,9510,9530,9550,9570,9590,9610,9630,9650,9670,9690,9710,9730,9750,9770,9790,9810,9830,9850,9870,9890,9910,9930,9950,9970,9990,10030,10070,10130,10170,10220,10280,10320,10380,10430,10480,10520,10580,10630,10680,10720,10780,10820,10870,10920,10980,11020,11080,11130,11170,11220,11280,11330,11380,11430,11470,11530,11570,11620,11670,11730,11770,11830,11870,11920,11980,12030,12070,12120,12180,12230,12270,12320,12370,12430,12480,12530,12580,12620,12670,12720,12780,12830,12880,12920,12980,13020,13080,13130,13180,13230,13280,13320,13380,13430,13470,13520,13570,13630,13670,13730,13770,13820,13880,13930,13970,14020,14080,14120,14180,14230,14280,14330,14380,14420,14480,14520,14570,14620,14670,14720,14770,14830,14880,14920,14980,15030,15070,15120,15170,15220,15280,15330,15370,15430,15480,15520,15570,15620,15670,15720,15780,15830,15870,15930,15980,16050,16150,16250,16350,16450,16550,16650,16750,16850,16950,17050,17150,17250,17350,17450,17550,17650,17750,17850,17950,18050,18150,18250,18350,18450,18550,18650,18750,18850,18950,19050,19150,19250,19350,19450,19550,19650,19750,19850,19950,20050,20150,20250,20350,20450,20550,20650,20750,20850,20950,21050,21150,21250,21350,21450,21550,21650,21750,21850,21950,22050,22150,22250,22350,22450,22550,22650,22750,22850,22950,23050,23150,23250,23350,23450,23550,23650,23750,23850,23950,24050,24150,24250,24350,24450,24550,24650,24750,24850,24950,25050],
       "units": "angstrom"
    },
    "values": {
      "value": [0.43888,0.4119,0.245772,0.307308,0.50522,0.534972,0.456065,0.520002,0.422803,0.528503,0.571006,0.561212,0.560289,0.655641,0.598909,0.658412,0.701284,0.594844,0.654716,0.34482,0.314884,0.210847,0.357941,0.679109,0.816409,0.767069,0.558625,0.899381,0.985863,0.773906,0.694632,0.929317,0.919339,0.755797,0.994548,0.955556,0.831006,0.925251,0.943359,0.920632,0.926175,0.863901,0.915272,0.867781,0.938926,0.980688,0.941328,0.860574,0.835628,0.873326,0.908989,0.871107,0.767623,0.84265,0.764852,0.666912,0.80255,0.734361,0.707936,0.742492,0.797005,0.820291,0.781852,0.788505,0.724937,0.765591,0.780006,0.689457,0.769101,0.634574,0.753951,0.819551,0.76245,0.714219,0.667652,0.659891,0.703316,0.687979,0.751547,0.651206,0.692784,0.69574,0.753765,0.732698,0.683545,0.680588,0.645846,0.5893,0.585789,0.60279,0.657303,0.609442,0.590594,0.604823,0.590778,0.585235,0.586712,0.608704,0.576735,0.628847,0.640672,0.603899,0.578398,0.587452,0.55456,0.584125,0.556593,0.581353,0.550125,0.547353,0.583572,0.570821,0.583386,0.548277,0.539037,0.541809,0.548277,0.488589,0.520002,0.536634,0.507623,0.498937,0.491731,0.51834,0.494317,0.459021,0.440543,0.48785,0.452,0.428717,0.441098,0.461055,0.479349,0.454957,0.444608,0.418738,0.31433,0.382149,0.362746,0.409498,0.359604,0.378638,0.339462,0.376236,0.356832,0.370137,0.404509,0.386769,0.419293,0.408943,0.408019,0.387878,0.403954,0.392128,0.437772,0.376236,0.385291,0.362561,0.373279,0.366072,0.404693,0.388247,0.421509,0.413009,0.405062,0.384921,0.379008,0.405617,0.427238,0.478425,0.49709,0.431858,0.459761,0.459207,0.431489,0.454403,0.418553,0.413748,0.444978,0.366257,0.378638,0.400813,0.424466,0.392867,0.295112,0.324864,0.420031,0.45311,0.433521,0.410976,0.389356,0.446827,0.455326,0.450522,0.453294,0.512982,0.483969,0.473435,0.483784,0.485632,0.494872,0.494872,0.495057,0.50134,0.505036,0.510579,0.499491,0.501525,0.507807,0.473435,0.496535,0.464751,0.512797,0.54107,0.534972,0.527949,0.526655,0.516862,0.474914,0.488404,0.492654,0.495057,0.503373,0.503927,0.521666,0.535895,0.512613,0.543287,0.47011,0.468816,0.50485,0.515014,0.520927,0.557886,0.560658,0.512982,0.55456,0.490067,0.579506,0.64215,0.719208,0.769471,0.578582,0.76171,0.813823,0.631803,0.884411,0.665618,0.811236,0.518709,0.93837,1.02245,1.0158,0.998798,0.955556,0.942437,0.815855,0.969785,0.991406,0.990483,0.982537,0.985677,0.953709,0.980688,0.938187,0.916382,0.838029,0.884596,0.826018,1.01949,0.962764,0.987341,1.01099,1.02078,1.05147,1.05774,1.15236,1.04832,1.06809,1.13,1.07881,1.09859,1.06735,1.08085,1.10782,1.08417,1.04721,1.08509,1.10523,1.09415,1.091,1.079,1.09322,0.976809,0.86002,1.04388,1.05479,1.03501,1.07363,1.05719,0.994548,0.945394,0.991776,0.983462,1.01968,0.972743,0.989745,0.957404,0.926915,0.87351,0.892358,0.940588,0.987341,1.02041,0.918229,1.02578,1.07012,0.961655,1.03686,1.03039,1.00674,0.990299,1.00397,1.02855,1.00416,1.00508,0.994917,1.02134,1.03224,1.01284,0.990114,1.02041,1.00988,1.01949,0.995843,1.02375,0.992515,1.06532,1.02337,1.03335,0.994179,1.03095,1.05755,1.02504,1.02208,0.913979,1.00452,1.01099,1.00877,1.02375,1.00434,0.990483,1.01487,1.02984,1.02707,0.98956,0.991038,0.940035,0.959992,0.918229,0.971079,0.961471,0.931534,0.900673,0.942437,0.958514,0.930796,0.942437,0.936525,0.931718,0.953155,0.934121,0.941512,0.933383,0.932088,0.912132,0.940404,0.933568,0.895685,0.824908,0.916565,0.931534,0.922848,0.923034,0.901598,0.914163,0.879793,0.901968,0.885891,0.89014,0.877946,0.882379,0.891249,0.868151,0.882195,0.89402,0.889956,0.881824,0.880531,0.890326,0.88515,0.869259,0.887739,0.892544,0.867043,0.840986,0.818996,0.803288,0.801071,0.809386,0.789983,0.809202,0.82417,0.829528,0.833595,0.819736,0.842095,0.844496,0.851889,0.872215,0.854477,0.853552,0.871846,0.872031,0.884227,0.88164,0.891618,0.905848,0.911577,0.906957,0.889033,0.874248,0.857618,0.840986,0.801627,0.821029,0.806431,0.806615,0.801071,0.809756,0.818811,0.81567,0.808832,0.796636,0.810682,0.796636,0.778897,0.781667,0.774277,0.801071,0.801071,0.808278,0.810126,0.810311,0.818996,0.809571,0.817703,0.84117,0.849856,0.858541,0.83304,0.822322,0.828235,0.827681,0.837659,0.82805,0.797376,0.793126,0.792757,0.798854,0.772059,0.796636,0.758569,0.741385,0.741754,0.746743,0.710339,0.744525,0.670608,0.772983,0.756906,0.765037,0.789799,0.784809,0.690566,0.769656,0.801995,0.805507,0.782592,0.811236,0.825278,0.809386,0.817333,0.810311,0.768917,0.797005,0.810865,0.794049,0.797746,0.799963,0.798854,0.760047,0.795713,0.831377,0.831193,0.813453,0.825093,0.842835,0.836367,0.835073,0.844496,0.804952,0.769842,0.780006,0.789983,0.782222,0.78869,0.78943,0.786842,0.773538,0.787212,0.767993,0.791831,0.778711,0.798854,0.800516,0.7837,0.784255,0.756351,0.778342,0.798854,0.787765,0.791647,0.778527,0.777971,0.792202,0.779821,0.772613,0.769101,0.773353,0.762266,0.782592,0.773353,0.780189,0.77446,0.773723,0.767438,0.772613,0.774277,0.774831,0.77169,0.766516,0.75432,0.769842,0.76134,0.764667,0.767255,0.757645,0.752287,0.755613,0.744341,0.737503,0.722904,0.716622,0.708121,0.713295,0.709045,0.698142,0.695925,0.688903,0.683914,0.682805,0.672086,0.670424,0.665804,0.665988,0.656565,0.656009,0.652128,0.645107,0.654346,0.651944,0.644183,0.634574,0.633836,0.636976,0.622193,0.61591,0.605192,0.615355,0.594474,0.606671,0.601127,0.60205,0.603899,0.599833,0.595583,0.590963,0.589854,0.581169,0.579322,0.573593,0.571561,0.568604,0.56306,0.56343,0.563061,0.539406,0.552712,0.546797,0.553081,0.545135,0.547537,0.535526,0.534232,0.534232,0.524808,0.525917,0.519819,0.521851,0.517047,0.513722,0.505775,0.503743,0.505775,0.506884,0.505406,0.505775,0.500971,0.480643,0.477871,0.472329,0.476209,0.469741,0.47473,0.469188,0.461426,0.470112,0.473068,0.460686,0.469742,0.465122,0.468263,0.458469,0.456438,0.451448,0.454405,0.456438,0.451634,0.463829,0.458839,0.452557,0.453297,0.461428,0.463276,0.462536,0.466048,0.4642,0.4642,0.460688,0.461613,0.457179,0.44332,0.448864,0.445538,0.456441,0.427983,0.429832,0.426876,0.44129,0.433713,0.435377,0.441107,0.430389,0.442771,0.423923,0.435936,0.425588,0.42448,0.41635,0.420047,0.411916,0.407113,0.398982,0.386602,0.384387,0.377364,0.370898,0.361291,0.356489,0.34799,0.338937,0.332843,0.328779,0.324531,0.317326,0.314372,0.305873,0.298669,0.299041,0.28851,0.293131,0.288145,0.28519,0.2778,0.270966,0.271153,0.266721,0.260071,0.25767,0.255085,0.25435,0.251214,0.245492,0.24328,0.243471,0.239781,0.237015,0.235173,0.232222,0.228717,0.228908,0.225218,0.222821,0.222273,0.219692,0.216741,0.212683,0.210655,0.208999,0.206972,0.202173,0.202734,0.19812,0.196278,0.194067,0.192224,0.18835,0.188171,0.184095,0.157255,0.166985,0.16607,0.143905,0.153838,0.148305,0.13305,0.143334,0.137874,0.125928,0.133569,0.130973,0.120469,0.125357,0.12252,0.116247,0.114538,0.115841,0.111268,0.101595,0.10092,0.102852],
      "range": 1
    }
  }
]
