[
  {
    "model":"Star, type RK4(iii)",
    "name":"Star, type RK4(iii)",
    "type":"WB_REF",
    "dataQualityMarker":3,
    "dataSource":"https://www.eso.org/sci/facilities/paranal/decommissioned/isaac/tools/lib.html",
    "manufacturer":"A. Pickles (A.J. Pickles, PASP 110,863, 1998)",
    "version":1,
    "wavelength":{
      "value":[
        1150.0,
        1155.0,
        1160.0,
        1165.0,
        1170.0,
        1175.0,
        1180.0,
        1185.0,
        1190.0,
        1195.0,
        1200.0,
        1205.0,
        1210.0,
        1215.0,
        1220.0,
        1225.0,
        1230.0,
        1235.0,
        1240.0,
        1245.0,
        1250.0,
        1255.0,
        1260.0,
        1265.0,
        1270.0,
        1275.0,
        1280.0,
        1285.0,
        1290.0,
        1295.0,
        1300.0,
        1305.0,
        1310.0,
        1315.0,
        1320.0,
        1325.0,
        1330.0,
        1335.0,
        1340.0,
        1345.0,
        1350.0,
        1355.0,
        1360.0,
        1365.0,
        1370.0,
        1375.0,
        1380.0,
        1385.0,
        1390.0,
        1395.0,
        1400.0,
        1405.0,
        1410.0,
        1415.0,
        1420.0,
        1425.0,
        1430.0,
        1435.0,
        1440.0,
        1445.0,
        1450.0,
        1455.0,
        1460.0,
        1465.0,
        1470.0,
        1475.0,
        1480.0,
        1485.0,
        1490.0,
        1495.0,
        1500.0,
        1505.0,
        1510.0,
        1515.0,
        1520.0,
        1525.0,
        1530.0,
        1535.0,
        1540.0,
        1545.0,
        1550.0,
        1555.0,
        1560.0,
        1565.0,
        1570.0,
        1575.0,
        1580.0,
        1585.0,
        1590.0,
        1595.0,
        1600.0,
        1605.0,
        1610.0,
        1615.0,
        1620.0,
        1625.0,
        1630.0,
        1635.0,
        1640.0,
        1645.0,
        1650.0,
        1655.0,
        1660.0,
        1665.0,
        1670.0,
        1675.0,
        1680.0,
        1685.0,
        1690.0,
        1695.0,
        1700.0,
        1705.0,
        1710.0,
        1715.0,
        1720.0,
        1725.0,
        1730.0,
        1735.0,
        1740.0,
        1745.0,
        1750.0,
        1755.0,
        1760.0,
        1765.0,
        1770.0,
        1775.0,
        1780.0,
        1785.0,
        1790.0,
        1795.0,
        1800.0,
        1805.0,
        1810.0,
        1815.0,
        1820.0,
        1825.0,
        1830.0,
        1835.0,
        1840.0,
        1845.0,
        1850.0,
        1855.0,
        1860.0,
        1865.0,
        1870.0,
        1875.0,
        1880.0,
        1885.0,
        1890.0,
        1895.0,
        1900.0,
        1905.0,
        1910.0,
        1915.0,
        1920.0,
        1925.0,
        1930.0,
        1935.0,
        1940.0,
        1945.0,
        1950.0,
        1955.0,
        1960.0,
        1965.0,
        1970.0,
        1975.0,
        1980.0,
        1985.0,
        1990.0,
        1995.0,
        2000.0,
        2005.0,
        2010.0,
        2015.0,
        2020.0,
        2025.0,
        2030.0,
        2035.0,
        2040.0,
        2045.0,
        2050.0,
        2055.0,
        2060.0,
        2065.0,
        2070.0,
        2075.0,
        2080.0,
        2085.0,
        2090.0,
        2095.0,
        2100.0,
        2105.0,
        2110.0,
        2115.0,
        2120.0,
        2125.0,
        2130.0,
        2135.0,
        2140.0,
        2145.0,
        2150.0,
        2155.0,
        2160.0,
        2165.0,
        2170.0,
        2175.0,
        2180.0,
        2185.0,
        2190.0,
        2195.0,
        2200.0,
        2205.0,
        2210.0,
        2215.0,
        2220.0,
        2225.0,
        2230.0,
        2235.0,
        2240.0,
        2245.0,
        2250.0,
        2255.0,
        2260.0,
        2265.0,
        2270.0,
        2275.0,
        2280.0,
        2285.0,
        2290.0,
        2295.0,
        2300.0,
        2305.0,
        2310.0,
        2315.0,
        2320.0,
        2325.0,
        2330.0,
        2335.0,
        2340.0,
        2345.0,
        2350.0,
        2355.0,
        2360.0,
        2365.0,
        2370.0,
        2375.0,
        2380.0,
        2385.0,
        2390.0,
        2395.0,
        2400.0,
        2405.0,
        2410.0,
        2415.0,
        2420.0,
        2425.0,
        2430.0,
        2435.0,
        2440.0,
        2445.0,
        2450.0,
        2455.0,
        2460.0,
        2465.0,
        2470.0,
        2475.0,
        2480.0,
        2485.0,
        2490.0,
        2495.0,
        2500.0,
        2505.0,
        2510.0,
        2515.0,
        2520.0,
        2525.0,
        2530.0,
        2535.0,
        2540.0,
        2545.0,
        2550.0,
        2555.0,
        2560.0,
        2565.0,
        2570.0,
        2575.0,
        2580.0,
        2585.0,
        2590.0,
        2595.0,
        2600.0,
        2605.0,
        2610.0,
        2615.0,
        2620.0,
        2625.0,
        2630.0,
        2635.0,
        2640.0,
        2645.0,
        2650.0,
        2655.0,
        2660.0,
        2665.0,
        2670.0,
        2675.0,
        2680.0,
        2685.0,
        2690.0,
        2695.0,
        2700.0,
        2705.0,
        2710.0,
        2715.0,
        2720.0,
        2725.0,
        2730.0,
        2735.0,
        2740.0,
        2745.0,
        2750.0,
        2755.0,
        2760.0,
        2765.0,
        2770.0,
        2775.0,
        2780.0,
        2785.0,
        2790.0,
        2795.0,
        2800.0,
        2805.0,
        2810.0,
        2815.0,
        2820.0,
        2825.0,
        2830.0,
        2835.0,
        2840.0,
        2845.0,
        2850.0,
        2855.0,
        2860.0,
        2865.0,
        2870.0,
        2875.0,
        2880.0,
        2885.0,
        2890.0,
        2895.0,
        2900.0,
        2905.0,
        2910.0,
        2915.0,
        2920.0,
        2925.0,
        2930.0,
        2935.0,
        2940.0,
        2945.0,
        2950.0,
        2955.0,
        2960.0,
        2965.0,
        2970.0,
        2975.0,
        2980.0,
        2985.0,
        2990.0,
        2995.0,
        3000.0,
        3005.0,
        3010.0,
        3015.0,
        3020.0,
        3025.0,
        3030.0,
        3035.0,
        3040.0,
        3045.0,
        3050.0,
        3055.0,
        3060.0,
        3065.0,
        3070.0,
        3075.0,
        3080.0,
        3085.0,
        3090.0,
        3095.0,
        3100.0,
        3105.0,
        3110.0,
        3115.0,
        3120.0,
        3125.0,
        3130.0,
        3135.0,
        3140.0,
        3145.0,
        3150.0,
        3155.0,
        3160.0,
        3165.0,
        3170.0,
        3175.0,
        3180.0,
        3185.0,
        3190.0,
        3195.0,
        3200.0,
        3205.0,
        3210.0,
        3215.0,
        3220.0,
        3225.0,
        3230.0,
        3235.0,
        3240.0,
        3245.0,
        3250.0,
        3255.0,
        3260.0,
        3265.0,
        3270.0,
        3275.0,
        3280.0,
        3285.0,
        3290.0,
        3295.0,
        3300.0,
        3305.0,
        3310.0,
        3315.0,
        3320.0,
        3325.0,
        3330.0,
        3335.0,
        3340.0,
        3345.0,
        3350.0,
        3355.0,
        3360.0,
        3365.0,
        3370.0,
        3375.0,
        3380.0,
        3385.0,
        3390.0,
        3395.0,
        3400.0,
        3405.0,
        3410.0,
        3415.0,
        3420.0,
        3425.0,
        3430.0,
        3435.0,
        3440.0,
        3445.0,
        3450.0,
        3455.0,
        3460.0,
        3465.0,
        3470.0,
        3475.0,
        3480.0,
        3485.0,
        3490.0,
        3495.0,
        3500.0,
        3505.0,
        3510.0,
        3515.0,
        3520.0,
        3525.0,
        3530.0,
        3535.0,
        3540.0,
        3545.0,
        3550.0,
        3555.0,
        3560.0,
        3565.0,
        3570.0,
        3575.0,
        3580.0,
        3585.0,
        3590.0,
        3595.0,
        3600.0,
        3605.0,
        3610.0,
        3615.0,
        3620.0,
        3625.0,
        3630.0,
        3635.0,
        3640.0,
        3645.0,
        3650.0,
        3655.0,
        3660.0,
        3665.0,
        3670.0,
        3675.0,
        3680.0,
        3685.0,
        3690.0,
        3695.0,
        3700.0,
        3705.0,
        3710.0,
        3715.0,
        3720.0,
        3725.0,
        3730.0,
        3735.0,
        3740.0,
        3745.0,
        3750.0,
        3755.0,
        3760.0,
        3765.0,
        3770.0,
        3775.0,
        3780.0,
        3785.0,
        3790.0,
        3795.0,
        3800.0,
        3805.0,
        3810.0,
        3815.0,
        3820.0,
        3825.0,
        3830.0,
        3835.0,
        3840.0,
        3845.0,
        3850.0,
        3855.0,
        3860.0,
        3865.0,
        3870.0,
        3875.0,
        3880.0,
        3885.0,
        3890.0,
        3895.0,
        3900.0,
        3905.0,
        3910.0,
        3915.0,
        3920.0,
        3925.0,
        3930.0,
        3935.0,
        3940.0,
        3945.0,
        3950.0,
        3955.0,
        3960.0,
        3965.0,
        3970.0,
        3975.0,
        3980.0,
        3985.0,
        3990.0,
        3995.0,
        4000.0,
        4005.0,
        4010.0,
        4015.0,
        4020.0,
        4025.0,
        4030.0,
        4035.0,
        4040.0,
        4045.0,
        4050.0,
        4055.0,
        4060.0,
        4065.0,
        4070.0,
        4075.0,
        4080.0,
        4085.0,
        4090.0,
        4095.0,
        4100.0,
        4105.0,
        4110.0,
        4115.0,
        4120.0,
        4125.0,
        4130.0,
        4135.0,
        4140.0,
        4145.0,
        4150.0,
        4155.0,
        4160.0,
        4165.0,
        4170.0,
        4175.0,
        4180.0,
        4185.0,
        4190.0,
        4195.0,
        4200.0,
        4205.0,
        4210.0,
        4215.0,
        4220.0,
        4225.0,
        4230.0,
        4235.0,
        4240.0,
        4245.0,
        4250.0,
        4255.0,
        4260.0,
        4265.0,
        4270.0,
        4275.0,
        4280.0,
        4285.0,
        4290.0,
        4295.0,
        4300.0,
        4305.0,
        4310.0,
        4315.0,
        4320.0,
        4325.0,
        4330.0,
        4335.0,
        4340.0,
        4345.0,
        4350.0,
        4355.0,
        4360.0,
        4365.0,
        4370.0,
        4375.0,
        4380.0,
        4385.0,
        4390.0,
        4395.0,
        4400.0,
        4405.0,
        4410.0,
        4415.0,
        4420.0,
        4425.0,
        4430.0,
        4435.0,
        4440.0,
        4445.0,
        4450.0,
        4455.0,
        4460.0,
        4465.0,
        4470.0,
        4475.0,
        4480.0,
        4485.0,
        4490.0,
        4495.0,
        4500.0,
        4505.0,
        4510.0,
        4515.0,
        4520.0,
        4525.0,
        4530.0,
        4535.0,
        4540.0,
        4545.0,
        4550.0,
        4555.0,
        4560.0,
        4565.0,
        4570.0,
        4575.0,
        4580.0,
        4585.0,
        4590.0,
        4595.0,
        4600.0,
        4605.0,
        4610.0,
        4615.0,
        4620.0,
        4625.0,
        4630.0,
        4635.0,
        4640.0,
        4645.0,
        4650.0,
        4655.0,
        4660.0,
        4665.0,
        4670.0,
        4675.0,
        4680.0,
        4685.0,
        4690.0,
        4695.0,
        4700.0,
        4705.0,
        4710.0,
        4715.0,
        4720.0,
        4725.0,
        4730.0,
        4735.0,
        4740.0,
        4745.0,
        4750.0,
        4755.0,
        4760.0,
        4765.0,
        4770.0,
        4775.0,
        4780.0,
        4785.0,
        4790.0,
        4795.0,
        4800.0,
        4805.0,
        4810.0,
        4815.0,
        4820.0,
        4825.0,
        4830.0,
        4835.0,
        4840.0,
        4845.0,
        4850.0,
        4855.0,
        4860.0,
        4865.0,
        4870.0,
        4875.0,
        4880.0,
        4885.0,
        4890.0,
        4895.0,
        4900.0,
        4905.0,
        4910.0,
        4915.0,
        4920.0,
        4925.0,
        4930.0,
        4935.0,
        4940.0,
        4945.0,
        4950.0,
        4955.0,
        4960.0,
        4965.0,
        4970.0,
        4975.0,
        4980.0,
        4985.0,
        4990.0,
        4995.0,
        5000.0,
        5005.0,
        5010.0,
        5015.0,
        5020.0,
        5025.0,
        5030.0,
        5035.0,
        5040.0,
        5045.0,
        5050.0,
        5055.0,
        5060.0,
        5065.0,
        5070.0,
        5075.0,
        5080.0,
        5085.0,
        5090.0,
        5095.0,
        5100.0,
        5105.0,
        5110.0,
        5115.0,
        5120.0,
        5125.0,
        5130.0,
        5135.0,
        5140.0,
        5145.0,
        5150.0,
        5155.0,
        5160.0,
        5165.0,
        5170.0,
        5175.0,
        5180.0,
        5185.0,
        5190.0,
        5195.0,
        5200.0,
        5205.0,
        5210.0,
        5215.0,
        5220.0,
        5225.0,
        5230.0,
        5235.0,
        5240.0,
        5245.0,
        5250.0,
        5255.0,
        5260.0,
        5265.0,
        5270.0,
        5275.0,
        5280.0,
        5285.0,
        5290.0,
        5295.0,
        5300.0,
        5305.0,
        5310.0,
        5315.0,
        5320.0,
        5325.0,
        5330.0,
        5335.0,
        5340.0,
        5345.0,
        5350.0,
        5355.0,
        5360.0,
        5365.0,
        5370.0,
        5375.0,
        5380.0,
        5385.0,
        5390.0,
        5395.0,
        5400.0,
        5405.0,
        5410.0,
        5415.0,
        5420.0,
        5425.0,
        5430.0,
        5435.0,
        5440.0,
        5445.0,
        5450.0,
        5455.0,
        5460.0,
        5465.0,
        5470.0,
        5475.0,
        5480.0,
        5485.0,
        5490.0,
        5495.0,
        5500.0,
        5505.0,
        5510.0,
        5515.0,
        5520.0,
        5525.0,
        5530.0,
        5535.0,
        5540.0,
        5545.0,
        5550.0,
        5555.0,
        5560.0,
        5565.0,
        5570.0,
        5575.0,
        5580.0,
        5585.0,
        5590.0,
        5595.0,
        5600.0,
        5605.0,
        5610.0,
        5615.0,
        5620.0,
        5625.0,
        5630.0,
        5635.0,
        5640.0,
        5645.0,
        5650.0,
        5655.0,
        5660.0,
        5665.0,
        5670.0,
        5675.0,
        5680.0,
        5685.0,
        5690.0,
        5695.0,
        5700.0,
        5705.0,
        5710.0,
        5715.0,
        5720.0,
        5725.0,
        5730.0,
        5735.0,
        5740.0,
        5745.0,
        5750.0,
        5755.0,
        5760.0,
        5765.0,
        5770.0,
        5775.0,
        5780.0,
        5785.0,
        5790.0,
        5795.0,
        5800.0,
        5805.0,
        5810.0,
        5815.0,
        5820.0,
        5825.0,
        5830.0,
        5835.0,
        5840.0,
        5845.0,
        5850.0,
        5855.0,
        5860.0,
        5865.0,
        5870.0,
        5875.0,
        5880.0,
        5885.0,
        5890.0,
        5895.0,
        5900.0,
        5905.0,
        5910.0,
        5915.0,
        5920.0,
        5925.0,
        5930.0,
        5935.0,
        5940.0,
        5945.0,
        5950.0,
        5955.0,
        5960.0,
        5965.0,
        5970.0,
        5975.0,
        5980.0,
        5985.0,
        5990.0,
        5995.0,
        6000.0,
        6005.0,
        6010.0,
        6015.0,
        6020.0,
        6025.0,
        6030.0,
        6035.0,
        6040.0,
        6045.0,
        6050.0,
        6055.0,
        6060.0,
        6065.0,
        6070.0,
        6075.0,
        6080.0,
        6085.0,
        6090.0,
        6095.0,
        6100.0,
        6105.0,
        6110.0,
        6115.0,
        6120.0,
        6125.0,
        6130.0,
        6135.0,
        6140.0,
        6145.0,
        6150.0,
        6155.0,
        6160.0,
        6165.0,
        6170.0,
        6175.0,
        6180.0,
        6185.0,
        6190.0,
        6195.0,
        6200.0,
        6205.0,
        6210.0,
        6215.0,
        6220.0,
        6225.0,
        6230.0,
        6235.0,
        6240.0,
        6245.0,
        6250.0,
        6255.0,
        6260.0,
        6265.0,
        6270.0,
        6275.0,
        6280.0,
        6285.0,
        6290.0,
        6295.0,
        6300.0,
        6305.0,
        6310.0,
        6315.0,
        6320.0,
        6325.0,
        6330.0,
        6335.0,
        6340.0,
        6345.0,
        6350.0,
        6355.0,
        6360.0,
        6365.0,
        6370.0,
        6375.0,
        6380.0,
        6385.0,
        6390.0,
        6395.0,
        6400.0,
        6405.0,
        6410.0,
        6415.0,
        6420.0,
        6425.0,
        6430.0,
        6435.0,
        6440.0,
        6445.0,
        6450.0,
        6455.0,
        6460.0,
        6465.0,
        6470.0,
        6475.0,
        6480.0,
        6485.0,
        6490.0,
        6495.0,
        6500.0,
        6505.0,
        6510.0,
        6515.0,
        6520.0,
        6525.0,
        6530.0,
        6535.0,
        6540.0,
        6545.0,
        6550.0,
        6555.0,
        6560.0,
        6565.0,
        6570.0,
        6575.0,
        6580.0,
        6585.0,
        6590.0,
        6595.0,
        6600.0,
        6605.0,
        6610.0,
        6615.0,
        6620.0,
        6625.0,
        6630.0,
        6635.0,
        6640.0,
        6645.0,
        6650.0,
        6655.0,
        6660.0,
        6665.0,
        6670.0,
        6675.0,
        6680.0,
        6685.0,
        6690.0,
        6695.0,
        6700.0,
        6705.0,
        6710.0,
        6715.0,
        6720.0,
        6725.0,
        6730.0,
        6735.0,
        6740.0,
        6745.0,
        6750.0,
        6755.0,
        6760.0,
        6765.0,
        6770.0,
        6775.0,
        6780.0,
        6785.0,
        6790.0,
        6795.0,
        6800.0,
        6805.0,
        6810.0,
        6815.0,
        6820.0,
        6825.0,
        6830.0,
        6835.0,
        6840.0,
        6845.0,
        6850.0,
        6855.0,
        6860.0,
        6865.0,
        6870.0,
        6875.0,
        6880.0,
        6885.0,
        6890.0,
        6895.0,
        6900.0,
        6905.0,
        6910.0,
        6915.0,
        6920.0,
        6925.0,
        6930.0,
        6935.0,
        6940.0,
        6945.0,
        6950.0,
        6955.0,
        6960.0,
        6965.0,
        6970.0,
        6975.0,
        6980.0,
        6985.0,
        6990.0,
        6995.0,
        7000.0,
        7005.0,
        7010.0,
        7015.0,
        7020.0,
        7025.0,
        7030.0,
        7035.0,
        7040.0,
        7045.0,
        7050.0,
        7055.0,
        7060.0,
        7065.0,
        7070.0,
        7075.0,
        7080.0,
        7085.0,
        7090.0,
        7095.0,
        7100.0,
        7105.0,
        7110.0,
        7115.0,
        7120.0,
        7125.0,
        7130.0,
        7135.0,
        7140.0,
        7145.0,
        7150.0,
        7155.0,
        7160.0,
        7165.0,
        7170.0,
        7175.0,
        7180.0,
        7185.0,
        7190.0,
        7195.0,
        7200.0,
        7205.0,
        7210.0,
        7215.0,
        7220.0,
        7225.0,
        7230.0,
        7235.0,
        7240.0,
        7245.0,
        7250.0,
        7255.0,
        7260.0,
        7265.0,
        7270.0,
        7275.0,
        7280.0,
        7285.0,
        7290.0,
        7295.0,
        7300.0,
        7305.0,
        7310.0,
        7315.0,
        7320.0,
        7325.0,
        7330.0,
        7335.0,
        7340.0,
        7345.0,
        7350.0,
        7355.0,
        7360.0,
        7365.0,
        7370.0,
        7375.0,
        7380.0,
        7385.0,
        7390.0,
        7395.0,
        7400.0,
        7405.0,
        7410.0,
        7415.0,
        7420.0,
        7425.0,
        7430.0,
        7435.0,
        7440.0,
        7445.0,
        7450.0,
        7455.0,
        7460.0,
        7465.0,
        7470.0,
        7475.0,
        7480.0,
        7485.0,
        7490.0,
        7495.0,
        7500.0,
        7505.0,
        7510.0,
        7515.0,
        7520.0,
        7525.0,
        7530.0,
        7535.0,
        7540.0,
        7545.0,
        7550.0,
        7555.0,
        7560.0,
        7565.0,
        7570.0,
        7575.0,
        7580.0,
        7585.0,
        7590.0,
        7595.0,
        7600.0,
        7605.0,
        7610.0,
        7615.0,
        7620.0,
        7625.0,
        7630.0,
        7635.0,
        7640.0,
        7645.0,
        7650.0,
        7655.0,
        7660.0,
        7665.0,
        7670.0,
        7675.0,
        7680.0,
        7685.0,
        7690.0,
        7695.0,
        7700.0,
        7705.0,
        7710.0,
        7715.0,
        7720.0,
        7725.0,
        7730.0,
        7735.0,
        7740.0,
        7745.0,
        7750.0,
        7755.0,
        7760.0,
        7765.0,
        7770.0,
        7775.0,
        7780.0,
        7785.0,
        7790.0,
        7795.0,
        7800.0,
        7805.0,
        7810.0,
        7815.0,
        7820.0,
        7825.0,
        7830.0,
        7835.0,
        7840.0,
        7845.0,
        7850.0,
        7855.0,
        7860.0,
        7865.0,
        7870.0,
        7875.0,
        7880.0,
        7885.0,
        7890.0,
        7895.0,
        7900.0,
        7905.0,
        7910.0,
        7915.0,
        7920.0,
        7925.0,
        7930.0,
        7935.0,
        7940.0,
        7945.0,
        7950.0,
        7955.0,
        7960.0,
        7965.0,
        7970.0,
        7975.0,
        7980.0,
        7985.0,
        7990.0,
        7995.0,
        8000.0,
        8005.0,
        8010.0,
        8015.0,
        8020.0,
        8025.0,
        8030.0,
        8035.0,
        8040.0,
        8045.0,
        8050.0,
        8055.0,
        8060.0,
        8065.0,
        8070.0,
        8075.0,
        8080.0,
        8085.0,
        8090.0,
        8095.0,
        8100.0,
        8105.0,
        8110.0,
        8115.0,
        8120.0,
        8125.0,
        8130.0,
        8135.0,
        8140.0,
        8145.0,
        8150.0,
        8155.0,
        8160.0,
        8165.0,
        8170.0,
        8175.0,
        8180.0,
        8185.0,
        8190.0,
        8195.0,
        8200.0,
        8205.0,
        8210.0,
        8215.0,
        8220.0,
        8225.0,
        8230.0,
        8235.0,
        8240.0,
        8245.0,
        8250.0,
        8255.0,
        8260.0,
        8265.0,
        8270.0,
        8275.0,
        8280.0,
        8285.0,
        8290.0,
        8295.0,
        8300.0,
        8305.0,
        8310.0,
        8315.0,
        8320.0,
        8325.0,
        8330.0,
        8335.0,
        8340.0,
        8345.0,
        8350.0,
        8355.0,
        8360.0,
        8365.0,
        8370.0,
        8375.0,
        8380.0,
        8385.0,
        8390.0,
        8395.0,
        8400.0,
        8405.0,
        8410.0,
        8415.0,
        8420.0,
        8425.0,
        8430.0,
        8435.0,
        8440.0,
        8445.0,
        8450.0,
        8455.0,
        8460.0,
        8465.0,
        8470.0,
        8475.0,
        8480.0,
        8485.0,
        8490.0,
        8495.0,
        8500.0,
        8505.0,
        8510.0,
        8515.0,
        8520.0,
        8525.0,
        8530.0,
        8535.0,
        8540.0,
        8545.0,
        8550.0,
        8555.0,
        8560.0,
        8565.0,
        8570.0,
        8575.0,
        8580.0,
        8585.0,
        8590.0,
        8595.0,
        8600.0,
        8605.0,
        8610.0,
        8615.0,
        8620.0,
        8625.0,
        8630.0,
        8635.0,
        8640.0,
        8645.0,
        8650.0,
        8655.0,
        8660.0,
        8665.0,
        8670.0,
        8675.0,
        8680.0,
        8685.0,
        8690.0,
        8695.0,
        8700.0,
        8705.0,
        8710.0,
        8715.0,
        8720.0,
        8725.0,
        8730.0,
        8735.0,
        8740.0,
        8745.0,
        8750.0,
        8755.0,
        8760.0,
        8765.0,
        8770.0,
        8775.0,
        8780.0,
        8785.0,
        8790.0,
        8795.0,
        8800.0,
        8805.0,
        8810.0,
        8815.0,
        8820.0,
        8825.0,
        8830.0,
        8835.0,
        8840.0,
        8845.0,
        8850.0,
        8855.0,
        8860.0,
        8865.0,
        8870.0,
        8875.0,
        8880.0,
        8885.0,
        8890.0,
        8895.0,
        8900.0,
        8905.0,
        8910.0,
        8915.0,
        8920.0,
        8925.0,
        8930.0,
        8935.0,
        8940.0,
        8945.0,
        8950.0,
        8955.0,
        8960.0,
        8965.0,
        8970.0,
        8975.0,
        8980.0,
        8985.0,
        8990.0,
        8995.0,
        9000.0,
        9005.0,
        9010.0,
        9015.0,
        9020.0,
        9025.0,
        9030.0,
        9035.0,
        9040.0,
        9045.0,
        9050.0,
        9055.0,
        9060.0,
        9065.0,
        9070.0,
        9075.0,
        9080.0,
        9085.0,
        9090.0,
        9095.0,
        9100.0,
        9105.0,
        9110.0,
        9115.0,
        9120.0,
        9125.0,
        9130.0,
        9135.0,
        9140.0,
        9145.0,
        9150.0,
        9155.0,
        9160.0,
        9165.0,
        9170.0,
        9175.0,
        9180.0,
        9185.0,
        9190.0,
        9195.0,
        9200.0,
        9205.0,
        9210.0,
        9215.0,
        9220.0,
        9225.0,
        9230.0,
        9235.0,
        9240.0,
        9245.0,
        9250.0,
        9255.0,
        9260.0,
        9265.0,
        9270.0,
        9275.0,
        9280.0,
        9285.0,
        9290.0,
        9295.0,
        9300.0,
        9305.0,
        9310.0,
        9315.0,
        9320.0,
        9325.0,
        9330.0,
        9335.0,
        9340.0,
        9345.0,
        9350.0,
        9355.0,
        9360.0,
        9365.0,
        9370.0,
        9375.0,
        9380.0,
        9385.0,
        9390.0,
        9395.0,
        9400.0,
        9405.0,
        9410.0,
        9415.0,
        9420.0,
        9425.0,
        9430.0,
        9435.0,
        9440.0,
        9445.0,
        9450.0,
        9455.0,
        9460.0,
        9465.0,
        9470.0,
        9475.0,
        9480.0,
        9485.0,
        9490.0,
        9495.0,
        9500.0,
        9505.0,
        9510.0,
        9515.0,
        9520.0,
        9525.0,
        9530.0,
        9535.0,
        9540.0,
        9545.0,
        9550.0,
        9555.0,
        9560.0,
        9565.0,
        9570.0,
        9575.0,
        9580.0,
        9585.0,
        9590.0,
        9595.0,
        9600.0,
        9605.0,
        9610.0,
        9615.0,
        9620.0,
        9625.0,
        9630.0,
        9635.0,
        9640.0,
        9645.0,
        9650.0,
        9655.0,
        9660.0,
        9665.0,
        9670.0,
        9675.0,
        9680.0,
        9685.0,
        9690.0,
        9695.0,
        9700.0,
        9705.0,
        9710.0,
        9715.0,
        9720.0,
        9725.0,
        9730.0,
        9735.0,
        9740.0,
        9745.0,
        9750.0,
        9755.0,
        9760.0,
        9765.0,
        9770.0,
        9775.0,
        9780.0,
        9785.0,
        9790.0,
        9795.0,
        9800.0,
        9805.0,
        9810.0,
        9815.0,
        9820.0,
        9825.0,
        9830.0,
        9835.0,
        9840.0,
        9845.0,
        9850.0,
        9855.0,
        9860.0,
        9865.0,
        9870.0,
        9875.0,
        9880.0,
        9885.0,
        9890.0,
        9895.0,
        9900.0,
        9905.0,
        9910.0,
        9915.0,
        9920.0,
        9925.0,
        9930.0,
        9935.0,
        9940.0,
        9945.0,
        9950.0,
        9955.0,
        9960.0,
        9965.0,
        9970.0,
        9975.0,
        9980.0,
        9985.0,
        9990.0,
        9995.0,
        10000.0,
        10005.0,
        10010.0,
        10015.0,
        10020.0,
        10025.0,
        10030.0,
        10035.0,
        10040.0,
        10045.0,
        10050.0,
        10055.0,
        10060.0,
        10065.0,
        10070.0,
        10075.0,
        10080.0,
        10085.0,
        10090.0,
        10095.0,
        10100.0,
        10105.0,
        10110.0,
        10115.0,
        10120.0,
        10125.0,
        10130.0,
        10135.0,
        10140.0,
        10145.0,
        10150.0,
        10155.0,
        10160.0,
        10165.0,
        10170.0,
        10175.0,
        10180.0,
        10185.0,
        10190.0,
        10195.0,
        10200.0,
        10205.0,
        10210.0,
        10215.0,
        10220.0,
        10225.0,
        10230.0,
        10235.0,
        10240.0,
        10245.0,
        10250.0,
        10255.0,
        10260.0,
        10265.0,
        10270.0,
        10275.0,
        10280.0,
        10285.0,
        10290.0,
        10295.0,
        10300.0,
        10305.0,
        10310.0,
        10315.0,
        10320.0,
        10325.0,
        10330.0,
        10335.0,
        10340.0,
        10345.0,
        10350.0,
        10355.0,
        10360.0,
        10365.0,
        10370.0,
        10375.0,
        10380.0,
        10385.0,
        10390.0,
        10395.0,
        10400.0,
        10405.0,
        10410.0,
        10415.0,
        10420.0,
        10425.0,
        10430.0,
        10435.0,
        10440.0,
        10445.0,
        10450.0,
        10455.0,
        10460.0,
        10465.0,
        10470.0,
        10475.0,
        10480.0,
        10485.0,
        10490.0,
        10495.0,
        10500.0
      ],
      "units":"angstrom"
    },
    "values":{
      "value":[
        0.0,
        0.0,
        0.0,
        0.0,
        0.0,
        0.0,
        0.0,
        0.0,
        0.0,
        0.0,
        0.0,
        0.0,
        0.0,
        0.0,
        0.0,
        0.0,
        0.0,
        0.0,
        0.0,
        0.0,
        0.0,
        0.0,
        0.0,
        0.0,
        0.0,
        0.0,
        0.0,
        0.0,
        0.0,
        0.0,
        0.0,
        0.0,
        0.0,
        0.0,
        0.0,
        0.0,
        0.0,
        0.0,
        0.0,
        0.0,
        0.0,
        0.0,
        0.0,
        0.0,
        0.0,
        0.0,
        0.0,
        0.0,
        0.0,
        0.0,
        0.0,
        0.0,
        0.0,
        0.0,
        0.0,
        0.0,
        0.0,
        0.0,
        0.0,
        0.0,
        0.0,
        0.0,
        0.0,
        0.0,
        0.0,
        0.0,
        0.0,
        0.0,
        0.0,
        0.0,
        0.0,
        0.0,
        0.0,
        0.0,
        0.0,
        0.0,
        0.0,
        0.0,
        0.0,
        0.0,
        0.0,
        0.0,
        0.0,
        0.0,
        0.0,
        0.0,
        0.0,
        0.0,
        0.0,
        0.0,
        0.0,
        0.0,
        0.0,
        0.0,
        0.0,
        0.0,
        0.0,
        0.0,
        0.0,
        0.0,
        0.0,
        0.0,
        0.0,
        0.0,
        0.0,
        0.0,
        0.0,
        0.0,
        0.0,
        0.0,
        0.0,
        0.0,
        0.0,
        0.0,
        0.0,
        0.0,
        0.0,
        0.0,
        0.0,
        0.0,
        0.0,
        0.0,
        0.0,
        0.0,
        0.0,
        0.0,
        0.0,
        0.0,
        0.0,
        0.0,
        0.0,
        0.0,
        0.0,
        0.0,
        0.0,
        0.0,
        0.0,
        0.0,
        0.0,
        0.0,
        0.0,
        0.0,
        0.0,
        0.0,
        0.0,
        0.0,
        0.0,
        0.0,
        0.0,
        0.0,
        0.0,
        0.0,
        0.0,
        0.0,
        0.0,
        0.0,
        0.0,
        0.0,
        0.0,
        0.0,
        0.0,
        0.0,
        0.0,
        0.0,
        0.0,
        0.0,
        0.0,
        0.0,
        0.0,
        0.0,
        0.0,
        0.0,
        0.0,
        0.0,
        0.0,
        0.0,
        0.0,
        0.0,
        0.0,
        0.0,
        0.0,
        0.0,
        0.0,
        0.0,
        0.0,
        0.0,
        0.0,
        0.0,
        0.0,
        0.0,
        0.0,
        0.0,
        0.0,
        0.0,
        0.0,
        0.0,
        0.0,
        0.0,
        0.0,
        0.0,
        0.0,
        0.0,
        0.0,
        0.0,
        0.0,
        0.0,
        0.0,
        0.0,
        0.0,
        0.0,
        0.0,
        0.0,
        0.0,
        0.0,
        0.0,
        0.0,
        0.0,
        0.0,
        0.0,
        0.0,
        0.0,
        0.0,
        0.0,
        0.0,
        0.0,
        0.0,
        0.0,
        0.0,
        0.0,
        0.0,
        0.0,
        0.0,
        0.0,
        0.0,
        0.0,
        0.0,
        0.0,
        0.0,
        0.0,
        0.0,
        0.0,
        0.0,
        0.0,
        0.0,
        0.0,
        0.0,
        0.0,
        0.0,
        0.0,
        0.0,
        0.0,
        0.0,
        0.0,
        0.0,
        0.0,
        0.0,
        0.0,
        0.0,
        0.0,
        0.0,
        0.0,
        0.0,
        0.0,
        0.0,
        0.0,
        0.0,
        0.0,
        0.0,
        0.0,
        0.0,
        0.0,
        0.0,
        1e-06,
        1e-06,
        2e-06,
        2e-06,
        2e-06,
        2e-06,
        2e-06,
        1e-06,
        0.0,
        0.0,
        0.0,
        0.0,
        0.0,
        0.0,
        0.0,
        0.0,
        0.0,
        0.0,
        0.0,
        5e-06,
        1.2e-05,
        1.8e-05,
        2.4e-05,
        2.8e-05,
        3e-05,
        2.9e-05,
        2.4e-05,
        1.5e-05,
        0.0,
        0.0,
        0.0,
        0.0,
        0.0,
        0.0,
        0.0,
        0.0,
        0.0,
        0.0,
        0.0,
        7.8e-05,
        0.00018,
        0.000307,
        0.000458,
        0.000637,
        0.000842,
        0.001075,
        0.001336,
        0.001627,
        0.001948,
        0.002298,
        0.002667,
        0.003043,
        0.003414,
        0.003768,
        0.004094,
        0.004379,
        0.004611,
        0.004779,
        0.00487,
        0.004878,
        0.004815,
        0.004699,
        0.004547,
        0.004379,
        0.004211,
        0.00406,
        0.003946,
        0.003885,
        0.003896,
        0.003991,
        0.004163,
        0.004399,
        0.004687,
        0.005015,
        0.00537,
        0.005741,
        0.006114,
        0.006477,
        0.006818,
        0.007127,
        0.007405,
        0.007653,
        0.007873,
        0.008069,
        0.008243,
        0.008397,
        0.008534,
        0.008656,
        0.008766,
        0.008866,
        0.008959,
        0.009046,
        0.009132,
        0.009217,
        0.009306,
        0.0094,
        0.009502,
        0.009615,
        0.00974,
        0.009882,
        0.010044,
        0.010231,
        0.010449,
        0.010702,
        0.010995,
        0.011332,
        0.011719,
        0.012161,
        0.012662,
        0.013225,
        0.013842,
        0.014503,
        0.015196,
        0.015913,
        0.016643,
        0.017374,
        0.018098,
        0.018804,
        0.019481,
        0.020121,
        0.020731,
        0.021315,
        0.021882,
        0.02244,
        0.022994,
        0.023552,
        0.024122,
        0.02471,
        0.025325,
        0.025968,
        0.054272,
        0.059344,
        0.060993,
        0.057352,
        0.052772,
        0.051567,
        0.051701,
        0.050552,
        0.068835,
        0.069847,
        0.068987,
        0.06182,
        0.054371,
        0.053046,
        0.055345,
        0.057463,
        0.059283,
        0.061493,
        0.064294,
        0.067529,
        0.070075,
        0.070937,
        0.070598,
        0.070064,
        0.070936,
        0.07456,
        0.080666,
        0.087752,
        0.091016,
        0.087019,
        0.081076,
        0.078942,
        0.079388,
        0.080028,
        0.08084,
        0.082368,
        0.085054,
        0.088646,
        0.090223,
        0.087293,
        0.081741,
        0.076481,
        0.074155,
        0.076177,
        0.079322,
        0.080673,
        0.083197,
        0.08942,
        0.094235,
        0.092927,
        0.09,
        0.090728,
        0.094257,
        0.09768,
        0.096012,
        0.086475,
        0.077208,
        0.076383,
        0.081378,
        0.087129,
        0.089576,
        0.086735,
        0.083925,
        0.085937,
        0.088149,
        0.086033,
        0.084869,
        0.090096,
        0.098002,
        0.103188,
        0.073161,
        0.072139,
        0.067986,
        0.070285,
        0.081363,
        0.087948,
        0.090749,
        0.087478,
        0.081223,
        0.073793,
        0.066113,
        0.0609,
        0.059526,
        0.053494,
        0.044806,
        0.046937,
        0.058898,
        0.077498,
        0.080232,
        0.072552,
        0.056758,
        0.065433,
        0.076957,
        0.084615,
        0.079879,
        0.089394,
        0.099672,
        0.08464,
        0.082901,
        0.105404,
        0.120501,
        0.118867,
        0.113642,
        0.110122,
        0.09984,
        0.093558,
        0.098486,
        0.111093,
        0.113698,
        0.094763,
        0.090224,
        0.086267,
        0.067477,
        0.064073,
        0.058058,
        0.050283,
        0.052714,
        0.052558,
        0.059382,
        0.068906,
        0.068589,
        0.080009,
        0.101241,
        0.111662,
        0.109191,
        0.094564,
        0.077203,
        0.074105,
        0.081534,
        0.088557,
        0.081315,
        0.064041,
        0.050047,
        0.046419,
        0.049153,
        0.053079,
        0.05947,
        0.067351,
        0.068103,
        0.062518,
        0.058497,
        0.060986,
        0.063227,
        0.065323,
        0.069474,
        0.077939,
        0.092233,
        0.100418,
        0.099768,
        0.112295,
        0.117374,
        0.123792,
        0.110114,
        0.07357,
        0.047741,
        0.045612,
        0.057632,
        0.082001,
        0.112455,
        0.115361,
        0.080391,
        0.055623,
        0.066549,
        0.104747,
        0.141963,
        0.166788,
        0.180243,
        0.192505,
        0.209505,
        0.22031,
        0.226276,
        0.232444,
        0.240062,
        0.236832,
        0.217444,
        0.215261,
        0.217052,
        0.208395,
        0.220377,
        0.213293,
        0.20433,
        0.210045,
        0.221683,
        0.230482,
        0.249158,
        0.27512,
        0.280037,
        0.257068,
        0.240777,
        0.245398,
        0.246564,
        0.239594,
        0.238699,
        0.239232,
        0.228969,
        0.2212,
        0.206055,
        0.205688,
        0.210195,
        0.224287,
        0.236448,
        0.227183,
        0.221163,
        0.213716,
        0.22748,
        0.243215,
        0.246434,
        0.237271,
        0.227392,
        0.242091,
        0.264028,
        0.274497,
        0.266253,
        0.225939,
        0.231636,
        0.266305,
        0.302658,
        0.316218,
        0.296744,
        0.294778,
        0.30885,
        0.306894,
        0.276812,
        0.286195,
        0.310328,
        0.299796,
        0.284834,
        0.270932,
        0.254546,
        0.245599,
        0.273286,
        0.349673,
        0.395079,
        0.3927,
        0.411869,
        0.421128,
        0.414378,
        0.434308,
        0.441014,
        0.449877,
        0.46377,
        0.470579,
        0.449564,
        0.419162,
        0.376562,
        0.354116,
        0.388877,
        0.424068,
        0.42316,
        0.393095,
        0.406933,
        0.430808,
        0.457546,
        0.461893,
        0.459907,
        0.464413,
        0.481881,
        0.506985,
        0.513108,
        0.481289,
        0.458962,
        0.479269,
        0.522925,
        0.567308,
        0.576015,
        0.583846,
        0.575144,
        0.572654,
        0.60112,
        0.641269,
        0.645688,
        0.626134,
        0.607358,
        0.557624,
        0.515543,
        0.543074,
        0.575518,
        0.584448,
        0.587992,
        0.612802,
        0.645397,
        0.65226,
        0.656376,
        0.64782,
        0.628702,
        0.639371,
        0.646113,
        0.626781,
        0.621238,
        0.657506,
        0.706925,
        0.731924,
        0.743718,
        0.745026,
        0.728911,
        0.693536,
        0.658134,
        0.630886,
        0.634251,
        0.680857,
        0.704558,
        0.659826,
        0.642467,
        0.666143,
        0.676492,
        0.67752,
        0.674095,
        0.676499,
        0.665266,
        0.655936,
        0.663172,
        0.697429,
        0.731189,
        0.713951,
        0.670807,
        0.6865,
        0.717434,
        0.737502,
        0.7428,
        0.725556,
        0.707569,
        0.695348,
        0.70497,
        0.730389,
        0.733483,
        0.710218,
        0.716346,
        0.751503,
        0.762923,
        0.757537,
        0.754596,
        0.771325,
        0.780399,
        0.765342,
        0.745887,
        0.739794,
        0.739077,
        0.748673,
        0.751206,
        0.725456,
        0.692165,
        0.68118,
        0.688962,
        0.707007,
        0.730749,
        0.714557,
        0.705127,
        0.762165,
        0.810912,
        0.803483,
        0.781757,
        0.758132,
        0.734236,
        0.751363,
        0.804121,
        0.793487,
        0.774729,
        0.815754,
        0.852115,
        0.838821,
        0.80364,
        0.802774,
        0.80619,
        0.814011,
        0.774512,
        0.745152,
        0.762463,
        0.77305,
        0.749312,
        0.720581,
        0.709759,
        0.697829,
        0.711255,
        0.743461,
        0.767904,
        0.763694,
        0.726367,
        0.731309,
        0.768595,
        0.79259,
        0.815145,
        0.800735,
        0.765922,
        0.745184,
        0.719921,
        0.726663,
        0.764153,
        0.772714,
        0.745086,
        0.734209,
        0.728737,
        0.741756,
        0.747398,
        0.722961,
        0.716417,
        0.728681,
        0.721583,
        0.700472,
        0.695676,
        0.718999,
        0.733202,
        0.659376,
        0.570501,
        0.567527,
        0.618248,
        0.651398,
        0.707549,
        0.740699,
        0.741919,
        0.697863,
        0.678391,
        0.747676,
        0.807264,
        0.800787,
        0.798625,
        0.840243,
        0.877578,
        0.86548,
        0.827518,
        0.831665,
        0.829868,
        0.756489,
        0.713518,
        0.777452,
        0.862297,
        0.911984,
        0.945474,
        0.92269,
        0.893531,
        0.933135,
        0.986731,
        0.987483,
        0.950146,
        0.884393,
        0.838774,
        0.874482,
        0.909189,
        0.928139,
        0.959187,
        1.011103,
        1.029605,
        0.985449,
        0.938421,
        0.951661,
        0.987518,
        0.976391,
        0.936365,
        0.898159,
        0.877862,
        0.858493,
        0.874132,
        0.944898,
        0.987107,
        0.975558,
        0.946253,
        0.936721,
        0.965407,
        0.970238,
        0.959258,
        0.963099,
        0.973773,
        0.976587,
        0.963842,
        0.935496,
        0.927955,
        0.952126,
        0.975333,
        0.990262,
        0.992818,
        0.969536,
        0.951842,
        0.953288,
        0.986613,
        1.002553,
        0.996861,
        1.002852,
        1.021477,
        1.037037,
        1.047309,
        1.048567,
        1.033169,
        1.018557,
        1.004116,
        1.007044,
        1.020633,
        0.99252,
        0.947107,
        0.953029,
        0.984475,
        1.0189,
        1.057935,
        1.039594,
        1.002678,
        0.998606,
        1.010553,
        1.022014,
        1.011174,
        1.014089,
        1.022015,
        1.012204,
        0.988071,
        0.993227,
        1.016414,
        1.046557,
        1.063023,
        1.04849,
        1.040848,
        1.041361,
        1.009202,
        0.970501,
        0.959182,
        1.001622,
        1.066907,
        1.092153,
        1.077256,
        1.072406,
        1.070192,
        1.068745,
        1.065215,
        1.065528,
        1.081514,
        1.099199,
        1.111721,
        1.085049,
        1.035778,
        0.992573,
        1.019874,
        1.066025,
        1.093599,
        1.107397,
        1.110642,
        1.122488,
        1.139226,
        1.148265,
        1.153898,
        1.15405,
        1.157209,
        1.14806,
        1.121762,
        1.098108,
        1.091994,
        1.10727,
        1.130123,
        1.133703,
        1.077392,
        0.975303,
        0.847502,
        0.812542,
        0.912092,
        1.036503,
        1.101913,
        1.113919,
        1.116337,
        1.120332,
        1.116294,
        1.104949,
        1.102751,
        1.10937,
        1.114724,
        1.109193,
        1.119652,
        1.13512,
        1.147575,
        1.131476,
        1.106456,
        1.10446,
        1.119879,
        1.120985,
        1.108217,
        1.099423,
        1.093041,
        1.085695,
        1.086393,
        1.118369,
        1.157653,
        1.176446,
        1.178906,
        1.183222,
        1.184803,
        1.168111,
        1.154882,
        1.160425,
        1.18965,
        1.188255,
        1.156352,
        1.136522,
        1.124387,
        1.123437,
        1.124288,
        1.132509,
        1.146803,
        1.139667,
        1.111872,
        1.10137,
        1.105608,
        1.080325,
        1.082599,
        1.113217,
        1.121478,
        1.102237,
        1.059146,
        1.041214,
        1.057371,
        1.094712,
        1.116014,
        1.099818,
        1.074887,
        1.094779,
        1.115994,
        1.121752,
        1.100437,
        1.051349,
        1.03324,
        1.038444,
        1.03395,
        1.03929,
        1.034032,
        1.028245,
        1.034063,
        0.999844,
        0.985298,
        1.01538,
        1.046258,
        1.055479,
        1.048077,
        1.065234,
        1.087281,
        1.069169,
        1.054261,
        1.063766,
        1.077467,
        1.066025,
        1.066752,
        1.096736,
        1.115998,
        1.107525,
        1.090405,
        1.096656,
        1.100871,
        1.070565,
        1.037938,
        1.061849,
        1.119516,
        1.146932,
        1.141914,
        1.138807,
        1.131225,
        1.121557,
        1.115812,
        1.11986,
        1.125442,
        1.128163,
        1.115752,
        1.130996,
        1.134381,
        1.137779,
        1.144548,
        1.141791,
        1.117746,
        1.125084,
        1.14397,
        1.14327,
        1.153103,
        1.153738,
        1.144962,
        1.135944,
        1.107002,
        1.056908,
        1.064514,
        1.115135,
        1.153901,
        1.172722,
        1.176394,
        1.173647,
        1.164976,
        1.168417,
        1.175523,
        1.165545,
        1.139053,
        1.099606,
        1.060438,
        1.071396,
        1.121526,
        1.144777,
        1.162034,
        1.16341,
        1.153795,
        1.145094,
        1.157293,
        1.149451,
        1.146018,
        1.169065,
        1.182475,
        1.170492,
        1.153936,
        1.15001,
        1.157426,
        1.15891,
        1.163902,
        1.164832,
        1.153882,
        1.141291,
        1.147744,
        1.146653,
        1.145918,
        1.16767,
        1.18141,
        1.174473,
        1.164378,
        1.156624,
        1.149011,
        1.139566,
        1.14837,
        1.159317,
        1.160075,
        1.1509,
        1.133741,
        1.125999,
        1.130148,
        1.150832,
        1.167958,
        1.156588,
        1.14283,
        1.155258,
        1.165233,
        1.153178,
        1.152743,
        1.157296,
        1.16424,
        1.165523,
        1.161781,
        1.159177,
        1.166392,
        1.170231,
        1.161641,
        1.154086,
        1.140662,
        1.139003,
        1.137497,
        1.136128,
        1.134828,
        1.134217,
        1.135236,
        1.137982,
        1.141162,
        1.142781,
        1.141837,
        1.139792,
        1.139807,
        1.143773,
        1.15029,
        1.155044,
        1.153311,
        1.144081,
        1.131892,
        1.123065,
        1.12078,
        1.123609,
        1.127018,
        1.127275,
        1.1257,
        1.125078,
        1.120524,
        1.122604,
        1.108935,
        1.136158,
        1.148026,
        1.149777,
        1.137321,
        1.128221,
        1.12621,
        1.106551,
        1.097353,
        1.101627,
        1.120972,
        1.148373,
        1.175826,
        1.19515,
        1.177697,
        1.158794,
        1.14044,
        1.116905,
        1.123036,
        1.159571,
        1.158946,
        1.121612,
        1.102197,
        1.107889,
        1.116672,
        1.118055,
        1.117796,
        1.13396,
        1.131589,
        1.110669,
        1.09254,
        1.096862,
        1.103913,
        1.104726,
        1.103172,
        1.113958,
        1.116011,
        1.104685,
        1.092195,
        1.082721,
        1.07249,
        1.047763,
        1.037254,
        1.047786,
        1.054982,
        1.062774,
        1.080361,
        1.101178,
        1.111135,
        1.113944,
        1.109369,
        1.096802,
        1.084618,
        1.082533,
        1.085941,
        1.083874,
        1.087684,
        1.087395,
        1.090687,
        1.078128,
        1.076955,
        1.070788,
        1.057887,
        1.084081,
        1.105277,
        1.104572,
        1.100696,
        1.100531,
        1.103735,
        1.10162,
        1.102569,
        1.118093,
        1.131814,
        1.122997,
        1.104559,
        1.078327,
        1.071628,
        1.086635,
        1.114506,
        1.13706,
        1.139458,
        1.110725,
        1.097723,
        1.113829,
        1.124106,
        1.130197,
        1.111425,
        1.090527,
        1.088692,
        1.111384,
        1.129903,
        1.125697,
        1.107619,
        1.102237,
        1.110561,
        1.112879,
        1.110579,
        1.126442,
        1.130837,
        1.11893,
        1.107154,
        1.101927,
        1.096228,
        1.100754,
        1.115155,
        1.116109,
        1.116346,
        1.130757,
        1.135814,
        1.134473,
        1.138552,
        1.142922,
        1.140474,
        1.135701,
        1.134836,
        1.138745,
        1.143891,
        1.145704,
        1.142682,
        1.137383,
        1.134339,
        1.135961,
        1.139803,
        1.140355,
        1.133654,
        1.120963,
        1.108679,
        1.10403,
        1.109819,
        1.122471,
        1.134676,
        1.14008,
        1.136872,
        1.128189,
        1.119396,
        1.114459,
        1.114196,
        1.116872,
        1.120145,
        1.122639,
        1.124403,
        1.126282,
        1.128577,
        1.130303,
        1.129652,
        1.125479,
        1.118876,
        1.112802,
        1.109535,
        1.110044,
        1.11603,
        1.129598,
        1.127668,
        1.100728,
        1.089288,
        1.110365,
        1.129737,
        1.137509,
        1.137684,
        1.136043,
        1.130965,
        1.121382,
        1.115984,
        1.117476,
        1.122793,
        1.12934,
        1.135372,
        1.14635,
        1.151354,
        1.147538,
        1.130104,
        1.115653,
        1.11574,
        1.119948,
        1.121032,
        1.12404,
        1.127548,
        1.127018,
        1.115503,
        1.099539,
        1.089076,
        1.090265,
        1.084572,
        1.06469,
        1.055429,
        1.052502,
        1.044639,
        1.03799,
        1.039935,
        1.046451,
        1.048719,
        1.043501,
        1.032066,
        1.025396,
        1.033133,
        1.041963,
        1.051928,
        1.062819,
        1.072118,
        1.074964,
        1.078519,
        1.084656,
        1.083037,
        1.0665,
        1.056532,
        1.061514,
        1.075095,
        1.094052,
        1.09277,
        1.065493,
        1.063571,
        1.089443,
        1.099171,
        1.07816,
        1.066342,
        1.079796,
        1.088451,
        1.074657,
        1.057138,
        1.055978,
        1.059257,
        1.059664,
        1.045589,
        1.030255,
        1.018993,
        1.022909,
        1.030233,
        1.028561,
        1.028566,
        1.040627,
        1.053026,
        1.053285,
        1.044883,
        1.035773,
        1.033182,
        1.039834,
        1.044912,
        1.038575,
        1.02999,
        1.030057,
        1.033478,
        1.032685,
        1.027808,
        1.021443,
        1.02071,
        1.031742,
        1.049193,
        1.063877,
        1.064237,
        1.044568,
        1.029201,
        1.041251,
        1.063538,
        1.074469,
        1.072099,
        1.060892,
        1.057757,
        1.074091,
        1.08679,
        1.074932,
        1.056917,
        1.053501,
        1.057434,
        1.057092,
        1.051278,
        1.042987,
        1.040036,
        1.047193,
        1.05487,
        1.053288,
        1.046755,
        1.042178,
        1.040062,
        1.040115,
        1.04495,
        1.055079,
        1.062903,
        1.061853,
        1.058527,
        1.059639,
        1.054241,
        1.035227,
        1.0276,
        1.051726,
        1.083317,
        1.094559,
        1.087239,
        1.07385,
        1.057515,
        1.048328,
        1.046245,
        1.03808,
        1.054255,
        1.07722,
        1.095484,
        1.105027,
        1.102079,
        1.089003,
        1.09021,
        1.104776,
        1.110342,
        1.109536,
        1.077342,
        1.000411,
        0.980098,
        1.027549,
        1.058025,
        1.0594,
        1.059883,
        1.054028,
        1.03317,
        0.967353,
        0.868516,
        0.82186,
        0.851799,
        0.951721,
        1.05644,
        1.0887,
        1.076015,
        1.066761,
        1.063889,
        1.06364,
        1.063346,
        1.063344,
        1.065363,
        1.066181,
        1.064201,
        1.063513,
        1.062813,
        1.07414,
        1.090028,
        1.103456,
        1.104005,
        1.087665,
        1.064419,
        1.017228,
        0.936692,
        0.883428,
        0.883857,
        0.95296,
        1.034558,
        1.04108,
        1.036968,
        1.065923,
        1.031632,
        1.051999,
        1.06429,
        1.078087,
        1.086034,
        1.079894,
        1.071853,
        1.071856,
        1.077698,
        1.078026,
        1.071906,
        1.059292,
        1.043351,
        1.028786,
        1.023644,
        1.0344,
        1.049923,
        1.05602,
        1.047667,
        1.043976,
        1.028347,
        1.013183,
        1.044586,
        1.066415,
        1.064026,
        1.067811,
        1.075286,
        1.070064,
        1.073621,
        1.087087,
        1.09352,
        1.08738,
        1.065482,
        1.046762,
        1.043575,
        1.038789,
        1.03841,
        1.04735,
        1.051744,
        1.057666,
        1.061412,
        1.064273,
        1.05996,
        1.051939,
        1.043189,
        1.035019,
        1.061849,
        1.056525,
        1.053624,
        1.05589,
        1.064469,
        1.076652,
        1.086322,
        1.087552,
        1.079455,
        1.06797,
        1.062123,
        1.06775,
        1.082848,
        1.097808,
        1.101341,
        1.088527,
        1.064549,
        1.041529,
        1.030791,
        1.035417,
        1.048375,
        1.058586,
        1.059793,
        1.054768,
        1.05217,
        1.058412,
        1.070775,
        1.078736,
        1.072854,
        1.052736,
        1.027887,
        1.010625,
        1.006143,
        1.008974,
        1.009238,
        1.001849,
        0.990727,
        0.984703,
        0.988349,
        0.996935,
        1.000999,
        0.995053,
        0.982553,
        0.97296,
        0.97292,
        0.980202,
        0.986584,
        0.985802,
        0.979097,
        0.973617,
        0.974634,
        0.979418,
        0.97981,
        0.970359,
        0.954464,
        0.943117,
        0.946071,
        0.962564,
        0.980906,
        0.986105,
        0.969846,
        0.93627,
        0.899217,
        0.873549,
        0.867205,
        0.879028,
        0.90155,
        0.92606,
        0.947021,
        0.963173,
        0.976283,
        0.988911,
        1.002251,
        1.014861,
        1.022911,
        1.022451,
        1.011942,
        0.993888,
        0.974311,
        0.959959,
        0.95469,
        0.957486,
        0.963556,
        0.967566,
        0.966957,
        0.963475,
        0.961979,
        0.967398,
        0.981708,
        1.002642,
        1.024497,
        1.040554,
        1.045967,
        1.03971,
        1.024308,
        1.004176,
        0.98341,
        0.964127,
        0.946375,
        0.929446,
        0.913403,
        0.899769,
        0.890951,
        0.888812,
        0.893429,
        0.902804,
        0.913952,
        0.9243,
        0.932683,
        0.939323,
        0.944584,
        0.948014,
        0.948609,
        0.946649,
        0.945479,
        0.931471,
        0.945616,
        0.966177,
        0.988685,
        1.006105,
        1.012849,
        1.007632,
        0.994447,
        0.979907,
        0.968466,
        0.960698,
        0.954032,
        0.9457,
        0.936072,
        0.928117,
        0.924624,
        0.925794,
        0.92922,
        0.932228,
        0.934874,
        0.940072,
        0.949964,
        0.963416,
        0.975479,
        0.980266,
        0.976226,
        0.967064,
        0.959084,
        0.95669,
        0.958784,
        0.960537,
        0.957499,
        0.948987,
        0.93816,
        0.92896,
        0.923246,
        0.920313,
        0.919285,
        0.920481,
        0.925381,
        0.934808,
        0.94652,
        0.956035,
        0.958724,
        0.952448,
        0.939405,
        0.924721,
        0.914211,
        0.911855,
        0.917524,
        0.927536,
        0.936426,
        0.939788,
        0.937438,
        0.933445,
        0.934019,
        0.943325,
        0.959829,
        0.977242,
        0.988111,
        0.988204,
        0.978922,
        0.965669,
        0.953793,
        0.94574,
        0.941274,
        0.938723,
        0.937249,
        0.937307,
        0.938843,
        0.94116,
        0.943298,
        0.945114,
        0.948201,
        0.95407,
        0.962232,
        0.969776,
        0.972578,
        0.96863,
        0.960004,
        0.951967,
        0.949694,
        0.955068,
        0.965485,
        0.975075,
        0.978522,
        0.974341,
        0.965405,
        0.957173,
        0.955086,
        0.961908,
        0.976425,
        0.993903,
        1.007909,
        1.012867,
        1.006363,
        0.990092,
        0.969097,
        0.950473,
        0.95769,
        0.956906,
        0.956048,
        0.954716,
        0.952508,
        0.949222,
        0.945456,
        0.942007,
        0.939672,
        0.938997,
        0.939512,
        0.940499,
        0.941237,
        0.941247,
        0.941019,
        0.941285,
        0.942776,
        0.945878,
        0.949593,
        0.952576,
        0.953483,
        0.951425,
        0.947336,
        0.942603,
        0.938617,
        0.936446,
        0.935887,
        0.936413,
        0.937503,
        0.93866,
        0.93951,
        0.939709,
        0.938912,
        0.936966,
        0.934498,
        0.932324,
        0.931263,
        0.93184,
        0.933415,
        0.935051,
        0.935816,
        0.93503,
        0.933037,
        0.930434,
        0.92782,
        0.925725,
        0.924404,
        0.924046,
        0.924838,
        0.9268,
        0.929282,
        0.931467,
        0.932536,
        0.93199,
        0.930596,
        0.929439,
        0.929602,
        0.931722,
        0.93464,
        0.93675,
        0.936445,
        0.928811,
        0.925618,
        0.922161,
        0.919315,
        0.917769,
        0.917475,
        0.918198,
        0.919705,
        0.921717,
        0.923774,
        0.925374,
        0.926011,
        0.925355,
        0.923767,
        0.921783,
        0.919937,
        0.918672,
        0.918054,
        0.918058,
        0.918658,
        0.919742,
        0.920844,
        0.921411,
        0.92089,
        0.918954,
        0.916183,
        0.913382,
        0.911356,
        0.910698,
        0.911141,
        0.912212,
        0.91343,
        0.914388,
        0.914937,
        0.914998,
        0.914494,
        0.913428,
        0.912154,
        0.911107,
        0.910725
      ],
      "range":1
    }
  }
]
