[
  {
    "model":"Star, type M3(iii)",
    "name":"Star, type M3(iii)",
    "type":"WB_REF",
    "dataQualityMarker":3,
    "dataSource":"https://www.eso.org/sci/facilities/paranal/decommissioned/isaac/tools/lib.html",
    "manufacturer":"A. Pickles (A.J. Pickles, PASP 110,863, 1998)",
    "version":1,
    "wavelength":{
      "value":[
        1150.0,
        1155.0,
        1160.0,
        1165.0,
        1170.0,
        1175.0,
        1180.0,
        1185.0,
        1190.0,
        1195.0,
        1200.0,
        1205.0,
        1210.0,
        1215.0,
        1220.0,
        1225.0,
        1230.0,
        1235.0,
        1240.0,
        1245.0,
        1250.0,
        1255.0,
        1260.0,
        1265.0,
        1270.0,
        1275.0,
        1280.0,
        1285.0,
        1290.0,
        1295.0,
        1300.0,
        1305.0,
        1310.0,
        1315.0,
        1320.0,
        1325.0,
        1330.0,
        1335.0,
        1340.0,
        1345.0,
        1350.0,
        1355.0,
        1360.0,
        1365.0,
        1370.0,
        1375.0,
        1380.0,
        1385.0,
        1390.0,
        1395.0,
        1400.0,
        1405.0,
        1410.0,
        1415.0,
        1420.0,
        1425.0,
        1430.0,
        1435.0,
        1440.0,
        1445.0,
        1450.0,
        1455.0,
        1460.0,
        1465.0,
        1470.0,
        1475.0,
        1480.0,
        1485.0,
        1490.0,
        1495.0,
        1500.0,
        1505.0,
        1510.0,
        1515.0,
        1520.0,
        1525.0,
        1530.0,
        1535.0,
        1540.0,
        1545.0,
        1550.0,
        1555.0,
        1560.0,
        1565.0,
        1570.0,
        1575.0,
        1580.0,
        1585.0,
        1590.0,
        1595.0,
        1600.0,
        1605.0,
        1610.0,
        1615.0,
        1620.0,
        1625.0,
        1630.0,
        1635.0,
        1640.0,
        1645.0,
        1650.0,
        1655.0,
        1660.0,
        1665.0,
        1670.0,
        1675.0,
        1680.0,
        1685.0,
        1690.0,
        1695.0,
        1700.0,
        1705.0,
        1710.0,
        1715.0,
        1720.0,
        1725.0,
        1730.0,
        1735.0,
        1740.0,
        1745.0,
        1750.0,
        1755.0,
        1760.0,
        1765.0,
        1770.0,
        1775.0,
        1780.0,
        1785.0,
        1790.0,
        1795.0,
        1800.0,
        1805.0,
        1810.0,
        1815.0,
        1820.0,
        1825.0,
        1830.0,
        1835.0,
        1840.0,
        1845.0,
        1850.0,
        1855.0,
        1860.0,
        1865.0,
        1870.0,
        1875.0,
        1880.0,
        1885.0,
        1890.0,
        1895.0,
        1900.0,
        1905.0,
        1910.0,
        1915.0,
        1920.0,
        1925.0,
        1930.0,
        1935.0,
        1940.0,
        1945.0,
        1950.0,
        1955.0,
        1960.0,
        1965.0,
        1970.0,
        1975.0,
        1980.0,
        1985.0,
        1990.0,
        1995.0,
        2000.0,
        2005.0,
        2010.0,
        2015.0,
        2020.0,
        2025.0,
        2030.0,
        2035.0,
        2040.0,
        2045.0,
        2050.0,
        2055.0,
        2060.0,
        2065.0,
        2070.0,
        2075.0,
        2080.0,
        2085.0,
        2090.0,
        2095.0,
        2100.0,
        2105.0,
        2110.0,
        2115.0,
        2120.0,
        2125.0,
        2130.0,
        2135.0,
        2140.0,
        2145.0,
        2150.0,
        2155.0,
        2160.0,
        2165.0,
        2170.0,
        2175.0,
        2180.0,
        2185.0,
        2190.0,
        2195.0,
        2200.0,
        2205.0,
        2210.0,
        2215.0,
        2220.0,
        2225.0,
        2230.0,
        2235.0,
        2240.0,
        2245.0,
        2250.0,
        2255.0,
        2260.0,
        2265.0,
        2270.0,
        2275.0,
        2280.0,
        2285.0,
        2290.0,
        2295.0,
        2300.0,
        2305.0,
        2310.0,
        2315.0,
        2320.0,
        2325.0,
        2330.0,
        2335.0,
        2340.0,
        2345.0,
        2350.0,
        2355.0,
        2360.0,
        2365.0,
        2370.0,
        2375.0,
        2380.0,
        2385.0,
        2390.0,
        2395.0,
        2400.0,
        2405.0,
        2410.0,
        2415.0,
        2420.0,
        2425.0,
        2430.0,
        2435.0,
        2440.0,
        2445.0,
        2450.0,
        2455.0,
        2460.0,
        2465.0,
        2470.0,
        2475.0,
        2480.0,
        2485.0,
        2490.0,
        2495.0,
        2500.0,
        2505.0,
        2510.0,
        2515.0,
        2520.0,
        2525.0,
        2530.0,
        2535.0,
        2540.0,
        2545.0,
        2550.0,
        2555.0,
        2560.0,
        2565.0,
        2570.0,
        2575.0,
        2580.0,
        2585.0,
        2590.0,
        2595.0,
        2600.0,
        2605.0,
        2610.0,
        2615.0,
        2620.0,
        2625.0,
        2630.0,
        2635.0,
        2640.0,
        2645.0,
        2650.0,
        2655.0,
        2660.0,
        2665.0,
        2670.0,
        2675.0,
        2680.0,
        2685.0,
        2690.0,
        2695.0,
        2700.0,
        2705.0,
        2710.0,
        2715.0,
        2720.0,
        2725.0,
        2730.0,
        2735.0,
        2740.0,
        2745.0,
        2750.0,
        2755.0,
        2760.0,
        2765.0,
        2770.0,
        2775.0,
        2780.0,
        2785.0,
        2790.0,
        2795.0,
        2800.0,
        2805.0,
        2810.0,
        2815.0,
        2820.0,
        2825.0,
        2830.0,
        2835.0,
        2840.0,
        2845.0,
        2850.0,
        2855.0,
        2860.0,
        2865.0,
        2870.0,
        2875.0,
        2880.0,
        2885.0,
        2890.0,
        2895.0,
        2900.0,
        2905.0,
        2910.0,
        2915.0,
        2920.0,
        2925.0,
        2930.0,
        2935.0,
        2940.0,
        2945.0,
        2950.0,
        2955.0,
        2960.0,
        2965.0,
        2970.0,
        2975.0,
        2980.0,
        2985.0,
        2990.0,
        2995.0,
        3000.0,
        3005.0,
        3010.0,
        3015.0,
        3020.0,
        3025.0,
        3030.0,
        3035.0,
        3040.0,
        3045.0,
        3050.0,
        3055.0,
        3060.0,
        3065.0,
        3070.0,
        3075.0,
        3080.0,
        3085.0,
        3090.0,
        3095.0,
        3100.0,
        3105.0,
        3110.0,
        3115.0,
        3120.0,
        3125.0,
        3130.0,
        3135.0,
        3140.0,
        3145.0,
        3150.0,
        3155.0,
        3160.0,
        3165.0,
        3170.0,
        3175.0,
        3180.0,
        3185.0,
        3190.0,
        3195.0,
        3200.0,
        3205.0,
        3210.0,
        3215.0,
        3220.0,
        3225.0,
        3230.0,
        3235.0,
        3240.0,
        3245.0,
        3250.0,
        3255.0,
        3260.0,
        3265.0,
        3270.0,
        3275.0,
        3280.0,
        3285.0,
        3290.0,
        3295.0,
        3300.0,
        3305.0,
        3310.0,
        3315.0,
        3320.0,
        3325.0,
        3330.0,
        3335.0,
        3340.0,
        3345.0,
        3350.0,
        3355.0,
        3360.0,
        3365.0,
        3370.0,
        3375.0,
        3380.0,
        3385.0,
        3390.0,
        3395.0,
        3400.0,
        3405.0,
        3410.0,
        3415.0,
        3420.0,
        3425.0,
        3430.0,
        3435.0,
        3440.0,
        3445.0,
        3450.0,
        3455.0,
        3460.0,
        3465.0,
        3470.0,
        3475.0,
        3480.0,
        3485.0,
        3490.0,
        3495.0,
        3500.0,
        3505.0,
        3510.0,
        3515.0,
        3520.0,
        3525.0,
        3530.0,
        3535.0,
        3540.0,
        3545.0,
        3550.0,
        3555.0,
        3560.0,
        3565.0,
        3570.0,
        3575.0,
        3580.0,
        3585.0,
        3590.0,
        3595.0,
        3600.0,
        3605.0,
        3610.0,
        3615.0,
        3620.0,
        3625.0,
        3630.0,
        3635.0,
        3640.0,
        3645.0,
        3650.0,
        3655.0,
        3660.0,
        3665.0,
        3670.0,
        3675.0,
        3680.0,
        3685.0,
        3690.0,
        3695.0,
        3700.0,
        3705.0,
        3710.0,
        3715.0,
        3720.0,
        3725.0,
        3730.0,
        3735.0,
        3740.0,
        3745.0,
        3750.0,
        3755.0,
        3760.0,
        3765.0,
        3770.0,
        3775.0,
        3780.0,
        3785.0,
        3790.0,
        3795.0,
        3800.0,
        3805.0,
        3810.0,
        3815.0,
        3820.0,
        3825.0,
        3830.0,
        3835.0,
        3840.0,
        3845.0,
        3850.0,
        3855.0,
        3860.0,
        3865.0,
        3870.0,
        3875.0,
        3880.0,
        3885.0,
        3890.0,
        3895.0,
        3900.0,
        3905.0,
        3910.0,
        3915.0,
        3920.0,
        3925.0,
        3930.0,
        3935.0,
        3940.0,
        3945.0,
        3950.0,
        3955.0,
        3960.0,
        3965.0,
        3970.0,
        3975.0,
        3980.0,
        3985.0,
        3990.0,
        3995.0,
        4000.0,
        4005.0,
        4010.0,
        4015.0,
        4020.0,
        4025.0,
        4030.0,
        4035.0,
        4040.0,
        4045.0,
        4050.0,
        4055.0,
        4060.0,
        4065.0,
        4070.0,
        4075.0,
        4080.0,
        4085.0,
        4090.0,
        4095.0,
        4100.0,
        4105.0,
        4110.0,
        4115.0,
        4120.0,
        4125.0,
        4130.0,
        4135.0,
        4140.0,
        4145.0,
        4150.0,
        4155.0,
        4160.0,
        4165.0,
        4170.0,
        4175.0,
        4180.0,
        4185.0,
        4190.0,
        4195.0,
        4200.0,
        4205.0,
        4210.0,
        4215.0,
        4220.0,
        4225.0,
        4230.0,
        4235.0,
        4240.0,
        4245.0,
        4250.0,
        4255.0,
        4260.0,
        4265.0,
        4270.0,
        4275.0,
        4280.0,
        4285.0,
        4290.0,
        4295.0,
        4300.0,
        4305.0,
        4310.0,
        4315.0,
        4320.0,
        4325.0,
        4330.0,
        4335.0,
        4340.0,
        4345.0,
        4350.0,
        4355.0,
        4360.0,
        4365.0,
        4370.0,
        4375.0,
        4380.0,
        4385.0,
        4390.0,
        4395.0,
        4400.0,
        4405.0,
        4410.0,
        4415.0,
        4420.0,
        4425.0,
        4430.0,
        4435.0,
        4440.0,
        4445.0,
        4450.0,
        4455.0,
        4460.0,
        4465.0,
        4470.0,
        4475.0,
        4480.0,
        4485.0,
        4490.0,
        4495.0,
        4500.0,
        4505.0,
        4510.0,
        4515.0,
        4520.0,
        4525.0,
        4530.0,
        4535.0,
        4540.0,
        4545.0,
        4550.0,
        4555.0,
        4560.0,
        4565.0,
        4570.0,
        4575.0,
        4580.0,
        4585.0,
        4590.0,
        4595.0,
        4600.0,
        4605.0,
        4610.0,
        4615.0,
        4620.0,
        4625.0,
        4630.0,
        4635.0,
        4640.0,
        4645.0,
        4650.0,
        4655.0,
        4660.0,
        4665.0,
        4670.0,
        4675.0,
        4680.0,
        4685.0,
        4690.0,
        4695.0,
        4700.0,
        4705.0,
        4710.0,
        4715.0,
        4720.0,
        4725.0,
        4730.0,
        4735.0,
        4740.0,
        4745.0,
        4750.0,
        4755.0,
        4760.0,
        4765.0,
        4770.0,
        4775.0,
        4780.0,
        4785.0,
        4790.0,
        4795.0,
        4800.0,
        4805.0,
        4810.0,
        4815.0,
        4820.0,
        4825.0,
        4830.0,
        4835.0,
        4840.0,
        4845.0,
        4850.0,
        4855.0,
        4860.0,
        4865.0,
        4870.0,
        4875.0,
        4880.0,
        4885.0,
        4890.0,
        4895.0,
        4900.0,
        4905.0,
        4910.0,
        4915.0,
        4920.0,
        4925.0,
        4930.0,
        4935.0,
        4940.0,
        4945.0,
        4950.0,
        4955.0,
        4960.0,
        4965.0,
        4970.0,
        4975.0,
        4980.0,
        4985.0,
        4990.0,
        4995.0,
        5000.0,
        5005.0,
        5010.0,
        5015.0,
        5020.0,
        5025.0,
        5030.0,
        5035.0,
        5040.0,
        5045.0,
        5050.0,
        5055.0,
        5060.0,
        5065.0,
        5070.0,
        5075.0,
        5080.0,
        5085.0,
        5090.0,
        5095.0,
        5100.0,
        5105.0,
        5110.0,
        5115.0,
        5120.0,
        5125.0,
        5130.0,
        5135.0,
        5140.0,
        5145.0,
        5150.0,
        5155.0,
        5160.0,
        5165.0,
        5170.0,
        5175.0,
        5180.0,
        5185.0,
        5190.0,
        5195.0,
        5200.0,
        5205.0,
        5210.0,
        5215.0,
        5220.0,
        5225.0,
        5230.0,
        5235.0,
        5240.0,
        5245.0,
        5250.0,
        5255.0,
        5260.0,
        5265.0,
        5270.0,
        5275.0,
        5280.0,
        5285.0,
        5290.0,
        5295.0,
        5300.0,
        5305.0,
        5310.0,
        5315.0,
        5320.0,
        5325.0,
        5330.0,
        5335.0,
        5340.0,
        5345.0,
        5350.0,
        5355.0,
        5360.0,
        5365.0,
        5370.0,
        5375.0,
        5380.0,
        5385.0,
        5390.0,
        5395.0,
        5400.0,
        5405.0,
        5410.0,
        5415.0,
        5420.0,
        5425.0,
        5430.0,
        5435.0,
        5440.0,
        5445.0,
        5450.0,
        5455.0,
        5460.0,
        5465.0,
        5470.0,
        5475.0,
        5480.0,
        5485.0,
        5490.0,
        5495.0,
        5500.0,
        5505.0,
        5510.0,
        5515.0,
        5520.0,
        5525.0,
        5530.0,
        5535.0,
        5540.0,
        5545.0,
        5550.0,
        5555.0,
        5560.0,
        5565.0,
        5570.0,
        5575.0,
        5580.0,
        5585.0,
        5590.0,
        5595.0,
        5600.0,
        5605.0,
        5610.0,
        5615.0,
        5620.0,
        5625.0,
        5630.0,
        5635.0,
        5640.0,
        5645.0,
        5650.0,
        5655.0,
        5660.0,
        5665.0,
        5670.0,
        5675.0,
        5680.0,
        5685.0,
        5690.0,
        5695.0,
        5700.0,
        5705.0,
        5710.0,
        5715.0,
        5720.0,
        5725.0,
        5730.0,
        5735.0,
        5740.0,
        5745.0,
        5750.0,
        5755.0,
        5760.0,
        5765.0,
        5770.0,
        5775.0,
        5780.0,
        5785.0,
        5790.0,
        5795.0,
        5800.0,
        5805.0,
        5810.0,
        5815.0,
        5820.0,
        5825.0,
        5830.0,
        5835.0,
        5840.0,
        5845.0,
        5850.0,
        5855.0,
        5860.0,
        5865.0,
        5870.0,
        5875.0,
        5880.0,
        5885.0,
        5890.0,
        5895.0,
        5900.0,
        5905.0,
        5910.0,
        5915.0,
        5920.0,
        5925.0,
        5930.0,
        5935.0,
        5940.0,
        5945.0,
        5950.0,
        5955.0,
        5960.0,
        5965.0,
        5970.0,
        5975.0,
        5980.0,
        5985.0,
        5990.0,
        5995.0,
        6000.0,
        6005.0,
        6010.0,
        6015.0,
        6020.0,
        6025.0,
        6030.0,
        6035.0,
        6040.0,
        6045.0,
        6050.0,
        6055.0,
        6060.0,
        6065.0,
        6070.0,
        6075.0,
        6080.0,
        6085.0,
        6090.0,
        6095.0,
        6100.0,
        6105.0,
        6110.0,
        6115.0,
        6120.0,
        6125.0,
        6130.0,
        6135.0,
        6140.0,
        6145.0,
        6150.0,
        6155.0,
        6160.0,
        6165.0,
        6170.0,
        6175.0,
        6180.0,
        6185.0,
        6190.0,
        6195.0,
        6200.0,
        6205.0,
        6210.0,
        6215.0,
        6220.0,
        6225.0,
        6230.0,
        6235.0,
        6240.0,
        6245.0,
        6250.0,
        6255.0,
        6260.0,
        6265.0,
        6270.0,
        6275.0,
        6280.0,
        6285.0,
        6290.0,
        6295.0,
        6300.0,
        6305.0,
        6310.0,
        6315.0,
        6320.0,
        6325.0,
        6330.0,
        6335.0,
        6340.0,
        6345.0,
        6350.0,
        6355.0,
        6360.0,
        6365.0,
        6370.0,
        6375.0,
        6380.0,
        6385.0,
        6390.0,
        6395.0,
        6400.0,
        6405.0,
        6410.0,
        6415.0,
        6420.0,
        6425.0,
        6430.0,
        6435.0,
        6440.0,
        6445.0,
        6450.0,
        6455.0,
        6460.0,
        6465.0,
        6470.0,
        6475.0,
        6480.0,
        6485.0,
        6490.0,
        6495.0,
        6500.0,
        6505.0,
        6510.0,
        6515.0,
        6520.0,
        6525.0,
        6530.0,
        6535.0,
        6540.0,
        6545.0,
        6550.0,
        6555.0,
        6560.0,
        6565.0,
        6570.0,
        6575.0,
        6580.0,
        6585.0,
        6590.0,
        6595.0,
        6600.0,
        6605.0,
        6610.0,
        6615.0,
        6620.0,
        6625.0,
        6630.0,
        6635.0,
        6640.0,
        6645.0,
        6650.0,
        6655.0,
        6660.0,
        6665.0,
        6670.0,
        6675.0,
        6680.0,
        6685.0,
        6690.0,
        6695.0,
        6700.0,
        6705.0,
        6710.0,
        6715.0,
        6720.0,
        6725.0,
        6730.0,
        6735.0,
        6740.0,
        6745.0,
        6750.0,
        6755.0,
        6760.0,
        6765.0,
        6770.0,
        6775.0,
        6780.0,
        6785.0,
        6790.0,
        6795.0,
        6800.0,
        6805.0,
        6810.0,
        6815.0,
        6820.0,
        6825.0,
        6830.0,
        6835.0,
        6840.0,
        6845.0,
        6850.0,
        6855.0,
        6860.0,
        6865.0,
        6870.0,
        6875.0,
        6880.0,
        6885.0,
        6890.0,
        6895.0,
        6900.0,
        6905.0,
        6910.0,
        6915.0,
        6920.0,
        6925.0,
        6930.0,
        6935.0,
        6940.0,
        6945.0,
        6950.0,
        6955.0,
        6960.0,
        6965.0,
        6970.0,
        6975.0,
        6980.0,
        6985.0,
        6990.0,
        6995.0,
        7000.0,
        7005.0,
        7010.0,
        7015.0,
        7020.0,
        7025.0,
        7030.0,
        7035.0,
        7040.0,
        7045.0,
        7050.0,
        7055.0,
        7060.0,
        7065.0,
        7070.0,
        7075.0,
        7080.0,
        7085.0,
        7090.0,
        7095.0,
        7100.0,
        7105.0,
        7110.0,
        7115.0,
        7120.0,
        7125.0,
        7130.0,
        7135.0,
        7140.0,
        7145.0,
        7150.0,
        7155.0,
        7160.0,
        7165.0,
        7170.0,
        7175.0,
        7180.0,
        7185.0,
        7190.0,
        7195.0,
        7200.0,
        7205.0,
        7210.0,
        7215.0,
        7220.0,
        7225.0,
        7230.0,
        7235.0,
        7240.0,
        7245.0,
        7250.0,
        7255.0,
        7260.0,
        7265.0,
        7270.0,
        7275.0,
        7280.0,
        7285.0,
        7290.0,
        7295.0,
        7300.0,
        7305.0,
        7310.0,
        7315.0,
        7320.0,
        7325.0,
        7330.0,
        7335.0,
        7340.0,
        7345.0,
        7350.0,
        7355.0,
        7360.0,
        7365.0,
        7370.0,
        7375.0,
        7380.0,
        7385.0,
        7390.0,
        7395.0,
        7400.0,
        7405.0,
        7410.0,
        7415.0,
        7420.0,
        7425.0,
        7430.0,
        7435.0,
        7440.0,
        7445.0,
        7450.0,
        7455.0,
        7460.0,
        7465.0,
        7470.0,
        7475.0,
        7480.0,
        7485.0,
        7490.0,
        7495.0,
        7500.0,
        7505.0,
        7510.0,
        7515.0,
        7520.0,
        7525.0,
        7530.0,
        7535.0,
        7540.0,
        7545.0,
        7550.0,
        7555.0,
        7560.0,
        7565.0,
        7570.0,
        7575.0,
        7580.0,
        7585.0,
        7590.0,
        7595.0,
        7600.0,
        7605.0,
        7610.0,
        7615.0,
        7620.0,
        7625.0,
        7630.0,
        7635.0,
        7640.0,
        7645.0,
        7650.0,
        7655.0,
        7660.0,
        7665.0,
        7670.0,
        7675.0,
        7680.0,
        7685.0,
        7690.0,
        7695.0,
        7700.0,
        7705.0,
        7710.0,
        7715.0,
        7720.0,
        7725.0,
        7730.0,
        7735.0,
        7740.0,
        7745.0,
        7750.0,
        7755.0,
        7760.0,
        7765.0,
        7770.0,
        7775.0,
        7780.0,
        7785.0,
        7790.0,
        7795.0,
        7800.0,
        7805.0,
        7810.0,
        7815.0,
        7820.0,
        7825.0,
        7830.0,
        7835.0,
        7840.0,
        7845.0,
        7850.0,
        7855.0,
        7860.0,
        7865.0,
        7870.0,
        7875.0,
        7880.0,
        7885.0,
        7890.0,
        7895.0,
        7900.0,
        7905.0,
        7910.0,
        7915.0,
        7920.0,
        7925.0,
        7930.0,
        7935.0,
        7940.0,
        7945.0,
        7950.0,
        7955.0,
        7960.0,
        7965.0,
        7970.0,
        7975.0,
        7980.0,
        7985.0,
        7990.0,
        7995.0,
        8000.0,
        8005.0,
        8010.0,
        8015.0,
        8020.0,
        8025.0,
        8030.0,
        8035.0,
        8040.0,
        8045.0,
        8050.0,
        8055.0,
        8060.0,
        8065.0,
        8070.0,
        8075.0,
        8080.0,
        8085.0,
        8090.0,
        8095.0,
        8100.0,
        8105.0,
        8110.0,
        8115.0,
        8120.0,
        8125.0,
        8130.0,
        8135.0,
        8140.0,
        8145.0,
        8150.0,
        8155.0,
        8160.0,
        8165.0,
        8170.0,
        8175.0,
        8180.0,
        8185.0,
        8190.0,
        8195.0,
        8200.0,
        8205.0,
        8210.0,
        8215.0,
        8220.0,
        8225.0,
        8230.0,
        8235.0,
        8240.0,
        8245.0,
        8250.0,
        8255.0,
        8260.0,
        8265.0,
        8270.0,
        8275.0,
        8280.0,
        8285.0,
        8290.0,
        8295.0,
        8300.0,
        8305.0,
        8310.0,
        8315.0,
        8320.0,
        8325.0,
        8330.0,
        8335.0,
        8340.0,
        8345.0,
        8350.0,
        8355.0,
        8360.0,
        8365.0,
        8370.0,
        8375.0,
        8380.0,
        8385.0,
        8390.0,
        8395.0,
        8400.0,
        8405.0,
        8410.0,
        8415.0,
        8420.0,
        8425.0,
        8430.0,
        8435.0,
        8440.0,
        8445.0,
        8450.0,
        8455.0,
        8460.0,
        8465.0,
        8470.0,
        8475.0,
        8480.0,
        8485.0,
        8490.0,
        8495.0,
        8500.0,
        8505.0,
        8510.0,
        8515.0,
        8520.0,
        8525.0,
        8530.0,
        8535.0,
        8540.0,
        8545.0,
        8550.0,
        8555.0,
        8560.0,
        8565.0,
        8570.0,
        8575.0,
        8580.0,
        8585.0,
        8590.0,
        8595.0,
        8600.0,
        8605.0,
        8610.0,
        8615.0,
        8620.0,
        8625.0,
        8630.0,
        8635.0,
        8640.0,
        8645.0,
        8650.0,
        8655.0,
        8660.0,
        8665.0,
        8670.0,
        8675.0,
        8680.0,
        8685.0,
        8690.0,
        8695.0,
        8700.0,
        8705.0,
        8710.0,
        8715.0,
        8720.0,
        8725.0,
        8730.0,
        8735.0,
        8740.0,
        8745.0,
        8750.0,
        8755.0,
        8760.0,
        8765.0,
        8770.0,
        8775.0,
        8780.0,
        8785.0,
        8790.0,
        8795.0,
        8800.0,
        8805.0,
        8810.0,
        8815.0,
        8820.0,
        8825.0,
        8830.0,
        8835.0,
        8840.0,
        8845.0,
        8850.0,
        8855.0,
        8860.0,
        8865.0,
        8870.0,
        8875.0,
        8880.0,
        8885.0,
        8890.0,
        8895.0,
        8900.0,
        8905.0,
        8910.0,
        8915.0,
        8920.0,
        8925.0,
        8930.0,
        8935.0,
        8940.0,
        8945.0,
        8950.0,
        8955.0,
        8960.0,
        8965.0,
        8970.0,
        8975.0,
        8980.0,
        8985.0,
        8990.0,
        8995.0,
        9000.0,
        9005.0,
        9010.0,
        9015.0,
        9020.0,
        9025.0,
        9030.0,
        9035.0,
        9040.0,
        9045.0,
        9050.0,
        9055.0,
        9060.0,
        9065.0,
        9070.0,
        9075.0,
        9080.0,
        9085.0,
        9090.0,
        9095.0,
        9100.0,
        9105.0,
        9110.0,
        9115.0,
        9120.0,
        9125.0,
        9130.0,
        9135.0,
        9140.0,
        9145.0,
        9150.0,
        9155.0,
        9160.0,
        9165.0,
        9170.0,
        9175.0,
        9180.0,
        9185.0,
        9190.0,
        9195.0,
        9200.0,
        9205.0,
        9210.0,
        9215.0,
        9220.0,
        9225.0,
        9230.0,
        9235.0,
        9240.0,
        9245.0,
        9250.0,
        9255.0,
        9260.0,
        9265.0,
        9270.0,
        9275.0,
        9280.0,
        9285.0,
        9290.0,
        9295.0,
        9300.0,
        9305.0,
        9310.0,
        9315.0,
        9320.0,
        9325.0,
        9330.0,
        9335.0,
        9340.0,
        9345.0,
        9350.0,
        9355.0,
        9360.0,
        9365.0,
        9370.0,
        9375.0,
        9380.0,
        9385.0,
        9390.0,
        9395.0,
        9400.0,
        9405.0,
        9410.0,
        9415.0,
        9420.0,
        9425.0,
        9430.0,
        9435.0,
        9440.0,
        9445.0,
        9450.0,
        9455.0,
        9460.0,
        9465.0,
        9470.0,
        9475.0,
        9480.0,
        9485.0,
        9490.0,
        9495.0,
        9500.0,
        9505.0,
        9510.0,
        9515.0,
        9520.0,
        9525.0,
        9530.0,
        9535.0,
        9540.0,
        9545.0,
        9550.0,
        9555.0,
        9560.0,
        9565.0,
        9570.0,
        9575.0,
        9580.0,
        9585.0,
        9590.0,
        9595.0,
        9600.0,
        9605.0,
        9610.0,
        9615.0,
        9620.0,
        9625.0,
        9630.0,
        9635.0,
        9640.0,
        9645.0,
        9650.0,
        9655.0,
        9660.0,
        9665.0,
        9670.0,
        9675.0,
        9680.0,
        9685.0,
        9690.0,
        9695.0,
        9700.0,
        9705.0,
        9710.0,
        9715.0,
        9720.0,
        9725.0,
        9730.0,
        9735.0,
        9740.0,
        9745.0,
        9750.0,
        9755.0,
        9760.0,
        9765.0,
        9770.0,
        9775.0,
        9780.0,
        9785.0,
        9790.0,
        9795.0,
        9800.0,
        9805.0,
        9810.0,
        9815.0,
        9820.0,
        9825.0,
        9830.0,
        9835.0,
        9840.0,
        9845.0,
        9850.0,
        9855.0,
        9860.0,
        9865.0,
        9870.0,
        9875.0,
        9880.0,
        9885.0,
        9890.0,
        9895.0,
        9900.0,
        9905.0,
        9910.0,
        9915.0,
        9920.0,
        9925.0,
        9930.0,
        9935.0,
        9940.0,
        9945.0,
        9950.0,
        9955.0,
        9960.0,
        9965.0,
        9970.0,
        9975.0,
        9980.0,
        9985.0,
        9990.0,
        9995.0,
        10000.0,
        10005.0,
        10010.0,
        10015.0,
        10020.0,
        10025.0,
        10030.0,
        10035.0,
        10040.0,
        10045.0,
        10050.0,
        10055.0,
        10060.0,
        10065.0,
        10070.0,
        10075.0,
        10080.0,
        10085.0,
        10090.0,
        10095.0,
        10100.0,
        10105.0,
        10110.0,
        10115.0,
        10120.0,
        10125.0,
        10130.0,
        10135.0,
        10140.0,
        10145.0,
        10150.0,
        10155.0,
        10160.0,
        10165.0,
        10170.0,
        10175.0,
        10180.0,
        10185.0,
        10190.0,
        10195.0,
        10200.0,
        10205.0,
        10210.0,
        10215.0,
        10220.0,
        10225.0,
        10230.0,
        10235.0,
        10240.0,
        10245.0,
        10250.0,
        10255.0,
        10260.0,
        10265.0,
        10270.0,
        10275.0,
        10280.0,
        10285.0,
        10290.0,
        10295.0,
        10300.0,
        10305.0,
        10310.0,
        10315.0,
        10320.0,
        10325.0,
        10330.0,
        10335.0,
        10340.0,
        10345.0,
        10350.0,
        10355.0,
        10360.0,
        10365.0,
        10370.0,
        10375.0,
        10380.0,
        10385.0,
        10390.0,
        10395.0,
        10400.0,
        10405.0,
        10410.0,
        10415.0,
        10420.0,
        10425.0,
        10430.0,
        10435.0,
        10440.0,
        10445.0,
        10450.0,
        10455.0,
        10460.0,
        10465.0,
        10470.0,
        10475.0,
        10480.0,
        10485.0,
        10490.0,
        10495.0,
        10500.0
      ],
      "units":"angstrom"
    },
    "values":{
      "value":[
        0.0,
        0.0,
        0.0,
        0.0,
        0.0,
        0.0,
        0.0,
        0.0,
        0.0,
        0.0,
        0.0,
        0.0,
        0.0,
        0.0,
        0.0,
        0.0,
        0.0,
        0.0,
        0.0,
        0.0,
        0.0,
        0.0,
        0.0,
        0.0,
        0.0,
        0.0,
        0.0,
        0.0,
        0.0,
        0.0,
        0.0,
        0.0,
        0.0,
        0.0,
        0.0,
        0.0,
        0.0,
        0.0,
        0.0,
        0.0,
        0.0,
        0.0,
        0.0,
        0.0,
        0.0,
        0.0,
        0.0,
        0.0,
        0.0,
        0.0,
        0.0,
        0.0,
        0.0,
        0.0,
        0.0,
        0.0,
        0.0,
        0.0,
        0.0,
        0.0,
        0.0,
        0.0,
        0.0,
        0.0,
        0.0,
        0.0,
        0.0,
        0.0,
        0.0,
        0.0,
        0.0,
        0.0,
        0.0,
        0.0,
        0.0,
        0.0,
        0.0,
        0.0,
        0.0,
        0.0,
        0.0,
        0.0,
        0.0,
        0.0,
        0.0,
        0.0,
        0.0,
        0.0,
        0.0,
        0.0,
        0.0,
        0.0,
        0.0,
        0.0,
        0.0,
        0.0,
        0.0,
        0.0,
        0.0,
        0.0,
        0.0,
        0.0,
        0.0,
        0.0,
        0.0,
        0.0,
        0.0,
        0.0,
        0.0,
        0.0,
        0.0,
        0.0,
        0.0,
        0.0,
        0.0,
        0.0,
        0.0,
        0.0,
        0.0,
        0.0,
        0.0,
        0.0,
        0.0,
        0.0,
        0.0,
        0.0,
        0.0,
        0.0,
        0.0,
        0.0,
        0.0,
        0.0,
        0.0,
        0.0,
        0.0,
        0.0,
        0.0,
        0.0,
        0.0,
        0.0,
        0.0,
        0.0,
        0.0,
        0.0,
        0.0,
        0.0,
        0.0,
        0.0,
        0.0,
        0.0,
        0.0,
        0.0,
        0.0,
        0.0,
        0.0,
        0.0,
        0.0,
        0.0,
        0.0,
        0.0,
        0.0,
        0.0,
        0.0,
        0.0,
        0.0,
        0.0,
        0.0,
        0.0,
        0.0,
        0.0,
        0.0,
        0.0,
        0.0,
        0.0,
        0.0,
        1e-06,
        1e-06,
        1e-06,
        1e-06,
        1e-06,
        2e-06,
        2e-06,
        2e-06,
        3e-06,
        4e-06,
        4e-06,
        5e-06,
        5e-06,
        6e-06,
        7e-06,
        8e-06,
        9e-06,
        9e-06,
        1e-05,
        1.1e-05,
        1.2e-05,
        1.3e-05,
        1.4e-05,
        1.4e-05,
        1.5e-05,
        1.6e-05,
        1.6e-05,
        1.7e-05,
        1.8e-05,
        1.8e-05,
        1.9e-05,
        2e-05,
        2e-05,
        2.1e-05,
        2.3e-05,
        2.4e-05,
        2.6e-05,
        2.8e-05,
        3e-05,
        3.2e-05,
        3.5e-05,
        3.9e-05,
        4.2e-05,
        4.6e-05,
        5.1e-05,
        5.6e-05,
        6.2e-05,
        6.8e-05,
        7.4e-05,
        8e-05,
        8.6e-05,
        9.2e-05,
        9.7e-05,
        0.000102,
        0.000106,
        0.00011,
        0.000113,
        0.000115,
        0.000116,
        0.000115,
        0.000113,
        0.00011,
        0.000105,
        9.9e-05,
        9e-05,
        8e-05,
        6.8e-05,
        5.6e-05,
        4.4e-05,
        3.4e-05,
        2.5e-05,
        2e-05,
        1.9e-05,
        2.2e-05,
        3.2e-05,
        4.8e-05,
        7.2e-05,
        0.000104,
        0.000144,
        0.000178,
        0.000185,
        0.000144,
        0.000148,
        0.00025,
        0.000222,
        0.000117,
        0.000119,
        0.000138,
        0.00011,
        8.1e-05,
        6e-05,
        3.6e-05,
        2.2e-05,
        3.7e-05,
        9.2e-05,
        0.000131,
        0.000123,
        0.000143,
        0.000162,
        8.3e-05,
        7.3e-05,
        0.000184,
        0.000192,
        9.7e-05,
        7.6e-05,
        0.000409,
        0.000776,
        0.000753,
        0.000679,
        0.000692,
        0.000642,
        0.000698,
        0.000966,
        0.000935,
        0.000641,
        0.00066,
        0.000891,
        0.001104,
        0.001302,
        0.001248,
        0.000941,
        0.001714,
        0.003013,
        0.002701,
        0.001593,
        0.001143,
        0.001957,
        0.002658,
        0.001808,
        0.001077,
        0.001482,
        0.002628,
        0.003136,
        0.002502,
        0.002145,
        0.002265,
        0.001083,
        0.0009,
        0.00066,
        0.000427,
        0.00041,
        0.000686,
        0.000694,
        0.000442,
        0.000489,
        0.001288,
        0.00138,
        0.001566,
        0.001768,
        0.001804,
        0.001981,
        0.002199,
        0.001953,
        0.001243,
        0.000461,
        0.000392,
        0.00046,
        0.000584,
        0.000699,
        0.000879,
        0.000828,
        0.000653,
        0.000583,
        0.000438,
        0.000202,
        0.000128,
        0.000171,
        0.000494,
        0.001027,
        0.001368,
        0.00125,
        0.001381,
        0.002198,
        0.003552,
        0.004592,
        0.004615,
        0.00187,
        0.00185,
        0.003297,
        0.003717,
        0.002228,
        0.002282,
        0.003114,
        0.00274,
        0.002919,
        0.003998,
        0.004989,
        0.004618,
        0.003471,
        0.003716,
        0.004113,
        0.002972,
        0.003213,
        0.004718,
        0.00435,
        0.003643,
        0.004105,
        0.004469,
        0.004034,
        0.003158,
        0.003915,
        0.005995,
        0.006391,
        0.005711,
        0.005184,
        0.004958,
        0.005418,
        0.006577,
        0.006846,
        0.006528,
        0.007512,
        0.008444,
        0.007988,
        0.006858,
        0.007018,
        0.010043,
        0.012843,
        0.014822,
        0.020777,
        0.024111,
        0.018365,
        0.017677,
        0.021331,
        0.015225,
        0.013614,
        0.021992,
        0.017633,
        0.009892,
        0.01821,
        0.030831,
        0.034672,
        0.024914,
        0.01695,
        0.019276,
        0.016935,
        0.020649,
        0.032167,
        0.033326,
        0.019102,
        0.011523,
        0.01488,
        0.020352,
        0.021438,
        0.023595,
        0.03978,
        0.047843,
        0.036542,
        0.036288,
        0.041942,
        0.038384,
        0.037917,
        0.042354,
        0.045547,
        0.055128,
        0.068881,
        0.060652,
        0.035129,
        0.02299,
        0.022746,
        0.025847,
        0.031461,
        0.033636,
        0.027945,
        0.025343,
        0.030543,
        0.039471,
        0.038365,
        0.022951,
        0.012858,
        0.01858,
        0.036683,
        0.044924,
        0.038491,
        0.032829,
        0.033483,
        0.037674,
        0.037177,
        0.03281,
        0.0321,
        0.041928,
        0.057871,
        0.058432,
        0.04339,
        0.028294,
        0.028611,
        0.03962,
        0.043003,
        0.046556,
        0.052043,
        0.040944,
        0.031314,
        0.043938,
        0.0531,
        0.049642,
        0.045034,
        0.046898,
        0.053993,
        0.055396,
        0.043737,
        0.034367,
        0.039459,
        0.06663,
        0.088549,
        0.10248,
        0.112241,
        0.096867,
        0.07609,
        0.070673,
        0.056004,
        0.033178,
        0.021617,
        0.025432,
        0.034248,
        0.031699,
        0.029488,
        0.04512,
        0.054299,
        0.046716,
        0.052611,
        0.062704,
        0.060819,
        0.056043,
        0.06096,
        0.079342,
        0.083608,
        0.079627,
        0.127147,
        0.162438,
        0.116045,
        0.093625,
        0.108136,
        0.076489,
        0.054193,
        0.092867,
        0.143596,
        0.154247,
        0.101549,
        0.061587,
        0.068252,
        0.071009,
        0.059433,
        0.042507,
        0.042348,
        0.054234,
        0.047506,
        0.046151,
        0.063374,
        0.06144,
        0.069444,
        0.11973,
        0.17955,
        0.201069,
        0.148874,
        0.09185,
        0.088831,
        0.110084,
        0.124089,
        0.108622,
        0.078408,
        0.054677,
        0.047152,
        0.051351,
        0.058699,
        0.081917,
        0.105648,
        0.094359,
        0.074124,
        0.071443,
        0.072728,
        0.075208,
        0.079909,
        0.064719,
        0.05275,
        0.099844,
        0.135931,
        0.106248,
        0.099006,
        0.130119,
        0.122822,
        0.087115,
        0.057312,
        0.037064,
        0.029081,
        0.038795,
        0.073608,
        0.106396,
        0.086441,
        0.047733,
        0.034915,
        0.047797,
        0.086472,
        0.135106,
        0.156194,
        0.153647,
        0.181514,
        0.215273,
        0.20841,
        0.204098,
        0.228696,
        0.260198,
        0.237392,
        0.164538,
        0.176147,
        0.246074,
        0.272644,
        0.262952,
        0.227011,
        0.189373,
        0.211953,
        0.278746,
        0.250049,
        0.218204,
        0.320308,
        0.389213,
        0.340189,
        0.295045,
        0.292786,
        0.295176,
        0.282192,
        0.28002,
        0.32471,
        0.33638,
        0.28383,
        0.234774,
        0.220782,
        0.247479,
        0.298066,
        0.323667,
        0.272124,
        0.210545,
        0.211591,
        0.275634,
        0.334105,
        0.327291,
        0.285089,
        0.255668,
        0.281188,
        0.298868,
        0.237306,
        0.155044,
        0.103754,
        0.124277,
        0.203567,
        0.283222,
        0.30835,
        0.274132,
        0.237548,
        0.286137,
        0.354016,
        0.279921,
        0.235595,
        0.318073,
        0.31753,
        0.267219,
        0.284542,
        0.281777,
        0.274397,
        0.361603,
        0.416575,
        0.324687,
        0.317959,
        0.44251,
        0.487285,
        0.500778,
        0.5541,
        0.541749,
        0.518155,
        0.577436,
        0.603568,
        0.556602,
        0.508749,
        0.431391,
        0.35202,
        0.437789,
        0.524549,
        0.412309,
        0.347255,
        0.477346,
        0.63849,
        0.668726,
        0.518485,
        0.403513,
        0.416055,
        0.486126,
        0.531813,
        0.505512,
        0.410175,
        0.331899,
        0.35583,
        0.468006,
        0.61591,
        0.708647,
        0.724174,
        0.675395,
        0.622046,
        0.606215,
        0.621026,
        0.609677,
        0.552788,
        0.513732,
        0.474722,
        0.400213,
        0.455654,
        0.641255,
        0.642532,
        0.55086,
        0.596336,
        0.660528,
        0.660501,
        0.630982,
        0.61091,
        0.603351,
        0.569874,
        0.52684,
        0.515343,
        0.549337,
        0.601618,
        0.617425,
        0.643517,
        0.710135,
        0.69647,
        0.59874,
        0.511115,
        0.496694,
        0.539936,
        0.518222,
        0.536749,
        0.706362,
        0.737015,
        0.630991,
        0.626014,
        0.638738,
        0.627207,
        0.737064,
        0.821812,
        0.690781,
        0.598706,
        0.618911,
        0.612326,
        0.633597,
        0.689919,
        0.66027,
        0.624887,
        0.674358,
        0.755612,
        0.802941,
        0.787796,
        0.681202,
        0.508587,
        0.43428,
        0.4747,
        0.529951,
        0.568848,
        0.607127,
        0.666286,
        0.675317,
        0.539422,
        0.401452,
        0.42812,
        0.630696,
        0.790868,
        0.632016,
        0.525192,
        0.663638,
        0.668687,
        0.579577,
        0.612895,
        0.686487,
        0.717005,
        0.674801,
        0.686777,
        0.77353,
        0.727549,
        0.665516,
        0.776828,
        0.87738,
        0.884015,
        0.855731,
        0.82486,
        0.819023,
        0.906943,
        0.984506,
        0.936318,
        0.921064,
        0.968918,
        0.904638,
        0.675221,
        0.463827,
        0.431677,
        0.537814,
        0.668301,
        0.681103,
        0.616322,
        0.640354,
        0.666192,
        0.56743,
        0.469055,
        0.449952,
        0.497291,
        0.569548,
        0.610723,
        0.628619,
        0.613524,
        0.595312,
        0.593708,
        0.615075,
        0.80242,
        0.962952,
        0.848764,
        0.743726,
        0.74327,
        0.719342,
        0.700763,
        0.715067,
        0.747688,
        0.770246,
        0.775743,
        0.864458,
        0.971235,
        0.865317,
        0.749235,
        0.817315,
        0.885308,
        0.832587,
        0.714954,
        0.653289,
        0.73112,
        0.875781,
        0.825404,
        0.547372,
        0.391699,
        0.415198,
        0.497677,
        0.620425,
        0.725696,
        0.65207,
        0.506706,
        0.636654,
        0.856405,
        0.902139,
        0.820632,
        0.833325,
        1.044913,
        1.052567,
        0.751189,
        0.728533,
        0.950419,
        1.005225,
        0.806743,
        0.678308,
        0.971417,
        1.186615,
        1.058692,
        0.992153,
        1.048852,
        1.141576,
        1.21779,
        1.183836,
        1.033674,
        0.902587,
        0.875303,
        0.930511,
        1.013137,
        1.031899,
        0.984753,
        0.979948,
        1.136033,
        1.206776,
        1.06976,
        0.92883,
        0.930517,
        1.051041,
        1.116687,
        1.082214,
        1.059394,
        1.067377,
        1.068909,
        1.123224,
        1.215775,
        1.209908,
        1.10405,
        1.013073,
        1.14235,
        1.321833,
        1.094259,
        0.779682,
        0.732023,
        0.785012,
        0.833204,
        0.852784,
        0.843262,
        0.856139,
        0.946746,
        1.046909,
        1.06234,
        0.927221,
        0.782912,
        0.856824,
        1.002848,
        1.067517,
        1.050964,
        1.038988,
        1.093817,
        1.139659,
        1.120069,
        1.094473,
        1.06422,
        1.020571,
        0.967864,
        0.936231,
        0.975852,
        0.994993,
        0.946411,
        0.952403,
        0.970081,
        0.899813,
        0.827232,
        0.826705,
        0.925554,
        0.96234,
        0.868725,
        0.830598,
        0.843281,
        0.834774,
        0.972231,
        1.169403,
        1.116038,
        0.942973,
        0.881448,
        0.945104,
        1.04236,
        1.018199,
        1.003967,
        1.100601,
        1.140922,
        1.093433,
        1.067279,
        1.080498,
        1.115794,
        1.126184,
        1.111921,
        1.128376,
        1.170477,
        1.213241,
        1.290352,
        1.341876,
        1.263807,
        1.142699,
        1.102392,
        1.139857,
        1.145129,
        1.058896,
        1.024773,
        1.102699,
        1.208495,
        1.268854,
        1.240062,
        1.143926,
        1.060647,
        1.070796,
        1.132709,
        1.182829,
        1.171726,
        1.148469,
        1.150208,
        1.140374,
        1.093604,
        0.961748,
        0.900826,
        0.924479,
        0.883274,
        0.84818,
        0.864315,
        0.846153,
        0.827768,
        0.823017,
        0.783886,
        0.720781,
        0.73312,
        0.755421,
        0.699245,
        0.722195,
        0.824799,
        0.851783,
        0.815037,
        0.768454,
        0.78044,
        0.827179,
        0.844498,
        0.844441,
        0.858622,
        0.919978,
        1.001256,
        1.041199,
        0.99559,
        0.926211,
        0.928856,
        0.969211,
        1.001864,
        1.021865,
        1.037534,
        1.051214,
        1.042871,
        1.056951,
        1.156495,
        1.204515,
        1.144133,
        1.128313,
        1.195158,
        1.302202,
        1.333156,
        1.281784,
        1.24126,
        1.242323,
        1.293047,
        1.327629,
        1.317208,
        1.307131,
        1.312303,
        1.339508,
        1.369229,
        1.367249,
        1.36469,
        1.388546,
        1.370187,
        1.28414,
        1.177179,
        0.998018,
        0.838251,
        0.756123,
        0.761504,
        0.786829,
        0.686545,
        0.649036,
        0.756251,
        0.842835,
        0.829615,
        0.733261,
        0.647659,
        0.612265,
        0.584607,
        0.584709,
        0.626402,
        0.683047,
        0.730988,
        0.739637,
        0.703764,
        0.698291,
        0.781555,
        0.830469,
        0.805235,
        0.830435,
        0.906908,
        0.936664,
        0.94136,
        0.993805,
        1.050204,
        1.094868,
        1.12424,
        1.113264,
        1.089974,
        1.128344,
        1.185076,
        1.21701,
        1.196269,
        1.171106,
        1.217654,
        1.263272,
        1.230675,
        1.281671,
        1.400512,
        1.42988,
        1.374371,
        1.295003,
        1.306191,
        1.394278,
        1.449907,
        1.482932,
        1.488497,
        1.396869,
        1.320627,
        1.390977,
        1.489842,
        1.515077,
        1.473906,
        1.448836,
        1.546647,
        1.56091,
        1.485049,
        1.516452,
        1.595674,
        1.613144,
        1.51581,
        1.374856,
        1.313661,
        1.395055,
        1.540327,
        1.57184,
        1.537433,
        1.554919,
        1.61681,
        1.683905,
        1.75632,
        1.768733,
        1.664579,
        1.551335,
        1.476462,
        1.420824,
        1.405895,
        1.445883,
        1.432027,
        1.443549,
        1.517805,
        1.449608,
        1.281236,
        1.318863,
        1.421291,
        1.453105,
        1.458052,
        1.385488,
        1.24071,
        1.19946,
        1.275265,
        1.342739,
        1.321736,
        1.218638,
        1.168676,
        1.15759,
        1.109524,
        1.109096,
        1.128164,
        1.081405,
        1.060093,
        1.095147,
        1.114758,
        1.105923,
        1.077067,
        1.064381,
        1.043962,
        1.031927,
        1.055139,
        1.070641,
        1.064048,
        1.08897,
        1.139822,
        1.094693,
        1.054921,
        1.121269,
        1.225647,
        1.303872,
        1.335579,
        1.259649,
        1.108132,
        1.077028,
        1.126049,
        1.10273,
        1.125787,
        1.26643,
        1.351521,
        1.343621,
        1.292625,
        1.266602,
        1.302317,
        1.36443,
        1.380857,
        1.375466,
        1.375094,
        1.380713,
        1.388923,
        1.438773,
        1.539215,
        1.56893,
        1.519309,
        1.526309,
        1.587649,
        1.633623,
        1.596629,
        1.516465,
        1.520126,
        1.589101,
        1.652078,
        1.674925,
        1.667323,
        1.672967,
        1.705118,
        1.757643,
        1.820607,
        1.870413,
        1.866237,
        1.826471,
        1.791578,
        1.761345,
        1.783743,
        1.840275,
        1.914899,
        1.939731,
        1.89512,
        1.858937,
        1.8647,
        1.91419,
        1.951276,
        1.971048,
        1.981016,
        1.994947,
        2.025725,
        1.968605,
        1.729752,
        1.42733,
        1.2715,
        1.412545,
        1.597329,
        1.642948,
        1.476579,
        1.26549,
        1.233013,
        1.278245,
        1.341451,
        1.436381,
        1.50916,
        1.461183,
        1.229846,
        0.998361,
        0.951464,
        1.00227,
        0.996628,
        1.08602,
        1.346462,
        1.414072,
        1.260407,
        1.184724,
        1.242026,
        1.34525,
        1.340968,
        1.277447,
        1.274013,
        1.301579,
        1.32497,
        1.29963,
        1.36365,
        1.52771,
        1.558842,
        1.495909,
        1.508202,
        1.560615,
        1.591687,
        1.581088,
        1.578868,
        1.6421,
        1.703699,
        1.737183,
        1.754307,
        1.770326,
        1.779495,
        1.773067,
        1.816609,
        1.859739,
        1.890612,
        1.932619,
        1.963644,
        1.998891,
        2.027554,
        2.050995,
        2.076626,
        2.097515,
        2.07334,
        2.044467,
        1.988766,
        1.955637,
        1.958188,
        2.008626,
        2.075698,
        2.14082,
        2.184268,
        2.218247,
        2.247977,
        2.253544,
        2.26303,
        2.251399,
        2.242211,
        2.255808,
        2.291867,
        2.30531,
        2.298136,
        2.274821,
        2.258363,
        2.259496,
        2.252005,
        2.241042,
        2.256474,
        2.272954,
        2.289609,
        2.318942,
        2.33946,
        2.349803,
        2.363749,
        2.417586,
        2.428651,
        2.404057,
        2.397227,
        2.364995,
        2.316015,
        2.298932,
        2.299238,
        2.304404,
        2.318199,
        2.344805,
        2.367189,
        2.393853,
        2.403903,
        2.339779,
        2.297195,
        2.240582,
        2.183633,
        2.140142,
        2.121362,
        2.120466,
        2.12538,
        2.124177,
        2.106736,
        2.074706,
        2.035465,
        1.996373,
        1.964481,
        1.943082,
        1.932935,
        1.934734,
        1.949044,
        1.972936,
        1.999521,
        2.021283,
        2.030276,
        2.024664,
        2.012146,
        1.999518,
        1.991279,
        1.991956,
        1.999294,
        2.008394,
        2.014114,
        2.01309,
        1.991593,
        2.005903,
        2.025651,
        2.020079,
        1.968055,
        1.932185,
        1.984069,
        1.994463,
        1.980168,
        1.965864,
        1.96705,
        1.959912,
        1.952811,
        1.968984,
        2.018394,
        2.061857,
        2.100274,
        2.114517,
        2.119941,
        2.095131,
        2.040932,
        1.969912,
        1.916899,
        1.905632,
        1.914387,
        1.92848,
        1.958676,
        2.00205,
        2.032694,
        2.061625,
        2.086573,
        2.106227,
        2.117894,
        2.121498,
        2.092346,
        2.064601,
        2.04129,
        2.011727,
        2.012761,
        2.044513,
        2.090729,
        2.127666,
        2.138183,
        2.119711,
        2.098502,
        2.104743,
        2.12669,
        2.153157,
        2.192007,
        2.234009,
        2.239844,
        2.223202,
        2.206962,
        2.18594,
        2.169581,
        2.185185,
        2.234144,
        2.287519,
        2.319904,
        2.302267,
        2.22708,
        2.146546,
        2.151347,
        2.167914,
        2.170486,
        2.219635,
        2.306529,
        2.367186,
        2.365931,
        2.334647,
        2.334259,
        2.337991,
        2.332742,
        2.313189,
        2.291442,
        2.292032,
        2.30548,
        2.306652,
        2.270144,
        2.262238,
        2.298859,
        2.326654,
        2.344206,
        2.356308,
        2.350559,
        2.357204,
        2.368375,
        2.352605,
        2.330904,
        2.341099,
        2.34745,
        2.342332,
        2.33266,
        2.336722,
        2.31687,
        2.311737,
        2.33337,
        2.365836,
        2.378379,
        2.366227,
        2.32674,
        2.282378,
        2.309438,
        2.347168,
        2.372785,
        2.376146,
        2.340593,
        2.362951,
        2.415931,
        2.444472,
        2.425159,
        2.388571,
        2.36167,
        2.33918,
        2.320747,
        2.296204,
        2.252363,
        2.241453,
        2.291074,
        2.316412,
        2.302862,
        2.284514,
        2.28317,
        2.295157,
        2.305058,
        2.320189,
        2.361532,
        2.375165,
        2.34247,
        2.319787,
        2.267623,
        2.190513,
        2.096236,
        2.075242,
        2.1305,
        2.214032,
        2.298606,
        2.331982,
        2.33947,
        2.334784,
        2.311566,
        2.291351,
        2.218775,
        2.210401,
        2.218317,
        2.210963,
        2.201816,
        2.201535,
        2.185409,
        2.189063,
        2.228083,
        2.243868,
        2.233086,
        2.185507,
        2.032523,
        1.958973,
        2.045775,
        2.093625,
        2.091718,
        2.129158,
        2.184639,
        2.203896,
        2.151451,
        1.975689,
        1.903659,
        1.994231,
        2.104772,
        2.200255,
        2.252859,
        2.274611,
        2.294227,
        2.316379,
        2.325511,
        2.332613,
        2.321574,
        2.320335,
        2.329489,
        2.321959,
        2.326397,
        2.340289,
        2.361615,
        2.390034,
        2.408322,
        2.410449,
        2.395562,
        2.368353,
        2.299114,
        2.11884,
        2.028402,
        2.088362,
        2.140609,
        2.222178,
        2.248232,
        2.282706,
        2.39228,
        2.396253,
        2.434081,
        2.437911,
        2.437826,
        2.466024,
        2.47354,
        2.463101,
        2.456315,
        2.471181,
        2.480005,
        2.473407,
        2.467473,
        2.457438,
        2.443603,
        2.441819,
        2.459529,
        2.489023,
        2.505674,
        2.492769,
        2.480335,
        2.454831,
        2.371207,
        2.394495,
        2.437071,
        2.408224,
        2.417448,
        2.484358,
        2.499368,
        2.506696,
        2.535281,
        2.54763,
        2.523407,
        2.463464,
        2.41024,
        2.392721,
        2.375138,
        2.383166,
        2.415702,
        2.430518,
        2.455159,
        2.470148,
        2.4766,
        2.453067,
        2.408606,
        2.354813,
        2.332963,
        2.317936,
        2.330737,
        2.355446,
        2.349458,
        2.354126,
        2.384017,
        2.389845,
        2.373911,
        2.390418,
        2.367831,
        2.393254,
        2.359216,
        2.299506,
        2.334232,
        2.314747,
        2.338513,
        2.351574,
        2.368822,
        2.40553,
        2.4244,
        2.475668,
        2.50773,
        2.519608,
        2.519697,
        2.49932,
        2.492466,
        2.472282,
        2.457236,
        2.438374,
        2.433105,
        2.416783,
        2.395691,
        2.371578,
        2.385078,
        2.371241,
        2.361646,
        2.367868,
        2.373837,
        2.379574,
        2.403267,
        2.393437,
        2.378885,
        2.371772,
        2.361592,
        2.334229,
        2.306052,
        2.308935,
        2.295398,
        2.271839,
        2.265361,
        2.290315,
        2.322092,
        2.345158,
        2.366957,
        2.389487,
        2.405375,
        2.405842,
        2.408198,
        2.414946,
        2.419753,
        2.413243,
        2.404915,
        2.391121,
        2.378376,
        2.379121,
        2.369292,
        2.383533,
        2.393833,
        2.405398,
        2.39717,
        2.366455,
        2.346939,
        2.302169,
        2.275467,
        2.25091,
        2.229632,
        2.21415,
        2.195877,
        2.211505,
        2.239209,
        2.283889,
        2.29368,
        2.270118,
        2.256871,
        2.294809,
        2.235014,
        2.241717,
        2.272822,
        2.262694,
        2.314487,
        2.329132,
        2.398849,
        2.457209,
        2.499598,
        2.476947,
        2.451151,
        2.409314,
        2.344666,
        2.305675,
        2.252887,
        2.178668,
        2.19533,
        2.146138,
        2.175188,
        2.254009,
        2.263366,
        2.298589,
        2.364903,
        2.4016,
        2.410728,
        2.386074,
        2.393839,
        2.392128,
        2.336895,
        2.292102,
        2.342676,
        2.391704,
        2.360433,
        2.320764,
        2.34348,
        2.379195,
        2.399997,
        2.38261,
        2.349592,
        2.356434,
        2.329621,
        2.329745,
        2.299358,
        2.279207,
        2.278278,
        2.247475,
        2.237828,
        2.213063,
        2.234993,
        2.263048,
        2.299815,
        2.339121,
        2.364031,
        2.37424,
        2.360368,
        2.375854,
        2.352038,
        2.305096,
        2.292646,
        2.286119,
        2.282553,
        2.272411,
        2.268389,
        2.275272,
        2.282048,
        2.301101,
        2.311852,
        2.322526,
        2.338642,
        2.339852,
        2.349833,
        2.360313,
        2.359831,
        2.356926,
        2.347427,
        2.34238,
        2.315504,
        2.316714,
        2.324629,
        2.325029,
        2.325987,
        2.324784,
        2.331167,
        2.323622,
        2.328568,
        2.306997,
        2.284753,
        2.302773,
        2.308664,
        2.313585,
        2.315154,
        2.339226,
        2.324992,
        2.327117,
        2.343655,
        2.354081,
        2.362684,
        2.385011,
        2.383051,
        2.391014,
        2.408005,
        2.405181,
        2.403217,
        2.399649,
        2.410087,
        2.41393,
        2.379649,
        2.394497,
        2.384024,
        2.366072,
        2.375228,
        2.374542,
        2.38465,
        2.383467,
        2.390976,
        2.386234,
        2.390477,
        2.379351,
        2.381584,
        2.379707,
        2.359245,
        2.38649,
        2.383852,
        2.362355,
        2.364693,
        2.356135,
        2.348346,
        2.344428,
        2.349979,
        2.361217,
        2.379144,
        2.372743,
        2.394804,
        2.394571,
        2.389164,
        2.398993,
        2.35567,
        2.339727,
        2.338806,
        2.331918,
        2.294773,
        2.271698,
        2.308695,
        2.326014,
        2.313181,
        2.325913,
        2.343296,
        2.386046,
        2.375359,
        2.380685,
        2.394562,
        2.372381,
        2.374826,
        2.364209,
        2.348454,
        2.351884,
        2.371057,
        2.376445,
        2.357137,
        2.351917,
        2.352503,
        2.392112,
        2.328481,
        2.358268,
        2.397475,
        2.340724,
        2.320677,
        2.317041,
        2.354483,
        2.341324,
        2.352533,
        2.352251,
        2.352672,
        2.353547,
        2.354507,
        2.355473,
        2.356445,
        2.35743,
        2.358509,
        2.359675,
        2.36089,
        2.362157,
        2.363492,
        2.364857,
        2.366173,
        2.367363,
        2.368252,
        2.368302,
        2.366997,
        2.363863,
        2.358702,
        2.35242,
        2.346161,
        2.340928,
        2.33744,
        2.335446,
        2.334445,
        2.334051,
        2.334251,
        2.335315,
        2.337532,
        2.341061,
        2.345719,
        2.350685,
        2.355074,
        2.358,
        2.358521,
        2.356231,
        2.352309,
        2.34814,
        2.34513,
        2.34476,
        2.347673,
        2.352845,
        2.359057,
        2.365075,
        2.369667,
        2.371985,
        2.372092,
        2.370577,
        2.368131,
        2.365422,
        2.363002,
        2.360991,
        2.359402,
        2.358246,
        2.357502,
        2.356898,
        2.355855,
        2.353756
      ],
      "range":1
    }
  }
]
