[
  {
    "model":"Star, type K3(iv)",
    "name":"Star, type K3(iv)",
    "type":"WB_REF",
    "dataQualityMarker":3,
    "dataSource":"https://www.eso.org/sci/facilities/paranal/decommissioned/isaac/tools/lib.html",
    "manufacturer":"A. Pickles (A.J. Pickles, PASP 110,863, 1998)",
    "version":1,
    "wavelength":{
      "value":[
        1150.0,
        1155.0,
        1160.0,
        1165.0,
        1170.0,
        1175.0,
        1180.0,
        1185.0,
        1190.0,
        1195.0,
        1200.0,
        1205.0,
        1210.0,
        1215.0,
        1220.0,
        1225.0,
        1230.0,
        1235.0,
        1240.0,
        1245.0,
        1250.0,
        1255.0,
        1260.0,
        1265.0,
        1270.0,
        1275.0,
        1280.0,
        1285.0,
        1290.0,
        1295.0,
        1300.0,
        1305.0,
        1310.0,
        1315.0,
        1320.0,
        1325.0,
        1330.0,
        1335.0,
        1340.0,
        1345.0,
        1350.0,
        1355.0,
        1360.0,
        1365.0,
        1370.0,
        1375.0,
        1380.0,
        1385.0,
        1390.0,
        1395.0,
        1400.0,
        1405.0,
        1410.0,
        1415.0,
        1420.0,
        1425.0,
        1430.0,
        1435.0,
        1440.0,
        1445.0,
        1450.0,
        1455.0,
        1460.0,
        1465.0,
        1470.0,
        1475.0,
        1480.0,
        1485.0,
        1490.0,
        1495.0,
        1500.0,
        1505.0,
        1510.0,
        1515.0,
        1520.0,
        1525.0,
        1530.0,
        1535.0,
        1540.0,
        1545.0,
        1550.0,
        1555.0,
        1560.0,
        1565.0,
        1570.0,
        1575.0,
        1580.0,
        1585.0,
        1590.0,
        1595.0,
        1600.0,
        1605.0,
        1610.0,
        1615.0,
        1620.0,
        1625.0,
        1630.0,
        1635.0,
        1640.0,
        1645.0,
        1650.0,
        1655.0,
        1660.0,
        1665.0,
        1670.0,
        1675.0,
        1680.0,
        1685.0,
        1690.0,
        1695.0,
        1700.0,
        1705.0,
        1710.0,
        1715.0,
        1720.0,
        1725.0,
        1730.0,
        1735.0,
        1740.0,
        1745.0,
        1750.0,
        1755.0,
        1760.0,
        1765.0,
        1770.0,
        1775.0,
        1780.0,
        1785.0,
        1790.0,
        1795.0,
        1800.0,
        1805.0,
        1810.0,
        1815.0,
        1820.0,
        1825.0,
        1830.0,
        1835.0,
        1840.0,
        1845.0,
        1850.0,
        1855.0,
        1860.0,
        1865.0,
        1870.0,
        1875.0,
        1880.0,
        1885.0,
        1890.0,
        1895.0,
        1900.0,
        1905.0,
        1910.0,
        1915.0,
        1920.0,
        1925.0,
        1930.0,
        1935.0,
        1940.0,
        1945.0,
        1950.0,
        1955.0,
        1960.0,
        1965.0,
        1970.0,
        1975.0,
        1980.0,
        1985.0,
        1990.0,
        1995.0,
        2000.0,
        2005.0,
        2010.0,
        2015.0,
        2020.0,
        2025.0,
        2030.0,
        2035.0,
        2040.0,
        2045.0,
        2050.0,
        2055.0,
        2060.0,
        2065.0,
        2070.0,
        2075.0,
        2080.0,
        2085.0,
        2090.0,
        2095.0,
        2100.0,
        2105.0,
        2110.0,
        2115.0,
        2120.0,
        2125.0,
        2130.0,
        2135.0,
        2140.0,
        2145.0,
        2150.0,
        2155.0,
        2160.0,
        2165.0,
        2170.0,
        2175.0,
        2180.0,
        2185.0,
        2190.0,
        2195.0,
        2200.0,
        2205.0,
        2210.0,
        2215.0,
        2220.0,
        2225.0,
        2230.0,
        2235.0,
        2240.0,
        2245.0,
        2250.0,
        2255.0,
        2260.0,
        2265.0,
        2270.0,
        2275.0,
        2280.0,
        2285.0,
        2290.0,
        2295.0,
        2300.0,
        2305.0,
        2310.0,
        2315.0,
        2320.0,
        2325.0,
        2330.0,
        2335.0,
        2340.0,
        2345.0,
        2350.0,
        2355.0,
        2360.0,
        2365.0,
        2370.0,
        2375.0,
        2380.0,
        2385.0,
        2390.0,
        2395.0,
        2400.0,
        2405.0,
        2410.0,
        2415.0,
        2420.0,
        2425.0,
        2430.0,
        2435.0,
        2440.0,
        2445.0,
        2450.0,
        2455.0,
        2460.0,
        2465.0,
        2470.0,
        2475.0,
        2480.0,
        2485.0,
        2490.0,
        2495.0,
        2500.0,
        2505.0,
        2510.0,
        2515.0,
        2520.0,
        2525.0,
        2530.0,
        2535.0,
        2540.0,
        2545.0,
        2550.0,
        2555.0,
        2560.0,
        2565.0,
        2570.0,
        2575.0,
        2580.0,
        2585.0,
        2590.0,
        2595.0,
        2600.0,
        2605.0,
        2610.0,
        2615.0,
        2620.0,
        2625.0,
        2630.0,
        2635.0,
        2640.0,
        2645.0,
        2650.0,
        2655.0,
        2660.0,
        2665.0,
        2670.0,
        2675.0,
        2680.0,
        2685.0,
        2690.0,
        2695.0,
        2700.0,
        2705.0,
        2710.0,
        2715.0,
        2720.0,
        2725.0,
        2730.0,
        2735.0,
        2740.0,
        2745.0,
        2750.0,
        2755.0,
        2760.0,
        2765.0,
        2770.0,
        2775.0,
        2780.0,
        2785.0,
        2790.0,
        2795.0,
        2800.0,
        2805.0,
        2810.0,
        2815.0,
        2820.0,
        2825.0,
        2830.0,
        2835.0,
        2840.0,
        2845.0,
        2850.0,
        2855.0,
        2860.0,
        2865.0,
        2870.0,
        2875.0,
        2880.0,
        2885.0,
        2890.0,
        2895.0,
        2900.0,
        2905.0,
        2910.0,
        2915.0,
        2920.0,
        2925.0,
        2930.0,
        2935.0,
        2940.0,
        2945.0,
        2950.0,
        2955.0,
        2960.0,
        2965.0,
        2970.0,
        2975.0,
        2980.0,
        2985.0,
        2990.0,
        2995.0,
        3000.0,
        3005.0,
        3010.0,
        3015.0,
        3020.0,
        3025.0,
        3030.0,
        3035.0,
        3040.0,
        3045.0,
        3050.0,
        3055.0,
        3060.0,
        3065.0,
        3070.0,
        3075.0,
        3080.0,
        3085.0,
        3090.0,
        3095.0,
        3100.0,
        3105.0,
        3110.0,
        3115.0,
        3120.0,
        3125.0,
        3130.0,
        3135.0,
        3140.0,
        3145.0,
        3150.0,
        3155.0,
        3160.0,
        3165.0,
        3170.0,
        3175.0,
        3180.0,
        3185.0,
        3190.0,
        3195.0,
        3200.0,
        3205.0,
        3210.0,
        3215.0,
        3220.0,
        3225.0,
        3230.0,
        3235.0,
        3240.0,
        3245.0,
        3250.0,
        3255.0,
        3260.0,
        3265.0,
        3270.0,
        3275.0,
        3280.0,
        3285.0,
        3290.0,
        3295.0,
        3300.0,
        3305.0,
        3310.0,
        3315.0,
        3320.0,
        3325.0,
        3330.0,
        3335.0,
        3340.0,
        3345.0,
        3350.0,
        3355.0,
        3360.0,
        3365.0,
        3370.0,
        3375.0,
        3380.0,
        3385.0,
        3390.0,
        3395.0,
        3400.0,
        3405.0,
        3410.0,
        3415.0,
        3420.0,
        3425.0,
        3430.0,
        3435.0,
        3440.0,
        3445.0,
        3450.0,
        3455.0,
        3460.0,
        3465.0,
        3470.0,
        3475.0,
        3480.0,
        3485.0,
        3490.0,
        3495.0,
        3500.0,
        3505.0,
        3510.0,
        3515.0,
        3520.0,
        3525.0,
        3530.0,
        3535.0,
        3540.0,
        3545.0,
        3550.0,
        3555.0,
        3560.0,
        3565.0,
        3570.0,
        3575.0,
        3580.0,
        3585.0,
        3590.0,
        3595.0,
        3600.0,
        3605.0,
        3610.0,
        3615.0,
        3620.0,
        3625.0,
        3630.0,
        3635.0,
        3640.0,
        3645.0,
        3650.0,
        3655.0,
        3660.0,
        3665.0,
        3670.0,
        3675.0,
        3680.0,
        3685.0,
        3690.0,
        3695.0,
        3700.0,
        3705.0,
        3710.0,
        3715.0,
        3720.0,
        3725.0,
        3730.0,
        3735.0,
        3740.0,
        3745.0,
        3750.0,
        3755.0,
        3760.0,
        3765.0,
        3770.0,
        3775.0,
        3780.0,
        3785.0,
        3790.0,
        3795.0,
        3800.0,
        3805.0,
        3810.0,
        3815.0,
        3820.0,
        3825.0,
        3830.0,
        3835.0,
        3840.0,
        3845.0,
        3850.0,
        3855.0,
        3860.0,
        3865.0,
        3870.0,
        3875.0,
        3880.0,
        3885.0,
        3890.0,
        3895.0,
        3900.0,
        3905.0,
        3910.0,
        3915.0,
        3920.0,
        3925.0,
        3930.0,
        3935.0,
        3940.0,
        3945.0,
        3950.0,
        3955.0,
        3960.0,
        3965.0,
        3970.0,
        3975.0,
        3980.0,
        3985.0,
        3990.0,
        3995.0,
        4000.0,
        4005.0,
        4010.0,
        4015.0,
        4020.0,
        4025.0,
        4030.0,
        4035.0,
        4040.0,
        4045.0,
        4050.0,
        4055.0,
        4060.0,
        4065.0,
        4070.0,
        4075.0,
        4080.0,
        4085.0,
        4090.0,
        4095.0,
        4100.0,
        4105.0,
        4110.0,
        4115.0,
        4120.0,
        4125.0,
        4130.0,
        4135.0,
        4140.0,
        4145.0,
        4150.0,
        4155.0,
        4160.0,
        4165.0,
        4170.0,
        4175.0,
        4180.0,
        4185.0,
        4190.0,
        4195.0,
        4200.0,
        4205.0,
        4210.0,
        4215.0,
        4220.0,
        4225.0,
        4230.0,
        4235.0,
        4240.0,
        4245.0,
        4250.0,
        4255.0,
        4260.0,
        4265.0,
        4270.0,
        4275.0,
        4280.0,
        4285.0,
        4290.0,
        4295.0,
        4300.0,
        4305.0,
        4310.0,
        4315.0,
        4320.0,
        4325.0,
        4330.0,
        4335.0,
        4340.0,
        4345.0,
        4350.0,
        4355.0,
        4360.0,
        4365.0,
        4370.0,
        4375.0,
        4380.0,
        4385.0,
        4390.0,
        4395.0,
        4400.0,
        4405.0,
        4410.0,
        4415.0,
        4420.0,
        4425.0,
        4430.0,
        4435.0,
        4440.0,
        4445.0,
        4450.0,
        4455.0,
        4460.0,
        4465.0,
        4470.0,
        4475.0,
        4480.0,
        4485.0,
        4490.0,
        4495.0,
        4500.0,
        4505.0,
        4510.0,
        4515.0,
        4520.0,
        4525.0,
        4530.0,
        4535.0,
        4540.0,
        4545.0,
        4550.0,
        4555.0,
        4560.0,
        4565.0,
        4570.0,
        4575.0,
        4580.0,
        4585.0,
        4590.0,
        4595.0,
        4600.0,
        4605.0,
        4610.0,
        4615.0,
        4620.0,
        4625.0,
        4630.0,
        4635.0,
        4640.0,
        4645.0,
        4650.0,
        4655.0,
        4660.0,
        4665.0,
        4670.0,
        4675.0,
        4680.0,
        4685.0,
        4690.0,
        4695.0,
        4700.0,
        4705.0,
        4710.0,
        4715.0,
        4720.0,
        4725.0,
        4730.0,
        4735.0,
        4740.0,
        4745.0,
        4750.0,
        4755.0,
        4760.0,
        4765.0,
        4770.0,
        4775.0,
        4780.0,
        4785.0,
        4790.0,
        4795.0,
        4800.0,
        4805.0,
        4810.0,
        4815.0,
        4820.0,
        4825.0,
        4830.0,
        4835.0,
        4840.0,
        4845.0,
        4850.0,
        4855.0,
        4860.0,
        4865.0,
        4870.0,
        4875.0,
        4880.0,
        4885.0,
        4890.0,
        4895.0,
        4900.0,
        4905.0,
        4910.0,
        4915.0,
        4920.0,
        4925.0,
        4930.0,
        4935.0,
        4940.0,
        4945.0,
        4950.0,
        4955.0,
        4960.0,
        4965.0,
        4970.0,
        4975.0,
        4980.0,
        4985.0,
        4990.0,
        4995.0,
        5000.0,
        5005.0,
        5010.0,
        5015.0,
        5020.0,
        5025.0,
        5030.0,
        5035.0,
        5040.0,
        5045.0,
        5050.0,
        5055.0,
        5060.0,
        5065.0,
        5070.0,
        5075.0,
        5080.0,
        5085.0,
        5090.0,
        5095.0,
        5100.0,
        5105.0,
        5110.0,
        5115.0,
        5120.0,
        5125.0,
        5130.0,
        5135.0,
        5140.0,
        5145.0,
        5150.0,
        5155.0,
        5160.0,
        5165.0,
        5170.0,
        5175.0,
        5180.0,
        5185.0,
        5190.0,
        5195.0,
        5200.0,
        5205.0,
        5210.0,
        5215.0,
        5220.0,
        5225.0,
        5230.0,
        5235.0,
        5240.0,
        5245.0,
        5250.0,
        5255.0,
        5260.0,
        5265.0,
        5270.0,
        5275.0,
        5280.0,
        5285.0,
        5290.0,
        5295.0,
        5300.0,
        5305.0,
        5310.0,
        5315.0,
        5320.0,
        5325.0,
        5330.0,
        5335.0,
        5340.0,
        5345.0,
        5350.0,
        5355.0,
        5360.0,
        5365.0,
        5370.0,
        5375.0,
        5380.0,
        5385.0,
        5390.0,
        5395.0,
        5400.0,
        5405.0,
        5410.0,
        5415.0,
        5420.0,
        5425.0,
        5430.0,
        5435.0,
        5440.0,
        5445.0,
        5450.0,
        5455.0,
        5460.0,
        5465.0,
        5470.0,
        5475.0,
        5480.0,
        5485.0,
        5490.0,
        5495.0,
        5500.0,
        5505.0,
        5510.0,
        5515.0,
        5520.0,
        5525.0,
        5530.0,
        5535.0,
        5540.0,
        5545.0,
        5550.0,
        5555.0,
        5560.0,
        5565.0,
        5570.0,
        5575.0,
        5580.0,
        5585.0,
        5590.0,
        5595.0,
        5600.0,
        5605.0,
        5610.0,
        5615.0,
        5620.0,
        5625.0,
        5630.0,
        5635.0,
        5640.0,
        5645.0,
        5650.0,
        5655.0,
        5660.0,
        5665.0,
        5670.0,
        5675.0,
        5680.0,
        5685.0,
        5690.0,
        5695.0,
        5700.0,
        5705.0,
        5710.0,
        5715.0,
        5720.0,
        5725.0,
        5730.0,
        5735.0,
        5740.0,
        5745.0,
        5750.0,
        5755.0,
        5760.0,
        5765.0,
        5770.0,
        5775.0,
        5780.0,
        5785.0,
        5790.0,
        5795.0,
        5800.0,
        5805.0,
        5810.0,
        5815.0,
        5820.0,
        5825.0,
        5830.0,
        5835.0,
        5840.0,
        5845.0,
        5850.0,
        5855.0,
        5860.0,
        5865.0,
        5870.0,
        5875.0,
        5880.0,
        5885.0,
        5890.0,
        5895.0,
        5900.0,
        5905.0,
        5910.0,
        5915.0,
        5920.0,
        5925.0,
        5930.0,
        5935.0,
        5940.0,
        5945.0,
        5950.0,
        5955.0,
        5960.0,
        5965.0,
        5970.0,
        5975.0,
        5980.0,
        5985.0,
        5990.0,
        5995.0,
        6000.0,
        6005.0,
        6010.0,
        6015.0,
        6020.0,
        6025.0,
        6030.0,
        6035.0,
        6040.0,
        6045.0,
        6050.0,
        6055.0,
        6060.0,
        6065.0,
        6070.0,
        6075.0,
        6080.0,
        6085.0,
        6090.0,
        6095.0,
        6100.0,
        6105.0,
        6110.0,
        6115.0,
        6120.0,
        6125.0,
        6130.0,
        6135.0,
        6140.0,
        6145.0,
        6150.0,
        6155.0,
        6160.0,
        6165.0,
        6170.0,
        6175.0,
        6180.0,
        6185.0,
        6190.0,
        6195.0,
        6200.0,
        6205.0,
        6210.0,
        6215.0,
        6220.0,
        6225.0,
        6230.0,
        6235.0,
        6240.0,
        6245.0,
        6250.0,
        6255.0,
        6260.0,
        6265.0,
        6270.0,
        6275.0,
        6280.0,
        6285.0,
        6290.0,
        6295.0,
        6300.0,
        6305.0,
        6310.0,
        6315.0,
        6320.0,
        6325.0,
        6330.0,
        6335.0,
        6340.0,
        6345.0,
        6350.0,
        6355.0,
        6360.0,
        6365.0,
        6370.0,
        6375.0,
        6380.0,
        6385.0,
        6390.0,
        6395.0,
        6400.0,
        6405.0,
        6410.0,
        6415.0,
        6420.0,
        6425.0,
        6430.0,
        6435.0,
        6440.0,
        6445.0,
        6450.0,
        6455.0,
        6460.0,
        6465.0,
        6470.0,
        6475.0,
        6480.0,
        6485.0,
        6490.0,
        6495.0,
        6500.0,
        6505.0,
        6510.0,
        6515.0,
        6520.0,
        6525.0,
        6530.0,
        6535.0,
        6540.0,
        6545.0,
        6550.0,
        6555.0,
        6560.0,
        6565.0,
        6570.0,
        6575.0,
        6580.0,
        6585.0,
        6590.0,
        6595.0,
        6600.0,
        6605.0,
        6610.0,
        6615.0,
        6620.0,
        6625.0,
        6630.0,
        6635.0,
        6640.0,
        6645.0,
        6650.0,
        6655.0,
        6660.0,
        6665.0,
        6670.0,
        6675.0,
        6680.0,
        6685.0,
        6690.0,
        6695.0,
        6700.0,
        6705.0,
        6710.0,
        6715.0,
        6720.0,
        6725.0,
        6730.0,
        6735.0,
        6740.0,
        6745.0,
        6750.0,
        6755.0,
        6760.0,
        6765.0,
        6770.0,
        6775.0,
        6780.0,
        6785.0,
        6790.0,
        6795.0,
        6800.0,
        6805.0,
        6810.0,
        6815.0,
        6820.0,
        6825.0,
        6830.0,
        6835.0,
        6840.0,
        6845.0,
        6850.0,
        6855.0,
        6860.0,
        6865.0,
        6870.0,
        6875.0,
        6880.0,
        6885.0,
        6890.0,
        6895.0,
        6900.0,
        6905.0,
        6910.0,
        6915.0,
        6920.0,
        6925.0,
        6930.0,
        6935.0,
        6940.0,
        6945.0,
        6950.0,
        6955.0,
        6960.0,
        6965.0,
        6970.0,
        6975.0,
        6980.0,
        6985.0,
        6990.0,
        6995.0,
        7000.0,
        7005.0,
        7010.0,
        7015.0,
        7020.0,
        7025.0,
        7030.0,
        7035.0,
        7040.0,
        7045.0,
        7050.0,
        7055.0,
        7060.0,
        7065.0,
        7070.0,
        7075.0,
        7080.0,
        7085.0,
        7090.0,
        7095.0,
        7100.0,
        7105.0,
        7110.0,
        7115.0,
        7120.0,
        7125.0,
        7130.0,
        7135.0,
        7140.0,
        7145.0,
        7150.0,
        7155.0,
        7160.0,
        7165.0,
        7170.0,
        7175.0,
        7180.0,
        7185.0,
        7190.0,
        7195.0,
        7200.0,
        7205.0,
        7210.0,
        7215.0,
        7220.0,
        7225.0,
        7230.0,
        7235.0,
        7240.0,
        7245.0,
        7250.0,
        7255.0,
        7260.0,
        7265.0,
        7270.0,
        7275.0,
        7280.0,
        7285.0,
        7290.0,
        7295.0,
        7300.0,
        7305.0,
        7310.0,
        7315.0,
        7320.0,
        7325.0,
        7330.0,
        7335.0,
        7340.0,
        7345.0,
        7350.0,
        7355.0,
        7360.0,
        7365.0,
        7370.0,
        7375.0,
        7380.0,
        7385.0,
        7390.0,
        7395.0,
        7400.0,
        7405.0,
        7410.0,
        7415.0,
        7420.0,
        7425.0,
        7430.0,
        7435.0,
        7440.0,
        7445.0,
        7450.0,
        7455.0,
        7460.0,
        7465.0,
        7470.0,
        7475.0,
        7480.0,
        7485.0,
        7490.0,
        7495.0,
        7500.0,
        7505.0,
        7510.0,
        7515.0,
        7520.0,
        7525.0,
        7530.0,
        7535.0,
        7540.0,
        7545.0,
        7550.0,
        7555.0,
        7560.0,
        7565.0,
        7570.0,
        7575.0,
        7580.0,
        7585.0,
        7590.0,
        7595.0,
        7600.0,
        7605.0,
        7610.0,
        7615.0,
        7620.0,
        7625.0,
        7630.0,
        7635.0,
        7640.0,
        7645.0,
        7650.0,
        7655.0,
        7660.0,
        7665.0,
        7670.0,
        7675.0,
        7680.0,
        7685.0,
        7690.0,
        7695.0,
        7700.0,
        7705.0,
        7710.0,
        7715.0,
        7720.0,
        7725.0,
        7730.0,
        7735.0,
        7740.0,
        7745.0,
        7750.0,
        7755.0,
        7760.0,
        7765.0,
        7770.0,
        7775.0,
        7780.0,
        7785.0,
        7790.0,
        7795.0,
        7800.0,
        7805.0,
        7810.0,
        7815.0,
        7820.0,
        7825.0,
        7830.0,
        7835.0,
        7840.0,
        7845.0,
        7850.0,
        7855.0,
        7860.0,
        7865.0,
        7870.0,
        7875.0,
        7880.0,
        7885.0,
        7890.0,
        7895.0,
        7900.0,
        7905.0,
        7910.0,
        7915.0,
        7920.0,
        7925.0,
        7930.0,
        7935.0,
        7940.0,
        7945.0,
        7950.0,
        7955.0,
        7960.0,
        7965.0,
        7970.0,
        7975.0,
        7980.0,
        7985.0,
        7990.0,
        7995.0,
        8000.0,
        8005.0,
        8010.0,
        8015.0,
        8020.0,
        8025.0,
        8030.0,
        8035.0,
        8040.0,
        8045.0,
        8050.0,
        8055.0,
        8060.0,
        8065.0,
        8070.0,
        8075.0,
        8080.0,
        8085.0,
        8090.0,
        8095.0,
        8100.0,
        8105.0,
        8110.0,
        8115.0,
        8120.0,
        8125.0,
        8130.0,
        8135.0,
        8140.0,
        8145.0,
        8150.0,
        8155.0,
        8160.0,
        8165.0,
        8170.0,
        8175.0,
        8180.0,
        8185.0,
        8190.0,
        8195.0,
        8200.0,
        8205.0,
        8210.0,
        8215.0,
        8220.0,
        8225.0,
        8230.0,
        8235.0,
        8240.0,
        8245.0,
        8250.0,
        8255.0,
        8260.0,
        8265.0,
        8270.0,
        8275.0,
        8280.0,
        8285.0,
        8290.0,
        8295.0,
        8300.0,
        8305.0,
        8310.0,
        8315.0,
        8320.0,
        8325.0,
        8330.0,
        8335.0,
        8340.0,
        8345.0,
        8350.0,
        8355.0,
        8360.0,
        8365.0,
        8370.0,
        8375.0,
        8380.0,
        8385.0,
        8390.0,
        8395.0,
        8400.0,
        8405.0,
        8410.0,
        8415.0,
        8420.0,
        8425.0,
        8430.0,
        8435.0,
        8440.0,
        8445.0,
        8450.0,
        8455.0,
        8460.0,
        8465.0,
        8470.0,
        8475.0,
        8480.0,
        8485.0,
        8490.0,
        8495.0,
        8500.0,
        8505.0,
        8510.0,
        8515.0,
        8520.0,
        8525.0,
        8530.0,
        8535.0,
        8540.0,
        8545.0,
        8550.0,
        8555.0,
        8560.0,
        8565.0,
        8570.0,
        8575.0,
        8580.0,
        8585.0,
        8590.0,
        8595.0,
        8600.0,
        8605.0,
        8610.0,
        8615.0,
        8620.0,
        8625.0,
        8630.0,
        8635.0,
        8640.0,
        8645.0,
        8650.0,
        8655.0,
        8660.0,
        8665.0,
        8670.0,
        8675.0,
        8680.0,
        8685.0,
        8690.0,
        8695.0,
        8700.0,
        8705.0,
        8710.0,
        8715.0,
        8720.0,
        8725.0,
        8730.0,
        8735.0,
        8740.0,
        8745.0,
        8750.0,
        8755.0,
        8760.0,
        8765.0,
        8770.0,
        8775.0,
        8780.0,
        8785.0,
        8790.0,
        8795.0,
        8800.0,
        8805.0,
        8810.0,
        8815.0,
        8820.0,
        8825.0,
        8830.0,
        8835.0,
        8840.0,
        8845.0,
        8850.0,
        8855.0,
        8860.0,
        8865.0,
        8870.0,
        8875.0,
        8880.0,
        8885.0,
        8890.0,
        8895.0,
        8900.0,
        8905.0,
        8910.0,
        8915.0,
        8920.0,
        8925.0,
        8930.0,
        8935.0,
        8940.0,
        8945.0,
        8950.0,
        8955.0,
        8960.0,
        8965.0,
        8970.0,
        8975.0,
        8980.0,
        8985.0,
        8990.0,
        8995.0,
        9000.0,
        9005.0,
        9010.0,
        9015.0,
        9020.0,
        9025.0,
        9030.0,
        9035.0,
        9040.0,
        9045.0,
        9050.0,
        9055.0,
        9060.0,
        9065.0,
        9070.0,
        9075.0,
        9080.0,
        9085.0,
        9090.0,
        9095.0,
        9100.0,
        9105.0,
        9110.0,
        9115.0,
        9120.0,
        9125.0,
        9130.0,
        9135.0,
        9140.0,
        9145.0,
        9150.0,
        9155.0,
        9160.0,
        9165.0,
        9170.0,
        9175.0,
        9180.0,
        9185.0,
        9190.0,
        9195.0,
        9200.0,
        9205.0,
        9210.0,
        9215.0,
        9220.0,
        9225.0,
        9230.0,
        9235.0,
        9240.0,
        9245.0,
        9250.0,
        9255.0,
        9260.0,
        9265.0,
        9270.0,
        9275.0,
        9280.0,
        9285.0,
        9290.0,
        9295.0,
        9300.0,
        9305.0,
        9310.0,
        9315.0,
        9320.0,
        9325.0,
        9330.0,
        9335.0,
        9340.0,
        9345.0,
        9350.0,
        9355.0,
        9360.0,
        9365.0,
        9370.0,
        9375.0,
        9380.0,
        9385.0,
        9390.0,
        9395.0,
        9400.0,
        9405.0,
        9410.0,
        9415.0,
        9420.0,
        9425.0,
        9430.0,
        9435.0,
        9440.0,
        9445.0,
        9450.0,
        9455.0,
        9460.0,
        9465.0,
        9470.0,
        9475.0,
        9480.0,
        9485.0,
        9490.0,
        9495.0,
        9500.0,
        9505.0,
        9510.0,
        9515.0,
        9520.0,
        9525.0,
        9530.0,
        9535.0,
        9540.0,
        9545.0,
        9550.0,
        9555.0,
        9560.0,
        9565.0,
        9570.0,
        9575.0,
        9580.0,
        9585.0,
        9590.0,
        9595.0,
        9600.0,
        9605.0,
        9610.0,
        9615.0,
        9620.0,
        9625.0,
        9630.0,
        9635.0,
        9640.0,
        9645.0,
        9650.0,
        9655.0,
        9660.0,
        9665.0,
        9670.0,
        9675.0,
        9680.0,
        9685.0,
        9690.0,
        9695.0,
        9700.0,
        9705.0,
        9710.0,
        9715.0,
        9720.0,
        9725.0,
        9730.0,
        9735.0,
        9740.0,
        9745.0,
        9750.0,
        9755.0,
        9760.0,
        9765.0,
        9770.0,
        9775.0,
        9780.0,
        9785.0,
        9790.0,
        9795.0,
        9800.0,
        9805.0,
        9810.0,
        9815.0,
        9820.0,
        9825.0,
        9830.0,
        9835.0,
        9840.0,
        9845.0,
        9850.0,
        9855.0,
        9860.0,
        9865.0,
        9870.0,
        9875.0,
        9880.0,
        9885.0,
        9890.0,
        9895.0,
        9900.0,
        9905.0,
        9910.0,
        9915.0,
        9920.0,
        9925.0,
        9930.0,
        9935.0,
        9940.0,
        9945.0,
        9950.0,
        9955.0,
        9960.0,
        9965.0,
        9970.0,
        9975.0,
        9980.0,
        9985.0,
        9990.0,
        9995.0,
        10000.0,
        10005.0,
        10010.0,
        10015.0,
        10020.0,
        10025.0,
        10030.0,
        10035.0,
        10040.0,
        10045.0,
        10050.0,
        10055.0,
        10060.0,
        10065.0,
        10070.0,
        10075.0,
        10080.0,
        10085.0,
        10090.0,
        10095.0,
        10100.0,
        10105.0,
        10110.0,
        10115.0,
        10120.0,
        10125.0,
        10130.0,
        10135.0,
        10140.0,
        10145.0,
        10150.0,
        10155.0,
        10160.0,
        10165.0,
        10170.0,
        10175.0,
        10180.0,
        10185.0,
        10190.0,
        10195.0,
        10200.0,
        10205.0,
        10210.0,
        10215.0,
        10220.0,
        10225.0,
        10230.0,
        10235.0,
        10240.0,
        10245.0,
        10250.0,
        10255.0,
        10260.0,
        10265.0,
        10270.0,
        10275.0,
        10280.0,
        10285.0,
        10290.0,
        10295.0,
        10300.0,
        10305.0,
        10310.0,
        10315.0,
        10320.0,
        10325.0,
        10330.0,
        10335.0,
        10340.0,
        10345.0,
        10350.0,
        10355.0,
        10360.0,
        10365.0,
        10370.0,
        10375.0,
        10380.0,
        10385.0,
        10390.0,
        10395.0,
        10400.0,
        10405.0,
        10410.0,
        10415.0,
        10420.0,
        10425.0,
        10430.0,
        10435.0,
        10440.0,
        10445.0,
        10450.0,
        10455.0,
        10460.0,
        10465.0,
        10470.0,
        10475.0,
        10480.0,
        10485.0,
        10490.0,
        10495.0,
        10500.0
      ],
      "units":"angstrom"
    },
    "values":{
      "value":[
        0.0,
        0.0,
        0.0,
        0.0,
        0.0,
        0.0,
        0.0,
        0.0,
        0.0,
        0.0,
        0.0,
        0.0,
        0.0,
        0.0,
        0.0,
        0.0,
        0.0,
        0.0,
        0.0,
        0.0,
        0.0,
        0.0,
        0.0,
        0.0,
        0.0,
        0.0,
        0.0,
        0.0,
        0.0,
        0.0,
        0.0,
        0.0,
        0.0,
        0.0,
        0.0,
        0.0,
        0.0,
        0.0,
        0.0,
        0.0,
        0.0,
        0.0,
        0.0,
        0.0,
        0.0,
        0.0,
        0.0,
        0.0,
        0.0,
        0.0,
        0.0,
        0.0,
        0.0,
        0.0,
        0.0,
        0.0,
        0.0,
        0.0,
        0.0,
        0.0,
        0.0,
        0.0,
        0.0,
        0.0,
        0.0,
        0.0,
        0.0,
        0.0,
        0.0,
        0.0,
        0.0,
        0.0,
        0.0,
        0.0,
        0.0,
        0.0,
        0.0,
        0.0,
        0.0,
        0.0,
        0.0,
        0.0,
        0.0,
        0.0,
        0.0,
        0.0,
        0.0,
        0.0,
        0.0,
        0.0,
        0.0,
        0.0,
        0.0,
        0.0,
        0.0,
        0.0,
        0.0,
        0.0,
        0.0,
        0.0,
        0.0,
        0.0,
        0.0,
        0.0,
        0.0,
        0.0,
        0.0,
        0.0,
        0.0,
        0.0,
        0.0,
        0.0,
        0.0,
        0.0,
        0.0,
        0.0,
        0.0,
        0.0,
        0.0,
        0.0,
        0.0,
        0.0,
        0.0,
        0.0,
        0.0,
        0.0,
        0.0,
        0.0,
        0.0,
        0.0,
        0.0,
        0.0,
        0.0,
        0.0,
        0.0,
        0.0,
        0.0,
        0.0,
        0.0,
        0.0,
        0.0,
        0.0,
        0.0,
        0.0,
        0.0,
        0.0,
        0.0,
        0.0,
        0.0,
        0.0,
        0.0,
        0.0,
        0.0,
        0.0,
        0.0,
        0.0,
        0.0,
        0.0,
        0.0,
        0.0,
        0.0,
        0.0,
        0.0,
        0.0,
        0.0,
        0.0,
        0.0,
        0.0,
        0.0,
        0.0,
        0.0,
        0.0,
        0.0,
        0.0,
        0.0,
        0.0,
        0.0,
        0.0,
        0.0,
        0.0,
        0.0,
        0.0,
        0.0,
        0.0,
        0.0,
        0.0,
        0.0,
        0.0,
        0.0,
        0.0,
        0.0,
        0.0,
        0.0,
        0.0,
        0.0,
        0.0,
        0.0,
        0.0,
        0.0,
        0.0,
        0.0,
        0.0,
        0.0,
        0.0,
        0.0,
        0.0,
        0.0,
        0.0,
        0.0,
        0.0,
        0.0,
        0.0,
        0.0,
        0.0,
        0.0,
        0.0,
        0.0,
        0.0,
        0.0,
        0.0,
        0.0,
        0.0,
        0.0,
        0.0,
        0.0,
        0.0,
        0.0,
        0.0,
        0.0,
        0.0,
        0.0,
        0.0,
        0.0,
        0.0,
        0.0,
        0.0,
        0.0,
        0.0,
        0.0,
        0.0,
        0.0,
        0.0,
        0.0,
        0.0,
        0.0,
        0.0,
        0.0,
        0.0,
        0.0,
        0.0,
        0.0,
        1e-06,
        2e-06,
        3e-06,
        4e-06,
        5e-06,
        5e-06,
        5e-06,
        4e-06,
        3e-06,
        0.0,
        0.0,
        0.0,
        0.0,
        0.0,
        0.0,
        0.0,
        0.0,
        0.0,
        0.0,
        0.0,
        1.4e-05,
        3e-05,
        4.6e-05,
        6e-05,
        7.1e-05,
        7.6e-05,
        7.3e-05,
        6.1e-05,
        3.7e-05,
        0.0,
        0.0,
        0.0,
        0.0,
        0.0,
        0.0,
        0.0,
        0.0,
        0.0,
        0.0,
        0.0,
        0.000195,
        0.000443,
        0.000741,
        0.001085,
        0.001471,
        0.001895,
        0.002353,
        0.00284,
        0.003354,
        0.00389,
        0.004443,
        0.005005,
        0.005567,
        0.00612,
        0.006656,
        0.007165,
        0.007638,
        0.008066,
        0.00844,
        0.008752,
        0.008994,
        0.00917,
        0.009283,
        0.00934,
        0.009344,
        0.009301,
        0.009215,
        0.009092,
        0.008936,
        0.008752,
        0.008546,
        0.008323,
        0.008092,
        0.007858,
        0.00763,
        0.007414,
        0.007216,
        0.007045,
        0.006906,
        0.006807,
        0.006756,
        0.006766,
        0.006851,
        0.007024,
        0.0073,
        0.007691,
        0.008213,
        0.008879,
        0.009702,
        0.010697,
        0.011871,
        0.013202,
        0.014665,
        0.01623,
        0.017872,
        0.019561,
        0.021272,
        0.022976,
        0.024647,
        0.026256,
        0.027778,
        0.02919,
        0.030471,
        0.031601,
        0.032559,
        0.033324,
        0.033875,
        0.034191,
        0.034252,
        0.034036,
        0.033536,
        0.032804,
        0.031902,
        0.030896,
        0.029849,
        0.028826,
        0.027891,
        0.027108,
        0.026542,
        0.026256,
        0.026297,
        0.02664,
        0.027241,
        0.028056,
        0.029042,
        0.030155,
        0.031351,
        0.032588,
        0.033822,
        0.035008,
        0.036113,
        0.037139,
        0.038095,
        0.038993,
        0.039844,
        0.040658,
        0.041445,
        0.042218,
        0.042986,
        0.04376,
        0.04455,
        0.045356,
        0.046181,
        0.047025,
        0.047888,
        0.048771,
        0.049674,
        0.050598,
        0.051544,
        0.052512,
        0.0535,
        0.049456,
        0.058733,
        0.062833,
        0.058762,
        0.05224,
        0.050006,
        0.054177,
        0.064032,
        0.083967,
        0.083585,
        0.075527,
        0.070428,
        0.065803,
        0.057658,
        0.049096,
        0.044492,
        0.046233,
        0.054462,
        0.062349,
        0.064618,
        0.069195,
        0.082946,
        0.095301,
        0.095658,
        0.090719,
        0.089486,
        0.092871,
        0.098524,
        0.099146,
        0.09,
        0.081556,
        0.083715,
        0.088913,
        0.088433,
        0.086405,
        0.08843,
        0.093118,
        0.097291,
        0.097602,
        0.091525,
        0.080006,
        0.066552,
        0.061457,
        0.071979,
        0.08645,
        0.092544,
        0.094209,
        0.09744,
        0.100144,
        0.099752,
        0.099867,
        0.104213,
        0.1108,
        0.115681,
        0.112771,
        0.09897,
        0.085239,
        0.082788,
        0.089749,
        0.1005,
        0.107467,
        0.105433,
        0.100549,
        0.09953,
        0.099971,
        0.098975,
        0.100796,
        0.108931,
        0.11669,
        0.117395,
        0.114589,
        0.112815,
        0.1104,
        0.106257,
        0.107883,
        0.120508,
        0.13171,
        0.129337,
        0.11998,
        0.112478,
        0.10592,
        0.097755,
        0.088625,
        0.080593,
        0.078213,
        0.084944,
        0.097378,
        0.110308,
        0.118204,
        0.118016,
        0.11695,
        0.122321,
        0.131632,
        0.14015,
        0.143996,
        0.141871,
        0.141949,
        0.151544,
        0.165061,
        0.175275,
        0.181356,
        0.183556,
        0.180055,
        0.17048,
        0.162325,
        0.162201,
        0.165331,
        0.165661,
        0.163405,
        0.159925,
        0.154879,
        0.147551,
        0.13744,
        0.12483,
        0.112952,
        0.105326,
        0.103682,
        0.108367,
        0.115969,
        0.123159,
        0.130686,
        0.14016,
        0.152556,
        0.166534,
        0.172135,
        0.161867,
        0.146722,
        0.139003,
        0.137786,
        0.138152,
        0.13244,
        0.115638,
        0.09608,
        0.083829,
        0.082527,
        0.091754,
        0.101292,
        0.102007,
        0.098925,
        0.098733,
        0.100631,
        0.102457,
        0.104088,
        0.106775,
        0.115211,
        0.13259,
        0.152664,
        0.168265,
        0.17797,
        0.181772,
        0.179572,
        0.170807,
        0.153142,
        0.126978,
        0.105439,
        0.102323,
        0.121403,
        0.158309,
        0.186128,
        0.181516,
        0.15797,
        0.138213,
        0.145032,
        0.191081,
        0.248416,
        0.287088,
        0.309727,
        0.325845,
        0.33992,
        0.354589,
        0.370173,
        0.385041,
        0.392073,
        0.38563,
        0.371495,
        0.357692,
        0.349783,
        0.350959,
        0.35739,
        0.363376,
        0.362745,
        0.353605,
        0.351648,
        0.370145,
        0.395088,
        0.409101,
        0.40861,
        0.395835,
        0.382357,
        0.378506,
        0.380245,
        0.381434,
        0.381874,
        0.381551,
        0.375237,
        0.359655,
        0.344542,
        0.340253,
        0.346604,
        0.359033,
        0.365998,
        0.359202,
        0.350308,
        0.351829,
        0.359722,
        0.366812,
        0.369938,
        0.369324,
        0.374706,
        0.392467,
        0.406075,
        0.399828,
        0.38427,
        0.375341,
        0.384332,
        0.41444,
        0.441148,
        0.442025,
        0.430708,
        0.425476,
        0.427105,
        0.431545,
        0.432947,
        0.427277,
        0.419571,
        0.413692,
        0.399761,
        0.37258,
        0.35945,
        0.385512,
        0.434788,
        0.48249,
        0.509704,
        0.507862,
        0.503895,
        0.522947,
        0.547498,
        0.556693,
        0.558996,
        0.566076,
        0.573098,
        0.571327,
        0.552925,
        0.516988,
        0.489461,
        0.493509,
        0.514312,
        0.531353,
        0.539293,
        0.539508,
        0.545072,
        0.565474,
        0.584189,
        0.585969,
        0.586712,
        0.602509,
        0.619082,
        0.619529,
        0.606807,
        0.591154,
        0.592063,
        0.62251,
        0.66013,
        0.680565,
        0.686836,
        0.688106,
        0.690731,
        0.699606,
        0.716612,
        0.738452,
        0.744145,
        0.717741,
        0.681092,
        0.659896,
        0.657414,
        0.670178,
        0.690234,
        0.709731,
        0.725714,
        0.736415,
        0.73992,
        0.736462,
        0.734999,
        0.742124,
        0.746228,
        0.737001,
        0.727526,
        0.73245,
        0.749296,
        0.771512,
        0.793386,
        0.809256,
        0.812835,
        0.800154,
        0.777156,
        0.752676,
        0.737206,
        0.737779,
        0.745925,
        0.751178,
        0.750594,
        0.745267,
        0.744928,
        0.756576,
        0.767646,
        0.765744,
        0.758705,
        0.756777,
        0.759614,
        0.765218,
        0.775556,
        0.790792,
        0.799901,
        0.79465,
        0.789152,
        0.79771,
        0.813023,
        0.823555,
        0.822419,
        0.808285,
        0.797397,
        0.804049,
        0.817159,
        0.823118,
        0.823601,
        0.82368,
        0.82674,
        0.834726,
        0.845508,
        0.85603,
        0.863615,
        0.865921,
        0.861574,
        0.8512,
        0.842466,
        0.841885,
        0.844293,
        0.842011,
        0.828957,
        0.804575,
        0.78882,
        0.798081,
        0.813967,
        0.816496,
        0.81408,
        0.819673,
        0.835985,
        0.859096,
        0.868825,
        0.850341,
        0.826486,
        0.821553,
        0.827971,
        0.833565,
        0.839599,
        0.849715,
        0.86364,
        0.878203,
        0.882584,
        0.869708,
        0.855138,
        0.853762,
        0.855137,
        0.84724,
        0.837044,
        0.833073,
        0.831067,
        0.824695,
        0.812147,
        0.795009,
        0.783937,
        0.78791,
        0.800159,
        0.810886,
        0.813943,
        0.807486,
        0.803254,
        0.811839,
        0.825673,
        0.833475,
        0.82728,
        0.804882,
        0.783795,
        0.780514,
        0.787719,
        0.79334,
        0.790104,
        0.775905,
        0.764517,
        0.767891,
        0.774829,
        0.772387,
        0.763785,
        0.755395,
        0.750027,
        0.749003,
        0.751251,
        0.754121,
        0.751053,
        0.736083,
        0.709533,
        0.677291,
        0.661227,
        0.679336,
        0.718142,
        0.75738,
        0.781106,
        0.780719,
        0.772676,
        0.775677,
        0.792356,
        0.818658,
        0.839854,
        0.84501,
        0.849054,
        0.866586,
        0.885023,
        0.888452,
        0.874836,
        0.847622,
        0.818327,
        0.801229,
        0.813583,
        0.862275,
        0.909767,
        0.920969,
        0.915031,
        0.918927,
        0.936705,
        0.962329,
        0.972356,
        0.948972,
        0.914277,
        0.89468,
        0.89388,
        0.909166,
        0.934881,
        0.963635,
        0.984039,
        0.987155,
        0.97785,
        0.964939,
        0.95923,
        0.966464,
        0.970127,
        0.954106,
        0.926145,
        0.899678,
        0.887039,
        0.896987,
        0.925096,
        0.960589,
        0.980482,
        0.968856,
        0.950276,
        0.950886,
        0.962666,
        0.971917,
        0.976375,
        0.976773,
        0.974379,
        0.969992,
        0.961973,
        0.950426,
        0.944855,
        0.95362,
        0.9711,
        0.987594,
        0.991086,
        0.975856,
        0.963704,
        0.974529,
        0.993097,
        1.001069,
        1.00282,
        1.006496,
        1.012634,
        1.019667,
        1.025242,
        1.027068,
        1.023878,
        1.016186,
        1.010599,
        1.011702,
        1.009903,
        0.996628,
        0.981553,
        0.977134,
        0.988696,
        1.014999,
        1.035674,
        1.033301,
        1.021357,
        1.016414,
        1.016517,
        1.01655,
        1.017284,
        1.019766,
        1.020262,
        1.015878,
        1.011859,
        1.013992,
        1.022061,
        1.033233,
        1.040185,
        1.03733,
        1.030519,
        1.025111,
        1.013062,
        0.989677,
        0.977051,
        0.994632,
        1.024507,
        1.044725,
        1.054578,
        1.058236,
        1.05815,
        1.056104,
        1.052948,
        1.049295,
        1.045759,
        1.042867,
        1.0408,
        1.039656,
        1.039529,
        1.04057,
        1.043148,
        1.047686,
        1.054608,
        1.063944,
        1.074156,
        1.083312,
        1.089481,
        1.091322,
        1.089862,
        1.086716,
        1.083503,
        1.08127,
        1.078793,
        1.074278,
        1.065933,
        1.052696,
        1.036439,
        1.019765,
        1.005278,
        0.995255,
        0.990664,
        0.992148,
        1.000348,
        1.015139,
        1.033323,
        1.050935,
        1.064013,
        1.069719,
        1.069728,
        1.066844,
        1.063868,
        1.062973,
        1.0638,
        1.06536,
        1.066662,
        1.066875,
        1.065804,
        1.063409,
        1.059654,
        1.054706,
        1.049548,
        1.045373,
        1.043369,
        1.04435,
        1.047619,
        1.052103,
        1.056729,
        1.060652,
        1.063944,
        1.066905,
        1.069835,
        1.072841,
        1.075258,
        1.076229,
        1.074894,
        1.070771,
        1.064876,
        1.058602,
        1.053341,
        1.050119,
        1.048502,
        1.047688,
        1.046878,
        1.045408,
        1.043169,
        1.040188,
        1.036492,
        1.032218,
        1.027944,
        1.024356,
        1.022142,
        1.021745,
        1.022624,
        1.023996,
        1.025075,
        1.02533,
        1.025236,
        1.025521,
        1.02691,
        1.029794,
        1.033207,
        1.035846,
        1.036407,
        1.033968,
        1.029124,
        1.022851,
        1.016123,
        1.009786,
        1.004154,
        0.999415,
        0.995751,
        0.993337,
        0.99229,
        0.992719,
        0.994729,
        0.998299,
        1.002895,
        1.007855,
        1.012516,
        1.016339,
        1.019274,
        1.021396,
        1.022779,
        1.023514,
        1.023765,
        1.023714,
        1.023544,
        1.023422,
        1.023466,
        1.023777,
        1.024459,
        1.025558,
        1.026892,
        1.028225,
        1.029318,
        1.030022,
        1.030536,
        1.031148,
        1.032144,
        1.033693,
        1.035486,
        1.037097,
        1.038098,
        1.038177,
        1.037484,
        1.036286,
        1.034847,
        1.033442,
        1.032375,
        1.031962,
        1.032515,
        1.034123,
        1.035971,
        1.03702,
        1.036228,
        1.03293,
        1.027951,
        1.022493,
        1.017755,
        1.014796,
        1.014107,
        1.016036,
        1.020932,
        1.028717,
        1.037605,
        1.04538,
        1.049828,
        1.049391,
        1.045122,
        1.038731,
        1.031926,
        1.0262,
        1.022181,
        1.02028,
        1.020908,
        1.024233,
        1.029444,
        1.035487,
        1.041307,
        1.046023,
        1.049445,
        1.051559,
        1.052348,
        1.051898,
        1.0507,
        1.049342,
        1.048416,
        1.048322,
        1.048707,
        1.049024,
        1.048731,
        1.0475,
        1.04587,
        1.044597,
        1.044439,
        1.045829,
        1.047909,
        1.049502,
        1.049428,
        1.046923,
        1.042883,
        1.038621,
        1.035449,
        1.03435,
        1.034997,
        1.036732,
        1.0389,
        1.040878,
        1.042185,
        1.042372,
        1.040992,
        1.037905,
        1.034195,
        1.031256,
        1.030478,
        1.032774,
        1.03714,
        1.042093,
        1.046147,
        1.048133,
        1.048139,
        1.046569,
        1.043823,
        1.040516,
        1.038104,
        1.038254,
        1.042635,
        1.051933,
        1.062916,
        1.07137,
        1.073081,
        1.065243,
        1.050673,
        1.033594,
        1.018229,
        1.007977,
        1.002941,
        1.002399,
        1.005627,
        1.011786,
        1.019553,
        1.02749,
        1.034156,
        1.038411,
        1.040312,
        1.040217,
        1.038484,
        1.035478,
        1.031595,
        1.027237,
        1.022808,
        1.018653,
        1.014892,
        1.011586,
        1.008796,
        1.00657,
        1.004892,
        1.003734,
        1.003066,
        1.002804,
        1.002649,
        1.002246,
        1.001243,
        1.004762,
        1.003154,
        1.001923,
        1.001523,
        1.002248,
        1.003763,
        1.005574,
        1.007188,
        1.008191,
        1.008478,
        1.008025,
        1.006796,
        1.004807,
        1.002277,
        0.999477,
        0.996677,
        0.994102,
        0.991791,
        0.989737,
        0.987934,
        0.986363,
        0.98495,
        0.983611,
        0.982259,
        0.980884,
        0.979765,
        0.979255,
        0.97971,
        0.981303,
        0.983495,
        0.985569,
        0.9868,
        0.986643,
        0.985276,
        0.983056,
        0.98034,
        0.97748,
        0.97481,
        0.97266,
        0.971358,
        0.971099,
        0.971537,
        0.972195,
        0.972593,
        0.972369,
        0.971629,
        0.970596,
        0.969493,
        0.968511,
        0.96771,
        0.967112,
        0.966708,
        0.966478,
        0.966375,
        0.966346,
        0.966339,
        0.966335,
        0.966442,
        0.966806,
        0.967567,
        0.96875,
        0.969897,
        0.970428,
        0.969766,
        0.967577,
        0.964499,
        0.961416,
        0.959209,
        0.958529,
        0.959102,
        0.960415,
        0.961933,
        0.963217,
        0.964256,
        0.965139,
        0.965958,
        0.966776,
        0.967534,
        0.968148,
        0.968532,
        0.968663,
        0.96878,
        0.969184,
        0.970178,
        0.971924,
        0.974022,
        0.975933,
        0.977117,
        0.977205,
        0.976507,
        0.975503,
        0.97468,
        0.974403,
        0.974545,
        0.974859,
        0.975098,
        0.975111,
        0.975144,
        0.975536,
        0.976629,
        0.978618,
        0.98111,
        0.983565,
        0.985443,
        0.986352,
        0.986487,
        0.986189,
        0.985801,
        0.985566,
        0.985336,
        0.972257,
        0.972007,
        0.971703,
        0.971352,
        0.970959,
        0.970529,
        0.970068,
        0.969582,
        0.969077,
        0.968557,
        0.968029,
        0.967491,
        0.966942,
        0.966383,
        0.96581,
        0.965224,
        0.964624,
        0.964007,
        0.963374,
        0.962723,
        0.962055,
        0.961378,
        0.960702,
        0.960039,
        0.959398,
        0.958789,
        0.958224,
        0.957712,
        0.957263,
        0.956888,
        0.956594,
        0.956373,
        0.956214,
        0.96173,
        0.962897,
        0.964301,
        0.965809,
        0.967291,
        0.968612,
        0.969619,
        0.970158,
        0.97008,
        0.969315,
        0.968116,
        0.966814,
        0.965743,
        0.965153,
        0.964983,
        0.96509,
        0.965333,
        0.965564,
        0.965621,
        0.965337,
        0.964543,
        0.963138,
        0.961274,
        0.959169,
        0.95704,
        0.955071,
        0.953298,
        0.951727,
        0.950369,
        0.949206,
        0.948095,
        0.946862,
        0.945334,
        0.94337,
        0.940965,
        0.938147,
        0.934947,
        0.931434,
        0.927853,
        0.924487,
        0.921624,
        0.919511,
        0.918239,
        0.917863,
        0.918438,
        0.919967,
        0.922248,
        0.925022,
        0.928011,
        0.930936,
        0.933536,
        0.935552,
        0.936728,
        0.936894,
        0.93624,
        0.93504,
        0.933573,
        0.932104,
        0.930866,
        0.930083,
        0.929977,
        0.930645,
        0.931679,
        0.932546,
        0.932712,
        0.931778,
        0.929888,
        0.927335,
        0.924451,
        0.921484,
        0.918281,
        0.914594,
        0.910171,
        0.904968,
        0.899763,
        0.895537,
        0.893273,
        0.893587,
        0.895625,
        0.898169,
        0.899998,
        0.900177,
        0.898909,
        0.896682,
        0.893982,
        0.891241,
        0.888665,
        0.886402,
        0.884595,
        0.883472,
        0.883608,
        0.885662,
        0.890296,
        0.897748,
        0.906563,
        0.914863,
        0.920773,
        0.922955,
        0.922236,
        0.919984,
        0.917565,
        0.916127,
        0.91593,
        0.917018,
        0.91943,
        0.922998,
        0.926712,
        0.929365,
        0.929803,
        0.927249,
        0.922392,
        0.916285,
        0.909983,
        0.904322,
        0.899268,
        0.89457,
        0.889976,
        0.885337,
        0.880923,
        0.877104,
        0.874253,
        0.872583,
        0.871673,
        0.870941,
        0.869808,
        0.86794,
        0.865995,
        0.864859,
        0.865356,
        0.867967,
        0.871878,
        0.875953,
        0.879056,
        0.880358,
        0.880256,
        0.879458,
        0.878669,
        0.878461,
        0.878865,
        0.879781,
        0.881105,
        0.882746,
        0.884653,
        0.886789,
        0.889114,
        0.891493,
        0.893411,
        0.894264,
        0.893465,
        0.890705,
        0.886756,
        0.882657,
        0.879451,
        0.877785,
        0.876735,
        0.874985,
        0.871216,
        0.864571,
        0.856023,
        0.847005,
        0.83895,
        0.83306,
        0.829618,
        0.828674,
        0.83028,
        0.834329,
        0.840079,
        0.846584,
        0.852711,
        0.85761,
        0.861756,
        0.865954,
        0.871007,
        0.87735,
        0.883932,
        0.88933,
        0.892124,
        0.891246,
        0.88706,
        0.880282,
        0.871631,
        0.861844,
        0.85173,
        0.842118,
        0.833835,
        0.827579,
        0.823513,
        0.821613,
        0.821618,
        0.823249,
        0.826389,
        0.830964,
        0.836898,
        0.843933,
        0.851086,
        0.857191,
        0.861083,
        0.861975,
        0.860591,
        0.858033,
        0.855402,
        0.853563,
        0.852423,
        0.851653,
        0.850921,
        0.849884,
        0.848151,
        0.845304,
        0.840883,
        0.834755,
        0.828149,
        0.822636,
        0.819784,
        0.820588,
        0.823743,
        0.827365,
        0.829574,
        0.829011,
        0.826419,
        0.823063,
        0.820209,
        0.818809,
        0.81856,
        0.818844,
        0.819043,
        0.818698,
        0.817983,
        0.817229,
        0.816763,
        0.816762,
        0.81681,
        0.816342,
        0.814792,
        0.811882,
        0.808483,
        0.805752,
        0.804848,
        0.806463,
        0.809423,
        0.81209,
        0.812824,
        0.810503,
        0.806075,
        0.801001,
        0.796748,
        0.794435,
        0.79382,
        0.794316,
        0.795325,
        0.796286,
        0.796783,
        0.79644,
        0.79488,
        0.791972,
        0.788562,
        0.785744,
        0.784609,
        0.785971,
        0.789521,
        0.794672,
        0.800837,
        0.807348,
        0.81322,
        0.817388,
        0.818788,
        0.816729,
        0.812018,
        0.805834,
        0.799348,
        0.793604,
        0.78915,
        0.786405,
        0.785791,
        0.787434,
        0.790279,
        0.792972,
        0.794163,
        0.792889,
        0.789745,
        0.785712,
        0.781775,
        0.778635,
        0.775869,
        0.772775,
        0.768647,
        0.763117,
        0.757156,
        0.752066,
        0.749135,
        0.749236,
        0.751601,
        0.755051,
        0.758411,
        0.760717,
        0.761867,
        0.761976,
        0.761156,
        0.759571,
        0.757584,
        0.755606,
        0.754049,
        0.753152,
        0.752452,
        0.751314,
        0.749102,
        0.745479,
        0.741307,
        0.737748,
        0.735944,
        0.736628,
        0.738892,
        0.741416,
        0.742883,
        0.74224,
        0.739501,
        0.734946,
        0.728853,
        0.721805,
        0.715593,
        0.712308,
        0.714046,
        0.721927,
        0.733188,
        0.744094,
        0.75091,
        0.750989,
        0.746031,
        0.738818,
        0.732108,
        0.728228,
        0.727793,
        0.730988,
        0.738002,
        0.74838,
        0.759111,
        0.766543,
        0.767024,
        0.758196,
        0.742874,
        0.725167,
        0.709183,
        0.698296,
        0.69294,
        0.692815,
        0.697619,
        0.706621,
        0.717367,
        0.726971,
        0.732531,
        0.73201,
        0.726826,
        0.719263,
        0.711606,
        0.705844,
        0.702789,
        0.70296,
        0.706874,
        0.714572,
        0.724172,
        0.733318,
        0.73965,
        0.741469,
        0.739709,
        0.735964,
        0.731829,
        0.728612,
        0.726485,
        0.725337,
        0.725059,
        0.725429,
        0.725778,
        0.725323,
        0.723279,
        0.719271,
        0.714551,
        0.710778,
        0.709609,
        0.712034,
        0.716356,
        0.720206,
        0.721218,
        0.717814,
        0.711572,
        0.704864,
        0.700058,
        0.698875,
        0.70044,
        0.703235,
        0.70575,
        0.706843,
        0.706811,
        0.706312,
        0.706003,
        0.706311,
        0.706731,
        0.706526,
        0.704959,
        0.701635,
        0.697521,
        0.693926,
        0.692159,
        0.693058,
        0.695573,
        0.698184,
        0.699372,
        0.698086,
        0.695168,
        0.691924,
        0.689656,
        0.689352,
        0.690786,
        0.693424,
        0.696733,
        0.700194,
        0.703347,
        0.705745,
        0.706944,
        0.706682,
        0.705441,
        0.70389,
        0.702696,
        0.702287,
        0.702131,
        0.701457,
        0.699495,
        0.695831,
        0.691484,
        0.687827,
        0.686222,
        0.687519,
        0.690534,
        0.693578,
        0.69496,
        0.693511,
        0.690154,
        0.686335,
        0.683499,
        0.682712,
        0.683527,
        0.685115,
        0.686652,
        0.687453,
        0.687402,
        0.686526,
        0.684853,
        0.682492,
        0.679886,
        0.677555,
        0.676001,
        0.675585,
        0.67611,
        0.677243,
        0.678652,
        0.680038,
        0.681246,
        0.682157,
        0.682651,
        0.682682,
        0.682493,
        0.6824,
        0.682719,
        0.683631,
        0.684773,
        0.685651,
        0.685767,
        0.684792,
        0.683065,
        0.681091,
        0.679362,
        0.67828,
        0.677898,
        0.678184,
        0.679104,
        0.680494,
        0.681675,
        0.681839,
        0.680179,
        0.676273,
        0.671263,
        0.666677,
        0.664044,
        0.6644,
        0.666808,
        0.66984,
        0.672067,
        0.672436,
        0.671408,
        0.669812,
        0.668455,
        0.667894,
        0.6677,
        0.667201,
        0.665721,
        0.662892,
        0.659556,
        0.656856,
        0.655938,
        0.657512,
        0.66055,
        0.663588,
        0.665162,
        0.664242,
        0.661523,
        0.658132,
        0.655199,
        0.653582,
        0.653066,
        0.653165,
        0.653385,
        0.653292,
        0.652693,
        0.651457,
        0.649451,
        0.646666,
        0.643589,
        0.640829,
        0.638996,
        0.642487,
        0.642316,
        0.642175,
        0.641693,
        0.640642,
        0.639343,
        0.638259,
        0.637852,
        0.638404,
        0.639478,
        0.640455,
        0.64071,
        0.639815,
        0.63814,
        0.636254,
        0.634726,
        0.633993,
        0.633978,
        0.63447,
        0.635261,
        0.636122,
        0.63674,
        0.636786,
        0.635928,
        0.634006,
        0.631538,
        0.629213,
        0.627719,
        0.627519,
        0.628181,
        0.629046,
        0.629455,
        0.628969,
        0.628015,
        0.62724,
        0.627289,
        0.628555,
        0.630419,
        0.632008,
        0.632451
      ],
      "range":1
    }
  }
]
