[
  {
    "model":"Star, type K5(iii)",
    "name":"Star, type K5(iii)",
    "type":"WB_REF",
    "dataQualityMarker":3,
    "dataSource":"https://www.eso.org/sci/facilities/paranal/decommissioned/isaac/tools/lib.html",
    "manufacturer":"A. Pickles (A.J. Pickles, PASP 110,863, 1998)",
    "version":1,
    "wavelength":{
      "value":[
        1150.0,
        1155.0,
        1160.0,
        1165.0,
        1170.0,
        1175.0,
        1180.0,
        1185.0,
        1190.0,
        1195.0,
        1200.0,
        1205.0,
        1210.0,
        1215.0,
        1220.0,
        1225.0,
        1230.0,
        1235.0,
        1240.0,
        1245.0,
        1250.0,
        1255.0,
        1260.0,
        1265.0,
        1270.0,
        1275.0,
        1280.0,
        1285.0,
        1290.0,
        1295.0,
        1300.0,
        1305.0,
        1310.0,
        1315.0,
        1320.0,
        1325.0,
        1330.0,
        1335.0,
        1340.0,
        1345.0,
        1350.0,
        1355.0,
        1360.0,
        1365.0,
        1370.0,
        1375.0,
        1380.0,
        1385.0,
        1390.0,
        1395.0,
        1400.0,
        1405.0,
        1410.0,
        1415.0,
        1420.0,
        1425.0,
        1430.0,
        1435.0,
        1440.0,
        1445.0,
        1450.0,
        1455.0,
        1460.0,
        1465.0,
        1470.0,
        1475.0,
        1480.0,
        1485.0,
        1490.0,
        1495.0,
        1500.0,
        1505.0,
        1510.0,
        1515.0,
        1520.0,
        1525.0,
        1530.0,
        1535.0,
        1540.0,
        1545.0,
        1550.0,
        1555.0,
        1560.0,
        1565.0,
        1570.0,
        1575.0,
        1580.0,
        1585.0,
        1590.0,
        1595.0,
        1600.0,
        1605.0,
        1610.0,
        1615.0,
        1620.0,
        1625.0,
        1630.0,
        1635.0,
        1640.0,
        1645.0,
        1650.0,
        1655.0,
        1660.0,
        1665.0,
        1670.0,
        1675.0,
        1680.0,
        1685.0,
        1690.0,
        1695.0,
        1700.0,
        1705.0,
        1710.0,
        1715.0,
        1720.0,
        1725.0,
        1730.0,
        1735.0,
        1740.0,
        1745.0,
        1750.0,
        1755.0,
        1760.0,
        1765.0,
        1770.0,
        1775.0,
        1780.0,
        1785.0,
        1790.0,
        1795.0,
        1800.0,
        1805.0,
        1810.0,
        1815.0,
        1820.0,
        1825.0,
        1830.0,
        1835.0,
        1840.0,
        1845.0,
        1850.0,
        1855.0,
        1860.0,
        1865.0,
        1870.0,
        1875.0,
        1880.0,
        1885.0,
        1890.0,
        1895.0,
        1900.0,
        1905.0,
        1910.0,
        1915.0,
        1920.0,
        1925.0,
        1930.0,
        1935.0,
        1940.0,
        1945.0,
        1950.0,
        1955.0,
        1960.0,
        1965.0,
        1970.0,
        1975.0,
        1980.0,
        1985.0,
        1990.0,
        1995.0,
        2000.0,
        2005.0,
        2010.0,
        2015.0,
        2020.0,
        2025.0,
        2030.0,
        2035.0,
        2040.0,
        2045.0,
        2050.0,
        2055.0,
        2060.0,
        2065.0,
        2070.0,
        2075.0,
        2080.0,
        2085.0,
        2090.0,
        2095.0,
        2100.0,
        2105.0,
        2110.0,
        2115.0,
        2120.0,
        2125.0,
        2130.0,
        2135.0,
        2140.0,
        2145.0,
        2150.0,
        2155.0,
        2160.0,
        2165.0,
        2170.0,
        2175.0,
        2180.0,
        2185.0,
        2190.0,
        2195.0,
        2200.0,
        2205.0,
        2210.0,
        2215.0,
        2220.0,
        2225.0,
        2230.0,
        2235.0,
        2240.0,
        2245.0,
        2250.0,
        2255.0,
        2260.0,
        2265.0,
        2270.0,
        2275.0,
        2280.0,
        2285.0,
        2290.0,
        2295.0,
        2300.0,
        2305.0,
        2310.0,
        2315.0,
        2320.0,
        2325.0,
        2330.0,
        2335.0,
        2340.0,
        2345.0,
        2350.0,
        2355.0,
        2360.0,
        2365.0,
        2370.0,
        2375.0,
        2380.0,
        2385.0,
        2390.0,
        2395.0,
        2400.0,
        2405.0,
        2410.0,
        2415.0,
        2420.0,
        2425.0,
        2430.0,
        2435.0,
        2440.0,
        2445.0,
        2450.0,
        2455.0,
        2460.0,
        2465.0,
        2470.0,
        2475.0,
        2480.0,
        2485.0,
        2490.0,
        2495.0,
        2500.0,
        2505.0,
        2510.0,
        2515.0,
        2520.0,
        2525.0,
        2530.0,
        2535.0,
        2540.0,
        2545.0,
        2550.0,
        2555.0,
        2560.0,
        2565.0,
        2570.0,
        2575.0,
        2580.0,
        2585.0,
        2590.0,
        2595.0,
        2600.0,
        2605.0,
        2610.0,
        2615.0,
        2620.0,
        2625.0,
        2630.0,
        2635.0,
        2640.0,
        2645.0,
        2650.0,
        2655.0,
        2660.0,
        2665.0,
        2670.0,
        2675.0,
        2680.0,
        2685.0,
        2690.0,
        2695.0,
        2700.0,
        2705.0,
        2710.0,
        2715.0,
        2720.0,
        2725.0,
        2730.0,
        2735.0,
        2740.0,
        2745.0,
        2750.0,
        2755.0,
        2760.0,
        2765.0,
        2770.0,
        2775.0,
        2780.0,
        2785.0,
        2790.0,
        2795.0,
        2800.0,
        2805.0,
        2810.0,
        2815.0,
        2820.0,
        2825.0,
        2830.0,
        2835.0,
        2840.0,
        2845.0,
        2850.0,
        2855.0,
        2860.0,
        2865.0,
        2870.0,
        2875.0,
        2880.0,
        2885.0,
        2890.0,
        2895.0,
        2900.0,
        2905.0,
        2910.0,
        2915.0,
        2920.0,
        2925.0,
        2930.0,
        2935.0,
        2940.0,
        2945.0,
        2950.0,
        2955.0,
        2960.0,
        2965.0,
        2970.0,
        2975.0,
        2980.0,
        2985.0,
        2990.0,
        2995.0,
        3000.0,
        3005.0,
        3010.0,
        3015.0,
        3020.0,
        3025.0,
        3030.0,
        3035.0,
        3040.0,
        3045.0,
        3050.0,
        3055.0,
        3060.0,
        3065.0,
        3070.0,
        3075.0,
        3080.0,
        3085.0,
        3090.0,
        3095.0,
        3100.0,
        3105.0,
        3110.0,
        3115.0,
        3120.0,
        3125.0,
        3130.0,
        3135.0,
        3140.0,
        3145.0,
        3150.0,
        3155.0,
        3160.0,
        3165.0,
        3170.0,
        3175.0,
        3180.0,
        3185.0,
        3190.0,
        3195.0,
        3200.0,
        3205.0,
        3210.0,
        3215.0,
        3220.0,
        3225.0,
        3230.0,
        3235.0,
        3240.0,
        3245.0,
        3250.0,
        3255.0,
        3260.0,
        3265.0,
        3270.0,
        3275.0,
        3280.0,
        3285.0,
        3290.0,
        3295.0,
        3300.0,
        3305.0,
        3310.0,
        3315.0,
        3320.0,
        3325.0,
        3330.0,
        3335.0,
        3340.0,
        3345.0,
        3350.0,
        3355.0,
        3360.0,
        3365.0,
        3370.0,
        3375.0,
        3380.0,
        3385.0,
        3390.0,
        3395.0,
        3400.0,
        3405.0,
        3410.0,
        3415.0,
        3420.0,
        3425.0,
        3430.0,
        3435.0,
        3440.0,
        3445.0,
        3450.0,
        3455.0,
        3460.0,
        3465.0,
        3470.0,
        3475.0,
        3480.0,
        3485.0,
        3490.0,
        3495.0,
        3500.0,
        3505.0,
        3510.0,
        3515.0,
        3520.0,
        3525.0,
        3530.0,
        3535.0,
        3540.0,
        3545.0,
        3550.0,
        3555.0,
        3560.0,
        3565.0,
        3570.0,
        3575.0,
        3580.0,
        3585.0,
        3590.0,
        3595.0,
        3600.0,
        3605.0,
        3610.0,
        3615.0,
        3620.0,
        3625.0,
        3630.0,
        3635.0,
        3640.0,
        3645.0,
        3650.0,
        3655.0,
        3660.0,
        3665.0,
        3670.0,
        3675.0,
        3680.0,
        3685.0,
        3690.0,
        3695.0,
        3700.0,
        3705.0,
        3710.0,
        3715.0,
        3720.0,
        3725.0,
        3730.0,
        3735.0,
        3740.0,
        3745.0,
        3750.0,
        3755.0,
        3760.0,
        3765.0,
        3770.0,
        3775.0,
        3780.0,
        3785.0,
        3790.0,
        3795.0,
        3800.0,
        3805.0,
        3810.0,
        3815.0,
        3820.0,
        3825.0,
        3830.0,
        3835.0,
        3840.0,
        3845.0,
        3850.0,
        3855.0,
        3860.0,
        3865.0,
        3870.0,
        3875.0,
        3880.0,
        3885.0,
        3890.0,
        3895.0,
        3900.0,
        3905.0,
        3910.0,
        3915.0,
        3920.0,
        3925.0,
        3930.0,
        3935.0,
        3940.0,
        3945.0,
        3950.0,
        3955.0,
        3960.0,
        3965.0,
        3970.0,
        3975.0,
        3980.0,
        3985.0,
        3990.0,
        3995.0,
        4000.0,
        4005.0,
        4010.0,
        4015.0,
        4020.0,
        4025.0,
        4030.0,
        4035.0,
        4040.0,
        4045.0,
        4050.0,
        4055.0,
        4060.0,
        4065.0,
        4070.0,
        4075.0,
        4080.0,
        4085.0,
        4090.0,
        4095.0,
        4100.0,
        4105.0,
        4110.0,
        4115.0,
        4120.0,
        4125.0,
        4130.0,
        4135.0,
        4140.0,
        4145.0,
        4150.0,
        4155.0,
        4160.0,
        4165.0,
        4170.0,
        4175.0,
        4180.0,
        4185.0,
        4190.0,
        4195.0,
        4200.0,
        4205.0,
        4210.0,
        4215.0,
        4220.0,
        4225.0,
        4230.0,
        4235.0,
        4240.0,
        4245.0,
        4250.0,
        4255.0,
        4260.0,
        4265.0,
        4270.0,
        4275.0,
        4280.0,
        4285.0,
        4290.0,
        4295.0,
        4300.0,
        4305.0,
        4310.0,
        4315.0,
        4320.0,
        4325.0,
        4330.0,
        4335.0,
        4340.0,
        4345.0,
        4350.0,
        4355.0,
        4360.0,
        4365.0,
        4370.0,
        4375.0,
        4380.0,
        4385.0,
        4390.0,
        4395.0,
        4400.0,
        4405.0,
        4410.0,
        4415.0,
        4420.0,
        4425.0,
        4430.0,
        4435.0,
        4440.0,
        4445.0,
        4450.0,
        4455.0,
        4460.0,
        4465.0,
        4470.0,
        4475.0,
        4480.0,
        4485.0,
        4490.0,
        4495.0,
        4500.0,
        4505.0,
        4510.0,
        4515.0,
        4520.0,
        4525.0,
        4530.0,
        4535.0,
        4540.0,
        4545.0,
        4550.0,
        4555.0,
        4560.0,
        4565.0,
        4570.0,
        4575.0,
        4580.0,
        4585.0,
        4590.0,
        4595.0,
        4600.0,
        4605.0,
        4610.0,
        4615.0,
        4620.0,
        4625.0,
        4630.0,
        4635.0,
        4640.0,
        4645.0,
        4650.0,
        4655.0,
        4660.0,
        4665.0,
        4670.0,
        4675.0,
        4680.0,
        4685.0,
        4690.0,
        4695.0,
        4700.0,
        4705.0,
        4710.0,
        4715.0,
        4720.0,
        4725.0,
        4730.0,
        4735.0,
        4740.0,
        4745.0,
        4750.0,
        4755.0,
        4760.0,
        4765.0,
        4770.0,
        4775.0,
        4780.0,
        4785.0,
        4790.0,
        4795.0,
        4800.0,
        4805.0,
        4810.0,
        4815.0,
        4820.0,
        4825.0,
        4830.0,
        4835.0,
        4840.0,
        4845.0,
        4850.0,
        4855.0,
        4860.0,
        4865.0,
        4870.0,
        4875.0,
        4880.0,
        4885.0,
        4890.0,
        4895.0,
        4900.0,
        4905.0,
        4910.0,
        4915.0,
        4920.0,
        4925.0,
        4930.0,
        4935.0,
        4940.0,
        4945.0,
        4950.0,
        4955.0,
        4960.0,
        4965.0,
        4970.0,
        4975.0,
        4980.0,
        4985.0,
        4990.0,
        4995.0,
        5000.0,
        5005.0,
        5010.0,
        5015.0,
        5020.0,
        5025.0,
        5030.0,
        5035.0,
        5040.0,
        5045.0,
        5050.0,
        5055.0,
        5060.0,
        5065.0,
        5070.0,
        5075.0,
        5080.0,
        5085.0,
        5090.0,
        5095.0,
        5100.0,
        5105.0,
        5110.0,
        5115.0,
        5120.0,
        5125.0,
        5130.0,
        5135.0,
        5140.0,
        5145.0,
        5150.0,
        5155.0,
        5160.0,
        5165.0,
        5170.0,
        5175.0,
        5180.0,
        5185.0,
        5190.0,
        5195.0,
        5200.0,
        5205.0,
        5210.0,
        5215.0,
        5220.0,
        5225.0,
        5230.0,
        5235.0,
        5240.0,
        5245.0,
        5250.0,
        5255.0,
        5260.0,
        5265.0,
        5270.0,
        5275.0,
        5280.0,
        5285.0,
        5290.0,
        5295.0,
        5300.0,
        5305.0,
        5310.0,
        5315.0,
        5320.0,
        5325.0,
        5330.0,
        5335.0,
        5340.0,
        5345.0,
        5350.0,
        5355.0,
        5360.0,
        5365.0,
        5370.0,
        5375.0,
        5380.0,
        5385.0,
        5390.0,
        5395.0,
        5400.0,
        5405.0,
        5410.0,
        5415.0,
        5420.0,
        5425.0,
        5430.0,
        5435.0,
        5440.0,
        5445.0,
        5450.0,
        5455.0,
        5460.0,
        5465.0,
        5470.0,
        5475.0,
        5480.0,
        5485.0,
        5490.0,
        5495.0,
        5500.0,
        5505.0,
        5510.0,
        5515.0,
        5520.0,
        5525.0,
        5530.0,
        5535.0,
        5540.0,
        5545.0,
        5550.0,
        5555.0,
        5560.0,
        5565.0,
        5570.0,
        5575.0,
        5580.0,
        5585.0,
        5590.0,
        5595.0,
        5600.0,
        5605.0,
        5610.0,
        5615.0,
        5620.0,
        5625.0,
        5630.0,
        5635.0,
        5640.0,
        5645.0,
        5650.0,
        5655.0,
        5660.0,
        5665.0,
        5670.0,
        5675.0,
        5680.0,
        5685.0,
        5690.0,
        5695.0,
        5700.0,
        5705.0,
        5710.0,
        5715.0,
        5720.0,
        5725.0,
        5730.0,
        5735.0,
        5740.0,
        5745.0,
        5750.0,
        5755.0,
        5760.0,
        5765.0,
        5770.0,
        5775.0,
        5780.0,
        5785.0,
        5790.0,
        5795.0,
        5800.0,
        5805.0,
        5810.0,
        5815.0,
        5820.0,
        5825.0,
        5830.0,
        5835.0,
        5840.0,
        5845.0,
        5850.0,
        5855.0,
        5860.0,
        5865.0,
        5870.0,
        5875.0,
        5880.0,
        5885.0,
        5890.0,
        5895.0,
        5900.0,
        5905.0,
        5910.0,
        5915.0,
        5920.0,
        5925.0,
        5930.0,
        5935.0,
        5940.0,
        5945.0,
        5950.0,
        5955.0,
        5960.0,
        5965.0,
        5970.0,
        5975.0,
        5980.0,
        5985.0,
        5990.0,
        5995.0,
        6000.0,
        6005.0,
        6010.0,
        6015.0,
        6020.0,
        6025.0,
        6030.0,
        6035.0,
        6040.0,
        6045.0,
        6050.0,
        6055.0,
        6060.0,
        6065.0,
        6070.0,
        6075.0,
        6080.0,
        6085.0,
        6090.0,
        6095.0,
        6100.0,
        6105.0,
        6110.0,
        6115.0,
        6120.0,
        6125.0,
        6130.0,
        6135.0,
        6140.0,
        6145.0,
        6150.0,
        6155.0,
        6160.0,
        6165.0,
        6170.0,
        6175.0,
        6180.0,
        6185.0,
        6190.0,
        6195.0,
        6200.0,
        6205.0,
        6210.0,
        6215.0,
        6220.0,
        6225.0,
        6230.0,
        6235.0,
        6240.0,
        6245.0,
        6250.0,
        6255.0,
        6260.0,
        6265.0,
        6270.0,
        6275.0,
        6280.0,
        6285.0,
        6290.0,
        6295.0,
        6300.0,
        6305.0,
        6310.0,
        6315.0,
        6320.0,
        6325.0,
        6330.0,
        6335.0,
        6340.0,
        6345.0,
        6350.0,
        6355.0,
        6360.0,
        6365.0,
        6370.0,
        6375.0,
        6380.0,
        6385.0,
        6390.0,
        6395.0,
        6400.0,
        6405.0,
        6410.0,
        6415.0,
        6420.0,
        6425.0,
        6430.0,
        6435.0,
        6440.0,
        6445.0,
        6450.0,
        6455.0,
        6460.0,
        6465.0,
        6470.0,
        6475.0,
        6480.0,
        6485.0,
        6490.0,
        6495.0,
        6500.0,
        6505.0,
        6510.0,
        6515.0,
        6520.0,
        6525.0,
        6530.0,
        6535.0,
        6540.0,
        6545.0,
        6550.0,
        6555.0,
        6560.0,
        6565.0,
        6570.0,
        6575.0,
        6580.0,
        6585.0,
        6590.0,
        6595.0,
        6600.0,
        6605.0,
        6610.0,
        6615.0,
        6620.0,
        6625.0,
        6630.0,
        6635.0,
        6640.0,
        6645.0,
        6650.0,
        6655.0,
        6660.0,
        6665.0,
        6670.0,
        6675.0,
        6680.0,
        6685.0,
        6690.0,
        6695.0,
        6700.0,
        6705.0,
        6710.0,
        6715.0,
        6720.0,
        6725.0,
        6730.0,
        6735.0,
        6740.0,
        6745.0,
        6750.0,
        6755.0,
        6760.0,
        6765.0,
        6770.0,
        6775.0,
        6780.0,
        6785.0,
        6790.0,
        6795.0,
        6800.0,
        6805.0,
        6810.0,
        6815.0,
        6820.0,
        6825.0,
        6830.0,
        6835.0,
        6840.0,
        6845.0,
        6850.0,
        6855.0,
        6860.0,
        6865.0,
        6870.0,
        6875.0,
        6880.0,
        6885.0,
        6890.0,
        6895.0,
        6900.0,
        6905.0,
        6910.0,
        6915.0,
        6920.0,
        6925.0,
        6930.0,
        6935.0,
        6940.0,
        6945.0,
        6950.0,
        6955.0,
        6960.0,
        6965.0,
        6970.0,
        6975.0,
        6980.0,
        6985.0,
        6990.0,
        6995.0,
        7000.0,
        7005.0,
        7010.0,
        7015.0,
        7020.0,
        7025.0,
        7030.0,
        7035.0,
        7040.0,
        7045.0,
        7050.0,
        7055.0,
        7060.0,
        7065.0,
        7070.0,
        7075.0,
        7080.0,
        7085.0,
        7090.0,
        7095.0,
        7100.0,
        7105.0,
        7110.0,
        7115.0,
        7120.0,
        7125.0,
        7130.0,
        7135.0,
        7140.0,
        7145.0,
        7150.0,
        7155.0,
        7160.0,
        7165.0,
        7170.0,
        7175.0,
        7180.0,
        7185.0,
        7190.0,
        7195.0,
        7200.0,
        7205.0,
        7210.0,
        7215.0,
        7220.0,
        7225.0,
        7230.0,
        7235.0,
        7240.0,
        7245.0,
        7250.0,
        7255.0,
        7260.0,
        7265.0,
        7270.0,
        7275.0,
        7280.0,
        7285.0,
        7290.0,
        7295.0,
        7300.0,
        7305.0,
        7310.0,
        7315.0,
        7320.0,
        7325.0,
        7330.0,
        7335.0,
        7340.0,
        7345.0,
        7350.0,
        7355.0,
        7360.0,
        7365.0,
        7370.0,
        7375.0,
        7380.0,
        7385.0,
        7390.0,
        7395.0,
        7400.0,
        7405.0,
        7410.0,
        7415.0,
        7420.0,
        7425.0,
        7430.0,
        7435.0,
        7440.0,
        7445.0,
        7450.0,
        7455.0,
        7460.0,
        7465.0,
        7470.0,
        7475.0,
        7480.0,
        7485.0,
        7490.0,
        7495.0,
        7500.0,
        7505.0,
        7510.0,
        7515.0,
        7520.0,
        7525.0,
        7530.0,
        7535.0,
        7540.0,
        7545.0,
        7550.0,
        7555.0,
        7560.0,
        7565.0,
        7570.0,
        7575.0,
        7580.0,
        7585.0,
        7590.0,
        7595.0,
        7600.0,
        7605.0,
        7610.0,
        7615.0,
        7620.0,
        7625.0,
        7630.0,
        7635.0,
        7640.0,
        7645.0,
        7650.0,
        7655.0,
        7660.0,
        7665.0,
        7670.0,
        7675.0,
        7680.0,
        7685.0,
        7690.0,
        7695.0,
        7700.0,
        7705.0,
        7710.0,
        7715.0,
        7720.0,
        7725.0,
        7730.0,
        7735.0,
        7740.0,
        7745.0,
        7750.0,
        7755.0,
        7760.0,
        7765.0,
        7770.0,
        7775.0,
        7780.0,
        7785.0,
        7790.0,
        7795.0,
        7800.0,
        7805.0,
        7810.0,
        7815.0,
        7820.0,
        7825.0,
        7830.0,
        7835.0,
        7840.0,
        7845.0,
        7850.0,
        7855.0,
        7860.0,
        7865.0,
        7870.0,
        7875.0,
        7880.0,
        7885.0,
        7890.0,
        7895.0,
        7900.0,
        7905.0,
        7910.0,
        7915.0,
        7920.0,
        7925.0,
        7930.0,
        7935.0,
        7940.0,
        7945.0,
        7950.0,
        7955.0,
        7960.0,
        7965.0,
        7970.0,
        7975.0,
        7980.0,
        7985.0,
        7990.0,
        7995.0,
        8000.0,
        8005.0,
        8010.0,
        8015.0,
        8020.0,
        8025.0,
        8030.0,
        8035.0,
        8040.0,
        8045.0,
        8050.0,
        8055.0,
        8060.0,
        8065.0,
        8070.0,
        8075.0,
        8080.0,
        8085.0,
        8090.0,
        8095.0,
        8100.0,
        8105.0,
        8110.0,
        8115.0,
        8120.0,
        8125.0,
        8130.0,
        8135.0,
        8140.0,
        8145.0,
        8150.0,
        8155.0,
        8160.0,
        8165.0,
        8170.0,
        8175.0,
        8180.0,
        8185.0,
        8190.0,
        8195.0,
        8200.0,
        8205.0,
        8210.0,
        8215.0,
        8220.0,
        8225.0,
        8230.0,
        8235.0,
        8240.0,
        8245.0,
        8250.0,
        8255.0,
        8260.0,
        8265.0,
        8270.0,
        8275.0,
        8280.0,
        8285.0,
        8290.0,
        8295.0,
        8300.0,
        8305.0,
        8310.0,
        8315.0,
        8320.0,
        8325.0,
        8330.0,
        8335.0,
        8340.0,
        8345.0,
        8350.0,
        8355.0,
        8360.0,
        8365.0,
        8370.0,
        8375.0,
        8380.0,
        8385.0,
        8390.0,
        8395.0,
        8400.0,
        8405.0,
        8410.0,
        8415.0,
        8420.0,
        8425.0,
        8430.0,
        8435.0,
        8440.0,
        8445.0,
        8450.0,
        8455.0,
        8460.0,
        8465.0,
        8470.0,
        8475.0,
        8480.0,
        8485.0,
        8490.0,
        8495.0,
        8500.0,
        8505.0,
        8510.0,
        8515.0,
        8520.0,
        8525.0,
        8530.0,
        8535.0,
        8540.0,
        8545.0,
        8550.0,
        8555.0,
        8560.0,
        8565.0,
        8570.0,
        8575.0,
        8580.0,
        8585.0,
        8590.0,
        8595.0,
        8600.0,
        8605.0,
        8610.0,
        8615.0,
        8620.0,
        8625.0,
        8630.0,
        8635.0,
        8640.0,
        8645.0,
        8650.0,
        8655.0,
        8660.0,
        8665.0,
        8670.0,
        8675.0,
        8680.0,
        8685.0,
        8690.0,
        8695.0,
        8700.0,
        8705.0,
        8710.0,
        8715.0,
        8720.0,
        8725.0,
        8730.0,
        8735.0,
        8740.0,
        8745.0,
        8750.0,
        8755.0,
        8760.0,
        8765.0,
        8770.0,
        8775.0,
        8780.0,
        8785.0,
        8790.0,
        8795.0,
        8800.0,
        8805.0,
        8810.0,
        8815.0,
        8820.0,
        8825.0,
        8830.0,
        8835.0,
        8840.0,
        8845.0,
        8850.0,
        8855.0,
        8860.0,
        8865.0,
        8870.0,
        8875.0,
        8880.0,
        8885.0,
        8890.0,
        8895.0,
        8900.0,
        8905.0,
        8910.0,
        8915.0,
        8920.0,
        8925.0,
        8930.0,
        8935.0,
        8940.0,
        8945.0,
        8950.0,
        8955.0,
        8960.0,
        8965.0,
        8970.0,
        8975.0,
        8980.0,
        8985.0,
        8990.0,
        8995.0,
        9000.0,
        9005.0,
        9010.0,
        9015.0,
        9020.0,
        9025.0,
        9030.0,
        9035.0,
        9040.0,
        9045.0,
        9050.0,
        9055.0,
        9060.0,
        9065.0,
        9070.0,
        9075.0,
        9080.0,
        9085.0,
        9090.0,
        9095.0,
        9100.0,
        9105.0,
        9110.0,
        9115.0,
        9120.0,
        9125.0,
        9130.0,
        9135.0,
        9140.0,
        9145.0,
        9150.0,
        9155.0,
        9160.0,
        9165.0,
        9170.0,
        9175.0,
        9180.0,
        9185.0,
        9190.0,
        9195.0,
        9200.0,
        9205.0,
        9210.0,
        9215.0,
        9220.0,
        9225.0,
        9230.0,
        9235.0,
        9240.0,
        9245.0,
        9250.0,
        9255.0,
        9260.0,
        9265.0,
        9270.0,
        9275.0,
        9280.0,
        9285.0,
        9290.0,
        9295.0,
        9300.0,
        9305.0,
        9310.0,
        9315.0,
        9320.0,
        9325.0,
        9330.0,
        9335.0,
        9340.0,
        9345.0,
        9350.0,
        9355.0,
        9360.0,
        9365.0,
        9370.0,
        9375.0,
        9380.0,
        9385.0,
        9390.0,
        9395.0,
        9400.0,
        9405.0,
        9410.0,
        9415.0,
        9420.0,
        9425.0,
        9430.0,
        9435.0,
        9440.0,
        9445.0,
        9450.0,
        9455.0,
        9460.0,
        9465.0,
        9470.0,
        9475.0,
        9480.0,
        9485.0,
        9490.0,
        9495.0,
        9500.0,
        9505.0,
        9510.0,
        9515.0,
        9520.0,
        9525.0,
        9530.0,
        9535.0,
        9540.0,
        9545.0,
        9550.0,
        9555.0,
        9560.0,
        9565.0,
        9570.0,
        9575.0,
        9580.0,
        9585.0,
        9590.0,
        9595.0,
        9600.0,
        9605.0,
        9610.0,
        9615.0,
        9620.0,
        9625.0,
        9630.0,
        9635.0,
        9640.0,
        9645.0,
        9650.0,
        9655.0,
        9660.0,
        9665.0,
        9670.0,
        9675.0,
        9680.0,
        9685.0,
        9690.0,
        9695.0,
        9700.0,
        9705.0,
        9710.0,
        9715.0,
        9720.0,
        9725.0,
        9730.0,
        9735.0,
        9740.0,
        9745.0,
        9750.0,
        9755.0,
        9760.0,
        9765.0,
        9770.0,
        9775.0,
        9780.0,
        9785.0,
        9790.0,
        9795.0,
        9800.0,
        9805.0,
        9810.0,
        9815.0,
        9820.0,
        9825.0,
        9830.0,
        9835.0,
        9840.0,
        9845.0,
        9850.0,
        9855.0,
        9860.0,
        9865.0,
        9870.0,
        9875.0,
        9880.0,
        9885.0,
        9890.0,
        9895.0,
        9900.0,
        9905.0,
        9910.0,
        9915.0,
        9920.0,
        9925.0,
        9930.0,
        9935.0,
        9940.0,
        9945.0,
        9950.0,
        9955.0,
        9960.0,
        9965.0,
        9970.0,
        9975.0,
        9980.0,
        9985.0,
        9990.0,
        9995.0,
        10000.0,
        10005.0,
        10010.0,
        10015.0,
        10020.0,
        10025.0,
        10030.0,
        10035.0,
        10040.0,
        10045.0,
        10050.0,
        10055.0,
        10060.0,
        10065.0,
        10070.0,
        10075.0,
        10080.0,
        10085.0,
        10090.0,
        10095.0,
        10100.0,
        10105.0,
        10110.0,
        10115.0,
        10120.0,
        10125.0,
        10130.0,
        10135.0,
        10140.0,
        10145.0,
        10150.0,
        10155.0,
        10160.0,
        10165.0,
        10170.0,
        10175.0,
        10180.0,
        10185.0,
        10190.0,
        10195.0,
        10200.0,
        10205.0,
        10210.0,
        10215.0,
        10220.0,
        10225.0,
        10230.0,
        10235.0,
        10240.0,
        10245.0,
        10250.0,
        10255.0,
        10260.0,
        10265.0,
        10270.0,
        10275.0,
        10280.0,
        10285.0,
        10290.0,
        10295.0,
        10300.0,
        10305.0,
        10310.0,
        10315.0,
        10320.0,
        10325.0,
        10330.0,
        10335.0,
        10340.0,
        10345.0,
        10350.0,
        10355.0,
        10360.0,
        10365.0,
        10370.0,
        10375.0,
        10380.0,
        10385.0,
        10390.0,
        10395.0,
        10400.0,
        10405.0,
        10410.0,
        10415.0,
        10420.0,
        10425.0,
        10430.0,
        10435.0,
        10440.0,
        10445.0,
        10450.0,
        10455.0,
        10460.0,
        10465.0,
        10470.0,
        10475.0,
        10480.0,
        10485.0,
        10490.0,
        10495.0,
        10500.0
      ],
      "units":"angstrom"
    },
    "values":{
      "value":[
        0.0,
        0.0,
        0.0,
        0.0,
        0.0,
        0.0,
        0.0,
        0.0,
        0.0,
        0.0,
        0.0,
        0.0,
        0.0,
        0.0,
        0.0,
        0.0,
        0.0,
        0.0,
        0.0,
        0.0,
        0.0,
        0.0,
        0.0,
        0.0,
        0.0,
        0.0,
        0.0,
        0.0,
        0.0,
        0.0,
        0.0,
        0.0,
        0.0,
        0.0,
        0.0,
        0.0,
        0.0,
        0.0,
        0.0,
        0.0,
        0.0,
        0.0,
        0.0,
        0.0,
        0.0,
        0.0,
        0.0,
        0.0,
        0.0,
        0.0,
        0.0,
        0.0,
        0.0,
        0.0,
        0.0,
        0.0,
        0.0,
        0.0,
        0.0,
        0.0,
        0.0,
        0.0,
        0.0,
        0.0,
        0.0,
        0.0,
        0.0,
        0.0,
        0.0,
        0.0,
        0.0,
        0.0,
        0.0,
        0.0,
        0.0,
        0.0,
        0.0,
        0.0,
        0.0,
        0.0,
        0.0,
        0.0,
        0.0,
        0.0,
        0.0,
        0.0,
        0.0,
        0.0,
        0.0,
        0.0,
        0.0,
        0.0,
        0.0,
        0.0,
        0.0,
        0.0,
        0.0,
        0.0,
        0.0,
        0.0,
        0.0,
        0.0,
        0.0,
        0.0,
        0.0,
        0.0,
        0.0,
        0.0,
        0.0,
        0.0,
        0.0,
        0.0,
        0.0,
        0.0,
        0.0,
        0.0,
        0.0,
        0.0,
        0.0,
        0.0,
        0.0,
        0.0,
        0.0,
        0.0,
        0.0,
        0.0,
        0.0,
        0.0,
        0.0,
        0.0,
        0.0,
        0.0,
        0.0,
        0.0,
        0.0,
        0.0,
        0.0,
        0.0,
        0.0,
        0.0,
        0.0,
        0.0,
        0.0,
        0.0,
        0.0,
        0.0,
        0.0,
        0.0,
        0.0,
        0.0,
        0.0,
        0.0,
        0.0,
        0.0,
        0.0,
        0.0,
        0.0,
        0.0,
        0.0,
        0.0,
        0.0,
        0.0,
        0.0,
        0.0,
        0.0,
        0.0,
        0.0,
        0.0,
        0.0,
        0.0,
        0.0,
        0.0,
        0.0,
        0.0,
        0.0,
        0.0,
        0.0,
        0.0,
        0.0,
        0.0,
        0.0,
        0.0,
        0.0,
        0.0,
        0.0,
        0.0,
        0.0,
        0.0,
        0.0,
        0.0,
        0.0,
        0.0,
        0.0,
        0.0,
        0.0,
        0.0,
        0.0,
        0.0,
        0.0,
        0.0,
        0.0,
        0.0,
        0.0,
        0.0,
        0.0,
        0.0,
        0.0,
        0.0,
        0.0,
        0.0,
        0.0,
        0.0,
        0.0,
        0.0,
        0.0,
        0.0,
        0.0,
        0.0,
        0.0,
        0.0,
        0.0,
        0.0,
        0.0,
        0.0,
        0.0,
        0.0,
        0.0,
        0.0,
        0.0,
        0.0,
        0.0,
        0.0,
        0.0,
        0.0,
        0.0,
        0.0,
        0.0,
        0.0,
        0.0,
        0.0,
        0.0,
        0.0,
        0.0,
        0.0,
        0.0,
        0.0,
        0.0,
        0.0,
        0.0,
        0.0,
        0.0,
        0.0,
        0.0,
        0.0,
        0.0,
        0.0,
        0.0,
        0.0,
        0.0,
        0.0,
        0.0,
        0.0,
        0.0,
        0.0,
        0.0,
        0.0,
        0.0,
        0.0,
        0.0,
        0.0,
        0.0,
        0.0,
        1e-06,
        2e-06,
        2e-06,
        2e-06,
        3e-06,
        2e-06,
        2e-06,
        1e-06,
        0.0,
        0.0,
        0.0,
        0.0,
        0.0,
        0.0,
        0.0,
        0.0,
        0.0,
        0.0,
        0.0,
        6e-06,
        1.4e-05,
        2.2e-05,
        2.8e-05,
        3.4e-05,
        3.6e-05,
        3.5e-05,
        2.9e-05,
        1.8e-05,
        0.0,
        0.0,
        0.0,
        0.0,
        0.0,
        0.0,
        0.0,
        0.0,
        0.0,
        0.0,
        0.0,
        9.2e-05,
        0.000211,
        0.000354,
        0.000521,
        0.00071,
        0.00092,
        0.00115,
        0.001398,
        0.001664,
        0.001945,
        0.002239,
        0.002539,
        0.002832,
        0.00311,
        0.003363,
        0.00358,
        0.003751,
        0.003866,
        0.003916,
        0.00389,
        0.003782,
        0.003607,
        0.003382,
        0.003126,
        0.002857,
        0.002592,
        0.00235,
        0.00215,
        0.002009,
        0.001945,
        0.001971,
        0.002077,
        0.002247,
        0.002464,
        0.002714,
        0.00298,
        0.003247,
        0.003498,
        0.003717,
        0.00389,
        0.004004,
        0.004072,
        0.004109,
        0.004131,
        0.004155,
        0.004196,
        0.004272,
        0.004397,
        0.004588,
        0.004862,
        0.005229,
        0.005674,
        0.006178,
        0.006723,
        0.007287,
        0.007852,
        0.008397,
        0.008905,
        0.009353,
        0.009724,
        0.010005,
        0.010209,
        0.010359,
        0.010475,
        0.010579,
        0.010693,
        0.010838,
        0.011034,
        0.011304,
        0.011669,
        0.012143,
        0.012708,
        0.013339,
        0.014011,
        0.014699,
        0.015378,
        0.016023,
        0.016609,
        0.017111,
        0.017504,
        0.017771,
        0.017931,
        0.018009,
        0.018031,
        0.018025,
        0.018015,
        0.01803,
        0.018094,
        0.018234,
        0.018476,
        0.018839,
        0.019302,
        0.019839,
        0.020422,
        0.021023,
        0.021615,
        0.02217,
        0.022661,
        0.043527,
        0.061149,
        0.058393,
        0.055157,
        0.052547,
        0.047399,
        0.038059,
        0.033174,
        0.039588,
        0.046608,
        0.043382,
        0.035939,
        0.032433,
        0.03263,
        0.034186,
        0.034698,
        0.032988,
        0.032823,
        0.037276,
        0.041684,
        0.041332,
        0.039032,
        0.038362,
        0.038448,
        0.037707,
        0.036177,
        0.034418,
        0.033467,
        0.034253,
        0.036808,
        0.04032,
        0.041522,
        0.03816,
        0.034498,
        0.034632,
        0.035467,
        0.033521,
        0.030937,
        0.030656,
        0.033149,
        0.037765,
        0.041814,
        0.043351,
        0.045441,
        0.050954,
        0.056967,
        0.059632,
        0.057214,
        0.049811,
        0.042755,
        0.041138,
        0.043861,
        0.048007,
        0.049567,
        0.046016,
        0.041839,
        0.041462,
        0.042066,
        0.040508,
        0.039606,
        0.042756,
        0.049727,
        0.058448,
        0.063117,
        0.059684,
        0.054821,
        0.055725,
        0.060963,
        0.066775,
        0.068733,
        0.064019,
        0.056926,
        0.052113,
        0.048586,
        0.044428,
        0.039688,
        0.035335,
        0.034047,
        0.037395,
        0.040816,
        0.040228,
        0.039594,
        0.063563,
        0.063283,
        0.062101,
        0.060941,
        0.060377,
        0.060824,
        0.061844,
        0.062405,
        0.062868,
        0.065972,
        0.073595,
        0.082504,
        0.087969,
        0.088338,
        0.084686,
        0.081185,
        0.08172,
        0.085287,
        0.088318,
        0.08798,
        0.083555,
        0.077639,
        0.073453,
        0.070387,
        0.066038,
        0.060943,
        0.056828,
        0.054483,
        0.054927,
        0.058024,
        0.062445,
        0.068056,
        0.075207,
        0.083424,
        0.091573,
        0.09532,
        0.090879,
        0.082603,
        0.076524,
        0.07355,
        0.072912,
        0.072511,
        0.069411,
        0.063758,
        0.057687,
        0.053572,
        0.053761,
        0.057879,
        0.063293,
        0.067427,
        0.068627,
        0.067525,
        0.066093,
        0.065052,
        0.064537,
        0.066575,
        0.072349,
        0.079107,
        0.084629,
        0.089726,
        0.095244,
        0.10028,
        0.102031,
        0.096224,
        0.081181,
        0.063135,
        0.051316,
        0.05168,
        0.064754,
        0.080598,
        0.087321,
        0.082755,
        0.071973,
        0.066727,
        0.077463,
        0.100708,
        0.127122,
        0.15008,
        0.166137,
        0.177844,
        0.189845,
        0.203122,
        0.215177,
        0.220569,
        0.21592,
        0.206156,
        0.199188,
        0.199817,
        0.208211,
        0.217787,
        0.221296,
        0.217249,
        0.20961,
        0.208004,
        0.219636,
        0.240306,
        0.260426,
        0.270109,
        0.264283,
        0.250258,
        0.238626,
        0.233808,
        0.235697,
        0.239729,
        0.240515,
        0.236851,
        0.230513,
        0.225291,
        0.22457,
        0.228441,
        0.234811,
        0.239442,
        0.239774,
        0.239898,
        0.24385,
        0.249557,
        0.253145,
        0.252304,
        0.247838,
        0.246313,
        0.252771,
        0.260202,
        0.259404,
        0.252084,
        0.244505,
        0.245856,
        0.263076,
        0.284634,
        0.296483,
        0.302459,
        0.307984,
        0.309461,
        0.305135,
        0.298469,
        0.293283,
        0.292738,
        0.295326,
        0.289401,
        0.268814,
        0.251856,
        0.258492,
        0.285686,
        0.322222,
        0.356921,
        0.380445,
        0.39674,
        0.412558,
        0.422038,
        0.421573,
        0.423809,
        0.437919,
        0.454776,
        0.461722,
        0.451693,
        0.425435,
        0.398705,
        0.38656,
        0.38725,
        0.39396,
        0.402065,
        0.409,
        0.418624,
        0.433479,
        0.44448,
        0.445198,
        0.446979,
        0.461035,
        0.480404,
        0.492644,
        0.492204,
        0.480266,
        0.469143,
        0.473929,
        0.497362,
        0.531862,
        0.561046,
        0.570681,
        0.568617,
        0.571325,
        0.584471,
        0.606416,
        0.62642,
        0.629838,
        0.613775,
        0.584868,
        0.556957,
        0.545286,
        0.553216,
        0.575296,
        0.60252,
        0.625656,
        0.640844,
        0.648889,
        0.651862,
        0.651208,
        0.647525,
        0.640991,
        0.633916,
        0.630877,
        0.637445,
        0.657164,
        0.685394,
        0.713188,
        0.731375,
        0.732307,
        0.715017,
        0.685592,
        0.658405,
        0.646982,
        0.6519,
        0.665781,
        0.67813,
        0.680992,
        0.676387,
        0.67118,
        0.670553,
        0.675597,
        0.681037,
        0.681575,
        0.679052,
        0.678557,
        0.684133,
        0.695709,
        0.705224,
        0.705809,
        0.701834,
        0.701323,
        0.707959,
        0.71964,
        0.726341,
        0.719413,
        0.703866,
        0.68963,
        0.680186,
        0.675719,
        0.677086,
        0.683533,
        0.6929,
        0.704536,
        0.716333,
        0.725975,
        0.735461,
        0.745194,
        0.750026,
        0.747083,
        0.740424,
        0.73516,
        0.734167,
        0.736833,
        0.736259,
        0.727472,
        0.715732,
        0.70766,
        0.703852,
        0.703369,
        0.707186,
        0.717197,
        0.734881,
        0.758836,
        0.78093,
        0.791874,
        0.789075,
        0.775819,
        0.761541,
        0.756718,
        0.76527,
        0.784406,
        0.805147,
        0.817567,
        0.815181,
        0.798727,
        0.781718,
        0.775388,
        0.773218,
        0.765871,
        0.754615,
        0.744325,
        0.738153,
        0.735875,
        0.730349,
        0.715909,
        0.699671,
        0.692195,
        0.696577,
        0.710344,
        0.724819,
        0.73145,
        0.731588,
        0.731845,
        0.737539,
        0.749795,
        0.762202,
        0.765477,
        0.754361,
        0.731588,
        0.71101,
        0.704974,
        0.709625,
        0.71471,
        0.716659,
        0.7154,
        0.709966,
        0.701974,
        0.696395,
        0.695512,
        0.697579,
        0.699968,
        0.698626,
        0.692889,
        0.691258,
        0.696565,
        0.690795,
        0.658488,
        0.611815,
        0.573657,
        0.564277,
        0.593088,
        0.641095,
        0.681343,
        0.702248,
        0.704566,
        0.70451,
        0.719743,
        0.747729,
        0.77803,
        0.807819,
        0.834748,
        0.850468,
        0.849798,
        0.836889,
        0.817193,
        0.795618,
        0.779071,
        0.777322,
        0.797699,
        0.835099,
        0.876851,
        0.907619,
        0.918572,
        0.921213,
        0.930776,
        0.946032,
        0.957263,
        0.953951,
        0.930767,
        0.900417,
        0.882312,
        0.885102,
        0.908498,
        0.944584,
        0.979656,
        0.99778,
        0.993035,
        0.980177,
        0.975141,
        0.978096,
        0.979731,
        0.967623,
        0.937181,
        0.904163,
        0.88976,
        0.903015,
        0.939659,
        0.977816,
        0.99544,
        0.993253,
        0.982474,
        0.970327,
        0.961139,
        0.954391,
        0.946443,
        0.940159,
        0.939708,
        0.93957,
        0.935239,
        0.932888,
        0.937376,
        0.946379,
        0.956244,
        0.960495,
        0.956067,
        0.951766,
        0.955385,
        0.965758,
        0.979279,
        0.990466,
        0.996588,
        1.004305,
        1.018226,
        1.029639,
        1.030375,
        1.025375,
        1.022139,
        1.023437,
        1.027774,
        1.027426,
        1.016725,
        0.999238,
        0.982798,
        0.978833,
        0.992579,
        1.010733,
        1.018734,
        1.014536,
        1.002961,
        0.995936,
        1.00198,
        1.013825,
        1.021547,
        1.023418,
        1.021205,
        1.017171,
        1.01439,
        1.017526,
        1.029283,
        1.046569,
        1.062774,
        1.067613,
        1.054139,
        1.02846,
        1.003269,
        0.992901,
        1.006022,
        1.034931,
        1.065107,
        1.086204,
        1.093617,
        1.089476,
        1.080841,
        1.075588,
        1.077404,
        1.084204,
        1.090767,
        1.092232,
        1.08759,
        1.080086,
        1.075027,
        1.076881,
        1.087127,
        1.103904,
        1.123018,
        1.139508,
        1.150078,
        1.154314,
        1.154206,
        1.159855,
        1.160119,
        1.16139,
        1.148257,
        1.132113,
        1.102881,
        1.096668,
        1.101497,
        1.099224,
        1.089227,
        1.055716,
        1.004563,
        0.926761,
        0.900831,
        0.948708,
        1.001491,
        1.036027,
        1.059425,
        1.076471,
        1.07265,
        1.070212,
        1.101584,
        1.089048,
        1.106339,
        1.100455,
        1.1024,
        1.104836,
        1.124148,
        1.136218,
        1.127967,
        1.116535,
        1.118971,
        1.124504,
        1.124263,
        1.121602,
        1.120556,
        1.119759,
        1.121252,
        1.125552,
        1.147932,
        1.168389,
        1.181585,
        1.1906,
        1.207188,
        1.209949,
        1.201059,
        1.190703,
        1.200328,
        1.215983,
        1.213269,
        1.198978,
        1.192139,
        1.181997,
        1.186135,
        1.181281,
        1.175698,
        1.19641,
        1.203875,
        1.184807,
        1.17069,
        1.168447,
        1.144524,
        1.139866,
        1.157781,
        1.152673,
        1.138182,
        1.097128,
        1.079639,
        1.075832,
        1.08498,
        1.098809,
        1.09192,
        1.077458,
        1.084614,
        1.086639,
        1.084938,
        1.070454,
        1.034977,
        1.024885,
        1.016665,
        1.00555,
        1.013436,
        1.00478,
        1.010025,
        1.020675,
        1.001867,
        1.002925,
        1.029136,
        1.039169,
        1.055357,
        1.056936,
        1.069017,
        1.098056,
        1.090498,
        1.099899,
        1.110839,
        1.123525,
        1.124643,
        1.132616,
        1.149482,
        1.164942,
        1.156977,
        1.161187,
        1.166469,
        1.172166,
        1.158718,
        1.137905,
        1.1558,
        1.193335,
        1.200994,
        1.202692,
        1.2102,
        1.20532,
        1.20154,
        1.211166,
        1.213138,
        1.218668,
        1.214406,
        1.211056,
        1.215588,
        1.209838,
        1.21393,
        1.22673,
        1.234796,
        1.214971,
        1.225885,
        1.233518,
        1.225156,
        1.222061,
        1.215878,
        1.205679,
        1.18988,
        1.173505,
        1.130706,
        1.141802,
        1.185564,
        1.20423,
        1.215135,
        1.229455,
        1.239948,
        1.236935,
        1.238245,
        1.242585,
        1.221962,
        1.206667,
        1.181454,
        1.151167,
        1.137335,
        1.180486,
        1.191263,
        1.212274,
        1.225632,
        1.227137,
        1.216138,
        1.230319,
        1.231065,
        1.231447,
        1.251021,
        1.252768,
        1.234614,
        1.227991,
        1.227943,
        1.235805,
        1.229813,
        1.230821,
        1.227751,
        1.216957,
        1.20745,
        1.219625,
        1.221049,
        1.210098,
        1.216773,
        1.215975,
        1.212534,
        1.215791,
        1.217106,
        1.209637,
        1.19959,
        1.19799,
        1.207033,
        1.205733,
        1.207407,
        1.201642,
        1.193389,
        1.188633,
        1.193078,
        1.206941,
        1.201046,
        1.203136,
        1.223192,
        1.230725,
        1.212608,
        1.217316,
        1.213966,
        1.236219,
        1.238767,
        1.243564,
        1.25545,
        1.271045,
        1.280492,
        1.273206,
        1.268888,
        1.264004,
        1.259207,
        1.255193,
        1.251849,
        1.246744,
        1.239772,
        1.230871,
        1.223007,
        1.219617,
        1.222487,
        1.230336,
        1.240827,
        1.25254,
        1.264162,
        1.274541,
        1.281888,
        1.284003,
        1.279477,
        1.27256,
        1.269033,
        1.273265,
        1.284007,
        1.293967,
        1.295462,
        1.284602,
        1.266456,
        1.252743,
        1.238418,
        1.237922,
        1.272045,
        1.280329,
        1.27985,
        1.262966,
        1.2508,
        1.249616,
        1.241909,
        1.25601,
        1.254743,
        1.26259,
        1.26572,
        1.273367,
        1.288775,
        1.280604,
        1.255435,
        1.241298,
        1.216128,
        1.213431,
        1.226681,
        1.224352,
        1.193249,
        1.173472,
        1.165979,
        1.16652,
        1.169302,
        1.172239,
        1.175494,
        1.167417,
        1.139231,
        1.110108,
        1.119071,
        1.137333,
        1.154998,
        1.168449,
        1.186206,
        1.189951,
        1.18281,
        1.190572,
        1.19573,
        1.191307,
        1.180518,
        1.165923,
        1.172584,
        1.169677,
        1.170084,
        1.183145,
        1.209678,
        1.235141,
        1.249682,
        1.258352,
        1.251249,
        1.241199,
        1.238607,
        1.235615,
        1.234432,
        1.235638,
        1.23747,
        1.246192,
        1.236893,
        1.232909,
        1.235732,
        1.240331,
        1.26682,
        1.289626,
        1.293633,
        1.291199,
        1.285944,
        1.281698,
        1.281724,
        1.290517,
        1.304991,
        1.316647,
        1.305831,
        1.294354,
        1.271961,
        1.279007,
        1.285498,
        1.314807,
        1.333216,
        1.343037,
        1.334286,
        1.330097,
        1.340115,
        1.333533,
        1.335119,
        1.328207,
        1.320473,
        1.330831,
        1.345526,
        1.35921,
        1.356958,
        1.342369,
        1.32539,
        1.334642,
        1.343428,
        1.345973,
        1.359979,
        1.372711,
        1.364241,
        1.355738,
        1.342715,
        1.32787,
        1.32055,
        1.346355,
        1.360348,
        1.365614,
        1.381929,
        1.395086,
        1.394382,
        1.406823,
        1.418502,
        1.422016,
        1.421773,
        1.421556,
        1.421628,
        1.422061,
        1.42259,
        1.419756,
        1.411314,
        1.396544,
        1.374864,
        1.350401,
        1.328299,
        1.314717,
        1.316325,
        1.330996,
        1.354179,
        1.377846,
        1.391501,
        1.392944,
        1.383265,
        1.36719,
        1.352122,
        1.340598,
        1.332788,
        1.326255,
        1.3172,
        1.306026,
        1.294814,
        1.287727,
        1.289186,
        1.297752,
        1.30829,
        1.316122,
        1.317658,
        1.313859,
        1.308829,
        1.307427,
        1.311534,
        1.323164,
        1.338913,
        1.343285,
        1.327744,
        1.315457,
        1.335228,
        1.346326,
        1.352066,
        1.359126,
        1.364555,
        1.35706,
        1.35008,
        1.345928,
        1.354316,
        1.353245,
        1.36767,
        1.372577,
        1.381207,
        1.379541,
        1.371716,
        1.356322,
        1.339244,
        1.344975,
        1.350867,
        1.344857,
        1.345624,
        1.356772,
        1.347997,
        1.336005,
        1.317422,
        1.312504,
        1.307727,
        1.30283,
        1.280991,
        1.275203,
        1.275069,
        1.260902,
        1.25211,
        1.25707,
        1.264345,
        1.266254,
        1.257745,
        1.25234,
        1.247414,
        1.259997,
        1.273227,
        1.275459,
        1.283288,
        1.294273,
        1.300688,
        1.299508,
        1.306667,
        1.304401,
        1.294627,
        1.287848,
        1.29393,
        1.299051,
        1.304798,
        1.307715,
        1.293057,
        1.301587,
        1.326503,
        1.320827,
        1.30788,
        1.301929,
        1.313332,
        1.309157,
        1.296381,
        1.282542,
        1.282756,
        1.282996,
        1.276373,
        1.26142,
        1.244843,
        1.249474,
        1.251698,
        1.250081,
        1.254053,
        1.273476,
        1.290264,
        1.290377,
        1.289638,
        1.290737,
        1.280598,
        1.275051,
        1.277817,
        1.2679,
        1.26834,
        1.2813,
        1.280804,
        1.269734,
        1.265655,
        1.277294,
        1.271993,
        1.275587,
        1.283092,
        1.295548,
        1.30558,
        1.310354,
        1.31128,
        1.303564,
        1.310828,
        1.315715,
        1.313226,
        1.322766,
        1.312527,
        1.332017,
        1.339195,
        1.333323,
        1.314416,
        1.313702,
        1.307745,
        1.296022,
        1.285961,
        1.278837,
        1.265223,
        1.254858,
        1.264676,
        1.256977,
        1.248754,
        1.23941,
        1.236568,
        1.232123,
        1.235476,
        1.239522,
        1.251318,
        1.25558,
        1.253268,
        1.262358,
        1.254551,
        1.238296,
        1.226647,
        1.240365,
        1.268414,
        1.275801,
        1.284199,
        1.281377,
        1.270137,
        1.262775,
        1.246612,
        1.253789,
        1.248349,
        1.261982,
        1.282439,
        1.288966,
        1.294658,
        1.293439,
        1.283017,
        1.276357,
        1.299612,
        1.299625,
        1.29362,
        1.281477,
        1.226443,
        1.182752,
        1.229016,
        1.253476,
        1.249563,
        1.25637,
        1.243066,
        1.198952,
        1.134887,
        1.039339,
        1.035327,
        1.141507,
        1.216329,
        1.263533,
        1.28367,
        1.287279,
        1.283932,
        1.282638,
        1.280159,
        1.288445,
        1.290373,
        1.291112,
        1.292295,
        1.282038,
        1.281156,
        1.283725,
        1.289669,
        1.294869,
        1.300992,
        1.299478,
        1.278604,
        1.240769,
        1.189468,
        1.100169,
        1.090911,
        1.173561,
        1.218354,
        1.255731,
        1.264677,
        1.26722,
        1.284913,
        1.290634,
        1.306925,
        1.318357,
        1.326092,
        1.334306,
        1.325033,
        1.309056,
        1.306752,
        1.30972,
        1.310447,
        1.304558,
        1.295297,
        1.287274,
        1.277292,
        1.271298,
        1.27844,
        1.289539,
        1.302503,
        1.291634,
        1.280504,
        1.275823,
        1.256063,
        1.269266,
        1.29667,
        1.300038,
        1.297598,
        1.311419,
        1.309004,
        1.307661,
        1.323037,
        1.32801,
        1.328173,
        1.308472,
        1.28704,
        1.283342,
        1.28045,
        1.279037,
        1.287532,
        1.29105,
        1.29642,
        1.300242,
        1.304346,
        1.305449,
        1.301924,
        1.296394,
        1.289939,
        1.285621,
        1.288871,
        1.279108,
        1.270548,
        1.279309,
        1.288754,
        1.291759,
        1.282634,
        1.286792,
        1.281878,
        1.282113,
        1.271811,
        1.255984,
        1.269656,
        1.266676,
        1.263452,
        1.251817,
        1.247346,
        1.256736,
        1.261674,
        1.289656,
        1.307549,
        1.314987,
        1.313673,
        1.305737,
        1.300714,
        1.293128,
        1.28344,
        1.272547,
        1.261016,
        1.242682,
        1.229088,
        1.224793,
        1.24218,
        1.238796,
        1.237222,
        1.233735,
        1.227318,
        1.222676,
        1.230794,
        1.225065,
        1.213567,
        1.199063,
        1.187195,
        1.182657,
        1.179207,
        1.188369,
        1.186865,
        1.168228,
        1.168375,
        1.186911,
        1.195284,
        1.197184,
        1.194124,
        1.194626,
        1.193134,
        1.190883,
        1.196934,
        1.208464,
        1.217239,
        1.211158,
        1.195287,
        1.179392,
        1.170027,
        1.16314,
        1.166732,
        1.179911,
        1.197209,
        1.211817,
        1.220803,
        1.233653,
        1.237385,
        1.242916,
        1.249757,
        1.250081,
        1.234553,
        1.208223,
        1.188955,
        1.176787,
        1.179989,
        1.202393,
        1.201893,
        1.194842,
        1.182567,
        1.194208,
        1.153224,
        1.154096,
        1.169676,
        1.166858,
        1.190407,
        1.201967,
        1.241181,
        1.272187,
        1.294448,
        1.290617,
        1.27545,
        1.227375,
        1.195884,
        1.173539,
        1.143263,
        1.126228,
        1.120881,
        1.108645,
        1.12938,
        1.156528,
        1.160908,
        1.172815,
        1.193261,
        1.202176,
        1.201415,
        1.176269,
        1.190871,
        1.198909,
        1.173428,
        1.173314,
        1.205482,
        1.228209,
        1.237074,
        1.231941,
        1.253387,
        1.268949,
        1.272211,
        1.257467,
        1.23532,
        1.232652,
        1.222088,
        1.205316,
        1.193905,
        1.193826,
        1.194918,
        1.179315,
        1.173399,
        1.169727,
        1.17166,
        1.176344,
        1.177785,
        1.188518,
        1.187362,
        1.183964,
        1.1741,
        1.171391,
        1.153243,
        1.147697,
        1.148849,
        1.145685,
        1.158915,
        1.15878,
        1.175455,
        1.174491,
        1.175686,
        1.182652,
        1.186226,
        1.177014,
        1.178562,
        1.167957,
        1.164853,
        1.178317,
        1.17847,
        1.16548,
        1.164193,
        1.157923,
        1.150138,
        1.141065,
        1.138768,
        1.152726,
        1.15842,
        1.166121,
        1.164565,
        1.166013,
        1.175593,
        1.159979,
        1.154507,
        1.153612,
        1.167638,
        1.175978,
        1.182718,
        1.189074,
        1.1881,
        1.193777,
        1.188294,
        1.192026,
        1.198948,
        1.201454,
        1.201406,
        1.20069,
        1.195872,
        1.194473,
        1.186885,
        1.186876,
        1.198061,
        1.19445,
        1.196016,
        1.196585,
        1.192672,
        1.209241,
        1.208309,
        1.195813,
        1.192384,
        1.194013,
        1.186157,
        1.174814,
        1.191924,
        1.201748,
        1.194238,
        1.209215,
        1.205703,
        1.218177,
        1.20935,
        1.214347,
        1.217429,
        1.185714,
        1.206868,
        1.206627,
        1.20822,
        1.213038,
        1.218443,
        1.224319,
        1.228686,
        1.229562,
        1.225671,
        1.218571,
        1.21053,
        1.203813,
        1.200143,
        1.199068,
        1.199599,
        1.200752,
        1.201712,
        1.202307,
        1.20253,
        1.202374,
        1.201865,
        1.201168,
        1.200481,
        1.200002,
        1.199861,
        1.199912,
        1.199941,
        1.199734,
        1.199144,
        1.198292,
        1.197366,
        1.196555,
        1.195962,
        1.195353,
        1.194416,
        1.19287,
        1.19054,
        1.187643,
        1.184493,
        1.181404,
        1.178666,
        1.176467,
        1.174969,
        1.174334,
        1.174642,
        1.175634,
        1.17697,
        1.178307,
        1.179422,
        1.180563,
        1.182096,
        1.184389,
        1.187569,
        1.190819,
        1.193083,
        1.193295,
        1.190841,
        1.186923,
        1.1832,
        1.181329,
        1.182383,
        1.185111,
        1.187675,
        1.188239,
        1.180658,
        1.177804,
        1.174446,
        1.17129,
        1.168903,
        1.167285,
        1.166294,
        1.165792,
        1.165638,
        1.1657,
        1.165844,
        1.165916,
        1.165787,
        1.165432,
        1.164855,
        1.164058,
        1.163101,
        1.162265,
        1.161888,
        1.162309,
        1.163693,
        1.165519,
        1.167092,
        1.167719,
        1.166947,
        1.165288,
        1.163496,
        1.162324,
        1.162288,
        1.162954,
        1.163649,
        1.1637,
        1.162651,
        1.160913,
        1.159115,
        1.157884,
        1.157645,
        1.158014,
        1.1584,
        1.158215
      ],
      "range":1
    }
  }
]
