[
  {
    "model":"Star, type K0(iv)",
    "name":"Star, type K0(iv)",
    "type":"WB_REF",
    "dataQualityMarker":3,
    "dataSource":"https://www.eso.org/sci/facilities/paranal/decommissioned/isaac/tools/lib.html",
    "manufacturer":"A. Pickles (A.J. Pickles, PASP 110,863, 1998)",
    "version":1,
    "wavelength":{
      "value":[
        1150.0,
        1155.0,
        1160.0,
        1165.0,
        1170.0,
        1175.0,
        1180.0,
        1185.0,
        1190.0,
        1195.0,
        1200.0,
        1205.0,
        1210.0,
        1215.0,
        1220.0,
        1225.0,
        1230.0,
        1235.0,
        1240.0,
        1245.0,
        1250.0,
        1255.0,
        1260.0,
        1265.0,
        1270.0,
        1275.0,
        1280.0,
        1285.0,
        1290.0,
        1295.0,
        1300.0,
        1305.0,
        1310.0,
        1315.0,
        1320.0,
        1325.0,
        1330.0,
        1335.0,
        1340.0,
        1345.0,
        1350.0,
        1355.0,
        1360.0,
        1365.0,
        1370.0,
        1375.0,
        1380.0,
        1385.0,
        1390.0,
        1395.0,
        1400.0,
        1405.0,
        1410.0,
        1415.0,
        1420.0,
        1425.0,
        1430.0,
        1435.0,
        1440.0,
        1445.0,
        1450.0,
        1455.0,
        1460.0,
        1465.0,
        1470.0,
        1475.0,
        1480.0,
        1485.0,
        1490.0,
        1495.0,
        1500.0,
        1505.0,
        1510.0,
        1515.0,
        1520.0,
        1525.0,
        1530.0,
        1535.0,
        1540.0,
        1545.0,
        1550.0,
        1555.0,
        1560.0,
        1565.0,
        1570.0,
        1575.0,
        1580.0,
        1585.0,
        1590.0,
        1595.0,
        1600.0,
        1605.0,
        1610.0,
        1615.0,
        1620.0,
        1625.0,
        1630.0,
        1635.0,
        1640.0,
        1645.0,
        1650.0,
        1655.0,
        1660.0,
        1665.0,
        1670.0,
        1675.0,
        1680.0,
        1685.0,
        1690.0,
        1695.0,
        1700.0,
        1705.0,
        1710.0,
        1715.0,
        1720.0,
        1725.0,
        1730.0,
        1735.0,
        1740.0,
        1745.0,
        1750.0,
        1755.0,
        1760.0,
        1765.0,
        1770.0,
        1775.0,
        1780.0,
        1785.0,
        1790.0,
        1795.0,
        1800.0,
        1805.0,
        1810.0,
        1815.0,
        1820.0,
        1825.0,
        1830.0,
        1835.0,
        1840.0,
        1845.0,
        1850.0,
        1855.0,
        1860.0,
        1865.0,
        1870.0,
        1875.0,
        1880.0,
        1885.0,
        1890.0,
        1895.0,
        1900.0,
        1905.0,
        1910.0,
        1915.0,
        1920.0,
        1925.0,
        1930.0,
        1935.0,
        1940.0,
        1945.0,
        1950.0,
        1955.0,
        1960.0,
        1965.0,
        1970.0,
        1975.0,
        1980.0,
        1985.0,
        1990.0,
        1995.0,
        2000.0,
        2005.0,
        2010.0,
        2015.0,
        2020.0,
        2025.0,
        2030.0,
        2035.0,
        2040.0,
        2045.0,
        2050.0,
        2055.0,
        2060.0,
        2065.0,
        2070.0,
        2075.0,
        2080.0,
        2085.0,
        2090.0,
        2095.0,
        2100.0,
        2105.0,
        2110.0,
        2115.0,
        2120.0,
        2125.0,
        2130.0,
        2135.0,
        2140.0,
        2145.0,
        2150.0,
        2155.0,
        2160.0,
        2165.0,
        2170.0,
        2175.0,
        2180.0,
        2185.0,
        2190.0,
        2195.0,
        2200.0,
        2205.0,
        2210.0,
        2215.0,
        2220.0,
        2225.0,
        2230.0,
        2235.0,
        2240.0,
        2245.0,
        2250.0,
        2255.0,
        2260.0,
        2265.0,
        2270.0,
        2275.0,
        2280.0,
        2285.0,
        2290.0,
        2295.0,
        2300.0,
        2305.0,
        2310.0,
        2315.0,
        2320.0,
        2325.0,
        2330.0,
        2335.0,
        2340.0,
        2345.0,
        2350.0,
        2355.0,
        2360.0,
        2365.0,
        2370.0,
        2375.0,
        2380.0,
        2385.0,
        2390.0,
        2395.0,
        2400.0,
        2405.0,
        2410.0,
        2415.0,
        2420.0,
        2425.0,
        2430.0,
        2435.0,
        2440.0,
        2445.0,
        2450.0,
        2455.0,
        2460.0,
        2465.0,
        2470.0,
        2475.0,
        2480.0,
        2485.0,
        2490.0,
        2495.0,
        2500.0,
        2505.0,
        2510.0,
        2515.0,
        2520.0,
        2525.0,
        2530.0,
        2535.0,
        2540.0,
        2545.0,
        2550.0,
        2555.0,
        2560.0,
        2565.0,
        2570.0,
        2575.0,
        2580.0,
        2585.0,
        2590.0,
        2595.0,
        2600.0,
        2605.0,
        2610.0,
        2615.0,
        2620.0,
        2625.0,
        2630.0,
        2635.0,
        2640.0,
        2645.0,
        2650.0,
        2655.0,
        2660.0,
        2665.0,
        2670.0,
        2675.0,
        2680.0,
        2685.0,
        2690.0,
        2695.0,
        2700.0,
        2705.0,
        2710.0,
        2715.0,
        2720.0,
        2725.0,
        2730.0,
        2735.0,
        2740.0,
        2745.0,
        2750.0,
        2755.0,
        2760.0,
        2765.0,
        2770.0,
        2775.0,
        2780.0,
        2785.0,
        2790.0,
        2795.0,
        2800.0,
        2805.0,
        2810.0,
        2815.0,
        2820.0,
        2825.0,
        2830.0,
        2835.0,
        2840.0,
        2845.0,
        2850.0,
        2855.0,
        2860.0,
        2865.0,
        2870.0,
        2875.0,
        2880.0,
        2885.0,
        2890.0,
        2895.0,
        2900.0,
        2905.0,
        2910.0,
        2915.0,
        2920.0,
        2925.0,
        2930.0,
        2935.0,
        2940.0,
        2945.0,
        2950.0,
        2955.0,
        2960.0,
        2965.0,
        2970.0,
        2975.0,
        2980.0,
        2985.0,
        2990.0,
        2995.0,
        3000.0,
        3005.0,
        3010.0,
        3015.0,
        3020.0,
        3025.0,
        3030.0,
        3035.0,
        3040.0,
        3045.0,
        3050.0,
        3055.0,
        3060.0,
        3065.0,
        3070.0,
        3075.0,
        3080.0,
        3085.0,
        3090.0,
        3095.0,
        3100.0,
        3105.0,
        3110.0,
        3115.0,
        3120.0,
        3125.0,
        3130.0,
        3135.0,
        3140.0,
        3145.0,
        3150.0,
        3155.0,
        3160.0,
        3165.0,
        3170.0,
        3175.0,
        3180.0,
        3185.0,
        3190.0,
        3195.0,
        3200.0,
        3205.0,
        3210.0,
        3215.0,
        3220.0,
        3225.0,
        3230.0,
        3235.0,
        3240.0,
        3245.0,
        3250.0,
        3255.0,
        3260.0,
        3265.0,
        3270.0,
        3275.0,
        3280.0,
        3285.0,
        3290.0,
        3295.0,
        3300.0,
        3305.0,
        3310.0,
        3315.0,
        3320.0,
        3325.0,
        3330.0,
        3335.0,
        3340.0,
        3345.0,
        3350.0,
        3355.0,
        3360.0,
        3365.0,
        3370.0,
        3375.0,
        3380.0,
        3385.0,
        3390.0,
        3395.0,
        3400.0,
        3405.0,
        3410.0,
        3415.0,
        3420.0,
        3425.0,
        3430.0,
        3435.0,
        3440.0,
        3445.0,
        3450.0,
        3455.0,
        3460.0,
        3465.0,
        3470.0,
        3475.0,
        3480.0,
        3485.0,
        3490.0,
        3495.0,
        3500.0,
        3505.0,
        3510.0,
        3515.0,
        3520.0,
        3525.0,
        3530.0,
        3535.0,
        3540.0,
        3545.0,
        3550.0,
        3555.0,
        3560.0,
        3565.0,
        3570.0,
        3575.0,
        3580.0,
        3585.0,
        3590.0,
        3595.0,
        3600.0,
        3605.0,
        3610.0,
        3615.0,
        3620.0,
        3625.0,
        3630.0,
        3635.0,
        3640.0,
        3645.0,
        3650.0,
        3655.0,
        3660.0,
        3665.0,
        3670.0,
        3675.0,
        3680.0,
        3685.0,
        3690.0,
        3695.0,
        3700.0,
        3705.0,
        3710.0,
        3715.0,
        3720.0,
        3725.0,
        3730.0,
        3735.0,
        3740.0,
        3745.0,
        3750.0,
        3755.0,
        3760.0,
        3765.0,
        3770.0,
        3775.0,
        3780.0,
        3785.0,
        3790.0,
        3795.0,
        3800.0,
        3805.0,
        3810.0,
        3815.0,
        3820.0,
        3825.0,
        3830.0,
        3835.0,
        3840.0,
        3845.0,
        3850.0,
        3855.0,
        3860.0,
        3865.0,
        3870.0,
        3875.0,
        3880.0,
        3885.0,
        3890.0,
        3895.0,
        3900.0,
        3905.0,
        3910.0,
        3915.0,
        3920.0,
        3925.0,
        3930.0,
        3935.0,
        3940.0,
        3945.0,
        3950.0,
        3955.0,
        3960.0,
        3965.0,
        3970.0,
        3975.0,
        3980.0,
        3985.0,
        3990.0,
        3995.0,
        4000.0,
        4005.0,
        4010.0,
        4015.0,
        4020.0,
        4025.0,
        4030.0,
        4035.0,
        4040.0,
        4045.0,
        4050.0,
        4055.0,
        4060.0,
        4065.0,
        4070.0,
        4075.0,
        4080.0,
        4085.0,
        4090.0,
        4095.0,
        4100.0,
        4105.0,
        4110.0,
        4115.0,
        4120.0,
        4125.0,
        4130.0,
        4135.0,
        4140.0,
        4145.0,
        4150.0,
        4155.0,
        4160.0,
        4165.0,
        4170.0,
        4175.0,
        4180.0,
        4185.0,
        4190.0,
        4195.0,
        4200.0,
        4205.0,
        4210.0,
        4215.0,
        4220.0,
        4225.0,
        4230.0,
        4235.0,
        4240.0,
        4245.0,
        4250.0,
        4255.0,
        4260.0,
        4265.0,
        4270.0,
        4275.0,
        4280.0,
        4285.0,
        4290.0,
        4295.0,
        4300.0,
        4305.0,
        4310.0,
        4315.0,
        4320.0,
        4325.0,
        4330.0,
        4335.0,
        4340.0,
        4345.0,
        4350.0,
        4355.0,
        4360.0,
        4365.0,
        4370.0,
        4375.0,
        4380.0,
        4385.0,
        4390.0,
        4395.0,
        4400.0,
        4405.0,
        4410.0,
        4415.0,
        4420.0,
        4425.0,
        4430.0,
        4435.0,
        4440.0,
        4445.0,
        4450.0,
        4455.0,
        4460.0,
        4465.0,
        4470.0,
        4475.0,
        4480.0,
        4485.0,
        4490.0,
        4495.0,
        4500.0,
        4505.0,
        4510.0,
        4515.0,
        4520.0,
        4525.0,
        4530.0,
        4535.0,
        4540.0,
        4545.0,
        4550.0,
        4555.0,
        4560.0,
        4565.0,
        4570.0,
        4575.0,
        4580.0,
        4585.0,
        4590.0,
        4595.0,
        4600.0,
        4605.0,
        4610.0,
        4615.0,
        4620.0,
        4625.0,
        4630.0,
        4635.0,
        4640.0,
        4645.0,
        4650.0,
        4655.0,
        4660.0,
        4665.0,
        4670.0,
        4675.0,
        4680.0,
        4685.0,
        4690.0,
        4695.0,
        4700.0,
        4705.0,
        4710.0,
        4715.0,
        4720.0,
        4725.0,
        4730.0,
        4735.0,
        4740.0,
        4745.0,
        4750.0,
        4755.0,
        4760.0,
        4765.0,
        4770.0,
        4775.0,
        4780.0,
        4785.0,
        4790.0,
        4795.0,
        4800.0,
        4805.0,
        4810.0,
        4815.0,
        4820.0,
        4825.0,
        4830.0,
        4835.0,
        4840.0,
        4845.0,
        4850.0,
        4855.0,
        4860.0,
        4865.0,
        4870.0,
        4875.0,
        4880.0,
        4885.0,
        4890.0,
        4895.0,
        4900.0,
        4905.0,
        4910.0,
        4915.0,
        4920.0,
        4925.0,
        4930.0,
        4935.0,
        4940.0,
        4945.0,
        4950.0,
        4955.0,
        4960.0,
        4965.0,
        4970.0,
        4975.0,
        4980.0,
        4985.0,
        4990.0,
        4995.0,
        5000.0,
        5005.0,
        5010.0,
        5015.0,
        5020.0,
        5025.0,
        5030.0,
        5035.0,
        5040.0,
        5045.0,
        5050.0,
        5055.0,
        5060.0,
        5065.0,
        5070.0,
        5075.0,
        5080.0,
        5085.0,
        5090.0,
        5095.0,
        5100.0,
        5105.0,
        5110.0,
        5115.0,
        5120.0,
        5125.0,
        5130.0,
        5135.0,
        5140.0,
        5145.0,
        5150.0,
        5155.0,
        5160.0,
        5165.0,
        5170.0,
        5175.0,
        5180.0,
        5185.0,
        5190.0,
        5195.0,
        5200.0,
        5205.0,
        5210.0,
        5215.0,
        5220.0,
        5225.0,
        5230.0,
        5235.0,
        5240.0,
        5245.0,
        5250.0,
        5255.0,
        5260.0,
        5265.0,
        5270.0,
        5275.0,
        5280.0,
        5285.0,
        5290.0,
        5295.0,
        5300.0,
        5305.0,
        5310.0,
        5315.0,
        5320.0,
        5325.0,
        5330.0,
        5335.0,
        5340.0,
        5345.0,
        5350.0,
        5355.0,
        5360.0,
        5365.0,
        5370.0,
        5375.0,
        5380.0,
        5385.0,
        5390.0,
        5395.0,
        5400.0,
        5405.0,
        5410.0,
        5415.0,
        5420.0,
        5425.0,
        5430.0,
        5435.0,
        5440.0,
        5445.0,
        5450.0,
        5455.0,
        5460.0,
        5465.0,
        5470.0,
        5475.0,
        5480.0,
        5485.0,
        5490.0,
        5495.0,
        5500.0,
        5505.0,
        5510.0,
        5515.0,
        5520.0,
        5525.0,
        5530.0,
        5535.0,
        5540.0,
        5545.0,
        5550.0,
        5555.0,
        5560.0,
        5565.0,
        5570.0,
        5575.0,
        5580.0,
        5585.0,
        5590.0,
        5595.0,
        5600.0,
        5605.0,
        5610.0,
        5615.0,
        5620.0,
        5625.0,
        5630.0,
        5635.0,
        5640.0,
        5645.0,
        5650.0,
        5655.0,
        5660.0,
        5665.0,
        5670.0,
        5675.0,
        5680.0,
        5685.0,
        5690.0,
        5695.0,
        5700.0,
        5705.0,
        5710.0,
        5715.0,
        5720.0,
        5725.0,
        5730.0,
        5735.0,
        5740.0,
        5745.0,
        5750.0,
        5755.0,
        5760.0,
        5765.0,
        5770.0,
        5775.0,
        5780.0,
        5785.0,
        5790.0,
        5795.0,
        5800.0,
        5805.0,
        5810.0,
        5815.0,
        5820.0,
        5825.0,
        5830.0,
        5835.0,
        5840.0,
        5845.0,
        5850.0,
        5855.0,
        5860.0,
        5865.0,
        5870.0,
        5875.0,
        5880.0,
        5885.0,
        5890.0,
        5895.0,
        5900.0,
        5905.0,
        5910.0,
        5915.0,
        5920.0,
        5925.0,
        5930.0,
        5935.0,
        5940.0,
        5945.0,
        5950.0,
        5955.0,
        5960.0,
        5965.0,
        5970.0,
        5975.0,
        5980.0,
        5985.0,
        5990.0,
        5995.0,
        6000.0,
        6005.0,
        6010.0,
        6015.0,
        6020.0,
        6025.0,
        6030.0,
        6035.0,
        6040.0,
        6045.0,
        6050.0,
        6055.0,
        6060.0,
        6065.0,
        6070.0,
        6075.0,
        6080.0,
        6085.0,
        6090.0,
        6095.0,
        6100.0,
        6105.0,
        6110.0,
        6115.0,
        6120.0,
        6125.0,
        6130.0,
        6135.0,
        6140.0,
        6145.0,
        6150.0,
        6155.0,
        6160.0,
        6165.0,
        6170.0,
        6175.0,
        6180.0,
        6185.0,
        6190.0,
        6195.0,
        6200.0,
        6205.0,
        6210.0,
        6215.0,
        6220.0,
        6225.0,
        6230.0,
        6235.0,
        6240.0,
        6245.0,
        6250.0,
        6255.0,
        6260.0,
        6265.0,
        6270.0,
        6275.0,
        6280.0,
        6285.0,
        6290.0,
        6295.0,
        6300.0,
        6305.0,
        6310.0,
        6315.0,
        6320.0,
        6325.0,
        6330.0,
        6335.0,
        6340.0,
        6345.0,
        6350.0,
        6355.0,
        6360.0,
        6365.0,
        6370.0,
        6375.0,
        6380.0,
        6385.0,
        6390.0,
        6395.0,
        6400.0,
        6405.0,
        6410.0,
        6415.0,
        6420.0,
        6425.0,
        6430.0,
        6435.0,
        6440.0,
        6445.0,
        6450.0,
        6455.0,
        6460.0,
        6465.0,
        6470.0,
        6475.0,
        6480.0,
        6485.0,
        6490.0,
        6495.0,
        6500.0,
        6505.0,
        6510.0,
        6515.0,
        6520.0,
        6525.0,
        6530.0,
        6535.0,
        6540.0,
        6545.0,
        6550.0,
        6555.0,
        6560.0,
        6565.0,
        6570.0,
        6575.0,
        6580.0,
        6585.0,
        6590.0,
        6595.0,
        6600.0,
        6605.0,
        6610.0,
        6615.0,
        6620.0,
        6625.0,
        6630.0,
        6635.0,
        6640.0,
        6645.0,
        6650.0,
        6655.0,
        6660.0,
        6665.0,
        6670.0,
        6675.0,
        6680.0,
        6685.0,
        6690.0,
        6695.0,
        6700.0,
        6705.0,
        6710.0,
        6715.0,
        6720.0,
        6725.0,
        6730.0,
        6735.0,
        6740.0,
        6745.0,
        6750.0,
        6755.0,
        6760.0,
        6765.0,
        6770.0,
        6775.0,
        6780.0,
        6785.0,
        6790.0,
        6795.0,
        6800.0,
        6805.0,
        6810.0,
        6815.0,
        6820.0,
        6825.0,
        6830.0,
        6835.0,
        6840.0,
        6845.0,
        6850.0,
        6855.0,
        6860.0,
        6865.0,
        6870.0,
        6875.0,
        6880.0,
        6885.0,
        6890.0,
        6895.0,
        6900.0,
        6905.0,
        6910.0,
        6915.0,
        6920.0,
        6925.0,
        6930.0,
        6935.0,
        6940.0,
        6945.0,
        6950.0,
        6955.0,
        6960.0,
        6965.0,
        6970.0,
        6975.0,
        6980.0,
        6985.0,
        6990.0,
        6995.0,
        7000.0,
        7005.0,
        7010.0,
        7015.0,
        7020.0,
        7025.0,
        7030.0,
        7035.0,
        7040.0,
        7045.0,
        7050.0,
        7055.0,
        7060.0,
        7065.0,
        7070.0,
        7075.0,
        7080.0,
        7085.0,
        7090.0,
        7095.0,
        7100.0,
        7105.0,
        7110.0,
        7115.0,
        7120.0,
        7125.0,
        7130.0,
        7135.0,
        7140.0,
        7145.0,
        7150.0,
        7155.0,
        7160.0,
        7165.0,
        7170.0,
        7175.0,
        7180.0,
        7185.0,
        7190.0,
        7195.0,
        7200.0,
        7205.0,
        7210.0,
        7215.0,
        7220.0,
        7225.0,
        7230.0,
        7235.0,
        7240.0,
        7245.0,
        7250.0,
        7255.0,
        7260.0,
        7265.0,
        7270.0,
        7275.0,
        7280.0,
        7285.0,
        7290.0,
        7295.0,
        7300.0,
        7305.0,
        7310.0,
        7315.0,
        7320.0,
        7325.0,
        7330.0,
        7335.0,
        7340.0,
        7345.0,
        7350.0,
        7355.0,
        7360.0,
        7365.0,
        7370.0,
        7375.0,
        7380.0,
        7385.0,
        7390.0,
        7395.0,
        7400.0,
        7405.0,
        7410.0,
        7415.0,
        7420.0,
        7425.0,
        7430.0,
        7435.0,
        7440.0,
        7445.0,
        7450.0,
        7455.0,
        7460.0,
        7465.0,
        7470.0,
        7475.0,
        7480.0,
        7485.0,
        7490.0,
        7495.0,
        7500.0,
        7505.0,
        7510.0,
        7515.0,
        7520.0,
        7525.0,
        7530.0,
        7535.0,
        7540.0,
        7545.0,
        7550.0,
        7555.0,
        7560.0,
        7565.0,
        7570.0,
        7575.0,
        7580.0,
        7585.0,
        7590.0,
        7595.0,
        7600.0,
        7605.0,
        7610.0,
        7615.0,
        7620.0,
        7625.0,
        7630.0,
        7635.0,
        7640.0,
        7645.0,
        7650.0,
        7655.0,
        7660.0,
        7665.0,
        7670.0,
        7675.0,
        7680.0,
        7685.0,
        7690.0,
        7695.0,
        7700.0,
        7705.0,
        7710.0,
        7715.0,
        7720.0,
        7725.0,
        7730.0,
        7735.0,
        7740.0,
        7745.0,
        7750.0,
        7755.0,
        7760.0,
        7765.0,
        7770.0,
        7775.0,
        7780.0,
        7785.0,
        7790.0,
        7795.0,
        7800.0,
        7805.0,
        7810.0,
        7815.0,
        7820.0,
        7825.0,
        7830.0,
        7835.0,
        7840.0,
        7845.0,
        7850.0,
        7855.0,
        7860.0,
        7865.0,
        7870.0,
        7875.0,
        7880.0,
        7885.0,
        7890.0,
        7895.0,
        7900.0,
        7905.0,
        7910.0,
        7915.0,
        7920.0,
        7925.0,
        7930.0,
        7935.0,
        7940.0,
        7945.0,
        7950.0,
        7955.0,
        7960.0,
        7965.0,
        7970.0,
        7975.0,
        7980.0,
        7985.0,
        7990.0,
        7995.0,
        8000.0,
        8005.0,
        8010.0,
        8015.0,
        8020.0,
        8025.0,
        8030.0,
        8035.0,
        8040.0,
        8045.0,
        8050.0,
        8055.0,
        8060.0,
        8065.0,
        8070.0,
        8075.0,
        8080.0,
        8085.0,
        8090.0,
        8095.0,
        8100.0,
        8105.0,
        8110.0,
        8115.0,
        8120.0,
        8125.0,
        8130.0,
        8135.0,
        8140.0,
        8145.0,
        8150.0,
        8155.0,
        8160.0,
        8165.0,
        8170.0,
        8175.0,
        8180.0,
        8185.0,
        8190.0,
        8195.0,
        8200.0,
        8205.0,
        8210.0,
        8215.0,
        8220.0,
        8225.0,
        8230.0,
        8235.0,
        8240.0,
        8245.0,
        8250.0,
        8255.0,
        8260.0,
        8265.0,
        8270.0,
        8275.0,
        8280.0,
        8285.0,
        8290.0,
        8295.0,
        8300.0,
        8305.0,
        8310.0,
        8315.0,
        8320.0,
        8325.0,
        8330.0,
        8335.0,
        8340.0,
        8345.0,
        8350.0,
        8355.0,
        8360.0,
        8365.0,
        8370.0,
        8375.0,
        8380.0,
        8385.0,
        8390.0,
        8395.0,
        8400.0,
        8405.0,
        8410.0,
        8415.0,
        8420.0,
        8425.0,
        8430.0,
        8435.0,
        8440.0,
        8445.0,
        8450.0,
        8455.0,
        8460.0,
        8465.0,
        8470.0,
        8475.0,
        8480.0,
        8485.0,
        8490.0,
        8495.0,
        8500.0,
        8505.0,
        8510.0,
        8515.0,
        8520.0,
        8525.0,
        8530.0,
        8535.0,
        8540.0,
        8545.0,
        8550.0,
        8555.0,
        8560.0,
        8565.0,
        8570.0,
        8575.0,
        8580.0,
        8585.0,
        8590.0,
        8595.0,
        8600.0,
        8605.0,
        8610.0,
        8615.0,
        8620.0,
        8625.0,
        8630.0,
        8635.0,
        8640.0,
        8645.0,
        8650.0,
        8655.0,
        8660.0,
        8665.0,
        8670.0,
        8675.0,
        8680.0,
        8685.0,
        8690.0,
        8695.0,
        8700.0,
        8705.0,
        8710.0,
        8715.0,
        8720.0,
        8725.0,
        8730.0,
        8735.0,
        8740.0,
        8745.0,
        8750.0,
        8755.0,
        8760.0,
        8765.0,
        8770.0,
        8775.0,
        8780.0,
        8785.0,
        8790.0,
        8795.0,
        8800.0,
        8805.0,
        8810.0,
        8815.0,
        8820.0,
        8825.0,
        8830.0,
        8835.0,
        8840.0,
        8845.0,
        8850.0,
        8855.0,
        8860.0,
        8865.0,
        8870.0,
        8875.0,
        8880.0,
        8885.0,
        8890.0,
        8895.0,
        8900.0,
        8905.0,
        8910.0,
        8915.0,
        8920.0,
        8925.0,
        8930.0,
        8935.0,
        8940.0,
        8945.0,
        8950.0,
        8955.0,
        8960.0,
        8965.0,
        8970.0,
        8975.0,
        8980.0,
        8985.0,
        8990.0,
        8995.0,
        9000.0,
        9005.0,
        9010.0,
        9015.0,
        9020.0,
        9025.0,
        9030.0,
        9035.0,
        9040.0,
        9045.0,
        9050.0,
        9055.0,
        9060.0,
        9065.0,
        9070.0,
        9075.0,
        9080.0,
        9085.0,
        9090.0,
        9095.0,
        9100.0,
        9105.0,
        9110.0,
        9115.0,
        9120.0,
        9125.0,
        9130.0,
        9135.0,
        9140.0,
        9145.0,
        9150.0,
        9155.0,
        9160.0,
        9165.0,
        9170.0,
        9175.0,
        9180.0,
        9185.0,
        9190.0,
        9195.0,
        9200.0,
        9205.0,
        9210.0,
        9215.0,
        9220.0,
        9225.0,
        9230.0,
        9235.0,
        9240.0,
        9245.0,
        9250.0,
        9255.0,
        9260.0,
        9265.0,
        9270.0,
        9275.0,
        9280.0,
        9285.0,
        9290.0,
        9295.0,
        9300.0,
        9305.0,
        9310.0,
        9315.0,
        9320.0,
        9325.0,
        9330.0,
        9335.0,
        9340.0,
        9345.0,
        9350.0,
        9355.0,
        9360.0,
        9365.0,
        9370.0,
        9375.0,
        9380.0,
        9385.0,
        9390.0,
        9395.0,
        9400.0,
        9405.0,
        9410.0,
        9415.0,
        9420.0,
        9425.0,
        9430.0,
        9435.0,
        9440.0,
        9445.0,
        9450.0,
        9455.0,
        9460.0,
        9465.0,
        9470.0,
        9475.0,
        9480.0,
        9485.0,
        9490.0,
        9495.0,
        9500.0,
        9505.0,
        9510.0,
        9515.0,
        9520.0,
        9525.0,
        9530.0,
        9535.0,
        9540.0,
        9545.0,
        9550.0,
        9555.0,
        9560.0,
        9565.0,
        9570.0,
        9575.0,
        9580.0,
        9585.0,
        9590.0,
        9595.0,
        9600.0,
        9605.0,
        9610.0,
        9615.0,
        9620.0,
        9625.0,
        9630.0,
        9635.0,
        9640.0,
        9645.0,
        9650.0,
        9655.0,
        9660.0,
        9665.0,
        9670.0,
        9675.0,
        9680.0,
        9685.0,
        9690.0,
        9695.0,
        9700.0,
        9705.0,
        9710.0,
        9715.0,
        9720.0,
        9725.0,
        9730.0,
        9735.0,
        9740.0,
        9745.0,
        9750.0,
        9755.0,
        9760.0,
        9765.0,
        9770.0,
        9775.0,
        9780.0,
        9785.0,
        9790.0,
        9795.0,
        9800.0,
        9805.0,
        9810.0,
        9815.0,
        9820.0,
        9825.0,
        9830.0,
        9835.0,
        9840.0,
        9845.0,
        9850.0,
        9855.0,
        9860.0,
        9865.0,
        9870.0,
        9875.0,
        9880.0,
        9885.0,
        9890.0,
        9895.0,
        9900.0,
        9905.0,
        9910.0,
        9915.0,
        9920.0,
        9925.0,
        9930.0,
        9935.0,
        9940.0,
        9945.0,
        9950.0,
        9955.0,
        9960.0,
        9965.0,
        9970.0,
        9975.0,
        9980.0,
        9985.0,
        9990.0,
        9995.0,
        10000.0,
        10005.0,
        10010.0,
        10015.0,
        10020.0,
        10025.0,
        10030.0,
        10035.0,
        10040.0,
        10045.0,
        10050.0,
        10055.0,
        10060.0,
        10065.0,
        10070.0,
        10075.0,
        10080.0,
        10085.0,
        10090.0,
        10095.0,
        10100.0,
        10105.0,
        10110.0,
        10115.0,
        10120.0,
        10125.0,
        10130.0,
        10135.0,
        10140.0,
        10145.0,
        10150.0,
        10155.0,
        10160.0,
        10165.0,
        10170.0,
        10175.0,
        10180.0,
        10185.0,
        10190.0,
        10195.0,
        10200.0,
        10205.0,
        10210.0,
        10215.0,
        10220.0,
        10225.0,
        10230.0,
        10235.0,
        10240.0,
        10245.0,
        10250.0,
        10255.0,
        10260.0,
        10265.0,
        10270.0,
        10275.0,
        10280.0,
        10285.0,
        10290.0,
        10295.0,
        10300.0,
        10305.0,
        10310.0,
        10315.0,
        10320.0,
        10325.0,
        10330.0,
        10335.0,
        10340.0,
        10345.0,
        10350.0,
        10355.0,
        10360.0,
        10365.0,
        10370.0,
        10375.0,
        10380.0,
        10385.0,
        10390.0,
        10395.0,
        10400.0,
        10405.0,
        10410.0,
        10415.0,
        10420.0,
        10425.0,
        10430.0,
        10435.0,
        10440.0,
        10445.0,
        10450.0,
        10455.0,
        10460.0,
        10465.0,
        10470.0,
        10475.0,
        10480.0,
        10485.0,
        10490.0,
        10495.0,
        10500.0
      ],
      "units":"angstrom"
    },
    "values":{
      "value":[
        0.0,
        0.0,
        0.0,
        0.0,
        0.0,
        0.0,
        0.0,
        0.0,
        0.0,
        0.0,
        0.0,
        0.0,
        0.0,
        0.0,
        0.0,
        0.0,
        0.0,
        0.0,
        0.0,
        0.0,
        0.0,
        0.0,
        0.0,
        0.0,
        0.0,
        0.0,
        0.0,
        0.0,
        0.0,
        0.0,
        0.0,
        0.0,
        0.0,
        0.0,
        0.0,
        0.0,
        0.0,
        0.0,
        0.0,
        0.0,
        0.0,
        0.0,
        0.0,
        0.0,
        0.0,
        0.0,
        0.0,
        0.0,
        0.0,
        0.0,
        0.0,
        0.0,
        0.0,
        0.0,
        0.0,
        0.0,
        0.0,
        0.0,
        0.0,
        0.0,
        0.0,
        0.0,
        0.0,
        0.0,
        0.0,
        0.0,
        0.0,
        0.0,
        0.0,
        0.0,
        0.0,
        0.0,
        0.0,
        0.0,
        0.0,
        0.0,
        0.0,
        0.0,
        0.0,
        0.0,
        0.0,
        0.0,
        0.0,
        0.0,
        0.0,
        0.0,
        0.0,
        0.0,
        0.0,
        0.0,
        0.0,
        0.0,
        0.0,
        0.0,
        0.0,
        0.0,
        0.0,
        0.0,
        0.0,
        0.0,
        0.0,
        0.0,
        0.0,
        0.0,
        0.0,
        0.0,
        0.0,
        0.0,
        0.0,
        0.0,
        0.0,
        0.0,
        0.0,
        0.0,
        0.0,
        0.0,
        0.0,
        0.0,
        0.0,
        0.0,
        0.0,
        0.0,
        0.0,
        0.0,
        0.0,
        0.0,
        0.0,
        0.0,
        0.0,
        0.0,
        0.0,
        0.0,
        0.0,
        0.0,
        0.0,
        0.0,
        0.0,
        0.0,
        0.0,
        0.0,
        0.0,
        0.0,
        0.0,
        0.0,
        0.0,
        0.0,
        0.0,
        0.0,
        0.0,
        0.0,
        0.0,
        0.0,
        0.0,
        0.0,
        0.0,
        0.0,
        0.0,
        0.0,
        0.0,
        0.0,
        0.0,
        0.0,
        0.0,
        0.0,
        0.0,
        0.0,
        0.0,
        0.0,
        0.0,
        0.0,
        0.0,
        0.0,
        0.0,
        0.0,
        0.0,
        0.0,
        0.0,
        0.0,
        0.0,
        0.0,
        0.0,
        0.0,
        0.0,
        0.0,
        0.0,
        0.0,
        0.0,
        0.0,
        0.0,
        0.0,
        0.0,
        0.0,
        0.0,
        0.0,
        0.0,
        0.0,
        0.0,
        0.0,
        0.0,
        0.0,
        0.0,
        1e-06,
        2e-06,
        3e-06,
        4e-06,
        5e-06,
        5e-06,
        5e-06,
        4e-06,
        3e-06,
        0.0,
        0.0,
        0.0,
        0.0,
        0.0,
        0.0,
        0.0,
        0.0,
        0.0,
        0.0,
        0.0,
        1.4e-05,
        3e-05,
        4.6e-05,
        6.1e-05,
        7.1e-05,
        7.6e-05,
        7.4e-05,
        6.2e-05,
        3.8e-05,
        0.0,
        0.0,
        0.0,
        0.0,
        0.0,
        0.0,
        0.0,
        0.0,
        0.0,
        0.0,
        0.0,
        0.000196,
        0.00044,
        0.000723,
        0.001036,
        0.001368,
        0.00171,
        0.002053,
        0.002387,
        0.002702,
        0.002988,
        0.003238,
        0.003451,
        0.003629,
        0.003773,
        0.003883,
        0.003962,
        0.00401,
        0.004029,
        0.00402,
        0.003984,
        0.003924,
        0.00385,
        0.003771,
        0.003698,
        0.003642,
        0.003614,
        0.003623,
        0.003681,
        0.003798,
        0.003984,
        0.004246,
        0.004568,
        0.004931,
        0.005315,
        0.005702,
        0.00607,
        0.006401,
        0.006675,
        0.006871,
        0.006972,
        0.006966,
        0.006883,
        0.006759,
        0.006634,
        0.006544,
        0.006529,
        0.006625,
        0.006872,
        0.007307,
        0.007968,
        0.008879,
        0.010005,
        0.011297,
        0.012708,
        0.014188,
        0.015688,
        0.017159,
        0.018554,
        0.019822,
        0.020916,
        0.021799,
        0.022484,
        0.022997,
        0.023363,
        0.023608,
        0.023757,
        0.023835,
        0.023869,
        0.023884,
        0.023904,
        0.023951,
        0.024018,
        0.024093,
        0.024166,
        0.024225,
        0.024258,
        0.024254,
        0.024201,
        0.024089,
        0.023904,
        0.023641,
        0.02331,
        0.022924,
        0.022498,
        0.022047,
        0.021586,
        0.021128,
        0.020688,
        0.020281,
        0.01992,
        0.019629,
        0.019461,
        0.019477,
        0.019737,
        0.020305,
        0.02124,
        0.022603,
        0.024457,
        0.026863,
        0.02988,
        0.03354,
        0.037739,
        0.042344,
        0.047221,
        0.052237,
        0.057257,
        0.062147,
        0.066774,
        0.071003,
        0.074701,
        0.077763,
        0.080197,
        0.082043,
        0.083338,
        0.08412,
        0.084427,
        0.084298,
        0.083771,
        0.082883,
        0.081673,
        0.080189,
        0.078516,
        0.076748,
        0.074982,
        0.073311,
        0.071831,
        0.070637,
        0.069824,
        0.069487,
        0.069721,
        0.070591,
        0.072043,
        0.073995,
        0.076362,
        0.079061,
        0.082009,
        0.085123,
        0.088318,
        0.091512,
        0.094622,
        0.09758,
        0.100387,
        0.103061,
        0.105619,
        0.10808,
        0.110459,
        0.112776,
        0.115047,
        0.11729,
        0.119522,
        0.121755,
        0.123979,
        0.126177,
        0.128332,
        0.130428,
        0.132448,
        0.134376,
        0.136195,
        0.13789,
        0.139442,
        0.140844,
        0.14162,
        0.133245,
        0.133034,
        0.145308,
        0.158828,
        0.161896,
        0.156548,
        0.148584,
        0.138869,
        0.147694,
        0.154918,
        0.143212,
        0.127528,
        0.124769,
        0.127349,
        0.125341,
        0.123948,
        0.130338,
        0.14441,
        0.163379,
        0.180983,
        0.191205,
        0.192476,
        0.186707,
        0.185267,
        0.197107,
        0.212037,
        0.218414,
        0.217907,
        0.214606,
        0.208963,
        0.201202,
        0.194259,
        0.19112,
        0.192247,
        0.197419,
        0.206194,
        0.216452,
        0.219568,
        0.20842,
        0.188422,
        0.168289,
        0.157413,
        0.162317,
        0.17738,
        0.194568,
        0.208335,
        0.215451,
        0.219448,
        0.223836,
        0.22529,
        0.221708,
        0.222724,
        0.235108,
        0.242457,
        0.229722,
        0.210452,
        0.201639,
        0.205466,
        0.218271,
        0.227829,
        0.224592,
        0.218295,
        0.219191,
        0.220345,
        0.214647,
        0.211473,
        0.220298,
        0.234513,
        0.244668,
        0.246038,
        0.237522,
        0.227771,
        0.225904,
        0.233137,
        0.247164,
        0.259471,
        0.261969,
        0.254492,
        0.239757,
        0.224119,
        0.212328,
        0.199079,
        0.179949,
        0.164095,
        0.162512,
        0.179952,
        0.214477,
        0.243627,
        0.247844,
        0.239713,
        0.236315,
        0.240563,
        0.250649,
        0.260047,
        0.263545,
        0.265921,
        0.273293,
        0.287141,
        0.306498,
        0.325245,
        0.336606,
        0.336329,
        0.323793,
        0.310378,
        0.306791,
        0.309037,
        0.310942,
        0.312316,
        0.313246,
        0.308941,
        0.294925,
        0.272836,
        0.246904,
        0.225597,
        0.216137,
        0.216508,
        0.222686,
        0.23186,
        0.242077,
        0.253624,
        0.268128,
        0.29036,
        0.320489,
        0.337141,
        0.322564,
        0.295038,
        0.277014,
        0.271616,
        0.274304,
        0.269217,
        0.243769,
        0.209785,
        0.183093,
        0.171124,
        0.176431,
        0.190457,
        0.203186,
        0.20989,
        0.208767,
        0.204429,
        0.20181,
        0.20072,
        0.201538,
        0.212054,
        0.23796,
        0.269167,
        0.294424,
        0.313628,
        0.328727,
        0.338739,
        0.339177,
        0.314457,
        0.25656,
        0.198823,
        0.177805,
        0.201594,
        0.262574,
        0.318763,
        0.330647,
        0.302942,
        0.257366,
        0.239409,
        0.284405,
        0.363275,
        0.436675,
        0.48862,
        0.513963,
        0.527562,
        0.544706,
        0.56242,
        0.574108,
        0.576967,
        0.570233,
        0.557503,
        0.543819,
        0.53564,
        0.537361,
        0.543705,
        0.547262,
        0.541763,
        0.526312,
        0.520358,
        0.54083,
        0.574243,
        0.601692,
        0.613025,
        0.60475,
        0.591256,
        0.587136,
        0.589915,
        0.593151,
        0.591592,
        0.581774,
        0.566201,
        0.549065,
        0.53536,
        0.529634,
        0.533849,
        0.547139,
        0.559895,
        0.562997,
        0.558009,
        0.549551,
        0.543789,
        0.544995,
        0.548337,
        0.549337,
        0.55406,
        0.567549,
        0.580228,
        0.582269,
        0.577457,
        0.573434,
        0.579665,
        0.600923,
        0.621388,
        0.625602,
        0.620159,
        0.614886,
        0.610485,
        0.605374,
        0.59795,
        0.58773,
        0.578743,
        0.571529,
        0.548185,
        0.498286,
        0.459779,
        0.470637,
        0.520563,
        0.586939,
        0.646115,
        0.680771,
        0.699932,
        0.71567,
        0.725902,
        0.727722,
        0.729104,
        0.737684,
        0.748871,
        0.754068,
        0.740878,
        0.703565,
        0.666838,
        0.655942,
        0.667822,
        0.691112,
        0.709506,
        0.712701,
        0.719349,
        0.745719,
        0.769592,
        0.769437,
        0.764977,
        0.777157,
        0.790565,
        0.786752,
        0.771469,
        0.757101,
        0.758356,
        0.784392,
        0.819831,
        0.846244,
        0.857533,
        0.854392,
        0.852359,
        0.865943,
        0.890701,
        0.915051,
        0.917819,
        0.885168,
        0.842193,
        0.817712,
        0.816489,
        0.834219,
        0.854368,
        0.86328,
        0.871062,
        0.888681,
        0.906793,
        0.914192,
        0.912528,
        0.906039,
        0.896458,
        0.886354,
        0.884138,
        0.896021,
        0.913574,
        0.927894,
        0.942829,
        0.96152,
        0.971513,
        0.961945,
        0.943902,
        0.930859,
        0.923889,
        0.920591,
        0.917066,
        0.910116,
        0.900856,
        0.891958,
        0.888027,
        0.89231,
        0.900695,
        0.907543,
        0.908452,
        0.901884,
        0.896511,
        0.901056,
        0.914236,
        0.931149,
        0.942421,
        0.941773,
        0.939769,
        0.947257,
        0.959383,
        0.968122,
        0.968463,
        0.958935,
        0.949193,
        0.949068,
        0.957972,
        0.971423,
        0.979806,
        0.976878,
        0.975029,
        0.985708,
        0.997971,
        0.999866,
        0.997822,
        0.999096,
        0.995876,
        0.980843,
        0.963712,
        0.955102,
        0.952228,
        0.948727,
        0.937322,
        0.914398,
        0.89191,
        0.882838,
        0.8887,
        0.90608,
        0.923291,
        0.931394,
        0.940719,
        0.960035,
        0.972583,
        0.96249,
        0.942958,
        0.930304,
        0.924248,
        0.9224,
        0.930523,
        0.952341,
        0.975245,
        0.986238,
        0.987099,
        0.983504,
        0.981944,
        0.985484,
        0.982651,
        0.9638,
        0.941122,
        0.9284,
        0.923938,
        0.921714,
        0.913866,
        0.896392,
        0.882572,
        0.885489,
        0.900167,
        0.917194,
        0.927487,
        0.925915,
        0.922813,
        0.928663,
        0.939062,
        0.946179,
        0.943359,
        0.927801,
        0.910933,
        0.904063,
        0.903794,
        0.90404,
        0.902668,
        0.899333,
        0.896886,
        0.898386,
        0.904525,
        0.913603,
        0.916705,
        0.907188,
        0.894723,
        0.889799,
        0.889889,
        0.889462,
        0.884009,
        0.869859,
        0.845672,
        0.814148,
        0.791804,
        0.793374,
        0.812627,
        0.838865,
        0.864471,
        0.883855,
        0.896465,
        0.903607,
        0.908982,
        0.915367,
        0.919428,
        0.919238,
        0.924598,
        0.943112,
        0.961884,
        0.966105,
        0.953837,
        0.927879,
        0.897118,
        0.873588,
        0.875824,
        0.914275,
        0.960537,
        0.985001,
        0.992075,
        0.99373,
        0.998154,
        1.00859,
        1.012259,
        0.997682,
        0.974577,
        0.956352,
        0.949984,
        0.958578,
        0.976202,
        0.995683,
        1.013916,
        1.02773,
        1.029611,
        1.015617,
        1.000421,
        0.997886,
        1.000019,
        0.995516,
        0.981704,
        0.960519,
        0.943716,
        0.942189,
        0.953588,
        0.971144,
        0.983674,
        0.983306,
        0.97983,
        0.984398,
        0.995958,
        1.009154,
        1.01363,
        1.003017,
        0.991892,
        0.992972,
        0.990588,
        0.970428,
        0.952003,
        0.956097,
        0.974773,
        0.994075,
        1.004696,
        1.001994,
        0.995351,
        0.994529,
        0.996808,
        0.997526,
        0.996766,
        0.996322,
        1.00011,
        1.010507,
        1.021627,
        1.026555,
        1.022537,
        1.010326,
        1.000533,
        1.001595,
        1.00339,
        0.995275,
        0.983086,
        0.975965,
        0.979793,
        0.995932,
        1.010911,
        1.012262,
        1.00635,
        1.002012,
        0.999149,
        0.996038,
        0.993417,
        0.992466,
        0.993689,
        0.996646,
        0.997812,
        0.994855,
        0.993314,
        0.998687,
        1.008448,
        1.017822,
        1.021071,
        1.013845,
        0.998315,
        0.979889,
        0.970409,
        0.979519,
        1.001642,
        1.026819,
        1.042806,
        1.04114,
        1.030776,
        1.022624,
        1.018004,
        1.015835,
        1.015037,
        1.014746,
        1.014967,
        1.015918,
        1.017821,
        1.020829,
        1.024841,
        1.029687,
        1.035201,
        1.041091,
        1.046571,
        1.050731,
        1.052661,
        1.051723,
        1.048365,
        1.043306,
        1.037265,
        1.030861,
        1.024322,
        1.017774,
        1.011343,
        1.005108,
        0.998951,
        0.992706,
        0.986206,
        0.979665,
        0.974828,
        0.973818,
        0.978761,
        1.017831,
        1.018511,
        1.02333,
        1.030365,
        1.056993,
        1.054093,
        1.037636,
        1.038362,
        1.027455,
        1.036436,
        1.035645,
        1.028063,
        1.02598,
        1.034168,
        1.033214,
        1.02654,
        1.019248,
        1.026252,
        1.029628,
        1.025443,
        1.01137,
        1.005385,
        0.999912,
        0.998574,
        1.003848,
        1.028209,
        1.053427,
        1.038223,
        1.06931,
        1.047119,
        1.042663,
        1.033852,
        1.02958,
        1.044886,
        1.040218,
        1.021321,
        1.012308,
        1.010524,
        1.011971,
        1.020415,
        1.009879,
        1.027548,
        1.036276,
        1.012916,
        1.010864,
        1.010273,
        0.987,
        0.989569,
        1.018551,
        1.005858,
        0.993433,
        0.954722,
        0.944721,
        0.968673,
        1.003089,
        1.01075,
        1.011044,
        0.996801,
        1.009932,
        1.007777,
        1.031916,
        1.016729,
        0.980525,
        0.989285,
        1.007455,
        0.986249,
        0.984511,
        0.979022,
        0.976127,
        0.963899,
        0.951718,
        0.962844,
        0.996327,
        1.006773,
        1.017783,
        0.968999,
        0.993008,
        1.001413,
        0.987552,
        0.963831,
        0.977816,
        0.992793,
        0.960309,
        0.973811,
        0.995775,
        0.997741,
        0.981681,
        0.985877,
        0.983018,
        1.004639,
        0.99138,
        0.962308,
        0.969962,
        1.004277,
        1.018888,
        0.99916,
        1.007022,
        1.001362,
        0.97517,
        0.981672,
        0.978701,
        0.974897,
        0.972211,
        0.978608,
        0.993711,
        0.979825,
        0.992779,
        0.990708,
        0.997902,
        0.973374,
        0.985081,
        0.980833,
        0.98322,
        0.989092,
        0.985322,
        0.978955,
        0.97384,
        0.965059,
        0.923582,
        0.963181,
        0.987912,
        1.001182,
        0.985548,
        0.980392,
        0.983997,
        0.974179,
        0.987087,
        0.996395,
        0.98688,
        0.967139,
        0.947275,
        0.880352,
        0.845187,
        0.941686,
        0.949813,
        0.982996,
        0.977063,
        0.96656,
        0.954682,
        0.968511,
        0.978073,
        0.970918,
        0.982966,
        0.982458,
        0.97701,
        0.947269,
        0.939227,
        0.958732,
        0.956651,
        0.956504,
        0.975374,
        0.965479,
        0.947315,
        0.96015,
        0.960355,
        0.966242,
        0.981703,
        0.976733,
        0.95279,
        0.951288,
        0.954812,
        0.956677,
        0.929973,
        0.938358,
        0.96392,
        0.977165,
        0.947969,
        0.943631,
        0.945382,
        0.94747,
        0.944052,
        0.952161,
        0.951165,
        0.938821,
        0.956775,
        0.954346,
        0.941812,
        0.943702,
        0.953065,
        0.942313,
        0.921386,
        0.936679,
        0.944169,
        0.943558,
        0.941819,
        0.940808,
        0.946772,
        0.94486,
        0.943664,
        0.942154,
        0.940835,
        0.93988,
        0.938487,
        0.936508,
        0.935266,
        0.934334,
        0.933497,
        0.93258,
        0.931823,
        0.9313,
        0.930765,
        0.930143,
        0.9302,
        0.930422,
        0.92986,
        0.929182,
        0.928292,
        0.927673,
        0.927251,
        0.926685,
        0.926384,
        0.925957,
        0.925303,
        0.927097,
        0.904542,
        0.904329,
        0.920586,
        0.918775,
        0.923201,
        0.910663,
        0.904818,
        0.90574,
        0.894206,
        0.895151,
        0.889376,
        0.905271,
        0.899292,
        0.910697,
        0.924792,
        0.917617,
        0.905613,
        0.90752,
        0.905643,
        0.903619,
        0.916524,
        0.917884,
        0.886028,
        0.881778,
        0.890325,
        0.908258,
        0.902011,
        0.893145,
        0.895329,
        0.894777,
        0.895513,
        0.892247,
        0.909806,
        0.910595,
        0.901665,
        0.898937,
        0.905506,
        0.903032,
        0.89417,
        0.900822,
        0.881986,
        0.862684,
        0.839776,
        0.833425,
        0.849309,
        0.861929,
        0.860485,
        0.877039,
        0.891411,
        0.898866,
        0.902818,
        0.903192,
        0.889441,
        0.886672,
        0.88119,
        0.884194,
        0.883455,
        0.878963,
        0.863532,
        0.883652,
        0.870781,
        0.86212,
        0.852706,
        0.840819,
        0.873574,
        0.873523,
        0.865221,
        0.860497,
        0.869016,
        0.866528,
        0.871233,
        0.866671,
        0.883972,
        0.9042,
        0.889997,
        0.865838,
        0.858007,
        0.863079,
        0.864177,
        0.86772,
        0.87577,
        0.87372,
        0.841775,
        0.84082,
        0.861264,
        0.859029,
        0.867355,
        0.846231,
        0.837249,
        0.842824,
        0.851914,
        0.863945,
        0.86286,
        0.854877,
        0.842001,
        0.857376,
        0.866396,
        0.843046,
        0.850027,
        0.857433,
        0.847138,
        0.846242,
        0.845284,
        0.837221,
        0.822535,
        0.83518,
        0.834852,
        0.825716,
        0.839414,
        0.842683,
        0.831507,
        0.837218,
        0.843876,
        0.844255,
        0.833766,
        0.832658,
        0.831587,
        0.830147,
        0.829234,
        0.828299,
        0.827101,
        0.826521,
        0.825956,
        0.825081,
        0.824439,
        0.824075,
        0.823673,
        0.822912,
        0.822127,
        0.821333,
        0.820534,
        0.819735,
        0.818941,
        0.818158,
        0.817392,
        0.816648,
        0.815932,
        0.815248,
        0.814603,
        0.813941,
        0.81297,
        0.812189,
        0.812124,
        0.812145,
        0.81127,
        0.810372,
        0.809384,
        0.808327,
        0.807839,
        0.80779,
        0.807215,
        0.808787,
        0.817747,
        0.811575,
        0.793806,
        0.796305,
        0.819724,
        0.817764,
        0.822327,
        0.823134,
        0.810825,
        0.800775,
        0.812358,
        0.807261,
        0.808452,
        0.807921,
        0.819049,
        0.795201,
        0.812867,
        0.820163,
        0.818145,
        0.800295,
        0.787073,
        0.813152,
        0.814416,
        0.811498,
        0.80702,
        0.820073,
        0.810433,
        0.813157,
        0.798736,
        0.794739,
        0.804564,
        0.8041,
        0.79447,
        0.793424,
        0.793791,
        0.790543,
        0.781064,
        0.775346,
        0.774638,
        0.77028,
        0.763339,
        0.764339,
        0.756993,
        0.7748,
        0.790033,
        0.800409,
        0.791745,
        0.792226,
        0.794109,
        0.78813,
        0.793369,
        0.785897,
        0.775326,
        0.771675,
        0.783762,
        0.782014,
        0.785936,
        0.783834,
        0.776585,
        0.787251,
        0.799818,
        0.792097,
        0.765494,
        0.766794,
        0.784709,
        0.790037,
        0.778699,
        0.771597,
        0.776509,
        0.773831,
        0.772433,
        0.769376,
        0.763211,
        0.766244,
        0.775161,
        0.766167,
        0.760151,
        0.776596,
        0.782347,
        0.775665,
        0.775487,
        0.774619,
        0.767685,
        0.76481,
        0.765466,
        0.754146,
        0.742497,
        0.758878,
        0.759277,
        0.740789,
        0.739929,
        0.753452,
        0.736228,
        0.753011,
        0.772947,
        0.769159,
        0.767247,
        0.756623,
        0.746122,
        0.721287,
        0.750792,
        0.774268,
        0.782631,
        0.788125,
        0.775636,
        0.781671,
        0.784839,
        0.775474,
        0.756644,
        0.766247,
        0.764501,
        0.75939,
        0.75315,
        0.750749,
        0.748378,
        0.74793,
        0.757601,
        0.743899,
        0.741008,
        0.737653,
        0.747222,
        0.743036,
        0.743287,
        0.746788,
        0.761732,
        0.752878,
        0.749015,
        0.756945,
        0.760672,
        0.749839,
        0.73631,
        0.743619,
        0.757881,
        0.756258,
        0.753092,
        0.745917,
        0.743722,
        0.750609,
        0.754315,
        0.742052,
        0.731974,
        0.740272,
        0.750319,
        0.762789,
        0.75742,
        0.759766,
        0.740279,
        0.7439,
        0.747407,
        0.756502,
        0.756336,
        0.751207,
        0.69704,
        0.675078,
        0.720628,
        0.739347,
        0.722464,
        0.73656,
        0.726238,
        0.721277,
        0.681282,
        0.589053,
        0.60192,
        0.692737,
        0.724275,
        0.727763,
        0.735799,
        0.739384,
        0.732391,
        0.734591,
        0.73311,
        0.72934,
        0.728275,
        0.731541,
        0.73384,
        0.719378,
        0.72453,
        0.732049,
        0.736068,
        0.734988,
        0.734883,
        0.733904,
        0.732143,
        0.708642,
        0.689017,
        0.61589,
        0.624412,
        0.686293,
        0.697821,
        0.713789,
        0.700769,
        0.697119,
        0.721915,
        0.716529,
        0.730143,
        0.722067,
        0.725948,
        0.731796,
        0.717677,
        0.712761,
        0.702777,
        0.695626,
        0.72028,
        0.716499,
        0.713798,
        0.716181,
        0.709677,
        0.710102,
        0.709587,
        0.720228,
        0.717855,
        0.704227,
        0.695367,
        0.70905,
        0.671259,
        0.672748,
        0.702676,
        0.704281,
        0.695017,
        0.704996,
        0.698723,
        0.702111,
        0.719028,
        0.712707,
        0.710367,
        0.695171,
        0.683149,
        0.692577,
        0.701487,
        0.69861,
        0.700884,
        0.700936,
        0.700455,
        0.700719,
        0.702925,
        0.699623,
        0.702687,
        0.69506,
        0.6928,
        0.703678,
        0.704843,
        0.697866,
        0.690213,
        0.693778,
        0.700477,
        0.691154,
        0.680062,
        0.676552,
        0.683093,
        0.683849,
        0.666619,
        0.643996,
        0.666524,
        0.671294,
        0.657889,
        0.645254,
        0.6491,
        0.665469,
        0.672207,
        0.696459,
        0.708089,
        0.721686,
        0.722302,
        0.720485,
        0.701755,
        0.694203,
        0.680459,
        0.67092,
        0.659078,
        0.652186,
        0.648348,
        0.644402,
        0.6601,
        0.659195,
        0.662409,
        0.678753,
        0.666717,
        0.675171,
        0.674677,
        0.662616,
        0.646457,
        0.64352,
        0.649707,
        0.635191,
        0.63232,
        0.641264,
        0.641456,
        0.623464,
        0.61824,
        0.634371,
        0.64466,
        0.630363,
        0.638693,
        0.636038,
        0.6362,
        0.628399,
        0.62784,
        0.634631,
        0.630948,
        0.62986,
        0.6339,
        0.625257,
        0.629729,
        0.628529,
        0.6295,
        0.633031,
        0.639869,
        0.650693,
        0.641986,
        0.632434,
        0.650397,
        0.641478,
        0.640816,
        0.638299,
        0.632406,
        0.627231,
        0.60284,
        0.601151,
        0.598401,
        0.605653,
        0.590783,
        0.585213,
        0.578893,
        0.603017,
        0.590658,
        0.597607,
        0.607054,
        0.600474,
        0.608968,
        0.607696,
        0.624011,
        0.653054,
        0.671516,
        0.656002,
        0.649194,
        0.63185,
        0.624575,
        0.62445,
        0.607389,
        0.589932,
        0.606862,
        0.576979,
        0.600092,
        0.610937,
        0.59671,
        0.592904,
        0.612333,
        0.62276,
        0.616141,
        0.606028,
        0.620983,
        0.623425,
        0.598372,
        0.580268,
        0.623423,
        0.640611,
        0.629243,
        0.597971,
        0.596751,
        0.613387,
        0.614154,
        0.607851,
        0.584668,
        0.585646,
        0.549123,
        0.606035,
        0.592335,
        0.595554,
        0.616032,
        0.61311,
        0.602513,
        0.590783,
        0.58452,
        0.601604,
        0.59971,
        0.598511,
        0.597681,
        0.586313,
        0.599045,
        0.594655,
        0.586893,
        0.588889,
        0.588112,
        0.592887,
        0.601478,
        0.589738,
        0.589866,
        0.605064,
        0.601926,
        0.594003,
        0.593591,
        0.590669,
        0.593027,
        0.585514,
        0.59935,
        0.593936,
        0.584879,
        0.592919,
        0.584397,
        0.581978,
        0.572234,
        0.57908,
        0.57491,
        0.588522,
        0.587342,
        0.579804,
        0.583623,
        0.582231,
        0.593405,
        0.578527,
        0.568035,
        0.578975,
        0.582064,
        0.582959,
        0.587947,
        0.584949,
        0.580741,
        0.593958,
        0.596203,
        0.571014,
        0.585705,
        0.577181,
        0.583477,
        0.576487,
        0.565877,
        0.58285,
        0.581303,
        0.569329,
        0.573663,
        0.579199,
        0.583605,
        0.597598,
        0.580749,
        0.584697,
        0.579235,
        0.594619,
        0.566155,
        0.566132,
        0.574657,
        0.580385,
        0.582723,
        0.564315,
        0.579623,
        0.584261,
        0.576854,
        0.561521,
        0.569168,
        0.568284,
        0.578727,
        0.568416,
        0.567117,
        0.5666,
        0.57071,
        0.579587,
        0.581882,
        0.584405,
        0.586295,
        0.586692,
        0.585031,
        0.581929,
        0.578297,
        0.575045,
        0.572883,
        0.571702,
        0.571189,
        0.571027,
        0.570953,
        0.570945,
        0.57104,
        0.571275,
        0.571623,
        0.571801,
        0.571461,
        0.570256,
        0.568011,
        0.565238,
        0.562623,
        0.560851,
        0.560373,
        0.560721,
        0.56119,
        0.561078,
        0.559916,
        0.558171,
        0.556543,
        0.555738,
        0.556245,
        0.55767,
        0.559398,
        0.560816,
        0.561426,
        0.561188,
        0.56018,
        0.55848,
        0.556242,
        0.553944,
        0.552141,
        0.551386,
        0.551995,
        0.553318,
        0.554463,
        0.55454,
        0.552973,
        0.550448,
        0.547964,
        0.546531,
        0.546812,
        0.548078,
        0.549252,
        0.54926,
        0.547372,
        0.544244,
        0.540879,
        0.538279,
        0.539754,
        0.539424,
        0.539244,
        0.538846,
        0.537971,
        0.536798,
        0.535612,
        0.5347,
        0.534263,
        0.534167,
        0.534195,
        0.534127,
        0.533789,
        0.533181,
        0.532346,
        0.531329,
        0.5302,
        0.52914,
        0.528357,
        0.528057,
        0.52836,
        0.529035,
        0.52976,
        0.530216,
        0.530167,
        0.529721,
        0.52907,
        0.528408,
        0.527895,
        0.527562,
        0.52741,
        0.527438,
        0.527625,
        0.527849,
        0.527967,
        0.527832,
        0.527334,
        0.526494,
        0.525368,
        0.524008
      ],
      "range":1
    }
  }
]
