[
  {
    "model":"Star, type G0(iii)",
    "name":"Star, type G0(iii)",
    "type":"WB_REF",
    "dataQualityMarker":3,
    "dataSource":"https://www.eso.org/sci/facilities/paranal/decommissioned/isaac/tools/lib.html",
    "manufacturer":"A. Pickles (A.J. Pickles, PASP 110,863, 1998)",
    "version":1,
    "wavelength":{
      "value":[
        1150.0,
        1155.0,
        1160.0,
        1165.0,
        1170.0,
        1175.0,
        1180.0,
        1185.0,
        1190.0,
        1195.0,
        1200.0,
        1205.0,
        1210.0,
        1215.0,
        1220.0,
        1225.0,
        1230.0,
        1235.0,
        1240.0,
        1245.0,
        1250.0,
        1255.0,
        1260.0,
        1265.0,
        1270.0,
        1275.0,
        1280.0,
        1285.0,
        1290.0,
        1295.0,
        1300.0,
        1305.0,
        1310.0,
        1315.0,
        1320.0,
        1325.0,
        1330.0,
        1335.0,
        1340.0,
        1345.0,
        1350.0,
        1355.0,
        1360.0,
        1365.0,
        1370.0,
        1375.0,
        1380.0,
        1385.0,
        1390.0,
        1395.0,
        1400.0,
        1405.0,
        1410.0,
        1415.0,
        1420.0,
        1425.0,
        1430.0,
        1435.0,
        1440.0,
        1445.0,
        1450.0,
        1455.0,
        1460.0,
        1465.0,
        1470.0,
        1475.0,
        1480.0,
        1485.0,
        1490.0,
        1495.0,
        1500.0,
        1505.0,
        1510.0,
        1515.0,
        1520.0,
        1525.0,
        1530.0,
        1535.0,
        1540.0,
        1545.0,
        1550.0,
        1555.0,
        1560.0,
        1565.0,
        1570.0,
        1575.0,
        1580.0,
        1585.0,
        1590.0,
        1595.0,
        1600.0,
        1605.0,
        1610.0,
        1615.0,
        1620.0,
        1625.0,
        1630.0,
        1635.0,
        1640.0,
        1645.0,
        1650.0,
        1655.0,
        1660.0,
        1665.0,
        1670.0,
        1675.0,
        1680.0,
        1685.0,
        1690.0,
        1695.0,
        1700.0,
        1705.0,
        1710.0,
        1715.0,
        1720.0,
        1725.0,
        1730.0,
        1735.0,
        1740.0,
        1745.0,
        1750.0,
        1755.0,
        1760.0,
        1765.0,
        1770.0,
        1775.0,
        1780.0,
        1785.0,
        1790.0,
        1795.0,
        1800.0,
        1805.0,
        1810.0,
        1815.0,
        1820.0,
        1825.0,
        1830.0,
        1835.0,
        1840.0,
        1845.0,
        1850.0,
        1855.0,
        1860.0,
        1865.0,
        1870.0,
        1875.0,
        1880.0,
        1885.0,
        1890.0,
        1895.0,
        1900.0,
        1905.0,
        1910.0,
        1915.0,
        1920.0,
        1925.0,
        1930.0,
        1935.0,
        1940.0,
        1945.0,
        1950.0,
        1955.0,
        1960.0,
        1965.0,
        1970.0,
        1975.0,
        1980.0,
        1985.0,
        1990.0,
        1995.0,
        2000.0,
        2005.0,
        2010.0,
        2015.0,
        2020.0,
        2025.0,
        2030.0,
        2035.0,
        2040.0,
        2045.0,
        2050.0,
        2055.0,
        2060.0,
        2065.0,
        2070.0,
        2075.0,
        2080.0,
        2085.0,
        2090.0,
        2095.0,
        2100.0,
        2105.0,
        2110.0,
        2115.0,
        2120.0,
        2125.0,
        2130.0,
        2135.0,
        2140.0,
        2145.0,
        2150.0,
        2155.0,
        2160.0,
        2165.0,
        2170.0,
        2175.0,
        2180.0,
        2185.0,
        2190.0,
        2195.0,
        2200.0,
        2205.0,
        2210.0,
        2215.0,
        2220.0,
        2225.0,
        2230.0,
        2235.0,
        2240.0,
        2245.0,
        2250.0,
        2255.0,
        2260.0,
        2265.0,
        2270.0,
        2275.0,
        2280.0,
        2285.0,
        2290.0,
        2295.0,
        2300.0,
        2305.0,
        2310.0,
        2315.0,
        2320.0,
        2325.0,
        2330.0,
        2335.0,
        2340.0,
        2345.0,
        2350.0,
        2355.0,
        2360.0,
        2365.0,
        2370.0,
        2375.0,
        2380.0,
        2385.0,
        2390.0,
        2395.0,
        2400.0,
        2405.0,
        2410.0,
        2415.0,
        2420.0,
        2425.0,
        2430.0,
        2435.0,
        2440.0,
        2445.0,
        2450.0,
        2455.0,
        2460.0,
        2465.0,
        2470.0,
        2475.0,
        2480.0,
        2485.0,
        2490.0,
        2495.0,
        2500.0,
        2505.0,
        2510.0,
        2515.0,
        2520.0,
        2525.0,
        2530.0,
        2535.0,
        2540.0,
        2545.0,
        2550.0,
        2555.0,
        2560.0,
        2565.0,
        2570.0,
        2575.0,
        2580.0,
        2585.0,
        2590.0,
        2595.0,
        2600.0,
        2605.0,
        2610.0,
        2615.0,
        2620.0,
        2625.0,
        2630.0,
        2635.0,
        2640.0,
        2645.0,
        2650.0,
        2655.0,
        2660.0,
        2665.0,
        2670.0,
        2675.0,
        2680.0,
        2685.0,
        2690.0,
        2695.0,
        2700.0,
        2705.0,
        2710.0,
        2715.0,
        2720.0,
        2725.0,
        2730.0,
        2735.0,
        2740.0,
        2745.0,
        2750.0,
        2755.0,
        2760.0,
        2765.0,
        2770.0,
        2775.0,
        2780.0,
        2785.0,
        2790.0,
        2795.0,
        2800.0,
        2805.0,
        2810.0,
        2815.0,
        2820.0,
        2825.0,
        2830.0,
        2835.0,
        2840.0,
        2845.0,
        2850.0,
        2855.0,
        2860.0,
        2865.0,
        2870.0,
        2875.0,
        2880.0,
        2885.0,
        2890.0,
        2895.0,
        2900.0,
        2905.0,
        2910.0,
        2915.0,
        2920.0,
        2925.0,
        2930.0,
        2935.0,
        2940.0,
        2945.0,
        2950.0,
        2955.0,
        2960.0,
        2965.0,
        2970.0,
        2975.0,
        2980.0,
        2985.0,
        2990.0,
        2995.0,
        3000.0,
        3005.0,
        3010.0,
        3015.0,
        3020.0,
        3025.0,
        3030.0,
        3035.0,
        3040.0,
        3045.0,
        3050.0,
        3055.0,
        3060.0,
        3065.0,
        3070.0,
        3075.0,
        3080.0,
        3085.0,
        3090.0,
        3095.0,
        3100.0,
        3105.0,
        3110.0,
        3115.0,
        3120.0,
        3125.0,
        3130.0,
        3135.0,
        3140.0,
        3145.0,
        3150.0,
        3155.0,
        3160.0,
        3165.0,
        3170.0,
        3175.0,
        3180.0,
        3185.0,
        3190.0,
        3195.0,
        3200.0,
        3205.0,
        3210.0,
        3215.0,
        3220.0,
        3225.0,
        3230.0,
        3235.0,
        3240.0,
        3245.0,
        3250.0,
        3255.0,
        3260.0,
        3265.0,
        3270.0,
        3275.0,
        3280.0,
        3285.0,
        3290.0,
        3295.0,
        3300.0,
        3305.0,
        3310.0,
        3315.0,
        3320.0,
        3325.0,
        3330.0,
        3335.0,
        3340.0,
        3345.0,
        3350.0,
        3355.0,
        3360.0,
        3365.0,
        3370.0,
        3375.0,
        3380.0,
        3385.0,
        3390.0,
        3395.0,
        3400.0,
        3405.0,
        3410.0,
        3415.0,
        3420.0,
        3425.0,
        3430.0,
        3435.0,
        3440.0,
        3445.0,
        3450.0,
        3455.0,
        3460.0,
        3465.0,
        3470.0,
        3475.0,
        3480.0,
        3485.0,
        3490.0,
        3495.0,
        3500.0,
        3505.0,
        3510.0,
        3515.0,
        3520.0,
        3525.0,
        3530.0,
        3535.0,
        3540.0,
        3545.0,
        3550.0,
        3555.0,
        3560.0,
        3565.0,
        3570.0,
        3575.0,
        3580.0,
        3585.0,
        3590.0,
        3595.0,
        3600.0,
        3605.0,
        3610.0,
        3615.0,
        3620.0,
        3625.0,
        3630.0,
        3635.0,
        3640.0,
        3645.0,
        3650.0,
        3655.0,
        3660.0,
        3665.0,
        3670.0,
        3675.0,
        3680.0,
        3685.0,
        3690.0,
        3695.0,
        3700.0,
        3705.0,
        3710.0,
        3715.0,
        3720.0,
        3725.0,
        3730.0,
        3735.0,
        3740.0,
        3745.0,
        3750.0,
        3755.0,
        3760.0,
        3765.0,
        3770.0,
        3775.0,
        3780.0,
        3785.0,
        3790.0,
        3795.0,
        3800.0,
        3805.0,
        3810.0,
        3815.0,
        3820.0,
        3825.0,
        3830.0,
        3835.0,
        3840.0,
        3845.0,
        3850.0,
        3855.0,
        3860.0,
        3865.0,
        3870.0,
        3875.0,
        3880.0,
        3885.0,
        3890.0,
        3895.0,
        3900.0,
        3905.0,
        3910.0,
        3915.0,
        3920.0,
        3925.0,
        3930.0,
        3935.0,
        3940.0,
        3945.0,
        3950.0,
        3955.0,
        3960.0,
        3965.0,
        3970.0,
        3975.0,
        3980.0,
        3985.0,
        3990.0,
        3995.0,
        4000.0,
        4005.0,
        4010.0,
        4015.0,
        4020.0,
        4025.0,
        4030.0,
        4035.0,
        4040.0,
        4045.0,
        4050.0,
        4055.0,
        4060.0,
        4065.0,
        4070.0,
        4075.0,
        4080.0,
        4085.0,
        4090.0,
        4095.0,
        4100.0,
        4105.0,
        4110.0,
        4115.0,
        4120.0,
        4125.0,
        4130.0,
        4135.0,
        4140.0,
        4145.0,
        4150.0,
        4155.0,
        4160.0,
        4165.0,
        4170.0,
        4175.0,
        4180.0,
        4185.0,
        4190.0,
        4195.0,
        4200.0,
        4205.0,
        4210.0,
        4215.0,
        4220.0,
        4225.0,
        4230.0,
        4235.0,
        4240.0,
        4245.0,
        4250.0,
        4255.0,
        4260.0,
        4265.0,
        4270.0,
        4275.0,
        4280.0,
        4285.0,
        4290.0,
        4295.0,
        4300.0,
        4305.0,
        4310.0,
        4315.0,
        4320.0,
        4325.0,
        4330.0,
        4335.0,
        4340.0,
        4345.0,
        4350.0,
        4355.0,
        4360.0,
        4365.0,
        4370.0,
        4375.0,
        4380.0,
        4385.0,
        4390.0,
        4395.0,
        4400.0,
        4405.0,
        4410.0,
        4415.0,
        4420.0,
        4425.0,
        4430.0,
        4435.0,
        4440.0,
        4445.0,
        4450.0,
        4455.0,
        4460.0,
        4465.0,
        4470.0,
        4475.0,
        4480.0,
        4485.0,
        4490.0,
        4495.0,
        4500.0,
        4505.0,
        4510.0,
        4515.0,
        4520.0,
        4525.0,
        4530.0,
        4535.0,
        4540.0,
        4545.0,
        4550.0,
        4555.0,
        4560.0,
        4565.0,
        4570.0,
        4575.0,
        4580.0,
        4585.0,
        4590.0,
        4595.0,
        4600.0,
        4605.0,
        4610.0,
        4615.0,
        4620.0,
        4625.0,
        4630.0,
        4635.0,
        4640.0,
        4645.0,
        4650.0,
        4655.0,
        4660.0,
        4665.0,
        4670.0,
        4675.0,
        4680.0,
        4685.0,
        4690.0,
        4695.0,
        4700.0,
        4705.0,
        4710.0,
        4715.0,
        4720.0,
        4725.0,
        4730.0,
        4735.0,
        4740.0,
        4745.0,
        4750.0,
        4755.0,
        4760.0,
        4765.0,
        4770.0,
        4775.0,
        4780.0,
        4785.0,
        4790.0,
        4795.0,
        4800.0,
        4805.0,
        4810.0,
        4815.0,
        4820.0,
        4825.0,
        4830.0,
        4835.0,
        4840.0,
        4845.0,
        4850.0,
        4855.0,
        4860.0,
        4865.0,
        4870.0,
        4875.0,
        4880.0,
        4885.0,
        4890.0,
        4895.0,
        4900.0,
        4905.0,
        4910.0,
        4915.0,
        4920.0,
        4925.0,
        4930.0,
        4935.0,
        4940.0,
        4945.0,
        4950.0,
        4955.0,
        4960.0,
        4965.0,
        4970.0,
        4975.0,
        4980.0,
        4985.0,
        4990.0,
        4995.0,
        5000.0,
        5005.0,
        5010.0,
        5015.0,
        5020.0,
        5025.0,
        5030.0,
        5035.0,
        5040.0,
        5045.0,
        5050.0,
        5055.0,
        5060.0,
        5065.0,
        5070.0,
        5075.0,
        5080.0,
        5085.0,
        5090.0,
        5095.0,
        5100.0,
        5105.0,
        5110.0,
        5115.0,
        5120.0,
        5125.0,
        5130.0,
        5135.0,
        5140.0,
        5145.0,
        5150.0,
        5155.0,
        5160.0,
        5165.0,
        5170.0,
        5175.0,
        5180.0,
        5185.0,
        5190.0,
        5195.0,
        5200.0,
        5205.0,
        5210.0,
        5215.0,
        5220.0,
        5225.0,
        5230.0,
        5235.0,
        5240.0,
        5245.0,
        5250.0,
        5255.0,
        5260.0,
        5265.0,
        5270.0,
        5275.0,
        5280.0,
        5285.0,
        5290.0,
        5295.0,
        5300.0,
        5305.0,
        5310.0,
        5315.0,
        5320.0,
        5325.0,
        5330.0,
        5335.0,
        5340.0,
        5345.0,
        5350.0,
        5355.0,
        5360.0,
        5365.0,
        5370.0,
        5375.0,
        5380.0,
        5385.0,
        5390.0,
        5395.0,
        5400.0,
        5405.0,
        5410.0,
        5415.0,
        5420.0,
        5425.0,
        5430.0,
        5435.0,
        5440.0,
        5445.0,
        5450.0,
        5455.0,
        5460.0,
        5465.0,
        5470.0,
        5475.0,
        5480.0,
        5485.0,
        5490.0,
        5495.0,
        5500.0,
        5505.0,
        5510.0,
        5515.0,
        5520.0,
        5525.0,
        5530.0,
        5535.0,
        5540.0,
        5545.0,
        5550.0,
        5555.0,
        5560.0,
        5565.0,
        5570.0,
        5575.0,
        5580.0,
        5585.0,
        5590.0,
        5595.0,
        5600.0,
        5605.0,
        5610.0,
        5615.0,
        5620.0,
        5625.0,
        5630.0,
        5635.0,
        5640.0,
        5645.0,
        5650.0,
        5655.0,
        5660.0,
        5665.0,
        5670.0,
        5675.0,
        5680.0,
        5685.0,
        5690.0,
        5695.0,
        5700.0,
        5705.0,
        5710.0,
        5715.0,
        5720.0,
        5725.0,
        5730.0,
        5735.0,
        5740.0,
        5745.0,
        5750.0,
        5755.0,
        5760.0,
        5765.0,
        5770.0,
        5775.0,
        5780.0,
        5785.0,
        5790.0,
        5795.0,
        5800.0,
        5805.0,
        5810.0,
        5815.0,
        5820.0,
        5825.0,
        5830.0,
        5835.0,
        5840.0,
        5845.0,
        5850.0,
        5855.0,
        5860.0,
        5865.0,
        5870.0,
        5875.0,
        5880.0,
        5885.0,
        5890.0,
        5895.0,
        5900.0,
        5905.0,
        5910.0,
        5915.0,
        5920.0,
        5925.0,
        5930.0,
        5935.0,
        5940.0,
        5945.0,
        5950.0,
        5955.0,
        5960.0,
        5965.0,
        5970.0,
        5975.0,
        5980.0,
        5985.0,
        5990.0,
        5995.0,
        6000.0,
        6005.0,
        6010.0,
        6015.0,
        6020.0,
        6025.0,
        6030.0,
        6035.0,
        6040.0,
        6045.0,
        6050.0,
        6055.0,
        6060.0,
        6065.0,
        6070.0,
        6075.0,
        6080.0,
        6085.0,
        6090.0,
        6095.0,
        6100.0,
        6105.0,
        6110.0,
        6115.0,
        6120.0,
        6125.0,
        6130.0,
        6135.0,
        6140.0,
        6145.0,
        6150.0,
        6155.0,
        6160.0,
        6165.0,
        6170.0,
        6175.0,
        6180.0,
        6185.0,
        6190.0,
        6195.0,
        6200.0,
        6205.0,
        6210.0,
        6215.0,
        6220.0,
        6225.0,
        6230.0,
        6235.0,
        6240.0,
        6245.0,
        6250.0,
        6255.0,
        6260.0,
        6265.0,
        6270.0,
        6275.0,
        6280.0,
        6285.0,
        6290.0,
        6295.0,
        6300.0,
        6305.0,
        6310.0,
        6315.0,
        6320.0,
        6325.0,
        6330.0,
        6335.0,
        6340.0,
        6345.0,
        6350.0,
        6355.0,
        6360.0,
        6365.0,
        6370.0,
        6375.0,
        6380.0,
        6385.0,
        6390.0,
        6395.0,
        6400.0,
        6405.0,
        6410.0,
        6415.0,
        6420.0,
        6425.0,
        6430.0,
        6435.0,
        6440.0,
        6445.0,
        6450.0,
        6455.0,
        6460.0,
        6465.0,
        6470.0,
        6475.0,
        6480.0,
        6485.0,
        6490.0,
        6495.0,
        6500.0,
        6505.0,
        6510.0,
        6515.0,
        6520.0,
        6525.0,
        6530.0,
        6535.0,
        6540.0,
        6545.0,
        6550.0,
        6555.0,
        6560.0,
        6565.0,
        6570.0,
        6575.0,
        6580.0,
        6585.0,
        6590.0,
        6595.0,
        6600.0,
        6605.0,
        6610.0,
        6615.0,
        6620.0,
        6625.0,
        6630.0,
        6635.0,
        6640.0,
        6645.0,
        6650.0,
        6655.0,
        6660.0,
        6665.0,
        6670.0,
        6675.0,
        6680.0,
        6685.0,
        6690.0,
        6695.0,
        6700.0,
        6705.0,
        6710.0,
        6715.0,
        6720.0,
        6725.0,
        6730.0,
        6735.0,
        6740.0,
        6745.0,
        6750.0,
        6755.0,
        6760.0,
        6765.0,
        6770.0,
        6775.0,
        6780.0,
        6785.0,
        6790.0,
        6795.0,
        6800.0,
        6805.0,
        6810.0,
        6815.0,
        6820.0,
        6825.0,
        6830.0,
        6835.0,
        6840.0,
        6845.0,
        6850.0,
        6855.0,
        6860.0,
        6865.0,
        6870.0,
        6875.0,
        6880.0,
        6885.0,
        6890.0,
        6895.0,
        6900.0,
        6905.0,
        6910.0,
        6915.0,
        6920.0,
        6925.0,
        6930.0,
        6935.0,
        6940.0,
        6945.0,
        6950.0,
        6955.0,
        6960.0,
        6965.0,
        6970.0,
        6975.0,
        6980.0,
        6985.0,
        6990.0,
        6995.0,
        7000.0,
        7005.0,
        7010.0,
        7015.0,
        7020.0,
        7025.0,
        7030.0,
        7035.0,
        7040.0,
        7045.0,
        7050.0,
        7055.0,
        7060.0,
        7065.0,
        7070.0,
        7075.0,
        7080.0,
        7085.0,
        7090.0,
        7095.0,
        7100.0,
        7105.0,
        7110.0,
        7115.0,
        7120.0,
        7125.0,
        7130.0,
        7135.0,
        7140.0,
        7145.0,
        7150.0,
        7155.0,
        7160.0,
        7165.0,
        7170.0,
        7175.0,
        7180.0,
        7185.0,
        7190.0,
        7195.0,
        7200.0,
        7205.0,
        7210.0,
        7215.0,
        7220.0,
        7225.0,
        7230.0,
        7235.0,
        7240.0,
        7245.0,
        7250.0,
        7255.0,
        7260.0,
        7265.0,
        7270.0,
        7275.0,
        7280.0,
        7285.0,
        7290.0,
        7295.0,
        7300.0,
        7305.0,
        7310.0,
        7315.0,
        7320.0,
        7325.0,
        7330.0,
        7335.0,
        7340.0,
        7345.0,
        7350.0,
        7355.0,
        7360.0,
        7365.0,
        7370.0,
        7375.0,
        7380.0,
        7385.0,
        7390.0,
        7395.0,
        7400.0,
        7405.0,
        7410.0,
        7415.0,
        7420.0,
        7425.0,
        7430.0,
        7435.0,
        7440.0,
        7445.0,
        7450.0,
        7455.0,
        7460.0,
        7465.0,
        7470.0,
        7475.0,
        7480.0,
        7485.0,
        7490.0,
        7495.0,
        7500.0,
        7505.0,
        7510.0,
        7515.0,
        7520.0,
        7525.0,
        7530.0,
        7535.0,
        7540.0,
        7545.0,
        7550.0,
        7555.0,
        7560.0,
        7565.0,
        7570.0,
        7575.0,
        7580.0,
        7585.0,
        7590.0,
        7595.0,
        7600.0,
        7605.0,
        7610.0,
        7615.0,
        7620.0,
        7625.0,
        7630.0,
        7635.0,
        7640.0,
        7645.0,
        7650.0,
        7655.0,
        7660.0,
        7665.0,
        7670.0,
        7675.0,
        7680.0,
        7685.0,
        7690.0,
        7695.0,
        7700.0,
        7705.0,
        7710.0,
        7715.0,
        7720.0,
        7725.0,
        7730.0,
        7735.0,
        7740.0,
        7745.0,
        7750.0,
        7755.0,
        7760.0,
        7765.0,
        7770.0,
        7775.0,
        7780.0,
        7785.0,
        7790.0,
        7795.0,
        7800.0,
        7805.0,
        7810.0,
        7815.0,
        7820.0,
        7825.0,
        7830.0,
        7835.0,
        7840.0,
        7845.0,
        7850.0,
        7855.0,
        7860.0,
        7865.0,
        7870.0,
        7875.0,
        7880.0,
        7885.0,
        7890.0,
        7895.0,
        7900.0,
        7905.0,
        7910.0,
        7915.0,
        7920.0,
        7925.0,
        7930.0,
        7935.0,
        7940.0,
        7945.0,
        7950.0,
        7955.0,
        7960.0,
        7965.0,
        7970.0,
        7975.0,
        7980.0,
        7985.0,
        7990.0,
        7995.0,
        8000.0,
        8005.0,
        8010.0,
        8015.0,
        8020.0,
        8025.0,
        8030.0,
        8035.0,
        8040.0,
        8045.0,
        8050.0,
        8055.0,
        8060.0,
        8065.0,
        8070.0,
        8075.0,
        8080.0,
        8085.0,
        8090.0,
        8095.0,
        8100.0,
        8105.0,
        8110.0,
        8115.0,
        8120.0,
        8125.0,
        8130.0,
        8135.0,
        8140.0,
        8145.0,
        8150.0,
        8155.0,
        8160.0,
        8165.0,
        8170.0,
        8175.0,
        8180.0,
        8185.0,
        8190.0,
        8195.0,
        8200.0,
        8205.0,
        8210.0,
        8215.0,
        8220.0,
        8225.0,
        8230.0,
        8235.0,
        8240.0,
        8245.0,
        8250.0,
        8255.0,
        8260.0,
        8265.0,
        8270.0,
        8275.0,
        8280.0,
        8285.0,
        8290.0,
        8295.0,
        8300.0,
        8305.0,
        8310.0,
        8315.0,
        8320.0,
        8325.0,
        8330.0,
        8335.0,
        8340.0,
        8345.0,
        8350.0,
        8355.0,
        8360.0,
        8365.0,
        8370.0,
        8375.0,
        8380.0,
        8385.0,
        8390.0,
        8395.0,
        8400.0,
        8405.0,
        8410.0,
        8415.0,
        8420.0,
        8425.0,
        8430.0,
        8435.0,
        8440.0,
        8445.0,
        8450.0,
        8455.0,
        8460.0,
        8465.0,
        8470.0,
        8475.0,
        8480.0,
        8485.0,
        8490.0,
        8495.0,
        8500.0,
        8505.0,
        8510.0,
        8515.0,
        8520.0,
        8525.0,
        8530.0,
        8535.0,
        8540.0,
        8545.0,
        8550.0,
        8555.0,
        8560.0,
        8565.0,
        8570.0,
        8575.0,
        8580.0,
        8585.0,
        8590.0,
        8595.0,
        8600.0,
        8605.0,
        8610.0,
        8615.0,
        8620.0,
        8625.0,
        8630.0,
        8635.0,
        8640.0,
        8645.0,
        8650.0,
        8655.0,
        8660.0,
        8665.0,
        8670.0,
        8675.0,
        8680.0,
        8685.0,
        8690.0,
        8695.0,
        8700.0,
        8705.0,
        8710.0,
        8715.0,
        8720.0,
        8725.0,
        8730.0,
        8735.0,
        8740.0,
        8745.0,
        8750.0,
        8755.0,
        8760.0,
        8765.0,
        8770.0,
        8775.0,
        8780.0,
        8785.0,
        8790.0,
        8795.0,
        8800.0,
        8805.0,
        8810.0,
        8815.0,
        8820.0,
        8825.0,
        8830.0,
        8835.0,
        8840.0,
        8845.0,
        8850.0,
        8855.0,
        8860.0,
        8865.0,
        8870.0,
        8875.0,
        8880.0,
        8885.0,
        8890.0,
        8895.0,
        8900.0,
        8905.0,
        8910.0,
        8915.0,
        8920.0,
        8925.0,
        8930.0,
        8935.0,
        8940.0,
        8945.0,
        8950.0,
        8955.0,
        8960.0,
        8965.0,
        8970.0,
        8975.0,
        8980.0,
        8985.0,
        8990.0,
        8995.0,
        9000.0,
        9005.0,
        9010.0,
        9015.0,
        9020.0,
        9025.0,
        9030.0,
        9035.0,
        9040.0,
        9045.0,
        9050.0,
        9055.0,
        9060.0,
        9065.0,
        9070.0,
        9075.0,
        9080.0,
        9085.0,
        9090.0,
        9095.0,
        9100.0,
        9105.0,
        9110.0,
        9115.0,
        9120.0,
        9125.0,
        9130.0,
        9135.0,
        9140.0,
        9145.0,
        9150.0,
        9155.0,
        9160.0,
        9165.0,
        9170.0,
        9175.0,
        9180.0,
        9185.0,
        9190.0,
        9195.0,
        9200.0,
        9205.0,
        9210.0,
        9215.0,
        9220.0,
        9225.0,
        9230.0,
        9235.0,
        9240.0,
        9245.0,
        9250.0,
        9255.0,
        9260.0,
        9265.0,
        9270.0,
        9275.0,
        9280.0,
        9285.0,
        9290.0,
        9295.0,
        9300.0,
        9305.0,
        9310.0,
        9315.0,
        9320.0,
        9325.0,
        9330.0,
        9335.0,
        9340.0,
        9345.0,
        9350.0,
        9355.0,
        9360.0,
        9365.0,
        9370.0,
        9375.0,
        9380.0,
        9385.0,
        9390.0,
        9395.0,
        9400.0,
        9405.0,
        9410.0,
        9415.0,
        9420.0,
        9425.0,
        9430.0,
        9435.0,
        9440.0,
        9445.0,
        9450.0,
        9455.0,
        9460.0,
        9465.0,
        9470.0,
        9475.0,
        9480.0,
        9485.0,
        9490.0,
        9495.0,
        9500.0,
        9505.0,
        9510.0,
        9515.0,
        9520.0,
        9525.0,
        9530.0,
        9535.0,
        9540.0,
        9545.0,
        9550.0,
        9555.0,
        9560.0,
        9565.0,
        9570.0,
        9575.0,
        9580.0,
        9585.0,
        9590.0,
        9595.0,
        9600.0,
        9605.0,
        9610.0,
        9615.0,
        9620.0,
        9625.0,
        9630.0,
        9635.0,
        9640.0,
        9645.0,
        9650.0,
        9655.0,
        9660.0,
        9665.0,
        9670.0,
        9675.0,
        9680.0,
        9685.0,
        9690.0,
        9695.0,
        9700.0,
        9705.0,
        9710.0,
        9715.0,
        9720.0,
        9725.0,
        9730.0,
        9735.0,
        9740.0,
        9745.0,
        9750.0,
        9755.0,
        9760.0,
        9765.0,
        9770.0,
        9775.0,
        9780.0,
        9785.0,
        9790.0,
        9795.0,
        9800.0,
        9805.0,
        9810.0,
        9815.0,
        9820.0,
        9825.0,
        9830.0,
        9835.0,
        9840.0,
        9845.0,
        9850.0,
        9855.0,
        9860.0,
        9865.0,
        9870.0,
        9875.0,
        9880.0,
        9885.0,
        9890.0,
        9895.0,
        9900.0,
        9905.0,
        9910.0,
        9915.0,
        9920.0,
        9925.0,
        9930.0,
        9935.0,
        9940.0,
        9945.0,
        9950.0,
        9955.0,
        9960.0,
        9965.0,
        9970.0,
        9975.0,
        9980.0,
        9985.0,
        9990.0,
        9995.0,
        10000.0,
        10005.0,
        10010.0,
        10015.0,
        10020.0,
        10025.0,
        10030.0,
        10035.0,
        10040.0,
        10045.0,
        10050.0,
        10055.0,
        10060.0,
        10065.0,
        10070.0,
        10075.0,
        10080.0,
        10085.0,
        10090.0,
        10095.0,
        10100.0,
        10105.0,
        10110.0,
        10115.0,
        10120.0,
        10125.0,
        10130.0,
        10135.0,
        10140.0,
        10145.0,
        10150.0,
        10155.0,
        10160.0,
        10165.0,
        10170.0,
        10175.0,
        10180.0,
        10185.0,
        10190.0,
        10195.0,
        10200.0,
        10205.0,
        10210.0,
        10215.0,
        10220.0,
        10225.0,
        10230.0,
        10235.0,
        10240.0,
        10245.0,
        10250.0,
        10255.0,
        10260.0,
        10265.0,
        10270.0,
        10275.0,
        10280.0,
        10285.0,
        10290.0,
        10295.0,
        10300.0,
        10305.0,
        10310.0,
        10315.0,
        10320.0,
        10325.0,
        10330.0,
        10335.0,
        10340.0,
        10345.0,
        10350.0,
        10355.0,
        10360.0,
        10365.0,
        10370.0,
        10375.0,
        10380.0,
        10385.0,
        10390.0,
        10395.0,
        10400.0,
        10405.0,
        10410.0,
        10415.0,
        10420.0,
        10425.0,
        10430.0,
        10435.0,
        10440.0,
        10445.0,
        10450.0,
        10455.0,
        10460.0,
        10465.0,
        10470.0,
        10475.0,
        10480.0,
        10485.0,
        10490.0,
        10495.0,
        10500.0
      ],
      "units":"angstrom"
    },
    "values":{
      "value":[
        0.0,
        0.0,
        0.0,
        0.0,
        0.0,
        0.0,
        0.0,
        0.0,
        0.0,
        0.0,
        0.0,
        0.0,
        0.0,
        0.0,
        0.0,
        0.0,
        0.0,
        0.0,
        0.0,
        0.0,
        0.0,
        0.0,
        0.0,
        0.0,
        0.0,
        0.0,
        0.0,
        0.0,
        0.0,
        0.0,
        0.0,
        0.0,
        0.0,
        0.0,
        0.0,
        0.0,
        0.0,
        0.0,
        0.0,
        0.0,
        0.0,
        0.0,
        0.0,
        0.0,
        0.0,
        0.0,
        0.0,
        0.0,
        0.0,
        0.0,
        0.0,
        0.0,
        0.0,
        0.0,
        0.0,
        0.0,
        0.0,
        0.0,
        0.0,
        0.0,
        0.0,
        0.0,
        0.0,
        0.0,
        0.0,
        0.0,
        0.0,
        0.0,
        0.0,
        0.0,
        0.0,
        0.0,
        0.0,
        0.0,
        0.0,
        0.0,
        0.0,
        0.0,
        0.0,
        0.0,
        0.0,
        0.0,
        0.0,
        0.0,
        0.0,
        1e-06,
        1e-06,
        1e-06,
        0.0,
        0.0,
        0.0,
        0.0,
        0.0,
        0.0,
        0.0,
        0.0,
        0.0,
        0.0,
        0.0,
        0.0,
        0.0,
        1e-06,
        3e-06,
        5e-06,
        6e-06,
        7e-06,
        7e-06,
        7e-06,
        6e-06,
        4e-06,
        0.0,
        0.0,
        0.0,
        0.0,
        0.0,
        0.0,
        0.0,
        0.0,
        0.0,
        0.0,
        0.0,
        1.9e-05,
        4.1e-05,
        6.3e-05,
        8.2e-05,
        9.7e-05,
        0.000104,
        0.0001,
        8.4e-05,
        5.1e-05,
        0.0,
        0.0,
        0.0,
        0.0,
        0.0,
        0.0,
        0.0,
        0.0,
        0.0,
        0.0,
        0.0,
        0.000267,
        0.000606,
        0.00101,
        0.001471,
        0.001982,
        0.002536,
        0.003126,
        0.003743,
        0.004382,
        0.005034,
        0.005691,
        0.006344,
        0.006981,
        0.007591,
        0.008163,
        0.008686,
        0.009149,
        0.009541,
        0.009851,
        0.010067,
        0.010185,
        0.010219,
        0.010192,
        0.010124,
        0.010038,
        0.009954,
        0.009893,
        0.009878,
        0.009929,
        0.010067,
        0.010309,
        0.010646,
        0.011064,
        0.011549,
        0.012088,
        0.012667,
        0.013271,
        0.013887,
        0.014502,
        0.015101,
        0.015673,
        0.016219,
        0.016744,
        0.01725,
        0.017743,
        0.018226,
        0.018702,
        0.019176,
        0.019652,
        0.020134,
        0.020625,
        0.021123,
        0.021627,
        0.022135,
        0.022645,
        0.023156,
        0.023666,
        0.024172,
        0.024673,
        0.025168,
        0.025654,
        0.026136,
        0.026615,
        0.027096,
        0.027582,
        0.028076,
        0.028581,
        0.029102,
        0.029641,
        0.030201,
        0.030785,
        0.031381,
        0.031979,
        0.032568,
        0.033134,
        0.033668,
        0.034156,
        0.034588,
        0.034952,
        0.035235,
        0.035431,
        0.035548,
        0.0356,
        0.035599,
        0.03556,
        0.035494,
        0.035416,
        0.035338,
        0.035273,
        0.035235,
        0.035233,
        0.035259,
        0.035305,
        0.035357,
        0.035407,
        0.035443,
        0.035454,
        0.035431,
        0.035361,
        0.035235,
        0.035048,
        0.034824,
        0.034592,
        0.034381,
        0.034222,
        0.034144,
        0.034176,
        0.034349,
        0.034692,
        0.035235,
        0.035994,
        0.036935,
        0.038011,
        0.039173,
        0.040374,
        0.041566,
        0.042703,
        0.043736,
        0.044619,
        0.045302,
        0.045754,
        0.045999,
        0.046078,
        0.046029,
        0.045894,
        0.045711,
        0.045521,
        0.045363,
        0.045276,
        0.045302,
        0.045469,
        0.045766,
        0.046174,
        0.04667,
        0.047233,
        0.047844,
        0.04848,
        0.049122,
        0.049747,
        0.050336,
        0.050882,
        0.051445,
        0.052098,
        0.052917,
        0.053973,
        0.055343,
        0.0571,
        0.059319,
        0.062073,
        0.065436,
        0.069445,
        0.073983,
        0.078896,
        0.084027,
        0.089222,
        0.094326,
        0.099185,
        0.103643,
        0.107546,
        0.110738,
        0.113106,
        0.114702,
        0.115616,
        0.115943,
        0.115775,
        0.115203,
        0.114321,
        0.113222,
        0.111996,
        0.110738,
        0.109524,
        0.108365,
        0.107258,
        0.1062,
        0.105188,
        0.104216,
        0.103282,
        0.102383,
        0.101514,
        0.100671,
        0.09986,
        0.099114,
        0.098478,
        0.097993,
        0.097703,
        0.09765,
        0.097878,
        0.098429,
        0.099346,
        0.100671,
        0.102444,
        0.104681,
        0.107397,
        0.110605,
        0.114319,
        0.118552,
        0.123316,
        0.128627,
        0.134497,
        0.14094,
        0.147945,
        0.15541,
        0.163207,
        0.171209,
        0.179291,
        0.187324,
        0.195183,
        0.202741,
        0.209869,
        0.216443,
        0.222357,
        0.2276,
        0.232183,
        0.236114,
        0.239407,
        0.24207,
        0.244115,
        0.245552,
        0.246391,
        0.246644,
        0.246344,
        0.245612,
        0.244594,
        0.243434,
        0.242277,
        0.241269,
        0.240553,
        0.240275,
        0.240579,
        0.241611,
        0.243468,
        0.24606,
        0.24925,
        0.252902,
        0.256879,
        0.261044,
        0.26526,
        0.26939,
        0.273297,
        0.276846,
        0.279932,
        0.282593,
        0.284898,
        0.286918,
        0.288722,
        0.290382,
        0.291968,
        0.293549,
        0.295196,
        0.29698,
        0.298955,
        0.301112,
        0.30343,
        0.305884,
        0.30845,
        0.311105,
        0.313826,
        0.316589,
        0.319371,
        0.322148,
        0.324904,
        0.327655,
        0.330426,
        0.333239,
        0.336119,
        0.339089,
        0.342174,
        0.345396,
        0.34878,
        0.352349,
        0.356116,
        0.360052,
        0.364113,
        0.36826,
        0.372451,
        0.376645,
        0.380799,
        0.384874,
        0.388827,
        0.392617,
        0.396209,
        0.399588,
        0.402743,
        0.405666,
        0.408346,
        0.410775,
        0.412943,
        0.414841,
        0.416458,
        0.417785,
        0.418821,
        0.419595,
        0.420144,
        0.420505,
        0.420716,
        0.420812,
        0.420833,
        0.420814,
        0.420792,
        0.420805,
        0.420882,
        0.421019,
        0.421204,
        0.421424,
        0.421668,
        0.421924,
        0.422178,
        0.422421,
        0.332689,
        0.469204,
        0.476922,
        0.396724,
        0.394799,
        0.44545,
        0.483937,
        0.481236,
        0.43214,
        0.390996,
        0.404275,
        0.427375,
        0.41403,
        0.402387,
        0.430464,
        0.451365,
        0.420357,
        0.38629,
        0.400818,
        0.433232,
        0.443397,
        0.435835,
        0.425537,
        0.433166,
        0.444486,
        0.454366,
        0.44461,
        0.459742,
        0.462641,
        0.482352,
        0.479565,
        0.458192,
        0.440944,
        0.42155,
        0.383946,
        0.365728,
        0.365952,
        0.33249,
        0.326254,
        0.391388,
        0.471331,
        0.489136,
        0.447341,
        0.423346,
        0.430606,
        0.453655,
        0.499479,
        0.49603,
        0.503151,
        0.52602,
        0.529094,
        0.550364,
        0.611906,
        0.643168,
        0.628937,
        0.617767,
        0.586825,
        0.561377,
        0.557333,
        0.579459,
        0.645242,
        0.659679,
        0.601685,
        0.592404,
        0.584722,
        0.540395,
        0.53328,
        0.510141,
        0.474232,
        0.487437,
        0.459756,
        0.476712,
        0.538222,
        0.54223,
        0.541321,
        0.570405,
        0.636139,
        0.673747,
        0.649399,
        0.54283,
        0.501201,
        0.525836,
        0.569848,
        0.547315,
        0.491428,
        0.436239,
        0.377968,
        0.359853,
        0.34729,
        0.386249,
        0.4342,
        0.445674,
        0.437612,
        0.438702,
        0.443513,
        0.437824,
        0.49736,
        0.479279,
        0.497276,
        0.547435,
        0.61089,
        0.647328,
        0.693417,
        0.728767,
        0.721312,
        0.638811,
        0.501756,
        0.356995,
        0.366718,
        0.496224,
        0.62065,
        0.701356,
        0.697552,
        0.579868,
        0.406687,
        0.389048,
        0.580178,
        0.767639,
        0.849675,
        0.879756,
        0.89674,
        0.918193,
        0.921658,
        0.946394,
        0.97985,
        0.994983,
        0.971107,
        0.92726,
        0.913941,
        0.921275,
        0.884922,
        0.882825,
        0.851077,
        0.838218,
        0.858119,
        0.879134,
        0.902522,
        0.923522,
        0.937329,
        0.933459,
        0.85044,
        0.780062,
        0.830347,
        0.908697,
        0.938677,
        0.954483,
        0.932067,
        0.884573,
        0.901089,
        0.93095,
        0.884473,
        0.872246,
        0.875107,
        0.90668,
        0.903621,
        0.864812,
        0.840359,
        0.851935,
        0.876113,
        0.887925,
        0.857785,
        0.84805,
        0.895431,
        0.962094,
        0.943451,
        0.935018,
        0.88161,
        0.900161,
        0.907993,
        0.926261,
        0.93185,
        0.915593,
        0.91032,
        0.905358,
        0.908219,
        0.868136,
        0.882097,
        0.90331,
        0.88003,
        0.841118,
        0.787387,
        0.708608,
        0.674831,
        0.72837,
        0.887838,
        0.955618,
        0.934701,
        0.94325,
        0.888541,
        0.826251,
        0.887956,
        0.935235,
        0.977549,
        1.04728,
        1.0555,
        1.019196,
        0.961155,
        0.91373,
        0.88139,
        0.911818,
        0.953352,
        0.965502,
        0.966814,
        1.002391,
        1.018522,
        1.039894,
        1.040382,
        1.028348,
        1.027315,
        1.049122,
        1.072456,
        1.063982,
        0.995815,
        0.968383,
        1.008554,
        1.060152,
        1.092294,
        1.080552,
        1.088,
        1.083324,
        1.091941,
        1.12165,
        1.152444,
        1.145896,
        1.125129,
        1.095959,
        1.032143,
        0.998011,
        1.041191,
        1.07284,
        1.054402,
        1.042437,
        1.074962,
        1.104231,
        1.104888,
        1.108739,
        1.101146,
        1.061935,
        1.064821,
        1.073429,
        1.058153,
        1.058894,
        1.090538,
        1.117932,
        1.118146,
        1.124581,
        1.120892,
        1.111581,
        1.085652,
        1.062883,
        1.033205,
        1.041152,
        1.069095,
        1.07494,
        1.016033,
        1.006361,
        1.044095,
        1.050798,
        1.06006,
        1.054436,
        1.043261,
        1.017281,
        1.011036,
        1.027127,
        1.071408,
        1.110712,
        1.082768,
        1.043753,
        1.059011,
        1.092529,
        1.112724,
        1.097838,
        1.080658,
        1.070129,
        1.052174,
        1.079251,
        1.122932,
        1.127707,
        1.100461,
        1.103295,
        1.123715,
        1.116905,
        1.099932,
        1.100195,
        1.122328,
        1.124068,
        1.102329,
        1.091492,
        1.083434,
        1.069347,
        1.071079,
        1.044681,
        0.943453,
        0.846698,
        0.88751,
        0.952538,
        1.007294,
        1.045491,
        1.012643,
        1.000619,
        1.069267,
        1.102378,
        1.090306,
        1.055171,
        1.023544,
        0.986244,
        1.03638,
        1.082634,
        1.050409,
        1.050243,
        1.09338,
        1.109629,
        1.079635,
        1.075984,
        1.085743,
        1.08233,
        1.072239,
        1.021731,
        1.019235,
        1.058186,
        1.066176,
        1.037119,
        1.005607,
        0.991118,
        0.969051,
        0.982285,
        1.017565,
        1.049487,
        1.023178,
        0.985794,
        1.017923,
        1.039391,
        1.07389,
        1.089055,
        1.059969,
        1.033603,
        1.00811,
        0.996983,
        1.03177,
        1.063369,
        1.041488,
        1.016602,
        1.020101,
        1.029488,
        1.053212,
        1.040826,
        1.004321,
        0.995723,
        0.995974,
        0.983343,
        0.980172,
        0.991141,
        1.015216,
        0.994193,
        0.886954,
        0.832649,
        0.90844,
        0.940208,
        0.934511,
        0.96324,
        0.987735,
        1.009114,
        0.992857,
        0.992987,
        1.0095,
        1.013561,
        0.972479,
        0.965994,
        1.007923,
        1.048946,
        1.041906,
        1.018916,
        1.023842,
        0.994396,
        0.912903,
        0.899675,
        0.952749,
        1.001062,
        1.047125,
        1.078107,
        1.03771,
        1.019096,
        1.059628,
        1.084008,
        1.06899,
        1.032396,
        0.981422,
        0.97941,
        1.01281,
        1.01602,
        1.019919,
        1.035679,
        1.07281,
        1.071323,
        1.021901,
        0.997652,
        1.025681,
        1.041691,
        1.035623,
        1.01046,
        0.98529,
        0.971345,
        0.954259,
        0.969251,
        1.007595,
        1.021736,
        1.01542,
        1.005057,
        1.015841,
        1.047473,
        1.033888,
        1.028395,
        1.023467,
        1.024627,
        1.022065,
        1.019212,
        0.992967,
        0.984876,
        1.004911,
        1.0166,
        1.024262,
        1.018539,
        1.001891,
        0.993776,
        1.012781,
        1.030102,
        1.008775,
        0.99456,
        1.003516,
        1.016639,
        1.025822,
        1.033329,
        1.025063,
        1.009527,
        0.991949,
        0.984747,
        1.002787,
        1.007224,
        0.97145,
        0.947142,
        0.9571,
        0.966937,
        1.010567,
        1.032788,
        0.993885,
        0.978186,
        0.988716,
        1.004793,
        0.991993,
        0.982843,
        0.995792,
        0.998027,
        0.971653,
        0.955232,
        0.972319,
        1.00059,
        1.01147,
        0.993763,
        0.974886,
        0.982941,
        0.992773,
        0.97953,
        0.947966,
        0.934212,
        0.97494,
        1.009863,
        1.020635,
        1.014494,
        1.015076,
        1.01519,
        1.002839,
        0.986511,
        0.976666,
        0.985159,
        1.004521,
        1.01484,
        0.999153,
        0.969575,
        0.95969,
        0.976659,
        0.990814,
        1.000435,
        0.996442,
        0.99637,
        1.002203,
        1.013962,
        1.014153,
        1.013122,
        1.015168,
        1.020999,
        1.01419,
        0.994749,
        0.968543,
        0.970638,
        0.989494,
        1.004924,
        1.007191,
        0.992576,
        0.934486,
        0.865246,
        0.879733,
        0.944041,
        0.980451,
        0.983944,
        0.982631,
        0.98633,
        0.98134,
        0.974606,
        0.978836,
        0.979688,
        0.967142,
        0.956832,
        0.962639,
        0.975411,
        0.983905,
        0.983245,
        0.965767,
        0.955861,
        0.951136,
        0.959265,
        0.96131,
        0.953961,
        0.943855,
        0.937145,
        0.930924,
        0.928262,
        0.939216,
        0.95688,
        0.963779,
        0.961744,
        0.963314,
        0.960595,
        0.952879,
        0.952307,
        0.957472,
        0.964686,
        0.949169,
        0.932233,
        0.927503,
        0.927165,
        0.927857,
        0.921314,
        0.926263,
        0.94095,
        0.931749,
        0.918709,
        0.923162,
        0.923687,
        0.898092,
        0.895898,
        0.91503,
        0.923351,
        0.907048,
        0.879675,
        0.879894,
        0.894047,
        0.912972,
        0.930498,
        0.921654,
        0.905875,
        0.92039,
        0.935124,
        0.942519,
        0.931789,
        0.913505,
        0.907422,
        0.904316,
        0.896773,
        0.903062,
        0.902855,
        0.894844,
        0.889432,
        0.883766,
        0.895546,
        0.909042,
        0.91626,
        0.89769,
        0.87751,
        0.897048,
        0.911943,
        0.901884,
        0.886739,
        0.901019,
        0.903143,
        0.880039,
        0.878769,
        0.901327,
        0.904495,
        0.890534,
        0.882414,
        0.892482,
        0.903172,
        0.889568,
        0.871334,
        0.883354,
        0.902419,
        0.905857,
        0.899128,
        0.898453,
        0.89458,
        0.883784,
        0.879073,
        0.877279,
        0.872644,
        0.870299,
        0.871198,
        0.883446,
        0.881786,
        0.879196,
        0.880725,
        0.879511,
        0.865043,
        0.862882,
        0.864501,
        0.870174,
        0.875616,
        0.872565,
        0.870179,
        0.877475,
        0.858628,
        0.826571,
        0.839857,
        0.871691,
        0.888369,
        0.878365,
        0.871839,
        0.873582,
        0.87266,
        0.878175,
        0.878843,
        0.869018,
        0.847153,
        0.790936,
        0.710726,
        0.740151,
        0.813092,
        0.845072,
        0.854029,
        0.851745,
        0.844783,
        0.848621,
        0.861353,
        0.858053,
        0.855654,
        0.865013,
        0.869928,
        0.86191,
        0.847554,
        0.844788,
        0.849069,
        0.853362,
        0.860909,
        0.859067,
        0.845963,
        0.842595,
        0.847967,
        0.841617,
        0.843586,
        0.85553,
        0.858449,
        0.848681,
        0.843671,
        0.843206,
        0.839825,
        0.827702,
        0.82821,
        0.840037,
        0.844723,
        0.842846,
        0.836205,
        0.827907,
        0.827368,
        0.835294,
        0.839259,
        0.831701,
        0.828079,
        0.835404,
        0.8354,
        0.831127,
        0.831596,
        0.83046,
        0.831786,
        0.827991,
        0.828644,
        0.831843,
        0.83141,
        0.827258,
        0.825027,
        0.81719,
        0.819271,
        0.818558,
        0.817727,
        0.816787,
        0.815875,
        0.81509,
        0.814248,
        0.81318,
        0.812049,
        0.81104,
        0.810086,
        0.809073,
        0.807978,
        0.806831,
        0.805802,
        0.805005,
        0.804189,
        0.803127,
        0.802058,
        0.801237,
        0.800529,
        0.799697,
        0.798514,
        0.797067,
        0.796703,
        0.797724,
        0.794963,
        0.784078,
        0.778409,
        0.790849,
        0.794598,
        0.79106,
        0.779923,
        0.774856,
        0.778159,
        0.769419,
        0.770266,
        0.773133,
        0.781046,
        0.785641,
        0.795105,
        0.798962,
        0.792034,
        0.788965,
        0.787531,
        0.781041,
        0.782172,
        0.793288,
        0.789858,
        0.780499,
        0.776096,
        0.781727,
        0.787876,
        0.784667,
        0.774228,
        0.775075,
        0.775255,
        0.773876,
        0.775542,
        0.785577,
        0.783683,
        0.773432,
        0.767786,
        0.774327,
        0.77424,
        0.764113,
        0.758505,
        0.748889,
        0.737346,
        0.720357,
        0.716834,
        0.727975,
        0.737761,
        0.740324,
        0.749506,
        0.760228,
        0.762266,
        0.759509,
        0.753006,
        0.751181,
        0.750212,
        0.75071,
        0.742274,
        0.74245,
        0.746707,
        0.749914,
        0.750081,
        0.742579,
        0.737344,
        0.725577,
        0.717483,
        0.731899,
        0.738731,
        0.736076,
        0.734314,
        0.737492,
        0.740561,
        0.73711,
        0.735768,
        0.742847,
        0.748301,
        0.739949,
        0.725867,
        0.719566,
        0.72343,
        0.726628,
        0.731985,
        0.735084,
        0.729798,
        0.708576,
        0.701941,
        0.712555,
        0.719263,
        0.717942,
        0.709177,
        0.70621,
        0.707684,
        0.72392,
        0.734354,
        0.734158,
        0.726342,
        0.720031,
        0.722802,
        0.724203,
        0.720559,
        0.725316,
        0.728598,
        0.7226,
        0.719124,
        0.719156,
        0.715515,
        0.712357,
        0.712295,
        0.704998,
        0.7013,
        0.708997,
        0.711922,
        0.708459,
        0.70659,
        0.71047,
        0.712193,
        0.708495,
        0.706192,
        0.705131,
        0.704668,
        0.703931,
        0.702979,
        0.702048,
        0.701157,
        0.700297,
        0.699568,
        0.699024,
        0.698455,
        0.697655,
        0.696714,
        0.695787,
        0.694999,
        0.694404,
        0.693819,
        0.693075,
        0.692309,
        0.691674,
        0.691097,
        0.690462,
        0.689723,
        0.688873,
        0.688006,
        0.687216,
        0.686499,
        0.685831,
        0.685196,
        0.684572,
        0.683898,
        0.683152,
        0.682508,
        0.68203,
        0.681144,
        0.679737,
        0.680175,
        0.686142,
        0.682102,
        0.667315,
        0.663344,
        0.674241,
        0.684112,
        0.687534,
        0.680171,
        0.671609,
        0.66925,
        0.672429,
        0.676018,
        0.671653,
        0.666224,
        0.666145,
        0.668358,
        0.674655,
        0.68029,
        0.679234,
        0.671309,
        0.666153,
        0.667013,
        0.668891,
        0.67171,
        0.673469,
        0.67521,
        0.676006,
        0.672425,
        0.662348,
        0.658353,
        0.665585,
        0.668034,
        0.656792,
        0.649878,
        0.651391,
        0.651955,
        0.647511,
        0.643344,
        0.640906,
        0.636852,
        0.636045,
        0.633757,
        0.633218,
        0.639119,
        0.643218,
        0.645471,
        0.648499,
        0.648676,
        0.649304,
        0.650625,
        0.651841,
        0.65008,
        0.639289,
        0.632317,
        0.636603,
        0.643908,
        0.650593,
        0.648514,
        0.636591,
        0.633211,
        0.642025,
        0.644227,
        0.629941,
        0.624589,
        0.634715,
        0.64522,
        0.645766,
        0.638975,
        0.635543,
        0.63206,
        0.628402,
        0.623474,
        0.618684,
        0.61661,
        0.617885,
        0.619539,
        0.618685,
        0.617721,
        0.61907,
        0.619973,
        0.617457,
        0.612894,
        0.608705,
        0.607197,
        0.609059,
        0.608644,
        0.601611,
        0.59518,
        0.596498,
        0.600845,
        0.602005,
        0.59963,
        0.595627,
        0.59503,
        0.601399,
        0.609267,
        0.611771,
        0.605494,
        0.591144,
        0.58246,
        0.590731,
        0.604389,
        0.609778,
        0.607745,
        0.603093,
        0.601957,
        0.607599,
        0.610458,
        0.602373,
        0.593603,
        0.594733,
        0.599249,
        0.599012,
        0.596504,
        0.595803,
        0.596755,
        0.598114,
        0.598506,
        0.596783,
        0.592831,
        0.587487,
        0.584342,
        0.586312,
        0.590856,
        0.594559,
        0.595982,
        0.594888,
        0.593888,
        0.594867,
        0.593975,
        0.588413,
        0.585326,
        0.591073,
        0.598917,
        0.601214,
        0.600203,
        0.598752,
        0.595747,
        0.595702,
        0.595256,
        0.589919,
        0.589334,
        0.589446,
        0.593545,
        0.601994,
        0.606367,
        0.600978,
        0.59367,
        0.596119,
        0.598948,
        0.59754,
        0.583549,
        0.548973,
        0.542722,
        0.564255,
        0.570805,
        0.569374,
        0.571924,
        0.571538,
        0.568501,
        0.544838,
        0.49838,
        0.469961,
        0.472154,
        0.511463,
        0.561814,
        0.576525,
        0.568412,
        0.565911,
        0.565722,
        0.564932,
        0.561066,
        0.558907,
        0.562914,
        0.565764,
        0.565447,
        0.56588,
        0.567674,
        0.571857,
        0.577241,
        0.582793,
        0.584063,
        0.579304,
        0.576574,
        0.560195,
        0.51759,
        0.486088,
        0.479058,
        0.508415,
        0.546549,
        0.547915,
        0.549245,
        0.573066,
        0.568626,
        0.565138,
        0.559974,
        0.564539,
        0.571312,
        0.568579,
        0.564814,
        0.561344,
        0.557918,
        0.555445,
        0.552276,
        0.556106,
        0.564167,
        0.561751,
        0.556593,
        0.558893,
        0.563427,
        0.557735,
        0.551484,
        0.553163,
        0.545036,
        0.531298,
        0.545871,
        0.556794,
        0.553853,
        0.558266,
        0.558371,
        0.552493,
        0.548933,
        0.550039,
        0.552763,
        0.547316,
        0.535412,
        0.533167,
        0.542508,
        0.547118,
        0.550276,
        0.555788,
        0.550727,
        0.548053,
        0.550705,
        0.546393,
        0.543923,
        0.54429,
        0.542449,
        0.534725,
        0.537877,
        0.536766,
        0.535662,
        0.534586,
        0.533557,
        0.53259,
        0.531681,
        0.530822,
        0.530004,
        0.52922,
        0.52846,
        0.527717,
        0.526982,
        0.526247,
        0.525503,
        0.524745,
        0.523971,
        0.523184,
        0.522386,
        0.521577,
        0.520761,
        0.519938,
        0.519111,
        0.518281,
        0.51745,
        0.516618,
        0.515783,
        0.514938,
        0.514081,
        0.513205,
        0.512306,
        0.51138,
        0.510422,
        0.509426,
        0.508389,
        0.50731,
        0.506201,
        0.505079,
        0.503963,
        0.502869,
        0.501813,
        0.500814,
        0.499887,
        0.499051,
        0.498322,
        0.497712,
        0.497211,
        0.496804,
        0.496475,
        0.49621,
        0.495993,
        0.495809,
        0.495642,
        0.495479,
        0.495302,
        0.495101,
        0.494881,
        0.494647,
        0.494408,
        0.494171,
        0.493945,
        0.493736,
        0.493551,
        0.4934,
        0.493289,
        0.493222,
        0.493195,
        0.493197,
        0.493219,
        0.493254,
        0.493291,
        0.493322,
        0.493338,
        0.49333,
        0.493289,
        0.493207,
        0.493088,
        0.492934,
        0.492752,
        0.492544,
        0.492315,
        0.49207,
        0.491812,
        0.491545,
        0.491275,
        0.491004,
        0.490731,
        0.490455,
        0.490173,
        0.489884,
        0.489585,
        0.489274,
        0.48895,
        0.488611,
        0.488255,
        0.487879,
        0.487482,
        0.48706,
        0.486612,
        0.486135,
        0.485625,
        0.485082,
        0.484502,
        0.483882,
        0.483221,
        0.482518,
        0.481776,
        0.481001,
        0.4802,
        0.479378,
        0.478542,
        0.477697,
        0.476849,
        0.476004,
        0.475168,
        0.474345,
        0.473534,
        0.472732,
        0.471936,
        0.471142,
        0.470349,
        0.469552,
        0.468749,
        0.467938,
        0.467114,
        0.466276,
        0.465423,
        0.464554,
        0.463671,
        0.462773,
        0.461859,
        0.460931,
        0.459987,
        0.459028,
        0.458054,
        0.457066,
        0.456072,
        0.455081,
        0.454102,
        0.453144,
        0.452217,
        0.451329,
        0.450489,
        0.449708,
        0.448993,
        0.448352,
        0.447781,
        0.447272,
        0.446822,
        0.446422,
        0.446066,
        0.445749,
        0.445465,
        0.445206,
        0.444966,
        0.444741,
        0.444527,
        0.444322,
        0.444123,
        0.44393,
        0.443738,
        0.443547,
        0.443354,
        0.443157,
        0.442953,
        0.442742,
        0.442525,
        0.442306,
        0.442086,
        0.44187,
        0.44166,
        0.441459,
        0.44127,
        0.441096,
        0.44094,
        0.440802,
        0.440675,
        0.44055,
        0.440417,
        0.440267,
        0.440091,
        0.439878,
        0.439619,
        0.439305,
        0.438926,
        0.438477,
        0.437964,
        0.437398,
        0.436791,
        0.436154,
        0.435496,
        0.43483,
        0.434166,
        0.433514,
        0.432886,
        0.43229,
        0.431725,
        0.431187,
        0.430672,
        0.430176,
        0.429696,
        0.429227,
        0.428766,
        0.428309,
        0.427852,
        0.427392,
        0.426927,
        0.426455,
        0.425974,
        0.425483,
        0.42498,
        0.424464,
        0.423933,
        0.423385,
        0.422819,
        0.422234,
        0.421633,
        0.421021,
        0.420402,
        0.41978,
        0.419159,
        0.418544,
        0.41794,
        0.41735,
        0.416779,
        0.416229,
        0.415699,
        0.415185,
        0.414683,
        0.414191,
        0.413704,
        0.41322,
        0.412734,
        0.412244,
        0.411745,
        0.411236,
        0.410719,
        0.410197,
        0.409674,
        0.409153,
        0.408639,
        0.408134,
        0.407642,
        0.407167,
        0.406711,
        0.406278,
        0.405864,
        0.405465,
        0.405075,
        0.404691,
        0.404307,
        0.403919,
        0.403522,
        0.403112,
        0.402685,
        0.402236,
        0.401767,
        0.401282,
        0.400783,
        0.400272,
        0.399754,
        0.399229,
        0.398702,
        0.398175,
        0.397651,
        0.397132,
        0.396618,
        0.396109,
        0.395603,
        0.395101,
        0.394601,
        0.394104,
        0.393608,
        0.393112,
        0.392617,
        0.390942,
        0.390513,
        0.390085,
        0.389655,
        0.389226,
        0.388795,
        0.388365,
        0.387932,
        0.387499,
        0.387064,
        0.386627,
        0.38619,
        0.385753,
        0.385318,
        0.384886,
        0.384457,
        0.384032,
        0.383614,
        0.383202,
        0.382799,
        0.382405,
        0.382018,
        0.381638,
        0.381264,
        0.380895,
        0.380529,
        0.380166,
        0.379804,
        0.379443,
        0.379081,
        0.378717,
        0.378352,
        0.377985,
        0.377618,
        0.377249,
        0.37688,
        0.376511,
        0.376142,
        0.375773,
        0.375404
      ],
      "range":1
    }
  }
]
