[
  {
    "model":"Star, type M3(v)",
    "name":"Star, type M3(v)",
    "type":"WB_REF",
    "dataQualityMarker":3,
    "dataSource":"https://www.eso.org/sci/facilities/paranal/decommissioned/isaac/tools/lib.html",
    "manufacturer":"A. Pickles (A.J. Pickles, PASP 110,863, 1998)",
    "version":1,
    "wavelength":{
      "value":[
        1150.0,
        1155.0,
        1160.0,
        1165.0,
        1170.0,
        1175.0,
        1180.0,
        1185.0,
        1190.0,
        1195.0,
        1200.0,
        1205.0,
        1210.0,
        1215.0,
        1220.0,
        1225.0,
        1230.0,
        1235.0,
        1240.0,
        1245.0,
        1250.0,
        1255.0,
        1260.0,
        1265.0,
        1270.0,
        1275.0,
        1280.0,
        1285.0,
        1290.0,
        1295.0,
        1300.0,
        1305.0,
        1310.0,
        1315.0,
        1320.0,
        1325.0,
        1330.0,
        1335.0,
        1340.0,
        1345.0,
        1350.0,
        1355.0,
        1360.0,
        1365.0,
        1370.0,
        1375.0,
        1380.0,
        1385.0,
        1390.0,
        1395.0,
        1400.0,
        1405.0,
        1410.0,
        1415.0,
        1420.0,
        1425.0,
        1430.0,
        1435.0,
        1440.0,
        1445.0,
        1450.0,
        1455.0,
        1460.0,
        1465.0,
        1470.0,
        1475.0,
        1480.0,
        1485.0,
        1490.0,
        1495.0,
        1500.0,
        1505.0,
        1510.0,
        1515.0,
        1520.0,
        1525.0,
        1530.0,
        1535.0,
        1540.0,
        1545.0,
        1550.0,
        1555.0,
        1560.0,
        1565.0,
        1570.0,
        1575.0,
        1580.0,
        1585.0,
        1590.0,
        1595.0,
        1600.0,
        1605.0,
        1610.0,
        1615.0,
        1620.0,
        1625.0,
        1630.0,
        1635.0,
        1640.0,
        1645.0,
        1650.0,
        1655.0,
        1660.0,
        1665.0,
        1670.0,
        1675.0,
        1680.0,
        1685.0,
        1690.0,
        1695.0,
        1700.0,
        1705.0,
        1710.0,
        1715.0,
        1720.0,
        1725.0,
        1730.0,
        1735.0,
        1740.0,
        1745.0,
        1750.0,
        1755.0,
        1760.0,
        1765.0,
        1770.0,
        1775.0,
        1780.0,
        1785.0,
        1790.0,
        1795.0,
        1800.0,
        1805.0,
        1810.0,
        1815.0,
        1820.0,
        1825.0,
        1830.0,
        1835.0,
        1840.0,
        1845.0,
        1850.0,
        1855.0,
        1860.0,
        1865.0,
        1870.0,
        1875.0,
        1880.0,
        1885.0,
        1890.0,
        1895.0,
        1900.0,
        1905.0,
        1910.0,
        1915.0,
        1920.0,
        1925.0,
        1930.0,
        1935.0,
        1940.0,
        1945.0,
        1950.0,
        1955.0,
        1960.0,
        1965.0,
        1970.0,
        1975.0,
        1980.0,
        1985.0,
        1990.0,
        1995.0,
        2000.0,
        2005.0,
        2010.0,
        2015.0,
        2020.0,
        2025.0,
        2030.0,
        2035.0,
        2040.0,
        2045.0,
        2050.0,
        2055.0,
        2060.0,
        2065.0,
        2070.0,
        2075.0,
        2080.0,
        2085.0,
        2090.0,
        2095.0,
        2100.0,
        2105.0,
        2110.0,
        2115.0,
        2120.0,
        2125.0,
        2130.0,
        2135.0,
        2140.0,
        2145.0,
        2150.0,
        2155.0,
        2160.0,
        2165.0,
        2170.0,
        2175.0,
        2180.0,
        2185.0,
        2190.0,
        2195.0,
        2200.0,
        2205.0,
        2210.0,
        2215.0,
        2220.0,
        2225.0,
        2230.0,
        2235.0,
        2240.0,
        2245.0,
        2250.0,
        2255.0,
        2260.0,
        2265.0,
        2270.0,
        2275.0,
        2280.0,
        2285.0,
        2290.0,
        2295.0,
        2300.0,
        2305.0,
        2310.0,
        2315.0,
        2320.0,
        2325.0,
        2330.0,
        2335.0,
        2340.0,
        2345.0,
        2350.0,
        2355.0,
        2360.0,
        2365.0,
        2370.0,
        2375.0,
        2380.0,
        2385.0,
        2390.0,
        2395.0,
        2400.0,
        2405.0,
        2410.0,
        2415.0,
        2420.0,
        2425.0,
        2430.0,
        2435.0,
        2440.0,
        2445.0,
        2450.0,
        2455.0,
        2460.0,
        2465.0,
        2470.0,
        2475.0,
        2480.0,
        2485.0,
        2490.0,
        2495.0,
        2500.0,
        2505.0,
        2510.0,
        2515.0,
        2520.0,
        2525.0,
        2530.0,
        2535.0,
        2540.0,
        2545.0,
        2550.0,
        2555.0,
        2560.0,
        2565.0,
        2570.0,
        2575.0,
        2580.0,
        2585.0,
        2590.0,
        2595.0,
        2600.0,
        2605.0,
        2610.0,
        2615.0,
        2620.0,
        2625.0,
        2630.0,
        2635.0,
        2640.0,
        2645.0,
        2650.0,
        2655.0,
        2660.0,
        2665.0,
        2670.0,
        2675.0,
        2680.0,
        2685.0,
        2690.0,
        2695.0,
        2700.0,
        2705.0,
        2710.0,
        2715.0,
        2720.0,
        2725.0,
        2730.0,
        2735.0,
        2740.0,
        2745.0,
        2750.0,
        2755.0,
        2760.0,
        2765.0,
        2770.0,
        2775.0,
        2780.0,
        2785.0,
        2790.0,
        2795.0,
        2800.0,
        2805.0,
        2810.0,
        2815.0,
        2820.0,
        2825.0,
        2830.0,
        2835.0,
        2840.0,
        2845.0,
        2850.0,
        2855.0,
        2860.0,
        2865.0,
        2870.0,
        2875.0,
        2880.0,
        2885.0,
        2890.0,
        2895.0,
        2900.0,
        2905.0,
        2910.0,
        2915.0,
        2920.0,
        2925.0,
        2930.0,
        2935.0,
        2940.0,
        2945.0,
        2950.0,
        2955.0,
        2960.0,
        2965.0,
        2970.0,
        2975.0,
        2980.0,
        2985.0,
        2990.0,
        2995.0,
        3000.0,
        3005.0,
        3010.0,
        3015.0,
        3020.0,
        3025.0,
        3030.0,
        3035.0,
        3040.0,
        3045.0,
        3050.0,
        3055.0,
        3060.0,
        3065.0,
        3070.0,
        3075.0,
        3080.0,
        3085.0,
        3090.0,
        3095.0,
        3100.0,
        3105.0,
        3110.0,
        3115.0,
        3120.0,
        3125.0,
        3130.0,
        3135.0,
        3140.0,
        3145.0,
        3150.0,
        3155.0,
        3160.0,
        3165.0,
        3170.0,
        3175.0,
        3180.0,
        3185.0,
        3190.0,
        3195.0,
        3200.0,
        3205.0,
        3210.0,
        3215.0,
        3220.0,
        3225.0,
        3230.0,
        3235.0,
        3240.0,
        3245.0,
        3250.0,
        3255.0,
        3260.0,
        3265.0,
        3270.0,
        3275.0,
        3280.0,
        3285.0,
        3290.0,
        3295.0,
        3300.0,
        3305.0,
        3310.0,
        3315.0,
        3320.0,
        3325.0,
        3330.0,
        3335.0,
        3340.0,
        3345.0,
        3350.0,
        3355.0,
        3360.0,
        3365.0,
        3370.0,
        3375.0,
        3380.0,
        3385.0,
        3390.0,
        3395.0,
        3400.0,
        3405.0,
        3410.0,
        3415.0,
        3420.0,
        3425.0,
        3430.0,
        3435.0,
        3440.0,
        3445.0,
        3450.0,
        3455.0,
        3460.0,
        3465.0,
        3470.0,
        3475.0,
        3480.0,
        3485.0,
        3490.0,
        3495.0,
        3500.0,
        3505.0,
        3510.0,
        3515.0,
        3520.0,
        3525.0,
        3530.0,
        3535.0,
        3540.0,
        3545.0,
        3550.0,
        3555.0,
        3560.0,
        3565.0,
        3570.0,
        3575.0,
        3580.0,
        3585.0,
        3590.0,
        3595.0,
        3600.0,
        3605.0,
        3610.0,
        3615.0,
        3620.0,
        3625.0,
        3630.0,
        3635.0,
        3640.0,
        3645.0,
        3650.0,
        3655.0,
        3660.0,
        3665.0,
        3670.0,
        3675.0,
        3680.0,
        3685.0,
        3690.0,
        3695.0,
        3700.0,
        3705.0,
        3710.0,
        3715.0,
        3720.0,
        3725.0,
        3730.0,
        3735.0,
        3740.0,
        3745.0,
        3750.0,
        3755.0,
        3760.0,
        3765.0,
        3770.0,
        3775.0,
        3780.0,
        3785.0,
        3790.0,
        3795.0,
        3800.0,
        3805.0,
        3810.0,
        3815.0,
        3820.0,
        3825.0,
        3830.0,
        3835.0,
        3840.0,
        3845.0,
        3850.0,
        3855.0,
        3860.0,
        3865.0,
        3870.0,
        3875.0,
        3880.0,
        3885.0,
        3890.0,
        3895.0,
        3900.0,
        3905.0,
        3910.0,
        3915.0,
        3920.0,
        3925.0,
        3930.0,
        3935.0,
        3940.0,
        3945.0,
        3950.0,
        3955.0,
        3960.0,
        3965.0,
        3970.0,
        3975.0,
        3980.0,
        3985.0,
        3990.0,
        3995.0,
        4000.0,
        4005.0,
        4010.0,
        4015.0,
        4020.0,
        4025.0,
        4030.0,
        4035.0,
        4040.0,
        4045.0,
        4050.0,
        4055.0,
        4060.0,
        4065.0,
        4070.0,
        4075.0,
        4080.0,
        4085.0,
        4090.0,
        4095.0,
        4100.0,
        4105.0,
        4110.0,
        4115.0,
        4120.0,
        4125.0,
        4130.0,
        4135.0,
        4140.0,
        4145.0,
        4150.0,
        4155.0,
        4160.0,
        4165.0,
        4170.0,
        4175.0,
        4180.0,
        4185.0,
        4190.0,
        4195.0,
        4200.0,
        4205.0,
        4210.0,
        4215.0,
        4220.0,
        4225.0,
        4230.0,
        4235.0,
        4240.0,
        4245.0,
        4250.0,
        4255.0,
        4260.0,
        4265.0,
        4270.0,
        4275.0,
        4280.0,
        4285.0,
        4290.0,
        4295.0,
        4300.0,
        4305.0,
        4310.0,
        4315.0,
        4320.0,
        4325.0,
        4330.0,
        4335.0,
        4340.0,
        4345.0,
        4350.0,
        4355.0,
        4360.0,
        4365.0,
        4370.0,
        4375.0,
        4380.0,
        4385.0,
        4390.0,
        4395.0,
        4400.0,
        4405.0,
        4410.0,
        4415.0,
        4420.0,
        4425.0,
        4430.0,
        4435.0,
        4440.0,
        4445.0,
        4450.0,
        4455.0,
        4460.0,
        4465.0,
        4470.0,
        4475.0,
        4480.0,
        4485.0,
        4490.0,
        4495.0,
        4500.0,
        4505.0,
        4510.0,
        4515.0,
        4520.0,
        4525.0,
        4530.0,
        4535.0,
        4540.0,
        4545.0,
        4550.0,
        4555.0,
        4560.0,
        4565.0,
        4570.0,
        4575.0,
        4580.0,
        4585.0,
        4590.0,
        4595.0,
        4600.0,
        4605.0,
        4610.0,
        4615.0,
        4620.0,
        4625.0,
        4630.0,
        4635.0,
        4640.0,
        4645.0,
        4650.0,
        4655.0,
        4660.0,
        4665.0,
        4670.0,
        4675.0,
        4680.0,
        4685.0,
        4690.0,
        4695.0,
        4700.0,
        4705.0,
        4710.0,
        4715.0,
        4720.0,
        4725.0,
        4730.0,
        4735.0,
        4740.0,
        4745.0,
        4750.0,
        4755.0,
        4760.0,
        4765.0,
        4770.0,
        4775.0,
        4780.0,
        4785.0,
        4790.0,
        4795.0,
        4800.0,
        4805.0,
        4810.0,
        4815.0,
        4820.0,
        4825.0,
        4830.0,
        4835.0,
        4840.0,
        4845.0,
        4850.0,
        4855.0,
        4860.0,
        4865.0,
        4870.0,
        4875.0,
        4880.0,
        4885.0,
        4890.0,
        4895.0,
        4900.0,
        4905.0,
        4910.0,
        4915.0,
        4920.0,
        4925.0,
        4930.0,
        4935.0,
        4940.0,
        4945.0,
        4950.0,
        4955.0,
        4960.0,
        4965.0,
        4970.0,
        4975.0,
        4980.0,
        4985.0,
        4990.0,
        4995.0,
        5000.0,
        5005.0,
        5010.0,
        5015.0,
        5020.0,
        5025.0,
        5030.0,
        5035.0,
        5040.0,
        5045.0,
        5050.0,
        5055.0,
        5060.0,
        5065.0,
        5070.0,
        5075.0,
        5080.0,
        5085.0,
        5090.0,
        5095.0,
        5100.0,
        5105.0,
        5110.0,
        5115.0,
        5120.0,
        5125.0,
        5130.0,
        5135.0,
        5140.0,
        5145.0,
        5150.0,
        5155.0,
        5160.0,
        5165.0,
        5170.0,
        5175.0,
        5180.0,
        5185.0,
        5190.0,
        5195.0,
        5200.0,
        5205.0,
        5210.0,
        5215.0,
        5220.0,
        5225.0,
        5230.0,
        5235.0,
        5240.0,
        5245.0,
        5250.0,
        5255.0,
        5260.0,
        5265.0,
        5270.0,
        5275.0,
        5280.0,
        5285.0,
        5290.0,
        5295.0,
        5300.0,
        5305.0,
        5310.0,
        5315.0,
        5320.0,
        5325.0,
        5330.0,
        5335.0,
        5340.0,
        5345.0,
        5350.0,
        5355.0,
        5360.0,
        5365.0,
        5370.0,
        5375.0,
        5380.0,
        5385.0,
        5390.0,
        5395.0,
        5400.0,
        5405.0,
        5410.0,
        5415.0,
        5420.0,
        5425.0,
        5430.0,
        5435.0,
        5440.0,
        5445.0,
        5450.0,
        5455.0,
        5460.0,
        5465.0,
        5470.0,
        5475.0,
        5480.0,
        5485.0,
        5490.0,
        5495.0,
        5500.0,
        5505.0,
        5510.0,
        5515.0,
        5520.0,
        5525.0,
        5530.0,
        5535.0,
        5540.0,
        5545.0,
        5550.0,
        5555.0,
        5560.0,
        5565.0,
        5570.0,
        5575.0,
        5580.0,
        5585.0,
        5590.0,
        5595.0,
        5600.0,
        5605.0,
        5610.0,
        5615.0,
        5620.0,
        5625.0,
        5630.0,
        5635.0,
        5640.0,
        5645.0,
        5650.0,
        5655.0,
        5660.0,
        5665.0,
        5670.0,
        5675.0,
        5680.0,
        5685.0,
        5690.0,
        5695.0,
        5700.0,
        5705.0,
        5710.0,
        5715.0,
        5720.0,
        5725.0,
        5730.0,
        5735.0,
        5740.0,
        5745.0,
        5750.0,
        5755.0,
        5760.0,
        5765.0,
        5770.0,
        5775.0,
        5780.0,
        5785.0,
        5790.0,
        5795.0,
        5800.0,
        5805.0,
        5810.0,
        5815.0,
        5820.0,
        5825.0,
        5830.0,
        5835.0,
        5840.0,
        5845.0,
        5850.0,
        5855.0,
        5860.0,
        5865.0,
        5870.0,
        5875.0,
        5880.0,
        5885.0,
        5890.0,
        5895.0,
        5900.0,
        5905.0,
        5910.0,
        5915.0,
        5920.0,
        5925.0,
        5930.0,
        5935.0,
        5940.0,
        5945.0,
        5950.0,
        5955.0,
        5960.0,
        5965.0,
        5970.0,
        5975.0,
        5980.0,
        5985.0,
        5990.0,
        5995.0,
        6000.0,
        6005.0,
        6010.0,
        6015.0,
        6020.0,
        6025.0,
        6030.0,
        6035.0,
        6040.0,
        6045.0,
        6050.0,
        6055.0,
        6060.0,
        6065.0,
        6070.0,
        6075.0,
        6080.0,
        6085.0,
        6090.0,
        6095.0,
        6100.0,
        6105.0,
        6110.0,
        6115.0,
        6120.0,
        6125.0,
        6130.0,
        6135.0,
        6140.0,
        6145.0,
        6150.0,
        6155.0,
        6160.0,
        6165.0,
        6170.0,
        6175.0,
        6180.0,
        6185.0,
        6190.0,
        6195.0,
        6200.0,
        6205.0,
        6210.0,
        6215.0,
        6220.0,
        6225.0,
        6230.0,
        6235.0,
        6240.0,
        6245.0,
        6250.0,
        6255.0,
        6260.0,
        6265.0,
        6270.0,
        6275.0,
        6280.0,
        6285.0,
        6290.0,
        6295.0,
        6300.0,
        6305.0,
        6310.0,
        6315.0,
        6320.0,
        6325.0,
        6330.0,
        6335.0,
        6340.0,
        6345.0,
        6350.0,
        6355.0,
        6360.0,
        6365.0,
        6370.0,
        6375.0,
        6380.0,
        6385.0,
        6390.0,
        6395.0,
        6400.0,
        6405.0,
        6410.0,
        6415.0,
        6420.0,
        6425.0,
        6430.0,
        6435.0,
        6440.0,
        6445.0,
        6450.0,
        6455.0,
        6460.0,
        6465.0,
        6470.0,
        6475.0,
        6480.0,
        6485.0,
        6490.0,
        6495.0,
        6500.0,
        6505.0,
        6510.0,
        6515.0,
        6520.0,
        6525.0,
        6530.0,
        6535.0,
        6540.0,
        6545.0,
        6550.0,
        6555.0,
        6560.0,
        6565.0,
        6570.0,
        6575.0,
        6580.0,
        6585.0,
        6590.0,
        6595.0,
        6600.0,
        6605.0,
        6610.0,
        6615.0,
        6620.0,
        6625.0,
        6630.0,
        6635.0,
        6640.0,
        6645.0,
        6650.0,
        6655.0,
        6660.0,
        6665.0,
        6670.0,
        6675.0,
        6680.0,
        6685.0,
        6690.0,
        6695.0,
        6700.0,
        6705.0,
        6710.0,
        6715.0,
        6720.0,
        6725.0,
        6730.0,
        6735.0,
        6740.0,
        6745.0,
        6750.0,
        6755.0,
        6760.0,
        6765.0,
        6770.0,
        6775.0,
        6780.0,
        6785.0,
        6790.0,
        6795.0,
        6800.0,
        6805.0,
        6810.0,
        6815.0,
        6820.0,
        6825.0,
        6830.0,
        6835.0,
        6840.0,
        6845.0,
        6850.0,
        6855.0,
        6860.0,
        6865.0,
        6870.0,
        6875.0,
        6880.0,
        6885.0,
        6890.0,
        6895.0,
        6900.0,
        6905.0,
        6910.0,
        6915.0,
        6920.0,
        6925.0,
        6930.0,
        6935.0,
        6940.0,
        6945.0,
        6950.0,
        6955.0,
        6960.0,
        6965.0,
        6970.0,
        6975.0,
        6980.0,
        6985.0,
        6990.0,
        6995.0,
        7000.0,
        7005.0,
        7010.0,
        7015.0,
        7020.0,
        7025.0,
        7030.0,
        7035.0,
        7040.0,
        7045.0,
        7050.0,
        7055.0,
        7060.0,
        7065.0,
        7070.0,
        7075.0,
        7080.0,
        7085.0,
        7090.0,
        7095.0,
        7100.0,
        7105.0,
        7110.0,
        7115.0,
        7120.0,
        7125.0,
        7130.0,
        7135.0,
        7140.0,
        7145.0,
        7150.0,
        7155.0,
        7160.0,
        7165.0,
        7170.0,
        7175.0,
        7180.0,
        7185.0,
        7190.0,
        7195.0,
        7200.0,
        7205.0,
        7210.0,
        7215.0,
        7220.0,
        7225.0,
        7230.0,
        7235.0,
        7240.0,
        7245.0,
        7250.0,
        7255.0,
        7260.0,
        7265.0,
        7270.0,
        7275.0,
        7280.0,
        7285.0,
        7290.0,
        7295.0,
        7300.0,
        7305.0,
        7310.0,
        7315.0,
        7320.0,
        7325.0,
        7330.0,
        7335.0,
        7340.0,
        7345.0,
        7350.0,
        7355.0,
        7360.0,
        7365.0,
        7370.0,
        7375.0,
        7380.0,
        7385.0,
        7390.0,
        7395.0,
        7400.0,
        7405.0,
        7410.0,
        7415.0,
        7420.0,
        7425.0,
        7430.0,
        7435.0,
        7440.0,
        7445.0,
        7450.0,
        7455.0,
        7460.0,
        7465.0,
        7470.0,
        7475.0,
        7480.0,
        7485.0,
        7490.0,
        7495.0,
        7500.0,
        7505.0,
        7510.0,
        7515.0,
        7520.0,
        7525.0,
        7530.0,
        7535.0,
        7540.0,
        7545.0,
        7550.0,
        7555.0,
        7560.0,
        7565.0,
        7570.0,
        7575.0,
        7580.0,
        7585.0,
        7590.0,
        7595.0,
        7600.0,
        7605.0,
        7610.0,
        7615.0,
        7620.0,
        7625.0,
        7630.0,
        7635.0,
        7640.0,
        7645.0,
        7650.0,
        7655.0,
        7660.0,
        7665.0,
        7670.0,
        7675.0,
        7680.0,
        7685.0,
        7690.0,
        7695.0,
        7700.0,
        7705.0,
        7710.0,
        7715.0,
        7720.0,
        7725.0,
        7730.0,
        7735.0,
        7740.0,
        7745.0,
        7750.0,
        7755.0,
        7760.0,
        7765.0,
        7770.0,
        7775.0,
        7780.0,
        7785.0,
        7790.0,
        7795.0,
        7800.0,
        7805.0,
        7810.0,
        7815.0,
        7820.0,
        7825.0,
        7830.0,
        7835.0,
        7840.0,
        7845.0,
        7850.0,
        7855.0,
        7860.0,
        7865.0,
        7870.0,
        7875.0,
        7880.0,
        7885.0,
        7890.0,
        7895.0,
        7900.0,
        7905.0,
        7910.0,
        7915.0,
        7920.0,
        7925.0,
        7930.0,
        7935.0,
        7940.0,
        7945.0,
        7950.0,
        7955.0,
        7960.0,
        7965.0,
        7970.0,
        7975.0,
        7980.0,
        7985.0,
        7990.0,
        7995.0,
        8000.0,
        8005.0,
        8010.0,
        8015.0,
        8020.0,
        8025.0,
        8030.0,
        8035.0,
        8040.0,
        8045.0,
        8050.0,
        8055.0,
        8060.0,
        8065.0,
        8070.0,
        8075.0,
        8080.0,
        8085.0,
        8090.0,
        8095.0,
        8100.0,
        8105.0,
        8110.0,
        8115.0,
        8120.0,
        8125.0,
        8130.0,
        8135.0,
        8140.0,
        8145.0,
        8150.0,
        8155.0,
        8160.0,
        8165.0,
        8170.0,
        8175.0,
        8180.0,
        8185.0,
        8190.0,
        8195.0,
        8200.0,
        8205.0,
        8210.0,
        8215.0,
        8220.0,
        8225.0,
        8230.0,
        8235.0,
        8240.0,
        8245.0,
        8250.0,
        8255.0,
        8260.0,
        8265.0,
        8270.0,
        8275.0,
        8280.0,
        8285.0,
        8290.0,
        8295.0,
        8300.0,
        8305.0,
        8310.0,
        8315.0,
        8320.0,
        8325.0,
        8330.0,
        8335.0,
        8340.0,
        8345.0,
        8350.0,
        8355.0,
        8360.0,
        8365.0,
        8370.0,
        8375.0,
        8380.0,
        8385.0,
        8390.0,
        8395.0,
        8400.0,
        8405.0,
        8410.0,
        8415.0,
        8420.0,
        8425.0,
        8430.0,
        8435.0,
        8440.0,
        8445.0,
        8450.0,
        8455.0,
        8460.0,
        8465.0,
        8470.0,
        8475.0,
        8480.0,
        8485.0,
        8490.0,
        8495.0,
        8500.0,
        8505.0,
        8510.0,
        8515.0,
        8520.0,
        8525.0,
        8530.0,
        8535.0,
        8540.0,
        8545.0,
        8550.0,
        8555.0,
        8560.0,
        8565.0,
        8570.0,
        8575.0,
        8580.0,
        8585.0,
        8590.0,
        8595.0,
        8600.0,
        8605.0,
        8610.0,
        8615.0,
        8620.0,
        8625.0,
        8630.0,
        8635.0,
        8640.0,
        8645.0,
        8650.0,
        8655.0,
        8660.0,
        8665.0,
        8670.0,
        8675.0,
        8680.0,
        8685.0,
        8690.0,
        8695.0,
        8700.0,
        8705.0,
        8710.0,
        8715.0,
        8720.0,
        8725.0,
        8730.0,
        8735.0,
        8740.0,
        8745.0,
        8750.0,
        8755.0,
        8760.0,
        8765.0,
        8770.0,
        8775.0,
        8780.0,
        8785.0,
        8790.0,
        8795.0,
        8800.0,
        8805.0,
        8810.0,
        8815.0,
        8820.0,
        8825.0,
        8830.0,
        8835.0,
        8840.0,
        8845.0,
        8850.0,
        8855.0,
        8860.0,
        8865.0,
        8870.0,
        8875.0,
        8880.0,
        8885.0,
        8890.0,
        8895.0,
        8900.0,
        8905.0,
        8910.0,
        8915.0,
        8920.0,
        8925.0,
        8930.0,
        8935.0,
        8940.0,
        8945.0,
        8950.0,
        8955.0,
        8960.0,
        8965.0,
        8970.0,
        8975.0,
        8980.0,
        8985.0,
        8990.0,
        8995.0,
        9000.0,
        9005.0,
        9010.0,
        9015.0,
        9020.0,
        9025.0,
        9030.0,
        9035.0,
        9040.0,
        9045.0,
        9050.0,
        9055.0,
        9060.0,
        9065.0,
        9070.0,
        9075.0,
        9080.0,
        9085.0,
        9090.0,
        9095.0,
        9100.0,
        9105.0,
        9110.0,
        9115.0,
        9120.0,
        9125.0,
        9130.0,
        9135.0,
        9140.0,
        9145.0,
        9150.0,
        9155.0,
        9160.0,
        9165.0,
        9170.0,
        9175.0,
        9180.0,
        9185.0,
        9190.0,
        9195.0,
        9200.0,
        9205.0,
        9210.0,
        9215.0,
        9220.0,
        9225.0,
        9230.0,
        9235.0,
        9240.0,
        9245.0,
        9250.0,
        9255.0,
        9260.0,
        9265.0,
        9270.0,
        9275.0,
        9280.0,
        9285.0,
        9290.0,
        9295.0,
        9300.0,
        9305.0,
        9310.0,
        9315.0,
        9320.0,
        9325.0,
        9330.0,
        9335.0,
        9340.0,
        9345.0,
        9350.0,
        9355.0,
        9360.0,
        9365.0,
        9370.0,
        9375.0,
        9380.0,
        9385.0,
        9390.0,
        9395.0,
        9400.0,
        9405.0,
        9410.0,
        9415.0,
        9420.0,
        9425.0,
        9430.0,
        9435.0,
        9440.0,
        9445.0,
        9450.0,
        9455.0,
        9460.0,
        9465.0,
        9470.0,
        9475.0,
        9480.0,
        9485.0,
        9490.0,
        9495.0,
        9500.0,
        9505.0,
        9510.0,
        9515.0,
        9520.0,
        9525.0,
        9530.0,
        9535.0,
        9540.0,
        9545.0,
        9550.0,
        9555.0,
        9560.0,
        9565.0,
        9570.0,
        9575.0,
        9580.0,
        9585.0,
        9590.0,
        9595.0,
        9600.0,
        9605.0,
        9610.0,
        9615.0,
        9620.0,
        9625.0,
        9630.0,
        9635.0,
        9640.0,
        9645.0,
        9650.0,
        9655.0,
        9660.0,
        9665.0,
        9670.0,
        9675.0,
        9680.0,
        9685.0,
        9690.0,
        9695.0,
        9700.0,
        9705.0,
        9710.0,
        9715.0,
        9720.0,
        9725.0,
        9730.0,
        9735.0,
        9740.0,
        9745.0,
        9750.0,
        9755.0,
        9760.0,
        9765.0,
        9770.0,
        9775.0,
        9780.0,
        9785.0,
        9790.0,
        9795.0,
        9800.0,
        9805.0,
        9810.0,
        9815.0,
        9820.0,
        9825.0,
        9830.0,
        9835.0,
        9840.0,
        9845.0,
        9850.0,
        9855.0,
        9860.0,
        9865.0,
        9870.0,
        9875.0,
        9880.0,
        9885.0,
        9890.0,
        9895.0,
        9900.0,
        9905.0,
        9910.0,
        9915.0,
        9920.0,
        9925.0,
        9930.0,
        9935.0,
        9940.0,
        9945.0,
        9950.0,
        9955.0,
        9960.0,
        9965.0,
        9970.0,
        9975.0,
        9980.0,
        9985.0,
        9990.0,
        9995.0,
        10000.0,
        10005.0,
        10010.0,
        10015.0,
        10020.0,
        10025.0,
        10030.0,
        10035.0,
        10040.0,
        10045.0,
        10050.0,
        10055.0,
        10060.0,
        10065.0,
        10070.0,
        10075.0,
        10080.0,
        10085.0,
        10090.0,
        10095.0,
        10100.0,
        10105.0,
        10110.0,
        10115.0,
        10120.0,
        10125.0,
        10130.0,
        10135.0,
        10140.0,
        10145.0,
        10150.0,
        10155.0,
        10160.0,
        10165.0,
        10170.0,
        10175.0,
        10180.0,
        10185.0,
        10190.0,
        10195.0,
        10200.0,
        10205.0,
        10210.0,
        10215.0,
        10220.0,
        10225.0,
        10230.0,
        10235.0,
        10240.0,
        10245.0,
        10250.0,
        10255.0,
        10260.0,
        10265.0,
        10270.0,
        10275.0,
        10280.0,
        10285.0,
        10290.0,
        10295.0,
        10300.0,
        10305.0,
        10310.0,
        10315.0,
        10320.0,
        10325.0,
        10330.0,
        10335.0,
        10340.0,
        10345.0,
        10350.0,
        10355.0,
        10360.0,
        10365.0,
        10370.0,
        10375.0,
        10380.0,
        10385.0,
        10390.0,
        10395.0,
        10400.0,
        10405.0,
        10410.0,
        10415.0,
        10420.0,
        10425.0,
        10430.0,
        10435.0,
        10440.0,
        10445.0,
        10450.0,
        10455.0,
        10460.0,
        10465.0,
        10470.0,
        10475.0,
        10480.0,
        10485.0,
        10490.0,
        10495.0,
        10500.0
      ],
      "units":"angstrom"
    },
    "values":{
      "value":[
        0.0,
        0.0,
        0.0,
        0.0,
        0.0,
        0.0,
        0.0,
        0.0,
        0.0,
        0.0,
        0.0,
        0.0,
        0.0,
        0.0,
        0.0,
        0.0,
        0.0,
        0.0,
        0.0,
        0.0,
        0.0,
        0.0,
        0.0,
        0.0,
        0.0,
        0.0,
        0.0,
        0.0,
        0.0,
        0.0,
        0.0,
        0.0,
        0.0,
        0.0,
        0.0,
        0.0,
        0.0,
        0.0,
        0.0,
        0.0,
        0.0,
        0.0,
        0.0,
        0.0,
        0.0,
        0.0,
        0.0,
        0.0,
        0.0,
        0.0,
        0.0,
        0.0,
        0.0,
        0.0,
        0.0,
        0.0,
        0.0,
        0.0,
        0.0,
        0.0,
        0.0,
        0.0,
        0.0,
        0.0,
        0.0,
        0.0,
        0.0,
        0.0,
        0.0,
        0.0,
        0.0,
        0.0,
        0.0,
        0.0,
        0.0,
        0.0,
        0.0,
        0.0,
        0.0,
        0.0,
        0.0,
        0.0,
        0.0,
        0.0,
        0.0,
        0.0,
        0.0,
        0.0,
        0.0,
        0.0,
        0.0,
        0.0,
        0.0,
        0.0,
        0.0,
        0.0,
        0.0,
        0.0,
        0.0,
        0.0,
        0.0,
        0.0,
        0.0,
        0.0,
        0.0,
        0.0,
        0.0,
        0.0,
        0.0,
        0.0,
        0.0,
        0.0,
        0.0,
        0.0,
        0.0,
        0.0,
        0.0,
        0.0,
        0.0,
        0.0,
        0.0,
        0.0,
        0.0,
        0.0,
        0.0,
        0.0,
        0.0,
        0.0,
        0.0,
        0.0,
        0.0,
        0.0,
        0.0,
        0.0,
        0.0,
        0.0,
        0.0,
        0.0,
        0.0,
        0.0,
        0.0,
        0.0,
        0.0,
        0.0,
        0.0,
        0.0,
        0.0,
        0.0,
        0.0,
        0.0,
        0.0,
        0.0,
        0.0,
        0.0,
        0.0,
        0.0,
        0.0,
        0.0,
        0.0,
        0.0,
        0.0,
        0.0,
        0.0,
        0.0,
        0.0,
        0.0,
        0.0,
        0.0,
        0.0,
        0.0,
        0.0,
        0.0,
        0.0,
        0.0,
        0.0,
        0.0,
        0.0,
        0.0,
        0.0,
        0.0,
        0.0,
        0.0,
        0.0,
        0.0,
        0.0,
        0.0,
        0.0,
        0.0,
        0.0,
        0.0,
        0.0,
        0.0,
        0.0,
        0.0,
        0.0,
        0.0,
        0.0,
        0.0,
        0.0,
        0.0,
        0.0,
        0.0,
        0.0,
        0.0,
        0.0,
        0.0,
        0.0,
        0.0,
        0.0,
        0.0,
        0.0,
        0.0,
        0.0,
        0.0,
        0.0,
        0.0,
        0.0,
        0.0,
        0.0,
        0.0,
        0.0,
        0.0,
        0.0,
        0.0,
        0.0,
        0.0,
        0.0,
        0.0,
        0.0,
        0.0,
        0.0,
        0.0,
        0.0,
        0.0,
        0.0,
        0.0,
        0.0,
        0.0,
        0.0,
        0.0,
        0.0,
        0.0,
        0.0,
        0.0,
        0.0,
        0.0,
        0.0,
        0.0,
        0.0,
        0.0,
        0.0,
        0.0,
        0.0,
        0.0,
        0.0,
        0.0,
        0.0,
        0.0,
        0.0,
        0.0,
        0.0,
        0.0,
        0.0,
        0.0,
        0.0,
        0.0,
        0.0,
        0.0,
        0.0,
        0.0,
        0.0,
        0.0,
        0.0,
        0.0,
        0.0,
        0.0,
        0.0,
        0.0,
        0.0,
        0.0,
        0.0,
        0.0,
        0.0,
        0.0,
        0.0,
        0.0,
        0.0,
        0.0,
        0.0,
        0.0,
        0.0,
        0.0,
        0.0,
        0.0,
        0.0,
        0.0,
        0.0,
        0.0,
        0.0,
        0.0,
        0.0,
        0.0,
        0.0,
        0.0,
        0.0,
        0.0,
        0.0,
        0.0,
        0.0,
        0.0,
        0.0,
        0.0,
        0.0,
        0.0,
        0.0,
        0.0,
        0.0,
        0.0,
        0.0,
        0.0,
        0.0,
        1e-06,
        3e-06,
        4e-06,
        5e-06,
        6e-06,
        7e-06,
        6e-06,
        5e-06,
        3e-06,
        0.0,
        0.0,
        0.0,
        0.0,
        0.0,
        0.0,
        0.0,
        0.0,
        0.0,
        0.0,
        0.0,
        1.7e-05,
        3.6e-05,
        5.6e-05,
        7.4e-05,
        8.7e-05,
        9.3e-05,
        9e-05,
        7.5e-05,
        4.6e-05,
        0.0,
        0.0,
        0.0,
        0.0,
        0.0,
        0.0,
        0.0,
        0.0,
        0.0,
        0.0,
        0.0,
        0.000239,
        0.000538,
        0.000889,
        0.001281,
        0.001705,
        0.00215,
        0.002607,
        0.003065,
        0.003515,
        0.003947,
        0.004354,
        0.00474,
        0.005112,
        0.005477,
        0.005841,
        0.006211,
        0.006595,
        0.006999,
        0.00743,
        0.007895,
        0.008398,
        0.008937,
        0.009505,
        0.010097,
        0.010706,
        0.011327,
        0.011954,
        0.012582,
        0.013205,
        0.013816,
        0.014414,
        0.015011,
        0.015624,
        0.016268,
        0.016961,
        0.017717,
        0.018554,
        0.019488,
        0.020535,
        0.021711,
        0.02302,
        0.025276,
        0.028453,
        0.0299,
        0.029307,
        0.032118,
        0.041817,
        0.048286,
        0.042487,
        0.034012,
        0.028344,
        0.025688,
        0.014491,
        0.006088,
        0.012211,
        0.023288,
        0.027804,
        0.027781,
        0.027906,
        0.029997,
        0.033958,
        0.034918,
        0.029678,
        0.026501,
        0.032878,
        0.04177,
        0.045127,
        0.045389,
        0.046285,
        0.046218,
        0.043501,
        0.04141,
        0.043098,
        0.046278,
        0.048947,
        0.055701,
        0.068982,
        0.076034,
        0.065935,
        0.050287,
        0.043235,
        0.046575,
        0.057771,
        0.069313,
        0.073329,
        0.065477,
        0.046925,
        0.03736,
        0.051753,
        0.067695,
        0.063175,
        0.055159,
        0.063032,
        0.076867,
        0.082833,
        0.080794,
        0.073904,
        0.064802,
        0.056759,
        0.056088,
        0.066513,
        0.078343,
        0.081873,
        0.080734,
        0.080526,
        0.081365,
        0.082344,
        0.083936,
        0.086288,
        0.086854,
        0.083872,
        0.098054,
        0.094654,
        0.093297,
        0.096689,
        0.108229,
        0.117954,
        0.125551,
        0.128309,
        0.123459,
        0.123827,
        0.110696,
        0.094224,
        0.085968,
        0.081163,
        0.075304,
        0.077963,
        0.085061,
        0.089538,
        0.09355,
        0.086792,
        0.087209,
        0.098384,
        0.104146,
        0.106852,
        0.098165,
        0.100708,
        0.105269,
        0.097668,
        0.100689,
        0.115641,
        0.121056,
        0.11965,
        0.118169,
        0.11377,
        0.115896,
        0.12054,
        0.130228,
        0.137659,
        0.129578,
        0.115291,
        0.112461,
        0.114696,
        0.098242,
        0.094935,
        0.092017,
        0.085631,
        0.091377,
        0.089554,
        0.094834,
        0.102516,
        0.105349,
        0.120578,
        0.142876,
        0.152078,
        0.146105,
        0.13718,
        0.143188,
        0.155765,
        0.155278,
        0.150238,
        0.147048,
        0.132173,
        0.115525,
        0.115997,
        0.138156,
        0.151138,
        0.138255,
        0.138335,
        0.132805,
        0.114707,
        0.10916,
        0.12795,
        0.135657,
        0.12577,
        0.132093,
        0.152426,
        0.168832,
        0.144883,
        0.139401,
        0.146632,
        0.147403,
        0.153895,
        0.143273,
        0.148053,
        0.206516,
        0.22232,
        0.163952,
        0.135671,
        0.152271,
        0.15483,
        0.156234,
        0.233545,
        0.288902,
        0.245604,
        0.2264,
        0.22767,
        0.227453,
        0.23143,
        0.235863,
        0.246429,
        0.26215,
        0.268258,
        0.258707,
        0.246318,
        0.224813,
        0.231309,
        0.252457,
        0.246987,
        0.267166,
        0.274795,
        0.262583,
        0.245394,
        0.244152,
        0.243874,
        0.250278,
        0.268432,
        0.275346,
        0.279446,
        0.30317,
        0.297307,
        0.266574,
        0.259219,
        0.267866,
        0.280459,
        0.273898,
        0.265847,
        0.267103,
        0.278497,
        0.29263,
        0.298031,
        0.304562,
        0.298654,
        0.284654,
        0.277394,
        0.283517,
        0.280039,
        0.280055,
        0.274823,
        0.259696,
        0.25217,
        0.234473,
        0.199207,
        0.147654,
        0.10069,
        0.10807,
        0.154386,
        0.188811,
        0.209277,
        0.211148,
        0.204445,
        0.216448,
        0.234552,
        0.229771,
        0.224439,
        0.244784,
        0.248048,
        0.238094,
        0.247755,
        0.245284,
        0.255757,
        0.276615,
        0.296928,
        0.30363,
        0.310824,
        0.342358,
        0.387784,
        0.422489,
        0.399166,
        0.348198,
        0.324138,
        0.330162,
        0.343753,
        0.35818,
        0.356746,
        0.341741,
        0.341393,
        0.365389,
        0.382138,
        0.378358,
        0.364385,
        0.3858,
        0.404492,
        0.410822,
        0.394074,
        0.399228,
        0.399053,
        0.434489,
        0.463223,
        0.454322,
        0.410771,
        0.425989,
        0.472158,
        0.506535,
        0.524669,
        0.5245,
        0.524384,
        0.527937,
        0.536134,
        0.550637,
        0.551843,
        0.540382,
        0.542709,
        0.556217,
        0.54025,
        0.50931,
        0.520512,
        0.578761,
        0.584447,
        0.567213,
        0.59079,
        0.649603,
        0.694248,
        0.705845,
        0.697266,
        0.659933,
        0.617151,
        0.605607,
        0.625534,
        0.634697,
        0.635495,
        0.685889,
        0.724124,
        0.730545,
        0.664154,
        0.612359,
        0.61356,
        0.618592,
        0.619572,
        0.606049,
        0.633453,
        0.697212,
        0.670221,
        0.588522,
        0.581066,
        0.593563,
        0.606999,
        0.631854,
        0.653851,
        0.673146,
        0.690193,
        0.683183,
        0.656399,
        0.645983,
        0.668784,
        0.672767,
        0.678214,
        0.684238,
        0.711059,
        0.723867,
        0.705251,
        0.608124,
        0.50358,
        0.486574,
        0.495388,
        0.496221,
        0.529502,
        0.573764,
        0.609386,
        0.619788,
        0.572706,
        0.533852,
        0.549901,
        0.569812,
        0.584546,
        0.591514,
        0.615613,
        0.623582,
        0.590885,
        0.569084,
        0.614546,
        0.670097,
        0.655613,
        0.631203,
        0.619853,
        0.63631,
        0.659506,
        0.669994,
        0.686874,
        0.712023,
        0.755219,
        0.796977,
        0.791803,
        0.792221,
        0.8416,
        0.880079,
        0.861961,
        0.86266,
        0.911777,
        0.933293,
        0.726909,
        0.55144,
        0.566923,
        0.630212,
        0.670873,
        0.65677,
        0.675855,
        0.708859,
        0.705196,
        0.648875,
        0.606798,
        0.60032,
        0.60794,
        0.633207,
        0.64504,
        0.679122,
        0.687823,
        0.681955,
        0.721216,
        0.726894,
        0.709545,
        0.721555,
        0.714595,
        0.717923,
        0.733967,
        0.721246,
        0.727575,
        0.747304,
        0.747737,
        0.725006,
        0.699983,
        0.725327,
        0.77005,
        0.759748,
        0.719028,
        0.734089,
        0.783912,
        0.786009,
        0.75646,
        0.729607,
        0.752625,
        0.846781,
        0.741233,
        0.526124,
        0.474826,
        0.499924,
        0.584605,
        0.667927,
        0.712107,
        0.699398,
        0.599277,
        0.638781,
        0.829496,
        0.922394,
        0.917919,
        0.957466,
        0.987942,
        0.961806,
        0.910715,
        0.904964,
        0.939654,
        0.908647,
        0.812714,
        0.820285,
        0.932714,
        0.985841,
        1.013652,
        1.048573,
        1.018359,
        1.007024,
        1.053167,
        1.050524,
        1.055515,
        1.048553,
        1.004997,
        0.977177,
        1.021108,
        1.035672,
        1.039174,
        1.09463,
        1.163502,
        1.140769,
        1.115577,
        1.094422,
        1.151994,
        1.235922,
        1.249998,
        1.222509,
        1.1757,
        1.204622,
        1.189073,
        1.174084,
        1.259052,
        1.310455,
        1.287043,
        1.214304,
        1.235746,
        1.328201,
        1.222954,
        0.962545,
        0.857096,
        0.896078,
        0.965194,
        1.01012,
        1.01712,
        1.032362,
        1.068933,
        1.092134,
        1.058616,
        0.953453,
        0.914046,
        0.916203,
        0.924006,
        0.968665,
        0.982735,
        0.973363,
        0.948223,
        0.936536,
        0.948817,
        0.974906,
        1.00757,
        1.031967,
        1.041752,
        1.061301,
        1.096635,
        1.116505,
        1.100402,
        1.067686,
        1.032972,
        0.942962,
        0.949562,
        0.996666,
        0.990914,
        0.979786,
        0.988364,
        0.965347,
        0.974488,
        0.990312,
        1.015748,
        1.070705,
        1.116633,
        1.095496,
        1.045386,
        1.020176,
        1.049455,
        1.091828,
        1.106568,
        1.128536,
        1.152637,
        1.16775,
        1.191158,
        1.221788,
        1.21957,
        1.20813,
        1.213442,
        1.23226,
        1.259966,
        1.274758,
        1.308629,
        1.360194,
        1.380053,
        1.290229,
        1.192577,
        1.211271,
        1.229592,
        1.253701,
        1.293309,
        1.327224,
        1.385327,
        1.431418,
        1.453644,
        1.360339,
        1.216107,
        1.171663,
        1.205156,
        1.256466,
        1.27345,
        1.266168,
        1.232588,
        1.114126,
        1.035826,
        1.014258,
        0.984823,
        0.959524,
        0.914269,
        0.824286,
        0.650883,
        0.46378,
        0.450767,
        0.590306,
        0.722289,
        0.784696,
        0.831078,
        0.849802,
        0.85195,
        0.88324,
        0.936123,
        0.970587,
        0.981941,
        0.941254,
        0.913313,
        0.917485,
        0.942882,
        0.949732,
        0.947241,
        0.985179,
        1.019082,
        1.058635,
        1.102876,
        1.082914,
        1.05653,
        1.077001,
        1.108642,
        1.144365,
        1.179947,
        1.207653,
        1.183149,
        1.198128,
        1.259984,
        1.286023,
        1.29113,
        1.287419,
        1.262217,
        1.31374,
        1.323889,
        1.298769,
        1.312029,
        1.351068,
        1.392173,
        1.33812,
        1.314973,
        1.365602,
        1.366654,
        1.271683,
        1.293926,
        1.389835,
        1.390182,
        1.423796,
        1.424098,
        1.303717,
        1.174509,
        0.945306,
        0.823742,
        0.862255,
        0.901907,
        0.924953,
        0.872238,
        0.803577,
        0.813994,
        0.851779,
        0.887338,
        0.87796,
        0.787343,
        0.736132,
        0.699229,
        0.714493,
        0.755043,
        0.762268,
        0.783,
        0.830252,
        0.861248,
        0.905439,
        0.942039,
        0.952689,
        0.94203,
        0.948994,
        1.02122,
        1.073967,
        1.088214,
        1.147308,
        1.2044,
        1.265534,
        1.311983,
        1.341171,
        1.362244,
        1.403781,
        1.443115,
        1.495354,
        1.551526,
        1.554954,
        1.475706,
        1.403672,
        1.412224,
        1.432291,
        1.413797,
        1.324931,
        1.297789,
        1.338282,
        1.457914,
        1.566473,
        1.656859,
        1.717072,
        1.680385,
        1.646418,
        1.667788,
        1.709783,
        1.71503,
        1.722016,
        1.804249,
        1.783146,
        1.839619,
        1.829733,
        1.878766,
        1.972579,
        1.996292,
        1.94193,
        1.868942,
        1.849628,
        1.816726,
        1.901725,
        2.028939,
        2.075969,
        2.080877,
        2.160822,
        2.229655,
        2.271976,
        2.339153,
        2.372549,
        2.264683,
        2.140467,
        2.132246,
        2.154331,
        2.144232,
        2.131674,
        1.969905,
        2.008218,
        2.066221,
        2.048714,
        1.97235,
        1.982875,
        1.985197,
        1.974238,
        1.950307,
        1.868318,
        1.786308,
        1.772404,
        1.755975,
        1.739547,
        1.720863,
        1.591031,
        1.501205,
        1.508399,
        1.559862,
        1.609288,
        1.582292,
        1.452186,
        1.369103,
        1.380722,
        1.401585,
        1.446824,
        1.482024,
        1.449734,
        1.295183,
        1.208956,
        1.238229,
        1.270669,
        1.304195,
        1.333719,
        1.316359,
        1.260691,
        1.281376,
        1.326642,
        1.373969,
        1.386516,
        1.396077,
        1.333066,
        1.242183,
        1.251184,
        1.276278,
        1.295144,
        1.314828,
        1.329154,
        1.322533,
        1.311558,
        1.334276,
        1.354084,
        1.363123,
        1.376851,
        1.369191,
        1.353914,
        1.338604,
        1.330848,
        1.336335,
        1.35318,
        1.377601,
        1.405817,
        1.434799,
        1.464522,
        1.495712,
        1.529096,
        1.565119,
        1.60311,
        1.642114,
        1.681179,
        1.719228,
        1.754683,
        1.785844,
        1.811008,
        1.829442,
        1.844273,
        1.859597,
        1.879512,
        1.906728,
        1.938424,
        2.026525,
        2.066719,
        2.106844,
        2.090654,
        2.112619,
        2.130835,
        2.146037,
        2.204339,
        2.277275,
        2.301199,
        2.327807,
        2.423582,
        2.533008,
        2.625896,
        2.691584,
        2.595563,
        2.223445,
        1.974224,
        1.974236,
        2.029714,
        2.067135,
        2.073021,
        1.965866,
        1.727613,
        1.681777,
        1.715817,
        1.778749,
        1.857514,
        1.891868,
        1.895929,
        1.69267,
        1.494461,
        1.507522,
        1.580631,
        1.607432,
        1.653231,
        1.73203,
        1.736921,
        1.734913,
        1.761356,
        1.79134,
        1.828132,
        1.833444,
        1.878583,
        1.875494,
        1.811409,
        1.847659,
        1.938769,
        2.024699,
        2.099144,
        2.131322,
        2.119947,
        2.134505,
        2.165009,
        2.206242,
        2.243736,
        2.279384,
        2.315076,
        2.352167,
        2.38986,
        2.426822,
        2.461719,
        2.493824,
        2.524841,
        2.557076,
        2.592842,
        2.633385,
        2.675715,
        2.715782,
        2.749532,
        2.774184,
        2.792028,
        2.806622,
        2.821525,
        2.816241,
        2.842383,
        2.841835,
        2.851542,
        2.901651,
        2.957148,
        2.998881,
        3.022481,
        3.040495,
        3.045635,
        3.048257,
        3.043468,
        3.055914,
        3.068815,
        3.066745,
        3.069306,
        3.082132,
        3.111556,
        3.114229,
        3.123425,
        3.109684,
        3.116268,
        3.143454,
        3.134578,
        3.13224,
        3.164165,
        3.175249,
        3.172147,
        3.169831,
        3.150949,
        3.149281,
        3.193346,
        3.207085,
        3.208695,
        3.231694,
        3.239954,
        3.220803,
        3.210695,
        3.239273,
        3.265859,
        3.274643,
        3.273766,
        3.266074,
        3.252869,
        3.231266,
        3.221675,
        3.161592,
        3.081265,
        2.984635,
        2.895021,
        2.840585,
        2.84949,
        2.937285,
        3.069073,
        3.197347,
        3.274597,
        3.267003,
        3.1955,
        3.094712,
        2.999263,
        2.934905,
        2.891906,
        2.851661,
        2.79557,
        2.711786,
        2.615503,
        2.528672,
        2.473244,
        2.464821,
        2.493602,
        2.543436,
        2.598171,
        2.644595,
        2.681241,
        2.709579,
        2.731081,
        2.744128,
        2.74361,
        2.776783,
        2.774855,
        2.706594,
        2.625165,
        2.626611,
        2.659068,
        2.678339,
        2.721125,
        2.762282,
        2.763457,
        2.753842,
        2.781656,
        2.817975,
        2.847825,
        2.906731,
        2.961608,
        2.988652,
        2.973454,
        2.927158,
        2.873506,
        2.870803,
        2.903381,
        2.947579,
        2.987525,
        3.018108,
        3.031895,
        3.032456,
        3.040824,
        3.052475,
        3.086152,
        3.11032,
        3.131589,
        3.151052,
        3.151835,
        3.131878,
        3.084632,
        3.082108,
        3.113092,
        3.138307,
        3.1936,
        3.234631,
        3.242387,
        3.225923,
        3.237346,
        3.30008,
        3.305734,
        3.327021,
        3.377184,
        3.389519,
        3.387342,
        3.381539,
        3.38024,
        3.37561,
        3.377853,
        3.41354,
        3.441134,
        3.469334,
        3.479468,
        3.461904,
        3.48547,
        3.518067,
        3.518708,
        3.515781,
        3.541639,
        3.603554,
        3.627519,
        3.613653,
        3.596694,
        3.604522,
        3.610786,
        3.609929,
        3.610225,
        3.601295,
        3.558959,
        3.570829,
        3.589063,
        3.609604,
        3.628395,
        3.641788,
        3.647768,
        3.644725,
        3.631054,
        3.60623,
        3.574064,
        3.539448,
        3.507276,
        3.481612,
        3.463197,
        3.451946,
        3.447769,
        3.44996,
        3.455323,
        3.460044,
        3.460308,
        3.454243,
        3.447758,
        3.448703,
        3.464929,
        3.501454,
        3.55196,
        3.607294,
        3.658303,
        3.697107,
        3.720908,
        3.728183,
        3.717406,
        3.688643,
        3.648318,
        3.604449,
        3.565049,
        3.536518,
        3.518785,
        3.510163,
        3.508965,
        3.513176,
        3.519474,
        3.524207,
        3.523728,
        3.515421,
        3.500817,
        3.482481,
        3.462979,
        3.44486,
        3.4306,
        3.42266,
        3.423498,
        3.434463,
        3.452463,
        3.473296,
        3.492761,
        3.507648,
        3.518718,
        3.527727,
        3.536429,
        3.567321,
        3.571351,
        3.54372,
        3.565012,
        3.478443,
        3.415584,
        3.219444,
        3.291122,
        3.415226,
        3.388665,
        3.327538,
        3.331923,
        3.292678,
        3.234395,
        3.305993,
        3.343011,
        3.37049,
        3.39858,
        3.326852,
        3.290052,
        3.307552,
        3.272593,
        3.180695,
        3.18928,
        3.275124,
        3.305359,
        3.266955,
        3.084202,
        3.058592,
        3.251989,
        3.365783,
        3.363696,
        3.365494,
        3.384995,
        3.376302,
        3.366158,
        3.377295,
        3.402956,
        3.412594,
        3.425827,
        3.441361,
        3.422497,
        3.418995,
        3.408159,
        3.442013,
        3.461385,
        3.46896,
        3.480334,
        3.503011,
        3.473445,
        3.440029,
        3.253683,
        3.217541,
        3.416182,
        3.430819,
        3.449929,
        3.404342,
        3.265745,
        3.317626,
        3.417364,
        3.473052,
        3.449146,
        3.416192,
        3.428185,
        3.493854,
        3.526717,
        3.495103,
        3.518771,
        3.585483,
        3.589472,
        3.587342,
        3.593585,
        3.568168,
        3.573976,
        3.618669,
        3.609943,
        3.63811,
        3.67064,
        3.676232,
        3.587112,
        3.425194,
        3.525069,
        3.684916,
        3.632137,
        3.492272,
        3.599302,
        3.692717,
        3.66671,
        3.649458,
        3.663698,
        3.691522,
        3.550186,
        3.488284,
        3.421993,
        3.429111,
        3.49779,
        3.522134,
        3.559816,
        3.546103,
        3.561488,
        3.627494,
        3.650736,
        3.638239,
        3.638615,
        3.461915,
        3.365377,
        3.395203,
        3.415195,
        3.412989,
        3.397379,
        3.382456,
        3.382306,
        3.40607,
        3.443096,
        3.477784,
        3.494532,
        3.483042,
        3.454217,
        3.424263,
        3.461271,
        3.477713,
        3.507309,
        3.546452,
        3.591536,
        3.63864,
        3.682592,
        3.717904,
        3.739087,
        3.742562,
        3.732368,
        3.714547,
        3.695527,
        3.680675,
        3.670735,
        3.665295,
        3.663942,
        3.666115,
        3.670662,
        3.67628,
        3.68167,
        3.685523,
        3.686514,
        3.683312,
        3.674587,
        3.660039,
        3.643501,
        3.62984,
        3.623922,
        3.629235,
        3.643767,
        3.66409,
        3.686618,
        3.708419,
        3.729319,
        3.749835,
        3.770482,
        3.791384,
        3.811083,
        3.827729,
        3.839469,
        3.844999,
        3.845193,
        3.84147,
        3.835252,
        3.827784,
        3.819613,
        3.811114,
        3.802659,
        3.794212,
        3.784094,
        3.770189,
        3.750271,
        3.722833,
        3.689345,
        3.652023,
        3.613081,
        3.574728,
        3.539152,
        3.508534,
        3.485058,
        3.470542,
        3.465356,
        3.469508,
        3.483006,
        3.504924,
        3.530612,
        3.554486,
        3.570962,
        3.576187,
        3.573231,
        3.566878,
        3.561852,
        3.562555,
        3.572165,
        3.593549,
        3.629581,
        3.679935,
        3.731515,
        3.768032,
        3.773196,
        3.736546,
        3.670947,
        3.595091,
        3.527674,
        3.483949,
        3.465409,
        3.470109,
        3.496104,
        3.539647,
        3.58979,
        3.63378,
        3.658856,
        3.656392,
        3.634326,
        3.60474,
        3.579715,
        3.568683,
        3.570497,
        3.581362,
        3.597483,
        3.615088,
        3.630493,
        3.640034,
        3.640051,
        3.628709,
        3.611485,
        3.595686,
        3.588617,
        3.595513,
        3.613332,
        3.63695,
        3.661206,
        3.68134,
        3.694229,
        3.697163,
        3.687429,
        3.664358,
        3.635456,
        3.610268,
        3.598342,
        3.605609,
        3.623535,
        3.639966,
        3.642753,
        3.624206,
        3.594492,
        3.568237,
        3.56007,
        3.579733,
        3.617433,
        3.658478,
        3.688151,
        3.695565,
        3.685204,
        3.665395,
        3.644463,
        3.629175,
        3.620064,
        3.616099,
        3.616254,
        3.619283,
        3.623067,
        3.62527,
        3.623557,
        3.616515,
        3.606431,
        3.596516,
        3.589981,
        3.589199,
        3.593201,
        3.600162,
        3.608169,
        3.615942,
        3.624799,
        3.636703,
        3.653622,
        3.676155,
        3.699433,
        3.717221,
        3.723285,
        3.7137,
        3.69379,
        3.67119,
        3.653536,
        3.646377,
        3.646924,
        3.650303,
        3.65164,
        3.646966,
        3.635935,
        3.619179,
        3.597612,
        3.572326,
        3.544844,
        3.516796,
        3.489813,
        3.465405,
        3.444611,
        3.428344,
        3.417524,
        3.412881,
        3.414405,
        3.4219,
        3.435172,
        3.453639,
        3.475171,
        3.497256,
        3.517378,
        3.533487,
        3.545381,
        3.553414,
        3.558308,
        3.560803,
        3.56135,
        3.560323,
        3.558102,
        3.555093,
        3.551825,
        3.548858,
        3.546751,
        3.546192,
        3.548385,
        3.55466,
        3.566349,
        3.583788,
        3.603333,
        3.620344,
        3.630183,
        3.630086,
        3.624799,
        3.620937,
        3.625105,
        3.641691,
        3.666236,
        3.692068,
        3.712514,
        3.722382,
        3.722393,
        3.714749,
        3.701652,
        3.685126,
        3.666493,
        3.646898,
        3.627485,
        3.609493,
        3.594543,
        3.58435,
        3.580627,
        3.584322,
        3.593317,
        3.604655,
        3.615105,
        3.621961,
        3.624885,
        3.624132,
        3.619958,
        3.612894,
        3.604574,
        3.596904,
        3.591794,
        3.590661,
        3.592951,
        3.597622,
        3.603631,
        3.609562,
        3.612515,
        3.60922,
        3.596403,
        3.572588,
        3.543466,
        3.516488,
        3.498971,
        3.496062,
        3.50438,
        3.518411,
        3.53264,
        3.54254,
        3.547534,
        3.548031,
        3.54444,
        3.564192,
        3.559412,
        3.555314,
        3.553159,
        3.553648,
        3.555232,
        3.5558,
        3.553244,
        3.5464,
        3.537888,
        3.531252,
        3.529953,
        3.536216,
        3.547421,
        3.559734,
        3.569322,
        3.573227,
        3.571995,
        3.567042,
        3.559791,
        3.551632,
        3.54385,
        3.537702,
        3.534444,
        3.534834,
        3.537638,
        3.541121,
        3.543549,
        3.543929,
        3.54424,
        3.547173,
        3.555301,
        3.570073,
        3.588575,
        3.606798,
        3.620735,
        3.627411,
        3.628,
        3.624709,
        3.619746
      ],
      "range":1
    }
  }
]
