[
  {
    "model":"Star, type B5(iii)",
    "name":"Star, type B5(iii)",
    "type":"WB_REF",
    "dataQualityMarker":3,
    "dataSource":"https://www.eso.org/sci/facilities/paranal/decommissioned/isaac/tools/lib.html",
    "manufacturer":"A. Pickles (A.J. Pickles, PASP 110,863, 1998)",
    "version":1,
    "wavelength":{
      "value":[
        1150.0,
        1155.0,
        1160.0,
        1165.0,
        1170.0,
        1175.0,
        1180.0,
        1185.0,
        1190.0,
        1195.0,
        1200.0,
        1205.0,
        1210.0,
        1215.0,
        1220.0,
        1225.0,
        1230.0,
        1235.0,
        1240.0,
        1245.0,
        1250.0,
        1255.0,
        1260.0,
        1265.0,
        1270.0,
        1275.0,
        1280.0,
        1285.0,
        1290.0,
        1295.0,
        1300.0,
        1305.0,
        1310.0,
        1315.0,
        1320.0,
        1325.0,
        1330.0,
        1335.0,
        1340.0,
        1345.0,
        1350.0,
        1355.0,
        1360.0,
        1365.0,
        1370.0,
        1375.0,
        1380.0,
        1385.0,
        1390.0,
        1395.0,
        1400.0,
        1405.0,
        1410.0,
        1415.0,
        1420.0,
        1425.0,
        1430.0,
        1435.0,
        1440.0,
        1445.0,
        1450.0,
        1455.0,
        1460.0,
        1465.0,
        1470.0,
        1475.0,
        1480.0,
        1485.0,
        1490.0,
        1495.0,
        1500.0,
        1505.0,
        1510.0,
        1515.0,
        1520.0,
        1525.0,
        1530.0,
        1535.0,
        1540.0,
        1545.0,
        1550.0,
        1555.0,
        1560.0,
        1565.0,
        1570.0,
        1575.0,
        1580.0,
        1585.0,
        1590.0,
        1595.0,
        1600.0,
        1605.0,
        1610.0,
        1615.0,
        1620.0,
        1625.0,
        1630.0,
        1635.0,
        1640.0,
        1645.0,
        1650.0,
        1655.0,
        1660.0,
        1665.0,
        1670.0,
        1675.0,
        1680.0,
        1685.0,
        1690.0,
        1695.0,
        1700.0,
        1705.0,
        1710.0,
        1715.0,
        1720.0,
        1725.0,
        1730.0,
        1735.0,
        1740.0,
        1745.0,
        1750.0,
        1755.0,
        1760.0,
        1765.0,
        1770.0,
        1775.0,
        1780.0,
        1785.0,
        1790.0,
        1795.0,
        1800.0,
        1805.0,
        1810.0,
        1815.0,
        1820.0,
        1825.0,
        1830.0,
        1835.0,
        1840.0,
        1845.0,
        1850.0,
        1855.0,
        1860.0,
        1865.0,
        1870.0,
        1875.0,
        1880.0,
        1885.0,
        1890.0,
        1895.0,
        1900.0,
        1905.0,
        1910.0,
        1915.0,
        1920.0,
        1925.0,
        1930.0,
        1935.0,
        1940.0,
        1945.0,
        1950.0,
        1955.0,
        1960.0,
        1965.0,
        1970.0,
        1975.0,
        1980.0,
        1985.0,
        1990.0,
        1995.0,
        2000.0,
        2005.0,
        2010.0,
        2015.0,
        2020.0,
        2025.0,
        2030.0,
        2035.0,
        2040.0,
        2045.0,
        2050.0,
        2055.0,
        2060.0,
        2065.0,
        2070.0,
        2075.0,
        2080.0,
        2085.0,
        2090.0,
        2095.0,
        2100.0,
        2105.0,
        2110.0,
        2115.0,
        2120.0,
        2125.0,
        2130.0,
        2135.0,
        2140.0,
        2145.0,
        2150.0,
        2155.0,
        2160.0,
        2165.0,
        2170.0,
        2175.0,
        2180.0,
        2185.0,
        2190.0,
        2195.0,
        2200.0,
        2205.0,
        2210.0,
        2215.0,
        2220.0,
        2225.0,
        2230.0,
        2235.0,
        2240.0,
        2245.0,
        2250.0,
        2255.0,
        2260.0,
        2265.0,
        2270.0,
        2275.0,
        2280.0,
        2285.0,
        2290.0,
        2295.0,
        2300.0,
        2305.0,
        2310.0,
        2315.0,
        2320.0,
        2325.0,
        2330.0,
        2335.0,
        2340.0,
        2345.0,
        2350.0,
        2355.0,
        2360.0,
        2365.0,
        2370.0,
        2375.0,
        2380.0,
        2385.0,
        2390.0,
        2395.0,
        2400.0,
        2405.0,
        2410.0,
        2415.0,
        2420.0,
        2425.0,
        2430.0,
        2435.0,
        2440.0,
        2445.0,
        2450.0,
        2455.0,
        2460.0,
        2465.0,
        2470.0,
        2475.0,
        2480.0,
        2485.0,
        2490.0,
        2495.0,
        2500.0,
        2505.0,
        2510.0,
        2515.0,
        2520.0,
        2525.0,
        2530.0,
        2535.0,
        2540.0,
        2545.0,
        2550.0,
        2555.0,
        2560.0,
        2565.0,
        2570.0,
        2575.0,
        2580.0,
        2585.0,
        2590.0,
        2595.0,
        2600.0,
        2605.0,
        2610.0,
        2615.0,
        2620.0,
        2625.0,
        2630.0,
        2635.0,
        2640.0,
        2645.0,
        2650.0,
        2655.0,
        2660.0,
        2665.0,
        2670.0,
        2675.0,
        2680.0,
        2685.0,
        2690.0,
        2695.0,
        2700.0,
        2705.0,
        2710.0,
        2715.0,
        2720.0,
        2725.0,
        2730.0,
        2735.0,
        2740.0,
        2745.0,
        2750.0,
        2755.0,
        2760.0,
        2765.0,
        2770.0,
        2775.0,
        2780.0,
        2785.0,
        2790.0,
        2795.0,
        2800.0,
        2805.0,
        2810.0,
        2815.0,
        2820.0,
        2825.0,
        2830.0,
        2835.0,
        2840.0,
        2845.0,
        2850.0,
        2855.0,
        2860.0,
        2865.0,
        2870.0,
        2875.0,
        2880.0,
        2885.0,
        2890.0,
        2895.0,
        2900.0,
        2905.0,
        2910.0,
        2915.0,
        2920.0,
        2925.0,
        2930.0,
        2935.0,
        2940.0,
        2945.0,
        2950.0,
        2955.0,
        2960.0,
        2965.0,
        2970.0,
        2975.0,
        2980.0,
        2985.0,
        2990.0,
        2995.0,
        3000.0,
        3005.0,
        3010.0,
        3015.0,
        3020.0,
        3025.0,
        3030.0,
        3035.0,
        3040.0,
        3045.0,
        3050.0,
        3055.0,
        3060.0,
        3065.0,
        3070.0,
        3075.0,
        3080.0,
        3085.0,
        3090.0,
        3095.0,
        3100.0,
        3105.0,
        3110.0,
        3115.0,
        3120.0,
        3125.0,
        3130.0,
        3135.0,
        3140.0,
        3145.0,
        3150.0,
        3155.0,
        3160.0,
        3165.0,
        3170.0,
        3175.0,
        3180.0,
        3185.0,
        3190.0,
        3195.0,
        3200.0,
        3205.0,
        3210.0,
        3215.0,
        3220.0,
        3225.0,
        3230.0,
        3235.0,
        3240.0,
        3245.0,
        3250.0,
        3255.0,
        3260.0,
        3265.0,
        3270.0,
        3275.0,
        3280.0,
        3285.0,
        3290.0,
        3295.0,
        3300.0,
        3305.0,
        3310.0,
        3315.0,
        3320.0,
        3325.0,
        3330.0,
        3335.0,
        3340.0,
        3345.0,
        3350.0,
        3355.0,
        3360.0,
        3365.0,
        3370.0,
        3375.0,
        3380.0,
        3385.0,
        3390.0,
        3395.0,
        3400.0,
        3405.0,
        3410.0,
        3415.0,
        3420.0,
        3425.0,
        3430.0,
        3435.0,
        3440.0,
        3445.0,
        3450.0,
        3455.0,
        3460.0,
        3465.0,
        3470.0,
        3475.0,
        3480.0,
        3485.0,
        3490.0,
        3495.0,
        3500.0,
        3505.0,
        3510.0,
        3515.0,
        3520.0,
        3525.0,
        3530.0,
        3535.0,
        3540.0,
        3545.0,
        3550.0,
        3555.0,
        3560.0,
        3565.0,
        3570.0,
        3575.0,
        3580.0,
        3585.0,
        3590.0,
        3595.0,
        3600.0,
        3605.0,
        3610.0,
        3615.0,
        3620.0,
        3625.0,
        3630.0,
        3635.0,
        3640.0,
        3645.0,
        3650.0,
        3655.0,
        3660.0,
        3665.0,
        3670.0,
        3675.0,
        3680.0,
        3685.0,
        3690.0,
        3695.0,
        3700.0,
        3705.0,
        3710.0,
        3715.0,
        3720.0,
        3725.0,
        3730.0,
        3735.0,
        3740.0,
        3745.0,
        3750.0,
        3755.0,
        3760.0,
        3765.0,
        3770.0,
        3775.0,
        3780.0,
        3785.0,
        3790.0,
        3795.0,
        3800.0,
        3805.0,
        3810.0,
        3815.0,
        3820.0,
        3825.0,
        3830.0,
        3835.0,
        3840.0,
        3845.0,
        3850.0,
        3855.0,
        3860.0,
        3865.0,
        3870.0,
        3875.0,
        3880.0,
        3885.0,
        3890.0,
        3895.0,
        3900.0,
        3905.0,
        3910.0,
        3915.0,
        3920.0,
        3925.0,
        3930.0,
        3935.0,
        3940.0,
        3945.0,
        3950.0,
        3955.0,
        3960.0,
        3965.0,
        3970.0,
        3975.0,
        3980.0,
        3985.0,
        3990.0,
        3995.0,
        4000.0,
        4005.0,
        4010.0,
        4015.0,
        4020.0,
        4025.0,
        4030.0,
        4035.0,
        4040.0,
        4045.0,
        4050.0,
        4055.0,
        4060.0,
        4065.0,
        4070.0,
        4075.0,
        4080.0,
        4085.0,
        4090.0,
        4095.0,
        4100.0,
        4105.0,
        4110.0,
        4115.0,
        4120.0,
        4125.0,
        4130.0,
        4135.0,
        4140.0,
        4145.0,
        4150.0,
        4155.0,
        4160.0,
        4165.0,
        4170.0,
        4175.0,
        4180.0,
        4185.0,
        4190.0,
        4195.0,
        4200.0,
        4205.0,
        4210.0,
        4215.0,
        4220.0,
        4225.0,
        4230.0,
        4235.0,
        4240.0,
        4245.0,
        4250.0,
        4255.0,
        4260.0,
        4265.0,
        4270.0,
        4275.0,
        4280.0,
        4285.0,
        4290.0,
        4295.0,
        4300.0,
        4305.0,
        4310.0,
        4315.0,
        4320.0,
        4325.0,
        4330.0,
        4335.0,
        4340.0,
        4345.0,
        4350.0,
        4355.0,
        4360.0,
        4365.0,
        4370.0,
        4375.0,
        4380.0,
        4385.0,
        4390.0,
        4395.0,
        4400.0,
        4405.0,
        4410.0,
        4415.0,
        4420.0,
        4425.0,
        4430.0,
        4435.0,
        4440.0,
        4445.0,
        4450.0,
        4455.0,
        4460.0,
        4465.0,
        4470.0,
        4475.0,
        4480.0,
        4485.0,
        4490.0,
        4495.0,
        4500.0,
        4505.0,
        4510.0,
        4515.0,
        4520.0,
        4525.0,
        4530.0,
        4535.0,
        4540.0,
        4545.0,
        4550.0,
        4555.0,
        4560.0,
        4565.0,
        4570.0,
        4575.0,
        4580.0,
        4585.0,
        4590.0,
        4595.0,
        4600.0,
        4605.0,
        4610.0,
        4615.0,
        4620.0,
        4625.0,
        4630.0,
        4635.0,
        4640.0,
        4645.0,
        4650.0,
        4655.0,
        4660.0,
        4665.0,
        4670.0,
        4675.0,
        4680.0,
        4685.0,
        4690.0,
        4695.0,
        4700.0,
        4705.0,
        4710.0,
        4715.0,
        4720.0,
        4725.0,
        4730.0,
        4735.0,
        4740.0,
        4745.0,
        4750.0,
        4755.0,
        4760.0,
        4765.0,
        4770.0,
        4775.0,
        4780.0,
        4785.0,
        4790.0,
        4795.0,
        4800.0,
        4805.0,
        4810.0,
        4815.0,
        4820.0,
        4825.0,
        4830.0,
        4835.0,
        4840.0,
        4845.0,
        4850.0,
        4855.0,
        4860.0,
        4865.0,
        4870.0,
        4875.0,
        4880.0,
        4885.0,
        4890.0,
        4895.0,
        4900.0,
        4905.0,
        4910.0,
        4915.0,
        4920.0,
        4925.0,
        4930.0,
        4935.0,
        4940.0,
        4945.0,
        4950.0,
        4955.0,
        4960.0,
        4965.0,
        4970.0,
        4975.0,
        4980.0,
        4985.0,
        4990.0,
        4995.0,
        5000.0,
        5005.0,
        5010.0,
        5015.0,
        5020.0,
        5025.0,
        5030.0,
        5035.0,
        5040.0,
        5045.0,
        5050.0,
        5055.0,
        5060.0,
        5065.0,
        5070.0,
        5075.0,
        5080.0,
        5085.0,
        5090.0,
        5095.0,
        5100.0,
        5105.0,
        5110.0,
        5115.0,
        5120.0,
        5125.0,
        5130.0,
        5135.0,
        5140.0,
        5145.0,
        5150.0,
        5155.0,
        5160.0,
        5165.0,
        5170.0,
        5175.0,
        5180.0,
        5185.0,
        5190.0,
        5195.0,
        5200.0,
        5205.0,
        5210.0,
        5215.0,
        5220.0,
        5225.0,
        5230.0,
        5235.0,
        5240.0,
        5245.0,
        5250.0,
        5255.0,
        5260.0,
        5265.0,
        5270.0,
        5275.0,
        5280.0,
        5285.0,
        5290.0,
        5295.0,
        5300.0,
        5305.0,
        5310.0,
        5315.0,
        5320.0,
        5325.0,
        5330.0,
        5335.0,
        5340.0,
        5345.0,
        5350.0,
        5355.0,
        5360.0,
        5365.0,
        5370.0,
        5375.0,
        5380.0,
        5385.0,
        5390.0,
        5395.0,
        5400.0,
        5405.0,
        5410.0,
        5415.0,
        5420.0,
        5425.0,
        5430.0,
        5435.0,
        5440.0,
        5445.0,
        5450.0,
        5455.0,
        5460.0,
        5465.0,
        5470.0,
        5475.0,
        5480.0,
        5485.0,
        5490.0,
        5495.0,
        5500.0,
        5505.0,
        5510.0,
        5515.0,
        5520.0,
        5525.0,
        5530.0,
        5535.0,
        5540.0,
        5545.0,
        5550.0,
        5555.0,
        5560.0,
        5565.0,
        5570.0,
        5575.0,
        5580.0,
        5585.0,
        5590.0,
        5595.0,
        5600.0,
        5605.0,
        5610.0,
        5615.0,
        5620.0,
        5625.0,
        5630.0,
        5635.0,
        5640.0,
        5645.0,
        5650.0,
        5655.0,
        5660.0,
        5665.0,
        5670.0,
        5675.0,
        5680.0,
        5685.0,
        5690.0,
        5695.0,
        5700.0,
        5705.0,
        5710.0,
        5715.0,
        5720.0,
        5725.0,
        5730.0,
        5735.0,
        5740.0,
        5745.0,
        5750.0,
        5755.0,
        5760.0,
        5765.0,
        5770.0,
        5775.0,
        5780.0,
        5785.0,
        5790.0,
        5795.0,
        5800.0,
        5805.0,
        5810.0,
        5815.0,
        5820.0,
        5825.0,
        5830.0,
        5835.0,
        5840.0,
        5845.0,
        5850.0,
        5855.0,
        5860.0,
        5865.0,
        5870.0,
        5875.0,
        5880.0,
        5885.0,
        5890.0,
        5895.0,
        5900.0,
        5905.0,
        5910.0,
        5915.0,
        5920.0,
        5925.0,
        5930.0,
        5935.0,
        5940.0,
        5945.0,
        5950.0,
        5955.0,
        5960.0,
        5965.0,
        5970.0,
        5975.0,
        5980.0,
        5985.0,
        5990.0,
        5995.0,
        6000.0,
        6005.0,
        6010.0,
        6015.0,
        6020.0,
        6025.0,
        6030.0,
        6035.0,
        6040.0,
        6045.0,
        6050.0,
        6055.0,
        6060.0,
        6065.0,
        6070.0,
        6075.0,
        6080.0,
        6085.0,
        6090.0,
        6095.0,
        6100.0,
        6105.0,
        6110.0,
        6115.0,
        6120.0,
        6125.0,
        6130.0,
        6135.0,
        6140.0,
        6145.0,
        6150.0,
        6155.0,
        6160.0,
        6165.0,
        6170.0,
        6175.0,
        6180.0,
        6185.0,
        6190.0,
        6195.0,
        6200.0,
        6205.0,
        6210.0,
        6215.0,
        6220.0,
        6225.0,
        6230.0,
        6235.0,
        6240.0,
        6245.0,
        6250.0,
        6255.0,
        6260.0,
        6265.0,
        6270.0,
        6275.0,
        6280.0,
        6285.0,
        6290.0,
        6295.0,
        6300.0,
        6305.0,
        6310.0,
        6315.0,
        6320.0,
        6325.0,
        6330.0,
        6335.0,
        6340.0,
        6345.0,
        6350.0,
        6355.0,
        6360.0,
        6365.0,
        6370.0,
        6375.0,
        6380.0,
        6385.0,
        6390.0,
        6395.0,
        6400.0,
        6405.0,
        6410.0,
        6415.0,
        6420.0,
        6425.0,
        6430.0,
        6435.0,
        6440.0,
        6445.0,
        6450.0,
        6455.0,
        6460.0,
        6465.0,
        6470.0,
        6475.0,
        6480.0,
        6485.0,
        6490.0,
        6495.0,
        6500.0,
        6505.0,
        6510.0,
        6515.0,
        6520.0,
        6525.0,
        6530.0,
        6535.0,
        6540.0,
        6545.0,
        6550.0,
        6555.0,
        6560.0,
        6565.0,
        6570.0,
        6575.0,
        6580.0,
        6585.0,
        6590.0,
        6595.0,
        6600.0,
        6605.0,
        6610.0,
        6615.0,
        6620.0,
        6625.0,
        6630.0,
        6635.0,
        6640.0,
        6645.0,
        6650.0,
        6655.0,
        6660.0,
        6665.0,
        6670.0,
        6675.0,
        6680.0,
        6685.0,
        6690.0,
        6695.0,
        6700.0,
        6705.0,
        6710.0,
        6715.0,
        6720.0,
        6725.0,
        6730.0,
        6735.0,
        6740.0,
        6745.0,
        6750.0,
        6755.0,
        6760.0,
        6765.0,
        6770.0,
        6775.0,
        6780.0,
        6785.0,
        6790.0,
        6795.0,
        6800.0,
        6805.0,
        6810.0,
        6815.0,
        6820.0,
        6825.0,
        6830.0,
        6835.0,
        6840.0,
        6845.0,
        6850.0,
        6855.0,
        6860.0,
        6865.0,
        6870.0,
        6875.0,
        6880.0,
        6885.0,
        6890.0,
        6895.0,
        6900.0,
        6905.0,
        6910.0,
        6915.0,
        6920.0,
        6925.0,
        6930.0,
        6935.0,
        6940.0,
        6945.0,
        6950.0,
        6955.0,
        6960.0,
        6965.0,
        6970.0,
        6975.0,
        6980.0,
        6985.0,
        6990.0,
        6995.0,
        7000.0,
        7005.0,
        7010.0,
        7015.0,
        7020.0,
        7025.0,
        7030.0,
        7035.0,
        7040.0,
        7045.0,
        7050.0,
        7055.0,
        7060.0,
        7065.0,
        7070.0,
        7075.0,
        7080.0,
        7085.0,
        7090.0,
        7095.0,
        7100.0,
        7105.0,
        7110.0,
        7115.0,
        7120.0,
        7125.0,
        7130.0,
        7135.0,
        7140.0,
        7145.0,
        7150.0,
        7155.0,
        7160.0,
        7165.0,
        7170.0,
        7175.0,
        7180.0,
        7185.0,
        7190.0,
        7195.0,
        7200.0,
        7205.0,
        7210.0,
        7215.0,
        7220.0,
        7225.0,
        7230.0,
        7235.0,
        7240.0,
        7245.0,
        7250.0,
        7255.0,
        7260.0,
        7265.0,
        7270.0,
        7275.0,
        7280.0,
        7285.0,
        7290.0,
        7295.0,
        7300.0,
        7305.0,
        7310.0,
        7315.0,
        7320.0,
        7325.0,
        7330.0,
        7335.0,
        7340.0,
        7345.0,
        7350.0,
        7355.0,
        7360.0,
        7365.0,
        7370.0,
        7375.0,
        7380.0,
        7385.0,
        7390.0,
        7395.0,
        7400.0,
        7405.0,
        7410.0,
        7415.0,
        7420.0,
        7425.0,
        7430.0,
        7435.0,
        7440.0,
        7445.0,
        7450.0,
        7455.0,
        7460.0,
        7465.0,
        7470.0,
        7475.0,
        7480.0,
        7485.0,
        7490.0,
        7495.0,
        7500.0,
        7505.0,
        7510.0,
        7515.0,
        7520.0,
        7525.0,
        7530.0,
        7535.0,
        7540.0,
        7545.0,
        7550.0,
        7555.0,
        7560.0,
        7565.0,
        7570.0,
        7575.0,
        7580.0,
        7585.0,
        7590.0,
        7595.0,
        7600.0,
        7605.0,
        7610.0,
        7615.0,
        7620.0,
        7625.0,
        7630.0,
        7635.0,
        7640.0,
        7645.0,
        7650.0,
        7655.0,
        7660.0,
        7665.0,
        7670.0,
        7675.0,
        7680.0,
        7685.0,
        7690.0,
        7695.0,
        7700.0,
        7705.0,
        7710.0,
        7715.0,
        7720.0,
        7725.0,
        7730.0,
        7735.0,
        7740.0,
        7745.0,
        7750.0,
        7755.0,
        7760.0,
        7765.0,
        7770.0,
        7775.0,
        7780.0,
        7785.0,
        7790.0,
        7795.0,
        7800.0,
        7805.0,
        7810.0,
        7815.0,
        7820.0,
        7825.0,
        7830.0,
        7835.0,
        7840.0,
        7845.0,
        7850.0,
        7855.0,
        7860.0,
        7865.0,
        7870.0,
        7875.0,
        7880.0,
        7885.0,
        7890.0,
        7895.0,
        7900.0,
        7905.0,
        7910.0,
        7915.0,
        7920.0,
        7925.0,
        7930.0,
        7935.0,
        7940.0,
        7945.0,
        7950.0,
        7955.0,
        7960.0,
        7965.0,
        7970.0,
        7975.0,
        7980.0,
        7985.0,
        7990.0,
        7995.0,
        8000.0,
        8005.0,
        8010.0,
        8015.0,
        8020.0,
        8025.0,
        8030.0,
        8035.0,
        8040.0,
        8045.0,
        8050.0,
        8055.0,
        8060.0,
        8065.0,
        8070.0,
        8075.0,
        8080.0,
        8085.0,
        8090.0,
        8095.0,
        8100.0,
        8105.0,
        8110.0,
        8115.0,
        8120.0,
        8125.0,
        8130.0,
        8135.0,
        8140.0,
        8145.0,
        8150.0,
        8155.0,
        8160.0,
        8165.0,
        8170.0,
        8175.0,
        8180.0,
        8185.0,
        8190.0,
        8195.0,
        8200.0,
        8205.0,
        8210.0,
        8215.0,
        8220.0,
        8225.0,
        8230.0,
        8235.0,
        8240.0,
        8245.0,
        8250.0,
        8255.0,
        8260.0,
        8265.0,
        8270.0,
        8275.0,
        8280.0,
        8285.0,
        8290.0,
        8295.0,
        8300.0,
        8305.0,
        8310.0,
        8315.0,
        8320.0,
        8325.0,
        8330.0,
        8335.0,
        8340.0,
        8345.0,
        8350.0,
        8355.0,
        8360.0,
        8365.0,
        8370.0,
        8375.0,
        8380.0,
        8385.0,
        8390.0,
        8395.0,
        8400.0,
        8405.0,
        8410.0,
        8415.0,
        8420.0,
        8425.0,
        8430.0,
        8435.0,
        8440.0,
        8445.0,
        8450.0,
        8455.0,
        8460.0,
        8465.0,
        8470.0,
        8475.0,
        8480.0,
        8485.0,
        8490.0,
        8495.0,
        8500.0,
        8505.0,
        8510.0,
        8515.0,
        8520.0,
        8525.0,
        8530.0,
        8535.0,
        8540.0,
        8545.0,
        8550.0,
        8555.0,
        8560.0,
        8565.0,
        8570.0,
        8575.0,
        8580.0,
        8585.0,
        8590.0,
        8595.0,
        8600.0,
        8605.0,
        8610.0,
        8615.0,
        8620.0,
        8625.0,
        8630.0,
        8635.0,
        8640.0,
        8645.0,
        8650.0,
        8655.0,
        8660.0,
        8665.0,
        8670.0,
        8675.0,
        8680.0,
        8685.0,
        8690.0,
        8695.0,
        8700.0,
        8705.0,
        8710.0,
        8715.0,
        8720.0,
        8725.0,
        8730.0,
        8735.0,
        8740.0,
        8745.0,
        8750.0,
        8755.0,
        8760.0,
        8765.0,
        8770.0,
        8775.0,
        8780.0,
        8785.0,
        8790.0,
        8795.0,
        8800.0,
        8805.0,
        8810.0,
        8815.0,
        8820.0,
        8825.0,
        8830.0,
        8835.0,
        8840.0,
        8845.0,
        8850.0,
        8855.0,
        8860.0,
        8865.0,
        8870.0,
        8875.0,
        8880.0,
        8885.0,
        8890.0,
        8895.0,
        8900.0,
        8905.0,
        8910.0,
        8915.0,
        8920.0,
        8925.0,
        8930.0,
        8935.0,
        8940.0,
        8945.0,
        8950.0,
        8955.0,
        8960.0,
        8965.0,
        8970.0,
        8975.0,
        8980.0,
        8985.0,
        8990.0,
        8995.0,
        9000.0,
        9005.0,
        9010.0,
        9015.0,
        9020.0,
        9025.0,
        9030.0,
        9035.0,
        9040.0,
        9045.0,
        9050.0,
        9055.0,
        9060.0,
        9065.0,
        9070.0,
        9075.0,
        9080.0,
        9085.0,
        9090.0,
        9095.0,
        9100.0,
        9105.0,
        9110.0,
        9115.0,
        9120.0,
        9125.0,
        9130.0,
        9135.0,
        9140.0,
        9145.0,
        9150.0,
        9155.0,
        9160.0,
        9165.0,
        9170.0,
        9175.0,
        9180.0,
        9185.0,
        9190.0,
        9195.0,
        9200.0,
        9205.0,
        9210.0,
        9215.0,
        9220.0,
        9225.0,
        9230.0,
        9235.0,
        9240.0,
        9245.0,
        9250.0,
        9255.0,
        9260.0,
        9265.0,
        9270.0,
        9275.0,
        9280.0,
        9285.0,
        9290.0,
        9295.0,
        9300.0,
        9305.0,
        9310.0,
        9315.0,
        9320.0,
        9325.0,
        9330.0,
        9335.0,
        9340.0,
        9345.0,
        9350.0,
        9355.0,
        9360.0,
        9365.0,
        9370.0,
        9375.0,
        9380.0,
        9385.0,
        9390.0,
        9395.0,
        9400.0,
        9405.0,
        9410.0,
        9415.0,
        9420.0,
        9425.0,
        9430.0,
        9435.0,
        9440.0,
        9445.0,
        9450.0,
        9455.0,
        9460.0,
        9465.0,
        9470.0,
        9475.0,
        9480.0,
        9485.0,
        9490.0,
        9495.0,
        9500.0,
        9505.0,
        9510.0,
        9515.0,
        9520.0,
        9525.0,
        9530.0,
        9535.0,
        9540.0,
        9545.0,
        9550.0,
        9555.0,
        9560.0,
        9565.0,
        9570.0,
        9575.0,
        9580.0,
        9585.0,
        9590.0,
        9595.0,
        9600.0,
        9605.0,
        9610.0,
        9615.0,
        9620.0,
        9625.0,
        9630.0,
        9635.0,
        9640.0,
        9645.0,
        9650.0,
        9655.0,
        9660.0,
        9665.0,
        9670.0,
        9675.0,
        9680.0,
        9685.0,
        9690.0,
        9695.0,
        9700.0,
        9705.0,
        9710.0,
        9715.0,
        9720.0,
        9725.0,
        9730.0,
        9735.0,
        9740.0,
        9745.0,
        9750.0,
        9755.0,
        9760.0,
        9765.0,
        9770.0,
        9775.0,
        9780.0,
        9785.0,
        9790.0,
        9795.0,
        9800.0,
        9805.0,
        9810.0,
        9815.0,
        9820.0,
        9825.0,
        9830.0,
        9835.0,
        9840.0,
        9845.0,
        9850.0,
        9855.0,
        9860.0,
        9865.0,
        9870.0,
        9875.0,
        9880.0,
        9885.0,
        9890.0,
        9895.0,
        9900.0,
        9905.0,
        9910.0,
        9915.0,
        9920.0,
        9925.0,
        9930.0,
        9935.0,
        9940.0,
        9945.0,
        9950.0,
        9955.0,
        9960.0,
        9965.0,
        9970.0,
        9975.0,
        9980.0,
        9985.0,
        9990.0,
        9995.0,
        10000.0,
        10005.0,
        10010.0,
        10015.0,
        10020.0,
        10025.0,
        10030.0,
        10035.0,
        10040.0,
        10045.0,
        10050.0,
        10055.0,
        10060.0,
        10065.0,
        10070.0,
        10075.0,
        10080.0,
        10085.0,
        10090.0,
        10095.0,
        10100.0,
        10105.0,
        10110.0,
        10115.0,
        10120.0,
        10125.0,
        10130.0,
        10135.0,
        10140.0,
        10145.0,
        10150.0,
        10155.0,
        10160.0,
        10165.0,
        10170.0,
        10175.0,
        10180.0,
        10185.0,
        10190.0,
        10195.0,
        10200.0,
        10205.0,
        10210.0,
        10215.0,
        10220.0,
        10225.0,
        10230.0,
        10235.0,
        10240.0,
        10245.0,
        10250.0,
        10255.0,
        10260.0,
        10265.0,
        10270.0,
        10275.0,
        10280.0,
        10285.0,
        10290.0,
        10295.0,
        10300.0,
        10305.0,
        10310.0,
        10315.0,
        10320.0,
        10325.0,
        10330.0,
        10335.0,
        10340.0,
        10345.0,
        10350.0,
        10355.0,
        10360.0,
        10365.0,
        10370.0,
        10375.0,
        10380.0,
        10385.0,
        10390.0,
        10395.0,
        10400.0,
        10405.0,
        10410.0,
        10415.0,
        10420.0,
        10425.0,
        10430.0,
        10435.0,
        10440.0,
        10445.0,
        10450.0,
        10455.0,
        10460.0,
        10465.0,
        10470.0,
        10475.0,
        10480.0,
        10485.0,
        10490.0,
        10495.0,
        10500.0
      ],
      "units":"angstrom"
    },
    "values":{
      "value":[
        23.705826,
        16.819538,
        12.925051,
        12.509295,
        10.988223,
        9.667303,
        10.658473,
        9.599573,
        6.347764,
        5.102046,
        3.988668,
        1.911808,
        1.073081,
        1.140718,
        1.994279,
        3.712967,
        5.887466,
        8.414351,
        10.362449,
        10.464552,
        10.623097,
        9.901403,
        8.002713,
        9.131547,
        10.767018,
        10.975883,
        12.004044,
        12.033711,
        10.853503,
        9.397795,
        7.854926,
        7.063012,
        9.314326,
        12.092546,
        11.995251,
        11.109317,
        9.906595,
        9.404058,
        11.458674,
        11.678541,
        11.527878,
        11.46176,
        10.79669,
        10.233044,
        10.248929,
        10.388442,
        10.397915,
        10.351654,
        10.082259,
        9.908307,
        9.870544,
        9.822398,
        9.500298,
        9.537803,
        9.729386,
        10.028193,
        9.863676,
        9.774175,
        10.167006,
        10.371496,
        10.599984,
        10.688428,
        10.484604,
        10.03514,
        9.913225,
        9.805633,
        9.775767,
        9.850442,
        10.117519,
        10.110962,
        9.895293,
        9.540217,
        9.142512,
        9.284983,
        9.501163,
        8.868892,
        8.658627,
        8.706798,
        9.118935,
        9.077854,
        8.980369,
        8.971714,
        8.63141,
        8.623308,
        8.515007,
        8.554958,
        8.687493,
        8.84741,
        8.739961,
        8.490849,
        8.138158,
        7.911043,
        7.974933,
        8.205593,
        8.078227,
        7.961151,
        7.897203,
        7.873999,
        7.730651,
        7.756623,
        7.592339,
        7.220443,
        7.280695,
        7.436608,
        7.229578,
        7.549495,
        7.831969,
        7.74165,
        7.697759,
        7.746035,
        7.697574,
        7.3734,
        7.113191,
        6.940595,
        6.691639,
        6.766232,
        7.024415,
        7.144954,
        7.261865,
        7.262301,
        7.156515,
        7.233093,
        7.003479,
        7.033544,
        7.074772,
        6.92139,
        7.049375,
        6.728264,
        6.46625,
        7.108544,
        7.288347,
        7.102874,
        7.094947,
        7.095305,
        7.06572,
        6.96884,
        6.757612,
        6.610891,
        6.451819,
        6.351805,
        6.142878,
        5.956284,
        6.11424,
        6.345094,
        6.551167,
        6.537384,
        6.308757,
        6.113426,
        5.964757,
        6.007856,
        6.066073,
        5.996897,
        5.923152,
        5.812974,
        5.716253,
        5.646425,
        5.784589,
        5.833895,
        5.893654,
        5.979721,
        5.912426,
        5.752446,
        5.62551,
        5.646973,
        5.68113,
        5.723049,
        5.706056,
        5.70897,
        5.728397,
        5.385556,
        5.201693,
        5.230836,
        5.273001,
        5.485879,
        5.530772,
        5.530672,
        5.494597,
        5.354147,
        5.28485,
        5.269146,
        5.268941,
        5.363589,
        5.12172,
        5.160482,
        5.334743,
        5.442739,
        5.480396,
        5.355181,
        5.349559,
        5.205006,
        4.940793,
        4.967067,
        5.152805,
        5.213839,
        5.120949,
        5.119145,
        5.322941,
        4.995738,
        4.674445,
        4.741615,
        4.702291,
        4.833554,
        4.990195,
        4.782668,
        4.581147,
        4.554282,
        4.515563,
        4.573955,
        4.750926,
        4.721886,
        4.577155,
        4.478251,
        4.325318,
        4.267783,
        4.216175,
        4.120684,
        4.221397,
        4.314913,
        4.286085,
        4.116987,
        4.101052,
        4.200243,
        4.110418,
        4.118278,
        4.174018,
        4.314805,
        4.304592,
        4.231956,
        4.288114,
        4.239004,
        4.181965,
        4.20574,
        4.145554,
        4.125468,
        4.066401,
        4.02733,
        3.887442,
        3.828747,
        3.75035,
        3.813315,
        3.88097,
        3.859688,
        3.891596,
        3.844784,
        3.669593,
        3.726703,
        3.73672,
        3.639655,
        3.509729,
        3.550522,
        3.676697,
        3.653876,
        3.49961,
        3.456304,
        3.652181,
        3.750878,
        3.812378,
        3.679105,
        3.524896,
        3.641877,
        3.69178,
        3.756147,
        3.826926,
        3.741862,
        3.622275,
        3.586072,
        3.584183,
        3.580192,
        3.554693,
        3.575669,
        3.631696,
        3.635496,
        3.586002,
        3.610359,
        3.628508,
        3.590752,
        3.539161,
        3.575795,
        3.534241,
        3.42731,
        3.543014,
        3.581215,
        3.5728,
        3.578983,
        3.665194,
        3.607067,
        3.175377,
        3.083238,
        3.446329,
        3.68355,
        3.594074,
        3.456593,
        3.511631,
        3.533394,
        3.535123,
        3.546688,
        3.430085,
        3.485437,
        3.590804,
        3.53333,
        3.557369,
        3.601851,
        3.523972,
        3.415518,
        3.338289,
        3.363609,
        3.405198,
        3.420509,
        3.399471,
        3.335288,
        3.319793,
        3.374723,
        3.255687,
        3.218389,
        3.258488,
        3.19919,
        3.248302,
        3.361321,
        3.334666,
        3.25204,
        3.192789,
        3.084129,
        3.110047,
        3.186839,
        3.171524,
        3.130151,
        3.164217,
        3.093228,
        3.097266,
        3.107153,
        2.924106,
        2.980779,
        3.058381,
        3.099408,
        3.229819,
        3.217871,
        3.048838,
        2.967738,
        2.982631,
        3.000967,
        3.083091,
        3.029855,
        2.980732,
        3.048547,
        3.059978,
        3.021607,
        3.024143,
        3.062021,
        3.052437,
        3.046279,
        3.061981,
        3.034883,
        3.043461,
        3.123862,
        3.130729,
        3.045933,
        2.981174,
        2.99225,
        2.968917,
        3.016241,
        2.978261,
        3.009632,
        3.086164,
        3.009871,
        2.933531,
        2.938001,
        2.977714,
        2.957387,
        2.916311,
        2.913146,
        2.892782,
        2.894557,
        2.955162,
        2.919464,
        2.859252,
        2.814475,
        2.792882,
        2.784797,
        2.748031,
        2.756058,
        2.758052,
        2.786744,
        2.743912,
        2.69684,
        2.692433,
        2.717028,
        2.753035,
        2.708692,
        2.756428,
        2.898765,
        2.898395,
        2.82232,
        2.762296,
        2.642199,
        2.580227,
        2.638422,
        2.761111,
        2.802323,
        2.81143,
        2.732322,
        2.743258,
        2.696313,
        2.591795,
        2.61185,
        2.679276,
        2.657026,
        2.588748,
        2.656297,
        2.751654,
        2.733756,
        2.582171,
        2.587676,
        2.623529,
        2.637284,
        2.639647,
        2.649625,
        2.656282,
        2.646374,
        2.627344,
        2.608303,
        2.584328,
        2.551235,
        2.521852,
        2.507855,
        2.499313,
        2.483435,
        2.457589,
        2.425507,
        2.406214,
        2.412673,
        2.418302,
        2.398584,
        2.376825,
        2.378626,
        2.39097,
        2.395822,
        2.393714,
        2.389194,
        2.384311,
        2.379367,
        2.37017,
        2.354451,
        2.342108,
        2.342403,
        2.349878,
        2.356262,
        2.356743,
        2.349358,
        2.34009,
        2.334329,
        2.327158,
        2.313127,
        2.29494,
        2.276313,
        2.256861,
        2.237054,
        2.224908,
        2.225686,
        2.226107,
        2.214086,
        2.200863,
        2.198408,
        2.198266,
        2.190327,
        2.178295,
        2.167781,
        2.158219,
        2.148661,
        2.142813,
        2.143157,
        2.142638,
        2.134301,
        2.126802,
        2.124628,
        2.120518,
        2.089776,
        2.094095,
        2.106049,
        2.108064,
        2.113699,
        2.101668,
        2.062981,
        2.04737,
        2.05228,
        2.038697,
        2.018523,
        1.996779,
        1.9984,
        2.003062,
        1.973583,
        1.990933,
        1.989942,
        1.9776,
        1.946837,
        1.962273,
        1.953698,
        1.918589,
        1.922346,
        1.94208,
        1.947711,
        1.94486,
        1.928986,
        1.938399,
        1.93257,
        1.908411,
        1.941185,
        1.917329,
        1.922555,
        1.917731,
        1.912005,
        1.91373,
        1.921012,
        1.910822,
        1.9412,
        1.938282,
        1.965872,
        2.09742,
        1.965211,
        2.213871,
        2.279854,
        1.957794,
        2.103621,
        2.37364,
        2.258349,
        1.98557,
        2.237996,
        2.635328,
        2.700432,
        2.576433,
        2.123791,
        2.081794,
        2.521752,
        2.786587,
        2.775579,
        2.669513,
        2.708922,
        2.445877,
        2.072752,
        2.402862,
        2.7523,
        2.873977,
        2.951777,
        2.958973,
        2.876485,
        2.789362,
        2.790202,
        2.611414,
        2.13819,
        1.989251,
        2.4524,
        2.776998,
        2.887618,
        2.926991,
        2.898786,
        2.832686,
        2.80714,
        2.774931,
        2.778765,
        2.843099,
        2.868389,
        2.816994,
        2.745464,
        2.588741,
        2.176793,
        1.904966,
        2.284365,
        2.641845,
        2.791221,
        2.790799,
        2.795676,
        2.794035,
        2.740746,
        2.711411,
        2.723087,
        2.652219,
        2.48223,
        2.555457,
        2.645246,
        2.662346,
        2.66298,
        2.655111,
        2.638961,
        2.635419,
        2.62451,
        2.584723,
        2.534323,
        2.534284,
        2.504169,
        2.425781,
        2.166857,
        1.794574,
        1.894454,
        2.272799,
        2.431326,
        2.465055,
        2.486541,
        2.493684,
        2.499561,
        2.424344,
        2.403218,
        2.500617,
        2.52876,
        2.521198,
        2.494213,
        2.489827,
        2.510487,
        2.502108,
        2.498824,
        2.486833,
        2.491138,
        2.484409,
        2.496089,
        2.497703,
        2.506212,
        2.486713,
        2.467822,
        2.467872,
        2.473154,
        2.469247,
        2.459562,
        2.432115,
        2.410649,
        2.397709,
        2.354591,
        2.361002,
        2.400422,
        2.394189,
        2.405262,
        2.409155,
        2.416847,
        2.381263,
        2.344307,
        2.329135,
        2.31987,
        2.285985,
        2.262928,
        2.167557,
        1.899442,
        1.619956,
        1.785542,
        2.076007,
        2.198683,
        2.238645,
        2.226146,
        2.22389,
        2.231169,
        2.229105,
        2.163209,
        2.119035,
        2.197014,
        2.207816,
        2.192911,
        2.185589,
        2.163874,
        2.124562,
        2.087136,
        2.055988,
        2.065978,
        2.075621,
        2.090342,
        2.115432,
        2.110494,
        2.099139,
        2.038681,
        1.913736,
        1.945515,
        2.002227,
        2.038413,
        2.049875,
        2.056461,
        2.05898,
        2.033769,
        2.013731,
        2.029437,
        2.065274,
        2.050669,
        1.995406,
        1.98974,
        1.998012,
        1.973188,
        1.953418,
        1.966287,
        1.978,
        1.971666,
        1.954739,
        1.936841,
        1.943787,
        1.935447,
        1.934044,
        1.909193,
        1.891982,
        1.881744,
        1.899242,
        1.891162,
        1.882649,
        1.86948,
        1.842708,
        1.852005,
        1.866361,
        1.865231,
        1.861747,
        1.869338,
        1.852859,
        1.831178,
        1.817759,
        1.823821,
        1.819016,
        1.84501,
        1.83272,
        1.808658,
        1.800047,
        1.800613,
        1.783594,
        1.780811,
        1.760521,
        1.724834,
        1.728395,
        1.751707,
        1.748573,
        1.748922,
        1.732683,
        1.730698,
        1.717564,
        1.684724,
        1.679177,
        1.682024,
        1.670452,
        1.673668,
        1.67591,
        1.681026,
        1.666565,
        1.658165,
        1.648309,
        1.637853,
        1.62104,
        1.616049,
        1.636687,
        1.638189,
        1.631705,
        1.59668,
        1.541255,
        1.393601,
        1.190704,
        1.240524,
        1.405774,
        1.470402,
        1.495702,
        1.519142,
        1.547826,
        1.557092,
        1.541302,
        1.541486,
        1.564641,
        1.555301,
        1.492788,
        1.48692,
        1.549462,
        1.549959,
        1.544023,
        1.548251,
        1.555936,
        1.545749,
        1.521726,
        1.491455,
        1.491013,
        1.481831,
        1.464226,
        1.467684,
        1.47245,
        1.465274,
        1.465935,
        1.465847,
        1.434484,
        1.386191,
        1.397849,
        1.417908,
        1.421362,
        1.421196,
        1.4126,
        1.409641,
        1.389808,
        1.366208,
        1.384287,
        1.390198,
        1.374076,
        1.373638,
        1.371299,
        1.358613,
        1.348966,
        1.341452,
        1.338536,
        1.338819,
        1.333313,
        1.344467,
        1.348648,
        1.329905,
        1.3298,
        1.328079,
        1.324286,
        1.314697,
        1.302436,
        1.294884,
        1.315291,
        1.303454,
        1.29031,
        1.292439,
        1.291853,
        1.28637,
        1.273969,
        1.281672,
        1.275579,
        1.268767,
        1.267046,
        1.258633,
        1.262597,
        1.252853,
        1.243648,
        1.239099,
        1.21588,
        1.222579,
        1.209778,
        1.217579,
        1.233578,
        1.223336,
        1.21159,
        1.203268,
        1.195248,
        1.193852,
        1.195814,
        1.190455,
        1.177103,
        1.179515,
        1.180983,
        1.177495,
        1.163583,
        1.163078,
        1.16193,
        1.156607,
        1.148317,
        1.139421,
        1.142376,
        1.149486,
        1.126815,
        1.118504,
        1.126425,
        1.128757,
        1.12443,
        1.120505,
        1.119978,
        1.112695,
        1.11095,
        1.108505,
        1.104558,
        1.10078,
        1.098658,
        1.091035,
        1.076514,
        1.069611,
        1.076664,
        1.0693,
        1.063856,
        1.052956,
        1.046619,
        1.048727,
        1.047313,
        1.057728,
        1.049652,
        1.033942,
        1.038898,
        1.050564,
        1.040932,
        1.023427,
        1.017077,
        1.035762,
        1.03389,
        1.022122,
        1.009716,
        1.005533,
        0.99899,
        1.003709,
        1.004784,
        1.000398,
        1.004429,
        0.990038,
        0.97363,
        0.980667,
        0.987791,
        0.98914,
        0.9891,
        0.981173,
        0.976032,
        0.97736,
        0.97406,
        0.968243,
        0.965416,
        0.962075,
        0.955347,
        0.951059,
        0.948457,
        0.952386,
        0.950492,
        0.938729,
        0.924196,
        0.924451,
        0.926198,
        0.931125,
        0.920914,
        0.917517,
        0.920337,
        0.913572,
        0.905315,
        0.895367,
        0.901985,
        0.908995,
        0.898464,
        0.896702,
        0.902458,
        0.892734,
        0.882761,
        0.873145,
        0.871131,
        0.875919,
        0.886213,
        0.882311,
        0.872015,
        0.858753,
        0.834371,
        0.85381,
        0.859344,
        0.850747,
        0.849688,
        0.855658,
        0.854204,
        0.85268,
        0.857045,
        0.848886,
        0.842858,
        0.839947,
        0.842342,
        0.841299,
        0.839314,
        0.847338,
        0.85263,
        0.855326,
        0.833346,
        0.802912,
        0.823818,
        0.806615,
        0.748944,
        0.736264,
        0.772753,
        0.81475,
        0.818467,
        0.812558,
        0.816234,
        0.82084,
        0.81228,
        0.801848,
        0.795236,
        0.790239,
        0.788595,
        0.7854,
        0.780387,
        0.790461,
        0.78715,
        0.782441,
        0.778974,
        0.774082,
        0.774523,
        0.774065,
        0.774378,
        0.771324,
        0.771174,
        0.772687,
        0.765254,
        0.760574,
        0.761089,
        0.758062,
        0.752582,
        0.752282,
        0.750308,
        0.750442,
        0.749361,
        0.744976,
        0.744702,
        0.741673,
        0.745328,
        0.742636,
        0.741934,
        0.737517,
        0.736393,
        0.731566,
        0.730579,
        0.734528,
        0.733889,
        0.727378,
        0.724946,
        0.724397,
        0.715925,
        0.709687,
        0.710292,
        0.715899,
        0.71376,
        0.714279,
        0.71064,
        0.707061,
        0.70061,
        0.698995,
        0.698812,
        0.704322,
        0.694832,
        0.691052,
        0.692554,
        0.692908,
        0.692801,
        0.691115,
        0.689679,
        0.691188,
        0.685088,
        0.687742,
        0.694186,
        0.689778,
        0.683175,
        0.677112,
        0.672196,
        0.654709,
        0.63433,
        0.643917,
        0.655977,
        0.65967,
        0.65246,
        0.648482,
        0.65301,
        0.651784,
        0.657584,
        0.657326,
        0.653755,
        0.649339,
        0.64366,
        0.630587,
        0.633476,
        0.640127,
        0.636645,
        0.63581,
        0.631283,
        0.628927,
        0.629121,
        0.626284,
        0.628061,
        0.626624,
        0.622724,
        0.622589,
        0.625051,
        0.627256,
        0.626455,
        0.625874,
        0.620347,
        0.616753,
        0.616089,
        0.607675,
        0.606302,
        0.609134,
        0.607438,
        0.608448,
        0.605393,
        0.60211,
        0.599713,
        0.592544,
        0.584351,
        0.58842,
        0.596926,
        0.594146,
        0.595705,
        0.589839,
        0.587278,
        0.585823,
        0.585643,
        0.585698,
        0.583143,
        0.57204,
        0.554977,
        0.525631,
        0.479842,
        0.471153,
        0.514554,
        0.551275,
        0.56765,
        0.568106,
        0.571114,
        0.570683,
        0.566873,
        0.568848,
        0.569694,
        0.573114,
        0.574515,
        0.576036,
        0.570397,
        0.561182,
        0.559355,
        0.557529,
        0.560233,
        0.553622,
        0.548122,
        0.540336,
        0.541879,
        0.53737,
        0.538401,
        0.546223,
        0.544093,
        0.54344,
        0.540421,
        0.538167,
        0.533918,
        0.531088,
        0.534627,
        0.530054,
        0.529917,
        0.526937,
        0.527198,
        0.532536,
        0.525653,
        0.526451,
        0.528831,
        0.530558,
        0.525315,
        0.521204,
        0.519809,
        0.518876,
        0.518341,
        0.521266,
        0.517766,
        0.515383,
        0.511791,
        0.507075,
        0.506663,
        0.511454,
        0.51285,
        0.509887,
        0.509413,
        0.508191,
        0.506925,
        0.505637,
        0.504418,
        0.503243,
        0.501947,
        0.500767,
        0.499629,
        0.498464,
        0.497282,
        0.496182,
        0.495135,
        0.494096,
        0.493069,
        0.492034,
        0.49103,
        0.490051,
        0.489143,
        0.48825,
        0.487383,
        0.48648,
        0.485534,
        0.484587,
        0.48366,
        0.482759,
        0.481755,
        0.484278,
        0.480928,
        0.472399,
        0.465451,
        0.468563,
        0.468952,
        0.467277,
        0.46712,
        0.468304,
        0.466684,
        0.462839,
        0.466269,
        0.469943,
        0.465982,
        0.466666,
        0.465656,
        0.466552,
        0.464681,
        0.456397,
        0.462289,
        0.45973,
        0.461439,
        0.464254,
        0.459974,
        0.457052,
        0.454768,
        0.454458,
        0.456295,
        0.4571,
        0.462318,
        0.465558,
        0.466916,
        0.464477,
        0.456204,
        0.454671,
        0.457053,
        0.458617,
        0.454429,
        0.440695,
        0.429082,
        0.419694,
        0.416517,
        0.410714,
        0.422479,
        0.427199,
        0.419579,
        0.423816,
        0.437389,
        0.445287,
        0.44978,
        0.443517,
        0.436042,
        0.420773,
        0.427577,
        0.432557,
        0.432595,
        0.424722,
        0.422184,
        0.419118,
        0.42173,
        0.407812,
        0.415895,
        0.42112,
        0.408197,
        0.41567,
        0.421284,
        0.416511,
        0.416782,
        0.416958,
        0.418794,
        0.418538,
        0.416658,
        0.41868,
        0.418643,
        0.40861,
        0.402854,
        0.4101,
        0.408787,
        0.403326,
        0.404815,
        0.405228,
        0.401735,
        0.400916,
        0.401878,
        0.400234,
        0.396423,
        0.395382,
        0.39058,
        0.396236,
        0.405019,
        0.399477,
        0.398758,
        0.398107,
        0.396047,
        0.395467,
        0.395275,
        0.395384,
        0.393863,
        0.392339,
        0.391246,
        0.391329,
        0.39126,
        0.388395,
        0.386994,
        0.387574,
        0.387418,
        0.385893,
        0.384558,
        0.384742,
        0.385011,
        0.383139,
        0.381576,
        0.380892,
        0.379858,
        0.378926,
        0.378442,
        0.377591,
        0.376832,
        0.37609,
        0.375326,
        0.374539,
        0.373803,
        0.373097,
        0.372346,
        0.371571,
        0.370799,
        0.370014,
        0.369225,
        0.368446,
        0.367666,
        0.366886,
        0.366106,
        0.365327,
        0.364549,
        0.363773,
        0.362999,
        0.362227,
        0.361457,
        0.360688,
        0.359931,
        0.359182,
        0.358418,
        0.357663,
        0.356919,
        0.356157,
        0.355438,
        0.354775,
        0.354388,
        0.354191,
        0.353708,
        0.353034,
        0.351986,
        0.35123,
        0.350862,
        0.349844,
        0.348914,
        0.348677,
        0.346683,
        0.344631,
        0.336213,
        0.332413,
        0.339111,
        0.343401,
        0.342269,
        0.341531,
        0.341545,
        0.340943,
        0.340292,
        0.338702,
        0.339124,
        0.338022,
        0.337171,
        0.335437,
        0.334364,
        0.334053,
        0.333665,
        0.332095,
        0.333005,
        0.329916,
        0.331328,
        0.328596,
        0.326641,
        0.328906,
        0.326925,
        0.324293,
        0.323496,
        0.325867,
        0.325667,
        0.325529,
        0.323714,
        0.321988,
        0.322026,
        0.322436,
        0.322464,
        0.319923,
        0.316555,
        0.317706,
        0.318166,
        0.317095,
        0.316767,
        0.316683,
        0.31606,
        0.315684,
        0.314643,
        0.314853,
        0.312677,
        0.313125,
        0.311113,
        0.310718,
        0.309787,
        0.309113,
        0.309364,
        0.309132,
        0.307943,
        0.306791,
        0.307303,
        0.307165,
        0.304955,
        0.305486,
        0.30456,
        0.303833,
        0.303214,
        0.304284,
        0.304742,
        0.303972,
        0.302761,
        0.303816,
        0.302489,
        0.300897,
        0.301293,
        0.300925,
        0.299364,
        0.296152,
        0.297359,
        0.292956,
        0.288458,
        0.288184,
        0.284329,
        0.281781,
        0.287834,
        0.286378,
        0.287311,
        0.288827,
        0.289392,
        0.288265,
        0.288888,
        0.294126,
        0.293755,
        0.290711,
        0.286974,
        0.276296,
        0.267542,
        0.278953,
        0.28579,
        0.284937,
        0.287787,
        0.283965,
        0.283965,
        0.284738,
        0.281111,
        0.27632,
        0.275673,
        0.276897,
        0.274004,
        0.275511,
        0.275317,
        0.274383,
        0.274721,
        0.274329,
        0.269959,
        0.273166,
        0.272445,
        0.27277,
        0.27114,
        0.271128,
        0.271613,
        0.270437,
        0.270013,
        0.269615,
        0.267717,
        0.266865,
        0.264412,
        0.26752,
        0.265132,
        0.264415,
        0.26703,
        0.26514,
        0.262432,
        0.260229,
        0.264244,
        0.263945,
        0.259417,
        0.257203,
        0.254359,
        0.253666,
        0.257425,
        0.258194,
        0.255653,
        0.249694,
        0.251091,
        0.252877,
        0.257345,
        0.259008,
        0.258145,
        0.249459,
        0.239333,
        0.237839,
        0.245546,
        0.250397,
        0.254518,
        0.252323,
        0.251345,
        0.246327,
        0.235071,
        0.226268,
        0.231931,
        0.244208,
        0.250818,
        0.25491,
        0.253765,
        0.254614,
        0.249785,
        0.243336,
        0.232185,
        0.219921,
        0.217098,
        0.227956,
        0.240239,
        0.249859,
        0.253272,
        0.256608,
        0.257322,
        0.258452,
        0.254396,
        0.252024,
        0.243583,
        0.233333,
        0.216241,
        0.203371,
        0.210399,
        0.224808,
        0.234899,
        0.24347,
        0.250671,
        0.255063,
        0.258534,
        0.261417,
        0.258891,
        0.258664,
        0.257186,
        0.250256,
        0.244064,
        0.2348,
        0.221392,
        0.206552,
        0.194195,
        0.198646,
        0.215147,
        0.226884,
        0.234159,
        0.23766,
        0.239534,
        0.240939,
        0.241763,
        0.242535,
        0.241928,
        0.2432,
        0.241213,
        0.23966,
        0.236556,
        0.232809,
        0.231855,
        0.228473,
        0.223439,
        0.218723,
        0.208893,
        0.193919,
        0.179278,
        0.176379,
        0.190698,
        0.205379,
        0.21469,
        0.2216,
        0.225753,
        0.228563,
        0.229456,
        0.232755,
        0.233003,
        0.23226,
        0.231327,
        0.230076,
        0.228082,
        0.229459,
        0.2266,
        0.224804,
        0.223735,
        0.223922,
        0.226318,
        0.219792,
        0.219956,
        0.221495,
        0.21882,
        0.21064,
        0.20023,
        0.203649,
        0.197021,
        0.184255,
        0.172098,
        0.160421,
        0.170597,
        0.187219,
        0.203468,
        0.212042,
        0.216948,
        0.22122,
        0.222251,
        0.221757,
        0.220048,
        0.21785,
        0.213337,
        0.213358,
        0.212557,
        0.210863,
        0.2113,
        0.213191,
        0.212129,
        0.214125,
        0.215541,
        0.217034,
        0.21625,
        0.217224,
        0.210222,
        0.206677,
        0.212275,
        0.213062,
        0.206763,
        0.201522,
        0.207859,
        0.210635,
        0.209417,
        0.204624,
        0.208587,
        0.209042,
        0.20914,
        0.207094,
        0.205049,
        0.203448,
        0.196746,
        0.186467,
        0.177437,
        0.164998,
        0.155512,
        0.16468,
        0.179657,
        0.186718,
        0.193442,
        0.199973,
        0.200647,
        0.202966,
        0.206713,
        0.208679,
        0.207723,
        0.208945,
        0.208691,
        0.204936,
        0.199577,
        0.202224,
        0.198984,
        0.192293,
        0.191193,
        0.192944,
        0.196299,
        0.19332,
        0.191254,
        0.189113,
        0.199051,
        0.191038,
        0.194048,
        0.198748,
        0.194421,
        0.201215,
        0.202649,
        0.210851,
        0.218646,
        0.222973,
        0.218826,
        0.214262,
        0.20751,
        0.203074,
        0.195059,
        0.190107,
        0.184689,
        0.190274,
        0.18295,
        0.187494,
        0.196541,
        0.190203,
        0.188016,
        0.193673,
        0.198155,
        0.197311,
        0.194555,
        0.195681,
        0.194803,
        0.184679,
        0.18183,
        0.183296,
        0.191587,
        0.183205,
        0.175021,
        0.173137,
        0.172509,
        0.170597,
        0.161373,
        0.152715,
        0.16068,
        0.161611,
        0.172375,
        0.174768,
        0.182572,
        0.189995,
        0.185962,
        0.187666,
        0.183765,
        0.184416,
        0.186921,
        0.186988,
        0.18507,
        0.181001,
        0.183218,
        0.179705,
        0.17915,
        0.180332,
        0.182017,
        0.183912,
        0.184544,
        0.185064,
        0.183989,
        0.182767,
        0.183918,
        0.184888,
        0.182179,
        0.182014,
        0.182622,
        0.182794,
        0.179981,
        0.181069,
        0.182877,
        0.179638,
        0.179349,
        0.183788,
        0.180271,
        0.176059,
        0.176378,
        0.176815,
        0.175573,
        0.171565,
        0.172309,
        0.174212,
        0.172395,
        0.17135,
        0.174249,
        0.170467,
        0.169762,
        0.17269,
        0.171976,
        0.16842,
        0.174454,
        0.173183,
        0.172139,
        0.168675,
        0.172182,
        0.171455,
        0.171252,
        0.171568,
        0.171467,
        0.170704,
        0.170086,
        0.173084,
        0.168528,
        0.167429,
        0.172691,
        0.169089,
        0.167507,
        0.166807,
        0.167239,
        0.164889,
        0.16523,
        0.163416,
        0.161794,
        0.16233,
        0.163672,
        0.161623,
        0.158312,
        0.162189,
        0.164446,
        0.166778,
        0.158862,
        0.160925,
        0.158014,
        0.15536,
        0.155625,
        0.15637,
        0.155435,
        0.155354,
        0.153552,
        0.151371,
        0.148654,
        0.150244,
        0.143717,
        0.141891,
        0.137225,
        0.138054,
        0.130198,
        0.128044,
        0.128703,
        0.136309,
        0.135745,
        0.137984,
        0.14151,
        0.142993,
        0.142075,
        0.144249,
        0.148022,
        0.150508,
        0.158238,
        0.159158,
        0.159282,
        0.158882,
        0.158232,
        0.157557,
        0.156899,
        0.15625,
        0.155606,
        0.154941,
        0.154158,
        0.153141,
        0.151771,
        0.150058,
        0.148507,
        0.147752,
        0.148424,
        0.150852,
        0.154158,
        0.157162,
        0.158683,
        0.157919,
        0.155578,
        0.152746,
        0.15051,
        0.149687,
        0.150025,
        0.151003,
        0.152098,
        0.152846,
        0.153001,
        0.152377,
        0.150783,
        0.148188,
        0.145183,
        0.142515,
        0.140933,
        0.14094,
        0.142055,
        0.143556,
        0.144717,
        0.14232,
        0.141985,
        0.141437,
        0.140836,
        0.140305,
        0.13983,
        0.139362,
        0.138848,
        0.138275,
        0.13776,
        0.137458,
        0.137522,
        0.138017,
        0.138647,
        0.139028,
        0.138776,
        0.137643,
        0.135922,
        0.134041,
        0.132431,
        0.131434,
        0.131057,
        0.131222,
        0.131849,
        0.132818,
        0.133843,
        0.134594,
        0.134741,
        0.134088,
        0.132956,
        0.131797,
        0.131065,
        0.13109,
        0.131727,
        0.132706,
        0.133758,
        0.134632,
        0.135137,
        0.135099,
        0.134345
      ],
      "range":1
    }
  }
]
