[
  {
    "model":"Star, type F2(v)",
    "name":"Star, type F2(v)",
    "type":"WB_REF",
    "dataQualityMarker":3,
    "dataSource":"https://www.eso.org/sci/facilities/paranal/decommissioned/isaac/tools/lib.html",
    "manufacturer":"A. Pickles (A.J. Pickles, PASP 110,863, 1998)",
    "version":1,
    "wavelength":{
      "value":[
        1150.0,
        1155.0,
        1160.0,
        1165.0,
        1170.0,
        1175.0,
        1180.0,
        1185.0,
        1190.0,
        1195.0,
        1200.0,
        1205.0,
        1210.0,
        1215.0,
        1220.0,
        1225.0,
        1230.0,
        1235.0,
        1240.0,
        1245.0,
        1250.0,
        1255.0,
        1260.0,
        1265.0,
        1270.0,
        1275.0,
        1280.0,
        1285.0,
        1290.0,
        1295.0,
        1300.0,
        1305.0,
        1310.0,
        1315.0,
        1320.0,
        1325.0,
        1330.0,
        1335.0,
        1340.0,
        1345.0,
        1350.0,
        1355.0,
        1360.0,
        1365.0,
        1370.0,
        1375.0,
        1380.0,
        1385.0,
        1390.0,
        1395.0,
        1400.0,
        1405.0,
        1410.0,
        1415.0,
        1420.0,
        1425.0,
        1430.0,
        1435.0,
        1440.0,
        1445.0,
        1450.0,
        1455.0,
        1460.0,
        1465.0,
        1470.0,
        1475.0,
        1480.0,
        1485.0,
        1490.0,
        1495.0,
        1500.0,
        1505.0,
        1510.0,
        1515.0,
        1520.0,
        1525.0,
        1530.0,
        1535.0,
        1540.0,
        1545.0,
        1550.0,
        1555.0,
        1560.0,
        1565.0,
        1570.0,
        1575.0,
        1580.0,
        1585.0,
        1590.0,
        1595.0,
        1600.0,
        1605.0,
        1610.0,
        1615.0,
        1620.0,
        1625.0,
        1630.0,
        1635.0,
        1640.0,
        1645.0,
        1650.0,
        1655.0,
        1660.0,
        1665.0,
        1670.0,
        1675.0,
        1680.0,
        1685.0,
        1690.0,
        1695.0,
        1700.0,
        1705.0,
        1710.0,
        1715.0,
        1720.0,
        1725.0,
        1730.0,
        1735.0,
        1740.0,
        1745.0,
        1750.0,
        1755.0,
        1760.0,
        1765.0,
        1770.0,
        1775.0,
        1780.0,
        1785.0,
        1790.0,
        1795.0,
        1800.0,
        1805.0,
        1810.0,
        1815.0,
        1820.0,
        1825.0,
        1830.0,
        1835.0,
        1840.0,
        1845.0,
        1850.0,
        1855.0,
        1860.0,
        1865.0,
        1870.0,
        1875.0,
        1880.0,
        1885.0,
        1890.0,
        1895.0,
        1900.0,
        1905.0,
        1910.0,
        1915.0,
        1920.0,
        1925.0,
        1930.0,
        1935.0,
        1940.0,
        1945.0,
        1950.0,
        1955.0,
        1960.0,
        1965.0,
        1970.0,
        1975.0,
        1980.0,
        1985.0,
        1990.0,
        1995.0,
        2000.0,
        2005.0,
        2010.0,
        2015.0,
        2020.0,
        2025.0,
        2030.0,
        2035.0,
        2040.0,
        2045.0,
        2050.0,
        2055.0,
        2060.0,
        2065.0,
        2070.0,
        2075.0,
        2080.0,
        2085.0,
        2090.0,
        2095.0,
        2100.0,
        2105.0,
        2110.0,
        2115.0,
        2120.0,
        2125.0,
        2130.0,
        2135.0,
        2140.0,
        2145.0,
        2150.0,
        2155.0,
        2160.0,
        2165.0,
        2170.0,
        2175.0,
        2180.0,
        2185.0,
        2190.0,
        2195.0,
        2200.0,
        2205.0,
        2210.0,
        2215.0,
        2220.0,
        2225.0,
        2230.0,
        2235.0,
        2240.0,
        2245.0,
        2250.0,
        2255.0,
        2260.0,
        2265.0,
        2270.0,
        2275.0,
        2280.0,
        2285.0,
        2290.0,
        2295.0,
        2300.0,
        2305.0,
        2310.0,
        2315.0,
        2320.0,
        2325.0,
        2330.0,
        2335.0,
        2340.0,
        2345.0,
        2350.0,
        2355.0,
        2360.0,
        2365.0,
        2370.0,
        2375.0,
        2380.0,
        2385.0,
        2390.0,
        2395.0,
        2400.0,
        2405.0,
        2410.0,
        2415.0,
        2420.0,
        2425.0,
        2430.0,
        2435.0,
        2440.0,
        2445.0,
        2450.0,
        2455.0,
        2460.0,
        2465.0,
        2470.0,
        2475.0,
        2480.0,
        2485.0,
        2490.0,
        2495.0,
        2500.0,
        2505.0,
        2510.0,
        2515.0,
        2520.0,
        2525.0,
        2530.0,
        2535.0,
        2540.0,
        2545.0,
        2550.0,
        2555.0,
        2560.0,
        2565.0,
        2570.0,
        2575.0,
        2580.0,
        2585.0,
        2590.0,
        2595.0,
        2600.0,
        2605.0,
        2610.0,
        2615.0,
        2620.0,
        2625.0,
        2630.0,
        2635.0,
        2640.0,
        2645.0,
        2650.0,
        2655.0,
        2660.0,
        2665.0,
        2670.0,
        2675.0,
        2680.0,
        2685.0,
        2690.0,
        2695.0,
        2700.0,
        2705.0,
        2710.0,
        2715.0,
        2720.0,
        2725.0,
        2730.0,
        2735.0,
        2740.0,
        2745.0,
        2750.0,
        2755.0,
        2760.0,
        2765.0,
        2770.0,
        2775.0,
        2780.0,
        2785.0,
        2790.0,
        2795.0,
        2800.0,
        2805.0,
        2810.0,
        2815.0,
        2820.0,
        2825.0,
        2830.0,
        2835.0,
        2840.0,
        2845.0,
        2850.0,
        2855.0,
        2860.0,
        2865.0,
        2870.0,
        2875.0,
        2880.0,
        2885.0,
        2890.0,
        2895.0,
        2900.0,
        2905.0,
        2910.0,
        2915.0,
        2920.0,
        2925.0,
        2930.0,
        2935.0,
        2940.0,
        2945.0,
        2950.0,
        2955.0,
        2960.0,
        2965.0,
        2970.0,
        2975.0,
        2980.0,
        2985.0,
        2990.0,
        2995.0,
        3000.0,
        3005.0,
        3010.0,
        3015.0,
        3020.0,
        3025.0,
        3030.0,
        3035.0,
        3040.0,
        3045.0,
        3050.0,
        3055.0,
        3060.0,
        3065.0,
        3070.0,
        3075.0,
        3080.0,
        3085.0,
        3090.0,
        3095.0,
        3100.0,
        3105.0,
        3110.0,
        3115.0,
        3120.0,
        3125.0,
        3130.0,
        3135.0,
        3140.0,
        3145.0,
        3150.0,
        3155.0,
        3160.0,
        3165.0,
        3170.0,
        3175.0,
        3180.0,
        3185.0,
        3190.0,
        3195.0,
        3200.0,
        3205.0,
        3210.0,
        3215.0,
        3220.0,
        3225.0,
        3230.0,
        3235.0,
        3240.0,
        3245.0,
        3250.0,
        3255.0,
        3260.0,
        3265.0,
        3270.0,
        3275.0,
        3280.0,
        3285.0,
        3290.0,
        3295.0,
        3300.0,
        3305.0,
        3310.0,
        3315.0,
        3320.0,
        3325.0,
        3330.0,
        3335.0,
        3340.0,
        3345.0,
        3350.0,
        3355.0,
        3360.0,
        3365.0,
        3370.0,
        3375.0,
        3380.0,
        3385.0,
        3390.0,
        3395.0,
        3400.0,
        3405.0,
        3410.0,
        3415.0,
        3420.0,
        3425.0,
        3430.0,
        3435.0,
        3440.0,
        3445.0,
        3450.0,
        3455.0,
        3460.0,
        3465.0,
        3470.0,
        3475.0,
        3480.0,
        3485.0,
        3490.0,
        3495.0,
        3500.0,
        3505.0,
        3510.0,
        3515.0,
        3520.0,
        3525.0,
        3530.0,
        3535.0,
        3540.0,
        3545.0,
        3550.0,
        3555.0,
        3560.0,
        3565.0,
        3570.0,
        3575.0,
        3580.0,
        3585.0,
        3590.0,
        3595.0,
        3600.0,
        3605.0,
        3610.0,
        3615.0,
        3620.0,
        3625.0,
        3630.0,
        3635.0,
        3640.0,
        3645.0,
        3650.0,
        3655.0,
        3660.0,
        3665.0,
        3670.0,
        3675.0,
        3680.0,
        3685.0,
        3690.0,
        3695.0,
        3700.0,
        3705.0,
        3710.0,
        3715.0,
        3720.0,
        3725.0,
        3730.0,
        3735.0,
        3740.0,
        3745.0,
        3750.0,
        3755.0,
        3760.0,
        3765.0,
        3770.0,
        3775.0,
        3780.0,
        3785.0,
        3790.0,
        3795.0,
        3800.0,
        3805.0,
        3810.0,
        3815.0,
        3820.0,
        3825.0,
        3830.0,
        3835.0,
        3840.0,
        3845.0,
        3850.0,
        3855.0,
        3860.0,
        3865.0,
        3870.0,
        3875.0,
        3880.0,
        3885.0,
        3890.0,
        3895.0,
        3900.0,
        3905.0,
        3910.0,
        3915.0,
        3920.0,
        3925.0,
        3930.0,
        3935.0,
        3940.0,
        3945.0,
        3950.0,
        3955.0,
        3960.0,
        3965.0,
        3970.0,
        3975.0,
        3980.0,
        3985.0,
        3990.0,
        3995.0,
        4000.0,
        4005.0,
        4010.0,
        4015.0,
        4020.0,
        4025.0,
        4030.0,
        4035.0,
        4040.0,
        4045.0,
        4050.0,
        4055.0,
        4060.0,
        4065.0,
        4070.0,
        4075.0,
        4080.0,
        4085.0,
        4090.0,
        4095.0,
        4100.0,
        4105.0,
        4110.0,
        4115.0,
        4120.0,
        4125.0,
        4130.0,
        4135.0,
        4140.0,
        4145.0,
        4150.0,
        4155.0,
        4160.0,
        4165.0,
        4170.0,
        4175.0,
        4180.0,
        4185.0,
        4190.0,
        4195.0,
        4200.0,
        4205.0,
        4210.0,
        4215.0,
        4220.0,
        4225.0,
        4230.0,
        4235.0,
        4240.0,
        4245.0,
        4250.0,
        4255.0,
        4260.0,
        4265.0,
        4270.0,
        4275.0,
        4280.0,
        4285.0,
        4290.0,
        4295.0,
        4300.0,
        4305.0,
        4310.0,
        4315.0,
        4320.0,
        4325.0,
        4330.0,
        4335.0,
        4340.0,
        4345.0,
        4350.0,
        4355.0,
        4360.0,
        4365.0,
        4370.0,
        4375.0,
        4380.0,
        4385.0,
        4390.0,
        4395.0,
        4400.0,
        4405.0,
        4410.0,
        4415.0,
        4420.0,
        4425.0,
        4430.0,
        4435.0,
        4440.0,
        4445.0,
        4450.0,
        4455.0,
        4460.0,
        4465.0,
        4470.0,
        4475.0,
        4480.0,
        4485.0,
        4490.0,
        4495.0,
        4500.0,
        4505.0,
        4510.0,
        4515.0,
        4520.0,
        4525.0,
        4530.0,
        4535.0,
        4540.0,
        4545.0,
        4550.0,
        4555.0,
        4560.0,
        4565.0,
        4570.0,
        4575.0,
        4580.0,
        4585.0,
        4590.0,
        4595.0,
        4600.0,
        4605.0,
        4610.0,
        4615.0,
        4620.0,
        4625.0,
        4630.0,
        4635.0,
        4640.0,
        4645.0,
        4650.0,
        4655.0,
        4660.0,
        4665.0,
        4670.0,
        4675.0,
        4680.0,
        4685.0,
        4690.0,
        4695.0,
        4700.0,
        4705.0,
        4710.0,
        4715.0,
        4720.0,
        4725.0,
        4730.0,
        4735.0,
        4740.0,
        4745.0,
        4750.0,
        4755.0,
        4760.0,
        4765.0,
        4770.0,
        4775.0,
        4780.0,
        4785.0,
        4790.0,
        4795.0,
        4800.0,
        4805.0,
        4810.0,
        4815.0,
        4820.0,
        4825.0,
        4830.0,
        4835.0,
        4840.0,
        4845.0,
        4850.0,
        4855.0,
        4860.0,
        4865.0,
        4870.0,
        4875.0,
        4880.0,
        4885.0,
        4890.0,
        4895.0,
        4900.0,
        4905.0,
        4910.0,
        4915.0,
        4920.0,
        4925.0,
        4930.0,
        4935.0,
        4940.0,
        4945.0,
        4950.0,
        4955.0,
        4960.0,
        4965.0,
        4970.0,
        4975.0,
        4980.0,
        4985.0,
        4990.0,
        4995.0,
        5000.0,
        5005.0,
        5010.0,
        5015.0,
        5020.0,
        5025.0,
        5030.0,
        5035.0,
        5040.0,
        5045.0,
        5050.0,
        5055.0,
        5060.0,
        5065.0,
        5070.0,
        5075.0,
        5080.0,
        5085.0,
        5090.0,
        5095.0,
        5100.0,
        5105.0,
        5110.0,
        5115.0,
        5120.0,
        5125.0,
        5130.0,
        5135.0,
        5140.0,
        5145.0,
        5150.0,
        5155.0,
        5160.0,
        5165.0,
        5170.0,
        5175.0,
        5180.0,
        5185.0,
        5190.0,
        5195.0,
        5200.0,
        5205.0,
        5210.0,
        5215.0,
        5220.0,
        5225.0,
        5230.0,
        5235.0,
        5240.0,
        5245.0,
        5250.0,
        5255.0,
        5260.0,
        5265.0,
        5270.0,
        5275.0,
        5280.0,
        5285.0,
        5290.0,
        5295.0,
        5300.0,
        5305.0,
        5310.0,
        5315.0,
        5320.0,
        5325.0,
        5330.0,
        5335.0,
        5340.0,
        5345.0,
        5350.0,
        5355.0,
        5360.0,
        5365.0,
        5370.0,
        5375.0,
        5380.0,
        5385.0,
        5390.0,
        5395.0,
        5400.0,
        5405.0,
        5410.0,
        5415.0,
        5420.0,
        5425.0,
        5430.0,
        5435.0,
        5440.0,
        5445.0,
        5450.0,
        5455.0,
        5460.0,
        5465.0,
        5470.0,
        5475.0,
        5480.0,
        5485.0,
        5490.0,
        5495.0,
        5500.0,
        5505.0,
        5510.0,
        5515.0,
        5520.0,
        5525.0,
        5530.0,
        5535.0,
        5540.0,
        5545.0,
        5550.0,
        5555.0,
        5560.0,
        5565.0,
        5570.0,
        5575.0,
        5580.0,
        5585.0,
        5590.0,
        5595.0,
        5600.0,
        5605.0,
        5610.0,
        5615.0,
        5620.0,
        5625.0,
        5630.0,
        5635.0,
        5640.0,
        5645.0,
        5650.0,
        5655.0,
        5660.0,
        5665.0,
        5670.0,
        5675.0,
        5680.0,
        5685.0,
        5690.0,
        5695.0,
        5700.0,
        5705.0,
        5710.0,
        5715.0,
        5720.0,
        5725.0,
        5730.0,
        5735.0,
        5740.0,
        5745.0,
        5750.0,
        5755.0,
        5760.0,
        5765.0,
        5770.0,
        5775.0,
        5780.0,
        5785.0,
        5790.0,
        5795.0,
        5800.0,
        5805.0,
        5810.0,
        5815.0,
        5820.0,
        5825.0,
        5830.0,
        5835.0,
        5840.0,
        5845.0,
        5850.0,
        5855.0,
        5860.0,
        5865.0,
        5870.0,
        5875.0,
        5880.0,
        5885.0,
        5890.0,
        5895.0,
        5900.0,
        5905.0,
        5910.0,
        5915.0,
        5920.0,
        5925.0,
        5930.0,
        5935.0,
        5940.0,
        5945.0,
        5950.0,
        5955.0,
        5960.0,
        5965.0,
        5970.0,
        5975.0,
        5980.0,
        5985.0,
        5990.0,
        5995.0,
        6000.0,
        6005.0,
        6010.0,
        6015.0,
        6020.0,
        6025.0,
        6030.0,
        6035.0,
        6040.0,
        6045.0,
        6050.0,
        6055.0,
        6060.0,
        6065.0,
        6070.0,
        6075.0,
        6080.0,
        6085.0,
        6090.0,
        6095.0,
        6100.0,
        6105.0,
        6110.0,
        6115.0,
        6120.0,
        6125.0,
        6130.0,
        6135.0,
        6140.0,
        6145.0,
        6150.0,
        6155.0,
        6160.0,
        6165.0,
        6170.0,
        6175.0,
        6180.0,
        6185.0,
        6190.0,
        6195.0,
        6200.0,
        6205.0,
        6210.0,
        6215.0,
        6220.0,
        6225.0,
        6230.0,
        6235.0,
        6240.0,
        6245.0,
        6250.0,
        6255.0,
        6260.0,
        6265.0,
        6270.0,
        6275.0,
        6280.0,
        6285.0,
        6290.0,
        6295.0,
        6300.0,
        6305.0,
        6310.0,
        6315.0,
        6320.0,
        6325.0,
        6330.0,
        6335.0,
        6340.0,
        6345.0,
        6350.0,
        6355.0,
        6360.0,
        6365.0,
        6370.0,
        6375.0,
        6380.0,
        6385.0,
        6390.0,
        6395.0,
        6400.0,
        6405.0,
        6410.0,
        6415.0,
        6420.0,
        6425.0,
        6430.0,
        6435.0,
        6440.0,
        6445.0,
        6450.0,
        6455.0,
        6460.0,
        6465.0,
        6470.0,
        6475.0,
        6480.0,
        6485.0,
        6490.0,
        6495.0,
        6500.0,
        6505.0,
        6510.0,
        6515.0,
        6520.0,
        6525.0,
        6530.0,
        6535.0,
        6540.0,
        6545.0,
        6550.0,
        6555.0,
        6560.0,
        6565.0,
        6570.0,
        6575.0,
        6580.0,
        6585.0,
        6590.0,
        6595.0,
        6600.0,
        6605.0,
        6610.0,
        6615.0,
        6620.0,
        6625.0,
        6630.0,
        6635.0,
        6640.0,
        6645.0,
        6650.0,
        6655.0,
        6660.0,
        6665.0,
        6670.0,
        6675.0,
        6680.0,
        6685.0,
        6690.0,
        6695.0,
        6700.0,
        6705.0,
        6710.0,
        6715.0,
        6720.0,
        6725.0,
        6730.0,
        6735.0,
        6740.0,
        6745.0,
        6750.0,
        6755.0,
        6760.0,
        6765.0,
        6770.0,
        6775.0,
        6780.0,
        6785.0,
        6790.0,
        6795.0,
        6800.0,
        6805.0,
        6810.0,
        6815.0,
        6820.0,
        6825.0,
        6830.0,
        6835.0,
        6840.0,
        6845.0,
        6850.0,
        6855.0,
        6860.0,
        6865.0,
        6870.0,
        6875.0,
        6880.0,
        6885.0,
        6890.0,
        6895.0,
        6900.0,
        6905.0,
        6910.0,
        6915.0,
        6920.0,
        6925.0,
        6930.0,
        6935.0,
        6940.0,
        6945.0,
        6950.0,
        6955.0,
        6960.0,
        6965.0,
        6970.0,
        6975.0,
        6980.0,
        6985.0,
        6990.0,
        6995.0,
        7000.0,
        7005.0,
        7010.0,
        7015.0,
        7020.0,
        7025.0,
        7030.0,
        7035.0,
        7040.0,
        7045.0,
        7050.0,
        7055.0,
        7060.0,
        7065.0,
        7070.0,
        7075.0,
        7080.0,
        7085.0,
        7090.0,
        7095.0,
        7100.0,
        7105.0,
        7110.0,
        7115.0,
        7120.0,
        7125.0,
        7130.0,
        7135.0,
        7140.0,
        7145.0,
        7150.0,
        7155.0,
        7160.0,
        7165.0,
        7170.0,
        7175.0,
        7180.0,
        7185.0,
        7190.0,
        7195.0,
        7200.0,
        7205.0,
        7210.0,
        7215.0,
        7220.0,
        7225.0,
        7230.0,
        7235.0,
        7240.0,
        7245.0,
        7250.0,
        7255.0,
        7260.0,
        7265.0,
        7270.0,
        7275.0,
        7280.0,
        7285.0,
        7290.0,
        7295.0,
        7300.0,
        7305.0,
        7310.0,
        7315.0,
        7320.0,
        7325.0,
        7330.0,
        7335.0,
        7340.0,
        7345.0,
        7350.0,
        7355.0,
        7360.0,
        7365.0,
        7370.0,
        7375.0,
        7380.0,
        7385.0,
        7390.0,
        7395.0,
        7400.0,
        7405.0,
        7410.0,
        7415.0,
        7420.0,
        7425.0,
        7430.0,
        7435.0,
        7440.0,
        7445.0,
        7450.0,
        7455.0,
        7460.0,
        7465.0,
        7470.0,
        7475.0,
        7480.0,
        7485.0,
        7490.0,
        7495.0,
        7500.0,
        7505.0,
        7510.0,
        7515.0,
        7520.0,
        7525.0,
        7530.0,
        7535.0,
        7540.0,
        7545.0,
        7550.0,
        7555.0,
        7560.0,
        7565.0,
        7570.0,
        7575.0,
        7580.0,
        7585.0,
        7590.0,
        7595.0,
        7600.0,
        7605.0,
        7610.0,
        7615.0,
        7620.0,
        7625.0,
        7630.0,
        7635.0,
        7640.0,
        7645.0,
        7650.0,
        7655.0,
        7660.0,
        7665.0,
        7670.0,
        7675.0,
        7680.0,
        7685.0,
        7690.0,
        7695.0,
        7700.0,
        7705.0,
        7710.0,
        7715.0,
        7720.0,
        7725.0,
        7730.0,
        7735.0,
        7740.0,
        7745.0,
        7750.0,
        7755.0,
        7760.0,
        7765.0,
        7770.0,
        7775.0,
        7780.0,
        7785.0,
        7790.0,
        7795.0,
        7800.0,
        7805.0,
        7810.0,
        7815.0,
        7820.0,
        7825.0,
        7830.0,
        7835.0,
        7840.0,
        7845.0,
        7850.0,
        7855.0,
        7860.0,
        7865.0,
        7870.0,
        7875.0,
        7880.0,
        7885.0,
        7890.0,
        7895.0,
        7900.0,
        7905.0,
        7910.0,
        7915.0,
        7920.0,
        7925.0,
        7930.0,
        7935.0,
        7940.0,
        7945.0,
        7950.0,
        7955.0,
        7960.0,
        7965.0,
        7970.0,
        7975.0,
        7980.0,
        7985.0,
        7990.0,
        7995.0,
        8000.0,
        8005.0,
        8010.0,
        8015.0,
        8020.0,
        8025.0,
        8030.0,
        8035.0,
        8040.0,
        8045.0,
        8050.0,
        8055.0,
        8060.0,
        8065.0,
        8070.0,
        8075.0,
        8080.0,
        8085.0,
        8090.0,
        8095.0,
        8100.0,
        8105.0,
        8110.0,
        8115.0,
        8120.0,
        8125.0,
        8130.0,
        8135.0,
        8140.0,
        8145.0,
        8150.0,
        8155.0,
        8160.0,
        8165.0,
        8170.0,
        8175.0,
        8180.0,
        8185.0,
        8190.0,
        8195.0,
        8200.0,
        8205.0,
        8210.0,
        8215.0,
        8220.0,
        8225.0,
        8230.0,
        8235.0,
        8240.0,
        8245.0,
        8250.0,
        8255.0,
        8260.0,
        8265.0,
        8270.0,
        8275.0,
        8280.0,
        8285.0,
        8290.0,
        8295.0,
        8300.0,
        8305.0,
        8310.0,
        8315.0,
        8320.0,
        8325.0,
        8330.0,
        8335.0,
        8340.0,
        8345.0,
        8350.0,
        8355.0,
        8360.0,
        8365.0,
        8370.0,
        8375.0,
        8380.0,
        8385.0,
        8390.0,
        8395.0,
        8400.0,
        8405.0,
        8410.0,
        8415.0,
        8420.0,
        8425.0,
        8430.0,
        8435.0,
        8440.0,
        8445.0,
        8450.0,
        8455.0,
        8460.0,
        8465.0,
        8470.0,
        8475.0,
        8480.0,
        8485.0,
        8490.0,
        8495.0,
        8500.0,
        8505.0,
        8510.0,
        8515.0,
        8520.0,
        8525.0,
        8530.0,
        8535.0,
        8540.0,
        8545.0,
        8550.0,
        8555.0,
        8560.0,
        8565.0,
        8570.0,
        8575.0,
        8580.0,
        8585.0,
        8590.0,
        8595.0,
        8600.0,
        8605.0,
        8610.0,
        8615.0,
        8620.0,
        8625.0,
        8630.0,
        8635.0,
        8640.0,
        8645.0,
        8650.0,
        8655.0,
        8660.0,
        8665.0,
        8670.0,
        8675.0,
        8680.0,
        8685.0,
        8690.0,
        8695.0,
        8700.0,
        8705.0,
        8710.0,
        8715.0,
        8720.0,
        8725.0,
        8730.0,
        8735.0,
        8740.0,
        8745.0,
        8750.0,
        8755.0,
        8760.0,
        8765.0,
        8770.0,
        8775.0,
        8780.0,
        8785.0,
        8790.0,
        8795.0,
        8800.0,
        8805.0,
        8810.0,
        8815.0,
        8820.0,
        8825.0,
        8830.0,
        8835.0,
        8840.0,
        8845.0,
        8850.0,
        8855.0,
        8860.0,
        8865.0,
        8870.0,
        8875.0,
        8880.0,
        8885.0,
        8890.0,
        8895.0,
        8900.0,
        8905.0,
        8910.0,
        8915.0,
        8920.0,
        8925.0,
        8930.0,
        8935.0,
        8940.0,
        8945.0,
        8950.0,
        8955.0,
        8960.0,
        8965.0,
        8970.0,
        8975.0,
        8980.0,
        8985.0,
        8990.0,
        8995.0,
        9000.0,
        9005.0,
        9010.0,
        9015.0,
        9020.0,
        9025.0,
        9030.0,
        9035.0,
        9040.0,
        9045.0,
        9050.0,
        9055.0,
        9060.0,
        9065.0,
        9070.0,
        9075.0,
        9080.0,
        9085.0,
        9090.0,
        9095.0,
        9100.0,
        9105.0,
        9110.0,
        9115.0,
        9120.0,
        9125.0,
        9130.0,
        9135.0,
        9140.0,
        9145.0,
        9150.0,
        9155.0,
        9160.0,
        9165.0,
        9170.0,
        9175.0,
        9180.0,
        9185.0,
        9190.0,
        9195.0,
        9200.0,
        9205.0,
        9210.0,
        9215.0,
        9220.0,
        9225.0,
        9230.0,
        9235.0,
        9240.0,
        9245.0,
        9250.0,
        9255.0,
        9260.0,
        9265.0,
        9270.0,
        9275.0,
        9280.0,
        9285.0,
        9290.0,
        9295.0,
        9300.0,
        9305.0,
        9310.0,
        9315.0,
        9320.0,
        9325.0,
        9330.0,
        9335.0,
        9340.0,
        9345.0,
        9350.0,
        9355.0,
        9360.0,
        9365.0,
        9370.0,
        9375.0,
        9380.0,
        9385.0,
        9390.0,
        9395.0,
        9400.0,
        9405.0,
        9410.0,
        9415.0,
        9420.0,
        9425.0,
        9430.0,
        9435.0,
        9440.0,
        9445.0,
        9450.0,
        9455.0,
        9460.0,
        9465.0,
        9470.0,
        9475.0,
        9480.0,
        9485.0,
        9490.0,
        9495.0,
        9500.0,
        9505.0,
        9510.0,
        9515.0,
        9520.0,
        9525.0,
        9530.0,
        9535.0,
        9540.0,
        9545.0,
        9550.0,
        9555.0,
        9560.0,
        9565.0,
        9570.0,
        9575.0,
        9580.0,
        9585.0,
        9590.0,
        9595.0,
        9600.0,
        9605.0,
        9610.0,
        9615.0,
        9620.0,
        9625.0,
        9630.0,
        9635.0,
        9640.0,
        9645.0,
        9650.0,
        9655.0,
        9660.0,
        9665.0,
        9670.0,
        9675.0,
        9680.0,
        9685.0,
        9690.0,
        9695.0,
        9700.0,
        9705.0,
        9710.0,
        9715.0,
        9720.0,
        9725.0,
        9730.0,
        9735.0,
        9740.0,
        9745.0,
        9750.0,
        9755.0,
        9760.0,
        9765.0,
        9770.0,
        9775.0,
        9780.0,
        9785.0,
        9790.0,
        9795.0,
        9800.0,
        9805.0,
        9810.0,
        9815.0,
        9820.0,
        9825.0,
        9830.0,
        9835.0,
        9840.0,
        9845.0,
        9850.0,
        9855.0,
        9860.0,
        9865.0,
        9870.0,
        9875.0,
        9880.0,
        9885.0,
        9890.0,
        9895.0,
        9900.0,
        9905.0,
        9910.0,
        9915.0,
        9920.0,
        9925.0,
        9930.0,
        9935.0,
        9940.0,
        9945.0,
        9950.0,
        9955.0,
        9960.0,
        9965.0,
        9970.0,
        9975.0,
        9980.0,
        9985.0,
        9990.0,
        9995.0,
        10000.0,
        10005.0,
        10010.0,
        10015.0,
        10020.0,
        10025.0,
        10030.0,
        10035.0,
        10040.0,
        10045.0,
        10050.0,
        10055.0,
        10060.0,
        10065.0,
        10070.0,
        10075.0,
        10080.0,
        10085.0,
        10090.0,
        10095.0,
        10100.0,
        10105.0,
        10110.0,
        10115.0,
        10120.0,
        10125.0,
        10130.0,
        10135.0,
        10140.0,
        10145.0,
        10150.0,
        10155.0,
        10160.0,
        10165.0,
        10170.0,
        10175.0,
        10180.0,
        10185.0,
        10190.0,
        10195.0,
        10200.0,
        10205.0,
        10210.0,
        10215.0,
        10220.0,
        10225.0,
        10230.0,
        10235.0,
        10240.0,
        10245.0,
        10250.0,
        10255.0,
        10260.0,
        10265.0,
        10270.0,
        10275.0,
        10280.0,
        10285.0,
        10290.0,
        10295.0,
        10300.0,
        10305.0,
        10310.0,
        10315.0,
        10320.0,
        10325.0,
        10330.0,
        10335.0,
        10340.0,
        10345.0,
        10350.0,
        10355.0,
        10360.0,
        10365.0,
        10370.0,
        10375.0,
        10380.0,
        10385.0,
        10390.0,
        10395.0,
        10400.0,
        10405.0,
        10410.0,
        10415.0,
        10420.0,
        10425.0,
        10430.0,
        10435.0,
        10440.0,
        10445.0,
        10450.0,
        10455.0,
        10460.0,
        10465.0,
        10470.0,
        10475.0,
        10480.0,
        10485.0,
        10490.0,
        10495.0,
        10500.0
      ],
      "units":"angstrom"
    },
    "values":{
      "value":[
        0.003094,
        0.010211,
        0.009671,
        0.0,
        0.0,
        0.0,
        0.0,
        0.0,
        0.0,
        0.0,
        0.0,
        0.002475,
        0.017038,
        0.026298,
        0.015395,
        0.003658,
        0.000492,
        0.001082,
        0.002116,
        0.002632,
        0.001551,
        0.002105,
        0.002449,
        0.000586,
        0.001623,
        0.001149,
        0.002167,
        0.003181,
        0.000937,
        0.0,
        0.000706,
        0.00266,
        0.002727,
        0.001336,
        5e-05,
        0.001177,
        0.00165,
        0.002258,
        0.002588,
        0.001218,
        0.000823,
        0.00213,
        0.001934,
        0.000459,
        0.0,
        0.000463,
        0.000927,
        0.0,
        0.0,
        0.0,
        0.001238,
        0.002569,
        5.7e-05,
        0.0,
        0.000429,
        0.001141,
        0.001148,
        0.000343,
        0.000546,
        0.001474,
        0.001069,
        0.001171,
        0.001766,
        0.001335,
        0.003004,
        0.002279,
        0.000751,
        0.0,
        0.0,
        0.001564,
        0.000701,
        0.000954,
        0.002042,
        0.001519,
        0.000832,
        0.0,
        0.000263,
        0.004233,
        0.004982,
        0.003672,
        0.002894,
        0.003792,
        0.003635,
        0.003753,
        0.001384,
        0.002013,
        0.004182,
        0.00363,
        0.001032,
        0.004096,
        0.004591,
        0.001599,
        0.002295,
        0.003077,
        0.004266,
        0.003155,
        0.002029,
        0.003046,
        0.002767,
        0.002551,
        0.002274,
        0.003229,
        0.004288,
        0.005494,
        0.00532,
        0.005339,
        0.005474,
        0.005682,
        0.007519,
        0.007629,
        0.011905,
        0.015778,
        0.020275,
        0.023828,
        0.023967,
        0.026315,
        0.029815,
        0.029073,
        0.032036,
        0.038006,
        0.045994,
        0.053484,
        0.052274,
        0.051415,
        0.062778,
        0.080727,
        0.08752,
        0.07666,
        0.074734,
        0.087311,
        0.097255,
        0.084137,
        0.089269,
        0.097685,
        0.099421,
        0.105752,
        0.105498,
        0.097035,
        0.082042,
        0.065165,
        0.063328,
        0.080081,
        0.091555,
        0.10159,
        0.111582,
        0.114337,
        0.12163,
        0.123559,
        0.116093,
        0.111495,
        0.106014,
        0.110689,
        0.118046,
        0.128333,
        0.13241,
        0.11781,
        0.084719,
        0.085354,
        0.127519,
        0.154941,
        0.155118,
        0.145595,
        0.155159,
        0.13258,
        0.140495,
        0.176797,
        0.160941,
        0.15186,
        0.114535,
        0.090254,
        0.110363,
        0.131991,
        0.124683,
        0.12996,
        0.129935,
        0.128968,
        0.148185,
        0.150818,
        0.14907,
        0.186257,
        0.189074,
        0.193449,
        0.18187,
        0.187709,
        0.18245,
        0.198531,
        0.243818,
        0.247653,
        0.245254,
        0.213783,
        0.195122,
        0.213943,
        0.236388,
        0.220252,
        0.222452,
        0.244858,
        0.233093,
        0.215542,
        0.213273,
        0.220763,
        0.230488,
        0.23562,
        0.226474,
        0.179993,
        0.178264,
        0.18093,
        0.18401,
        0.216821,
        0.235824,
        0.236516,
        0.237566,
        0.253101,
        0.260129,
        0.203319,
        0.18032,
        0.181305,
        0.214018,
        0.241086,
        0.257941,
        0.22016,
        0.22672,
        0.245024,
        0.234339,
        0.206896,
        0.198378,
        0.207244,
        0.218195,
        0.223263,
        0.236899,
        0.247306,
        0.233258,
        0.22008,
        0.231775,
        0.240703,
        0.225562,
        0.205622,
        0.217322,
        0.196059,
        0.176994,
        0.161464,
        0.158867,
        0.164996,
        0.178952,
        0.177232,
        0.173264,
        0.199057,
        0.189952,
        0.143324,
        0.131489,
        0.145359,
        0.151649,
        0.131233,
        0.115082,
        0.114557,
        0.160432,
        0.220772,
        0.237177,
        0.237285,
        0.238119,
        0.241775,
        0.233927,
        0.216777,
        0.210531,
        0.210388,
        0.203724,
        0.20911,
        0.200615,
        0.185373,
        0.168638,
        0.172855,
        0.223582,
        0.227666,
        0.195862,
        0.183461,
        0.154727,
        0.135008,
        0.153573,
        0.163839,
        0.167547,
        0.163373,
        0.175732,
        0.202638,
        0.216477,
        0.234606,
        0.268192,
        0.270687,
        0.225623,
        0.236979,
        0.252238,
        0.263675,
        0.233741,
        0.213762,
        0.213483,
        0.203673,
        0.216838,
        0.239619,
        0.232453,
        0.281282,
        0.360067,
        0.429187,
        0.439861,
        0.434254,
        0.43441,
        0.407157,
        0.386951,
        0.390167,
        0.419595,
        0.422624,
        0.406993,
        0.375993,
        0.384043,
        0.403756,
        0.374446,
        0.346697,
        0.354809,
        0.356758,
        0.37877,
        0.384793,
        0.331237,
        0.267337,
        0.234244,
        0.264907,
        0.293726,
        0.350135,
        0.364589,
        0.372531,
        0.366414,
        0.342135,
        0.298629,
        0.208743,
        0.141461,
        0.136344,
        0.207653,
        0.329397,
        0.413547,
        0.464007,
        0.48084,
        0.472907,
        0.454174,
        0.422909,
        0.394839,
        0.363904,
        0.398623,
        0.447486,
        0.464013,
        0.465402,
        0.483459,
        0.497946,
        0.470566,
        0.506142,
        0.546871,
        0.556314,
        0.567183,
        0.579656,
        0.588109,
        0.525562,
        0.528825,
        0.554065,
        0.550627,
        0.560073,
        0.562113,
        0.580042,
        0.614433,
        0.595007,
        0.588301,
        0.625153,
        0.589977,
        0.557427,
        0.588819,
        0.617521,
        0.56868,
        0.545241,
        0.581215,
        0.579379,
        0.558951,
        0.556285,
        0.578468,
        0.566954,
        0.546543,
        0.558891,
        0.583687,
        0.582061,
        0.573557,
        0.553613,
        0.562566,
        0.583035,
        0.616909,
        0.629935,
        0.599152,
        0.56445,
        0.559546,
        0.565276,
        0.595341,
        0.600672,
        0.593323,
        0.614319,
        0.634404,
        0.625669,
        0.662253,
        0.650251,
        0.640794,
        0.623835,
        0.61137,
        0.623284,
        0.656463,
        0.660666,
        0.633265,
        0.615996,
        0.618285,
        0.607683,
        0.678078,
        0.704074,
        0.693212,
        0.653502,
        0.613135,
        0.598578,
        0.609219,
        0.635274,
        0.657363,
        0.660171,
        0.654245,
        0.655976,
        0.679254,
        0.723622,
        0.733724,
        0.671186,
        0.620475,
        0.660451,
        0.724731,
        0.73566,
        0.715741,
        0.703718,
        0.70313,
        0.708761,
        0.715582,
        0.71813,
        0.709049,
        0.687149,
        0.677814,
        0.701315,
        0.73088,
        0.736053,
        0.718677,
        0.690878,
        0.673602,
        0.681799,
        0.697627,
        0.70188,
        0.702696,
        0.710835,
        0.720195,
        0.722937,
        0.721152,
        0.719446,
        0.722593,
        0.73225,
        0.737467,
        0.727502,
        0.705048,
        0.679004,
        0.669639,
        0.689691,
        0.710387,
        0.704867,
        0.695427,
        0.705196,
        0.711474,
        0.691919,
        0.671454,
        0.676758,
        0.694272,
        0.70419,
        0.711838,
        0.722887,
        0.717628,
        0.713658,
        0.73448,
        0.765058,
        0.785804,
        0.804323,
        0.792068,
        0.769401,
        0.754407,
        0.719547,
        0.683087,
        0.678335,
        0.667291,
        0.660146,
        0.689767,
        0.742341,
        0.756306,
        0.726581,
        0.713688,
        0.695537,
        0.702829,
        0.737284,
        0.737964,
        0.70166,
        0.747273,
        0.742767,
        0.755306,
        0.809332,
        0.841856,
        0.841158,
        0.829348,
        0.809459,
        0.775186,
        0.788631,
        0.816876,
        0.845238,
        0.839938,
        0.791572,
        0.801447,
        0.861047,
        0.830389,
        0.817885,
        0.825903,
        0.756847,
        0.834386,
        0.825813,
        0.752689,
        0.886829,
        0.891894,
        0.887047,
        0.830703,
        0.933852,
        1.088366,
        1.086645,
        0.978492,
        0.834953,
        0.890307,
        1.075802,
        1.16834,
        1.12874,
        1.102675,
        1.001261,
        0.853239,
        0.738586,
        0.897213,
        1.115799,
        1.224161,
        1.23161,
        1.227574,
        1.26987,
        1.209802,
        1.138675,
        1.071422,
        0.879083,
        0.8293,
        1.007895,
        1.114846,
        1.099981,
        1.203904,
        1.245496,
        1.216264,
        1.077406,
        0.831287,
        0.745856,
        0.895192,
        1.019858,
        1.103314,
        1.117577,
        1.034948,
        0.828343,
        0.728746,
        0.852489,
        0.994158,
        1.109747,
        1.238886,
        1.31026,
        1.333269,
        1.334271,
        1.346754,
        1.353157,
        1.348814,
        1.355929,
        1.341446,
        1.349854,
        1.357188,
        1.334691,
        1.340332,
        1.322061,
        1.306691,
        1.299536,
        1.290317,
        1.273396,
        1.269368,
        1.265254,
        1.226815,
        1.110798,
        0.957803,
        0.954021,
        1.05256,
        1.146328,
        1.210643,
        1.264941,
        1.294298,
        1.318541,
        1.328247,
        1.312105,
        1.305081,
        1.291595,
        1.3026,
        1.312204,
        1.289951,
        1.268456,
        1.288493,
        1.302117,
        1.323678,
        1.320206,
        1.294451,
        1.309348,
        1.328184,
        1.329831,
        1.317288,
        1.286586,
        1.299237,
        1.28805,
        1.271069,
        1.270389,
        1.273676,
        1.29438,
        1.295339,
        1.314218,
        1.297126,
        1.293991,
        1.305614,
        1.286716,
        1.2601,
        1.240823,
        1.189349,
        1.172039,
        1.183484,
        1.213722,
        1.227485,
        1.190397,
        1.148458,
        1.038444,
        0.922853,
        0.967328,
        1.061384,
        1.157616,
        1.237909,
        1.284549,
        1.294446,
        1.296695,
        1.295051,
        1.274205,
        1.281766,
        1.271835,
        1.25912,
        1.251388,
        1.262786,
        1.27353,
        1.299964,
        1.314364,
        1.307354,
        1.300089,
        1.306128,
        1.303676,
        1.308393,
        1.292091,
        1.275941,
        1.271996,
        1.290291,
        1.313492,
        1.301397,
        1.298914,
        1.290059,
        1.29634,
        1.319457,
        1.343621,
        1.353991,
        1.339744,
        1.320439,
        1.286121,
        1.24441,
        1.246294,
        1.275151,
        1.278629,
        1.272845,
        1.279967,
        1.293575,
        1.295175,
        1.298767,
        1.30021,
        1.281229,
        1.266213,
        1.268797,
        1.269111,
        1.26556,
        1.271803,
        1.293453,
        1.310982,
        1.315774,
        1.306366,
        1.292453,
        1.287451,
        1.298752,
        1.298559,
        1.302412,
        1.314921,
        1.311499,
        1.283172,
        1.272641,
        1.289414,
        1.303697,
        1.322066,
        1.30995,
        1.290515,
        1.257289,
        1.244567,
        1.253139,
        1.261582,
        1.273361,
        1.263105,
        1.244627,
        1.237656,
        1.242547,
        1.253064,
        1.25631,
        1.251555,
        1.244657,
        1.230141,
        1.234668,
        1.243801,
        1.234151,
        1.235913,
        1.246557,
        1.255271,
        1.241799,
        1.234656,
        1.241235,
        1.247711,
        1.225902,
        1.209685,
        1.204496,
        1.201814,
        1.202461,
        1.185307,
        1.12185,
        1.002016,
        0.873887,
        0.868789,
        0.945912,
        1.014843,
        1.079783,
        1.124448,
        1.139029,
        1.160959,
        1.149004,
        1.145176,
        1.154994,
        1.159603,
        1.150323,
        1.149182,
        1.153069,
        1.142238,
        1.148212,
        1.170001,
        1.178206,
        1.161151,
        1.161861,
        1.169974,
        1.164846,
        1.16544,
        1.149157,
        1.136844,
        1.144173,
        1.148832,
        1.132606,
        1.122283,
        1.116785,
        1.104287,
        1.114047,
        1.125191,
        1.132094,
        1.131916,
        1.124335,
        1.140809,
        1.137591,
        1.134593,
        1.146321,
        1.145086,
        1.140392,
        1.143033,
        1.131383,
        1.134578,
        1.142872,
        1.144333,
        1.126555,
        1.12948,
        1.138391,
        1.155405,
        1.14906,
        1.133029,
        1.132936,
        1.12553,
        1.116128,
        1.114313,
        1.118137,
        1.115068,
        1.107635,
        1.063512,
        1.039366,
        1.068646,
        1.081804,
        1.062194,
        1.06782,
        1.070826,
        1.083931,
        1.084465,
        1.092106,
        1.101314,
        1.112534,
        1.093281,
        1.080458,
        1.081989,
        1.077648,
        1.082506,
        1.08673,
        1.089459,
        1.080625,
        1.047982,
        1.041761,
        1.052042,
        1.066878,
        1.078223,
        1.10076,
        1.097597,
        1.078923,
        1.072263,
        1.075401,
        1.073705,
        1.06404,
        1.0494,
        1.043839,
        1.052293,
        1.045349,
        1.042324,
        1.057557,
        1.080151,
        1.074109,
        1.057835,
        1.050391,
        1.047676,
        1.042047,
        1.048745,
        1.057116,
        1.048202,
        1.036022,
        1.023094,
        1.024489,
        1.034441,
        1.038697,
        1.034285,
        1.029463,
        1.023112,
        1.030807,
        1.026154,
        1.035775,
        1.046365,
        1.050146,
        1.047116,
        1.03811,
        1.021043,
        1.009485,
        1.013841,
        1.021131,
        1.027489,
        1.02375,
        1.020753,
        1.020723,
        1.029812,
        1.027335,
        1.011023,
        1.000302,
        0.998863,
        1.006162,
        1.018329,
        1.028414,
        1.023142,
        1.015705,
        0.997719,
        0.979202,
        0.980951,
        0.98477,
        0.979164,
        0.971901,
        0.966776,
        0.971503,
        0.987106,
        0.999663,
        0.990542,
        0.987869,
        0.984688,
        0.982352,
        0.983951,
        0.978582,
        0.977536,
        0.970061,
        0.96429,
        0.96706,
        0.978,
        0.989419,
        0.991581,
        0.974193,
        0.948656,
        0.945296,
        0.95091,
        0.953412,
        0.941998,
        0.933814,
        0.941406,
        0.949336,
        0.95376,
        0.956137,
        0.966656,
        0.964694,
        0.96039,
        0.945767,
        0.935603,
        0.938845,
        0.938488,
        0.936656,
        0.934495,
        0.930621,
        0.934694,
        0.936352,
        0.939696,
        0.941627,
        0.938326,
        0.937745,
        0.941696,
        0.945469,
        0.950099,
        0.952925,
        0.953909,
        0.947552,
        0.94355,
        0.93076,
        0.915444,
        0.917429,
        0.937182,
        0.939186,
        0.921556,
        0.904721,
        0.875197,
        0.842087,
        0.834378,
        0.866312,
        0.89649,
        0.904608,
        0.900151,
        0.892498,
        0.884677,
        0.873578,
        0.875367,
        0.87033,
        0.863186,
        0.858099,
        0.858039,
        0.863758,
        0.871786,
        0.876477,
        0.874432,
        0.867201,
        0.860113,
        0.858296,
        0.861315,
        0.8622,
        0.869883,
        0.871114,
        0.863016,
        0.856993,
        0.855495,
        0.867056,
        0.876747,
        0.867523,
        0.868598,
        0.869497,
        0.8635,
        0.859777,
        0.862763,
        0.86879,
        0.8626,
        0.86459,
        0.860542,
        0.86362,
        0.860071,
        0.85777,
        0.853874,
        0.855669,
        0.852826,
        0.849763,
        0.846109,
        0.846893,
        0.839305,
        0.831442,
        0.832025,
        0.836287,
        0.834851,
        0.828772,
        0.824377,
        0.826188,
        0.830251,
        0.836851,
        0.837622,
        0.834989,
        0.83589,
        0.832599,
        0.839963,
        0.830151,
        0.826034,
        0.829738,
        0.831531,
        0.821837,
        0.813341,
        0.81388,
        0.804816,
        0.807781,
        0.810329,
        0.818377,
        0.822295,
        0.81594,
        0.804471,
        0.788105,
        0.802986,
        0.803153,
        0.800114,
        0.796413,
        0.802825,
        0.801742,
        0.79485,
        0.793775,
        0.800078,
        0.799563,
        0.793947,
        0.792645,
        0.785049,
        0.793989,
        0.799327,
        0.793017,
        0.79377,
        0.794129,
        0.801633,
        0.796058,
        0.793969,
        0.790693,
        0.786653,
        0.784281,
        0.778906,
        0.772036,
        0.770822,
        0.777749,
        0.786534,
        0.779974,
        0.780271,
        0.779565,
        0.776259,
        0.765865,
        0.759401,
        0.757524,
        0.765554,
        0.764476,
        0.763911,
        0.759977,
        0.753567,
        0.740858,
        0.733556,
        0.75819,
        0.765982,
        0.765665,
        0.756466,
        0.757874,
        0.753427,
        0.746952,
        0.747456,
        0.743027,
        0.72913,
        0.698098,
        0.642746,
        0.552381,
        0.551421,
        0.634983,
        0.676419,
        0.709255,
        0.724511,
        0.72904,
        0.731025,
        0.736911,
        0.740451,
        0.74293,
        0.749936,
        0.749758,
        0.74319,
        0.734542,
        0.731875,
        0.734586,
        0.736759,
        0.739001,
        0.73666,
        0.732017,
        0.727,
        0.72539,
        0.720568,
        0.719862,
        0.725573,
        0.72746,
        0.728852,
        0.726956,
        0.722736,
        0.718687,
        0.71068,
        0.707406,
        0.708309,
        0.712212,
        0.711239,
        0.710439,
        0.709754,
        0.706406,
        0.701895,
        0.701477,
        0.701526,
        0.70536,
        0.707998,
        0.706207,
        0.705898,
        0.70777,
        0.707034,
        0.700347,
        0.695976,
        0.697944,
        0.696885,
        0.693643,
        0.692933,
        0.69452,
        0.693923,
        0.69023,
        0.689605,
        0.689257,
        0.689595,
        0.689478,
        0.686487,
        0.679655,
        0.670784,
        0.663721,
        0.661927,
        0.665789,
        0.672178,
        0.676249,
        0.675293,
        0.670484,
        0.665582,
        0.663518,
        0.664294,
        0.665441,
        0.664365,
        0.661063,
        0.657856,
        0.657253,
        0.660453,
        0.665309,
        0.668326,
        0.66775,
        0.671768,
        0.66658,
        0.665656,
        0.660342,
        0.663274,
        0.660085,
        0.653389,
        0.655957,
        0.653516,
        0.648122,
        0.648421,
        0.654337,
        0.655137,
        0.659569,
        0.66028,
        0.657335,
        0.65756,
        0.657408,
        0.649286,
        0.646103,
        0.651493,
        0.650508,
        0.649409,
        0.647697,
        0.647688,
        0.648959,
        0.646327,
        0.640727,
        0.639837,
        0.642418,
        0.643925,
        0.646837,
        0.649103,
        0.645216,
        0.6416,
        0.640904,
        0.647065,
        0.644523,
        0.636439,
        0.632947,
        0.626024,
        0.618331,
        0.602686,
        0.609308,
        0.612795,
        0.608113,
        0.609342,
        0.624524,
        0.633777,
        0.632901,
        0.629977,
        0.620501,
        0.616294,
        0.616829,
        0.61885,
        0.613445,
        0.611623,
        0.612995,
        0.610883,
        0.614692,
        0.608429,
        0.607138,
        0.607098,
        0.600949,
        0.611112,
        0.612629,
        0.603853,
        0.600551,
        0.603937,
        0.60687,
        0.605482,
        0.602596,
        0.606638,
        0.612412,
        0.608683,
        0.601948,
        0.598232,
        0.592906,
        0.591944,
        0.592089,
        0.597765,
        0.598702,
        0.587722,
        0.588157,
        0.593234,
        0.596179,
        0.595545,
        0.586975,
        0.586731,
        0.590007,
        0.581549,
        0.586309,
        0.586111,
        0.584981,
        0.582762,
        0.582855,
        0.584064,
        0.579934,
        0.581065,
        0.582301,
        0.580997,
        0.580712,
        0.579748,
        0.57781,
        0.574241,
        0.579845,
        0.576447,
        0.570977,
        0.574625,
        0.575347,
        0.573702,
        0.572231,
        0.574308,
        0.577021,
        0.574679,
        0.572643,
        0.571883,
        0.570841,
        0.569962,
        0.568958,
        0.567803,
        0.566834,
        0.565898,
        0.564937,
        0.563951,
        0.563099,
        0.562367,
        0.561571,
        0.56074,
        0.559915,
        0.559092,
        0.55827,
        0.55745,
        0.556628,
        0.555805,
        0.554977,
        0.554145,
        0.553306,
        0.552463,
        0.551601,
        0.550588,
        0.549789,
        0.549182,
        0.548508,
        0.547536,
        0.54651,
        0.545589,
        0.545328,
        0.54539,
        0.544938,
        0.544025,
        0.543474,
        0.546587,
        0.538961,
        0.534021,
        0.535346,
        0.541767,
        0.541019,
        0.536923,
        0.518496,
        0.512552,
        0.524935,
        0.533784,
        0.534299,
        0.52978,
        0.526906,
        0.533539,
        0.528963,
        0.531318,
        0.532529,
        0.530387,
        0.524616,
        0.520456,
        0.524069,
        0.521029,
        0.519841,
        0.520499,
        0.523016,
        0.521392,
        0.521953,
        0.517238,
        0.517025,
        0.521141,
        0.519988,
        0.513644,
        0.515215,
        0.516897,
        0.518741,
        0.513593,
        0.50904,
        0.512299,
        0.505819,
        0.504742,
        0.504804,
        0.502543,
        0.507102,
        0.514558,
        0.511354,
        0.508705,
        0.509284,
        0.510769,
        0.510036,
        0.507994,
        0.505222,
        0.503177,
        0.501022,
        0.503937,
        0.501314,
        0.500694,
        0.499545,
        0.498324,
        0.500088,
        0.502836,
        0.499032,
        0.494141,
        0.495321,
        0.496424,
        0.497928,
        0.494065,
        0.496676,
        0.495046,
        0.492845,
        0.490784,
        0.491549,
        0.49081,
        0.492554,
        0.495402,
        0.493396,
        0.491131,
        0.494246,
        0.49433,
        0.491536,
        0.488237,
        0.487767,
        0.483863,
        0.481274,
        0.478118,
        0.471929,
        0.469699,
        0.476345,
        0.475621,
        0.470068,
        0.472793,
        0.471948,
        0.46526,
        0.473361,
        0.487916,
        0.483174,
        0.478406,
        0.473374,
        0.459659,
        0.449968,
        0.469076,
        0.478232,
        0.477619,
        0.480654,
        0.473056,
        0.476115,
        0.478307,
        0.478971,
        0.469821,
        0.469404,
        0.467139,
        0.4677,
        0.465918,
        0.467235,
        0.464481,
        0.468498,
        0.465675,
        0.462455,
        0.461498,
        0.456894,
        0.453935,
        0.458167,
        0.462731,
        0.464796,
        0.466606,
        0.463583,
        0.463277,
        0.463948,
        0.463876,
        0.46314,
        0.459311,
        0.457391,
        0.46043,
        0.460937,
        0.458636,
        0.457494,
        0.456189,
        0.458917,
        0.459237,
        0.454593,
        0.451658,
        0.448943,
        0.446036,
        0.450294,
        0.4556,
        0.45619,
        0.447229,
        0.444219,
        0.450445,
        0.452648,
        0.454202,
        0.448891,
        0.424734,
        0.417297,
        0.433605,
        0.443971,
        0.440498,
        0.443437,
        0.440152,
        0.434389,
        0.413335,
        0.368698,
        0.378948,
        0.42099,
        0.431159,
        0.438575,
        0.44117,
        0.439904,
        0.438371,
        0.435491,
        0.433527,
        0.426334,
        0.420931,
        0.420222,
        0.425784,
        0.428614,
        0.433395,
        0.434844,
        0.439474,
        0.437234,
        0.436694,
        0.435255,
        0.431055,
        0.421854,
        0.404819,
        0.368057,
        0.370098,
        0.400772,
        0.412982,
        0.422863,
        0.42626,
        0.430073,
        0.43529,
        0.438425,
        0.438336,
        0.440363,
        0.43961,
        0.44038,
        0.432261,
        0.428338,
        0.423083,
        0.412493,
        0.406937,
        0.39848,
        0.405625,
        0.415883,
        0.422526,
        0.42488,
        0.429102,
        0.433114,
        0.431359,
        0.428207,
        0.427058,
        0.431584,
        0.423809,
        0.423553,
        0.421386,
        0.420963,
        0.421899,
        0.422885,
        0.417271,
        0.413506,
        0.415222,
        0.405361,
        0.391876,
        0.378043,
        0.376281,
        0.38912,
        0.40185,
        0.404588,
        0.409819,
        0.412434,
        0.419162,
        0.418108,
        0.418245,
        0.412932,
        0.416005,
        0.414164,
        0.405989,
        0.408473,
        0.416186,
        0.416018,
        0.415412,
        0.414757,
        0.417934,
        0.414824,
        0.410412,
        0.407018,
        0.409277,
        0.404235,
        0.391316,
        0.380066,
        0.389253,
        0.379227,
        0.372037,
        0.358315,
        0.347732,
        0.364542,
        0.38451,
        0.403064,
        0.412191,
        0.418924,
        0.417937,
        0.41933,
        0.412057,
        0.400337,
        0.397005,
        0.394728,
        0.391741,
        0.386409,
        0.383957,
        0.376106,
        0.381321,
        0.38787,
        0.390267,
        0.392757,
        0.394992,
        0.396766,
        0.40009,
        0.391978,
        0.384519,
        0.396323,
        0.398202,
        0.386865,
        0.379083,
        0.387948,
        0.392268,
        0.390961,
        0.382479,
        0.391294,
        0.395338,
        0.393967,
        0.392908,
        0.396451,
        0.389255,
        0.375294,
        0.364729,
        0.361871,
        0.342682,
        0.334892,
        0.350603,
        0.36839,
        0.374755,
        0.385636,
        0.383601,
        0.386712,
        0.394979,
        0.405187,
        0.398246,
        0.389316,
        0.407056,
        0.401661,
        0.391954,
        0.384038,
        0.380871,
        0.372183,
        0.349293,
        0.347448,
        0.337603,
        0.345991,
        0.33116,
        0.314549,
        0.319349,
        0.348359,
        0.332553,
        0.349481,
        0.348918,
        0.341617,
        0.352403,
        0.355927,
        0.374733,
        0.404154,
        0.416082,
        0.40247,
        0.388779,
        0.382935,
        0.377662,
        0.372489,
        0.356209,
        0.359063,
        0.358652,
        0.308398,
        0.346446,
        0.363007,
        0.348017,
        0.329027,
        0.355387,
        0.375018,
        0.37254,
        0.339133,
        0.374387,
        0.369528,
        0.346998,
        0.338555,
        0.364249,
        0.372561,
        0.361162,
        0.351015,
        0.338144,
        0.353743,
        0.345737,
        0.32315,
        0.298725,
        0.308796,
        0.295943,
        0.34093,
        0.334913,
        0.346654,
        0.361327,
        0.353859,
        0.343345,
        0.340448,
        0.350869,
        0.363476,
        0.347352,
        0.348994,
        0.350424,
        0.331108,
        0.334119,
        0.337558,
        0.339532,
        0.337568,
        0.340642,
        0.343832,
        0.336812,
        0.329299,
        0.338525,
        0.34501,
        0.328257,
        0.329152,
        0.33543,
        0.33968,
        0.338668,
        0.333941,
        0.344814,
        0.346006,
        0.336064,
        0.336941,
        0.33225,
        0.329719,
        0.331656,
        0.31763,
        0.319889,
        0.31737,
        0.327269,
        0.324545,
        0.324518,
        0.332811,
        0.344917,
        0.33766,
        0.325833,
        0.329728,
        0.330017,
        0.332721,
        0.333857,
        0.336137,
        0.337855,
        0.337307,
        0.333384,
        0.327374,
        0.321162,
        0.316634,
        0.315173,
        0.316154,
        0.31845,
        0.320932,
        0.322694,
        0.323708,
        0.324167,
        0.324266,
        0.324157,
        0.323832,
        0.323243,
        0.322342,
        0.321138,
        0.319865,
        0.318817,
        0.318287,
        0.318446,
        0.318981,
        0.31946,
        0.319448,
        0.318687,
        0.317611,
        0.31683,
        0.316951,
        0.318353,
        0.32049,
        0.322582,
        0.323854,
        0.323793,
        0.322958,
        0.322171,
        0.322258,
        0.323618,
        0.324955,
        0.324547,
        0.320673,
        0.312347,
        0.301518,
        0.290872,
        0.283091,
        0.280167,
        0.281322,
        0.285083,
        0.289979,
        0.294754,
        0.299015,
        0.302588,
        0.305296,
        0.30703,
        0.307947,
        0.308271,
        0.308225,
        0.307982,
        0.307509,
        0.306722,
        0.305536,
        0.303976,
        0.302492,
        0.301642,
        0.301987,
        0.30381,
        0.306304,
        0.308386,
        0.308976,
        0.307443,
        0.304965,
        0.303171,
        0.303691,
        0.307485,
        0.312842,
        0.317383,
        0.318727,
        0.315274,
        0.308538,
        0.300813,
        0.294391,
        0.291002,
        0.29012,
        0.290655,
        0.291517,
        0.291821,
        0.291499,
        0.290687,
        0.289523,
        0.288174,
        0.286937,
        0.286142,
        0.286115,
        0.28706,
        0.288665,
        0.290494,
        0.292109,
        0.291587,
        0.291628,
        0.2914,
        0.290932,
        0.290281,
        0.289618,
        0.289144,
        0.289062,
        0.289492,
        0.290236,
        0.291015,
        0.291552,
        0.291603,
        0.291069,
        0.289889,
        0.288,
        0.285443,
        0.282675,
        0.280259,
        0.278754,
        0.278539,
        0.279261,
        0.280384,
        0.281371,
        0.28177,
        0.28146,
        0.280405,
        0.278568,
        0.276033,
        0.27337,
        0.271268,
        0.27042,
        0.27126,
        0.273211,
        0.275442,
        0.27712,
        0.277634,
        0.277247,
        0.276444,
        0.27571
      ],
      "range":1
    }
  }
]
