[
  {
    "model":"Star, type O5(v)",
    "name":"Star, type O5(v)",
    "type":"WB_REF",
    "dataQualityMarker":3,
    "dataSource":"https://www.eso.org/sci/facilities/paranal/decommissioned/isaac/tools/lib.html",
    "manufacturer":"A. Pickles (A.J. Pickles, PASP 110,863, 1998)",
    "version":1,
    "wavelength":{
      "value":[
        1150.0,
        1155.0,
        1160.0,
        1165.0,
        1170.0,
        1175.0,
        1180.0,
        1185.0,
        1190.0,
        1195.0,
        1200.0,
        1205.0,
        1210.0,
        1215.0,
        1220.0,
        1225.0,
        1230.0,
        1235.0,
        1240.0,
        1245.0,
        1250.0,
        1255.0,
        1260.0,
        1265.0,
        1270.0,
        1275.0,
        1280.0,
        1285.0,
        1290.0,
        1295.0,
        1300.0,
        1305.0,
        1310.0,
        1315.0,
        1320.0,
        1325.0,
        1330.0,
        1335.0,
        1340.0,
        1345.0,
        1350.0,
        1355.0,
        1360.0,
        1365.0,
        1370.0,
        1375.0,
        1380.0,
        1385.0,
        1390.0,
        1395.0,
        1400.0,
        1405.0,
        1410.0,
        1415.0,
        1420.0,
        1425.0,
        1430.0,
        1435.0,
        1440.0,
        1445.0,
        1450.0,
        1455.0,
        1460.0,
        1465.0,
        1470.0,
        1475.0,
        1480.0,
        1485.0,
        1490.0,
        1495.0,
        1500.0,
        1505.0,
        1510.0,
        1515.0,
        1520.0,
        1525.0,
        1530.0,
        1535.0,
        1540.0,
        1545.0,
        1550.0,
        1555.0,
        1560.0,
        1565.0,
        1570.0,
        1575.0,
        1580.0,
        1585.0,
        1590.0,
        1595.0,
        1600.0,
        1605.0,
        1610.0,
        1615.0,
        1620.0,
        1625.0,
        1630.0,
        1635.0,
        1640.0,
        1645.0,
        1650.0,
        1655.0,
        1660.0,
        1665.0,
        1670.0,
        1675.0,
        1680.0,
        1685.0,
        1690.0,
        1695.0,
        1700.0,
        1705.0,
        1710.0,
        1715.0,
        1720.0,
        1725.0,
        1730.0,
        1735.0,
        1740.0,
        1745.0,
        1750.0,
        1755.0,
        1760.0,
        1765.0,
        1770.0,
        1775.0,
        1780.0,
        1785.0,
        1790.0,
        1795.0,
        1800.0,
        1805.0,
        1810.0,
        1815.0,
        1820.0,
        1825.0,
        1830.0,
        1835.0,
        1840.0,
        1845.0,
        1850.0,
        1855.0,
        1860.0,
        1865.0,
        1870.0,
        1875.0,
        1880.0,
        1885.0,
        1890.0,
        1895.0,
        1900.0,
        1905.0,
        1910.0,
        1915.0,
        1920.0,
        1925.0,
        1930.0,
        1935.0,
        1940.0,
        1945.0,
        1950.0,
        1955.0,
        1960.0,
        1965.0,
        1970.0,
        1975.0,
        1980.0,
        1985.0,
        1990.0,
        1995.0,
        2000.0,
        2005.0,
        2010.0,
        2015.0,
        2020.0,
        2025.0,
        2030.0,
        2035.0,
        2040.0,
        2045.0,
        2050.0,
        2055.0,
        2060.0,
        2065.0,
        2070.0,
        2075.0,
        2080.0,
        2085.0,
        2090.0,
        2095.0,
        2100.0,
        2105.0,
        2110.0,
        2115.0,
        2120.0,
        2125.0,
        2130.0,
        2135.0,
        2140.0,
        2145.0,
        2150.0,
        2155.0,
        2160.0,
        2165.0,
        2170.0,
        2175.0,
        2180.0,
        2185.0,
        2190.0,
        2195.0,
        2200.0,
        2205.0,
        2210.0,
        2215.0,
        2220.0,
        2225.0,
        2230.0,
        2235.0,
        2240.0,
        2245.0,
        2250.0,
        2255.0,
        2260.0,
        2265.0,
        2270.0,
        2275.0,
        2280.0,
        2285.0,
        2290.0,
        2295.0,
        2300.0,
        2305.0,
        2310.0,
        2315.0,
        2320.0,
        2325.0,
        2330.0,
        2335.0,
        2340.0,
        2345.0,
        2350.0,
        2355.0,
        2360.0,
        2365.0,
        2370.0,
        2375.0,
        2380.0,
        2385.0,
        2390.0,
        2395.0,
        2400.0,
        2405.0,
        2410.0,
        2415.0,
        2420.0,
        2425.0,
        2430.0,
        2435.0,
        2440.0,
        2445.0,
        2450.0,
        2455.0,
        2460.0,
        2465.0,
        2470.0,
        2475.0,
        2480.0,
        2485.0,
        2490.0,
        2495.0,
        2500.0,
        2505.0,
        2510.0,
        2515.0,
        2520.0,
        2525.0,
        2530.0,
        2535.0,
        2540.0,
        2545.0,
        2550.0,
        2555.0,
        2560.0,
        2565.0,
        2570.0,
        2575.0,
        2580.0,
        2585.0,
        2590.0,
        2595.0,
        2600.0,
        2605.0,
        2610.0,
        2615.0,
        2620.0,
        2625.0,
        2630.0,
        2635.0,
        2640.0,
        2645.0,
        2650.0,
        2655.0,
        2660.0,
        2665.0,
        2670.0,
        2675.0,
        2680.0,
        2685.0,
        2690.0,
        2695.0,
        2700.0,
        2705.0,
        2710.0,
        2715.0,
        2720.0,
        2725.0,
        2730.0,
        2735.0,
        2740.0,
        2745.0,
        2750.0,
        2755.0,
        2760.0,
        2765.0,
        2770.0,
        2775.0,
        2780.0,
        2785.0,
        2790.0,
        2795.0,
        2800.0,
        2805.0,
        2810.0,
        2815.0,
        2820.0,
        2825.0,
        2830.0,
        2835.0,
        2840.0,
        2845.0,
        2850.0,
        2855.0,
        2860.0,
        2865.0,
        2870.0,
        2875.0,
        2880.0,
        2885.0,
        2890.0,
        2895.0,
        2900.0,
        2905.0,
        2910.0,
        2915.0,
        2920.0,
        2925.0,
        2930.0,
        2935.0,
        2940.0,
        2945.0,
        2950.0,
        2955.0,
        2960.0,
        2965.0,
        2970.0,
        2975.0,
        2980.0,
        2985.0,
        2990.0,
        2995.0,
        3000.0,
        3005.0,
        3010.0,
        3015.0,
        3020.0,
        3025.0,
        3030.0,
        3035.0,
        3040.0,
        3045.0,
        3050.0,
        3055.0,
        3060.0,
        3065.0,
        3070.0,
        3075.0,
        3080.0,
        3085.0,
        3090.0,
        3095.0,
        3100.0,
        3105.0,
        3110.0,
        3115.0,
        3120.0,
        3125.0,
        3130.0,
        3135.0,
        3140.0,
        3145.0,
        3150.0,
        3155.0,
        3160.0,
        3165.0,
        3170.0,
        3175.0,
        3180.0,
        3185.0,
        3190.0,
        3195.0,
        3200.0,
        3205.0,
        3210.0,
        3215.0,
        3220.0,
        3225.0,
        3230.0,
        3235.0,
        3240.0,
        3245.0,
        3250.0,
        3255.0,
        3260.0,
        3265.0,
        3270.0,
        3275.0,
        3280.0,
        3285.0,
        3290.0,
        3295.0,
        3300.0,
        3305.0,
        3310.0,
        3315.0,
        3320.0,
        3325.0,
        3330.0,
        3335.0,
        3340.0,
        3345.0,
        3350.0,
        3355.0,
        3360.0,
        3365.0,
        3370.0,
        3375.0,
        3380.0,
        3385.0,
        3390.0,
        3395.0,
        3400.0,
        3405.0,
        3410.0,
        3415.0,
        3420.0,
        3425.0,
        3430.0,
        3435.0,
        3440.0,
        3445.0,
        3450.0,
        3455.0,
        3460.0,
        3465.0,
        3470.0,
        3475.0,
        3480.0,
        3485.0,
        3490.0,
        3495.0,
        3500.0,
        3505.0,
        3510.0,
        3515.0,
        3520.0,
        3525.0,
        3530.0,
        3535.0,
        3540.0,
        3545.0,
        3550.0,
        3555.0,
        3560.0,
        3565.0,
        3570.0,
        3575.0,
        3580.0,
        3585.0,
        3590.0,
        3595.0,
        3600.0,
        3605.0,
        3610.0,
        3615.0,
        3620.0,
        3625.0,
        3630.0,
        3635.0,
        3640.0,
        3645.0,
        3650.0,
        3655.0,
        3660.0,
        3665.0,
        3670.0,
        3675.0,
        3680.0,
        3685.0,
        3690.0,
        3695.0,
        3700.0,
        3705.0,
        3710.0,
        3715.0,
        3720.0,
        3725.0,
        3730.0,
        3735.0,
        3740.0,
        3745.0,
        3750.0,
        3755.0,
        3760.0,
        3765.0,
        3770.0,
        3775.0,
        3780.0,
        3785.0,
        3790.0,
        3795.0,
        3800.0,
        3805.0,
        3810.0,
        3815.0,
        3820.0,
        3825.0,
        3830.0,
        3835.0,
        3840.0,
        3845.0,
        3850.0,
        3855.0,
        3860.0,
        3865.0,
        3870.0,
        3875.0,
        3880.0,
        3885.0,
        3890.0,
        3895.0,
        3900.0,
        3905.0,
        3910.0,
        3915.0,
        3920.0,
        3925.0,
        3930.0,
        3935.0,
        3940.0,
        3945.0,
        3950.0,
        3955.0,
        3960.0,
        3965.0,
        3970.0,
        3975.0,
        3980.0,
        3985.0,
        3990.0,
        3995.0,
        4000.0,
        4005.0,
        4010.0,
        4015.0,
        4020.0,
        4025.0,
        4030.0,
        4035.0,
        4040.0,
        4045.0,
        4050.0,
        4055.0,
        4060.0,
        4065.0,
        4070.0,
        4075.0,
        4080.0,
        4085.0,
        4090.0,
        4095.0,
        4100.0,
        4105.0,
        4110.0,
        4115.0,
        4120.0,
        4125.0,
        4130.0,
        4135.0,
        4140.0,
        4145.0,
        4150.0,
        4155.0,
        4160.0,
        4165.0,
        4170.0,
        4175.0,
        4180.0,
        4185.0,
        4190.0,
        4195.0,
        4200.0,
        4205.0,
        4210.0,
        4215.0,
        4220.0,
        4225.0,
        4230.0,
        4235.0,
        4240.0,
        4245.0,
        4250.0,
        4255.0,
        4260.0,
        4265.0,
        4270.0,
        4275.0,
        4280.0,
        4285.0,
        4290.0,
        4295.0,
        4300.0,
        4305.0,
        4310.0,
        4315.0,
        4320.0,
        4325.0,
        4330.0,
        4335.0,
        4340.0,
        4345.0,
        4350.0,
        4355.0,
        4360.0,
        4365.0,
        4370.0,
        4375.0,
        4380.0,
        4385.0,
        4390.0,
        4395.0,
        4400.0,
        4405.0,
        4410.0,
        4415.0,
        4420.0,
        4425.0,
        4430.0,
        4435.0,
        4440.0,
        4445.0,
        4450.0,
        4455.0,
        4460.0,
        4465.0,
        4470.0,
        4475.0,
        4480.0,
        4485.0,
        4490.0,
        4495.0,
        4500.0,
        4505.0,
        4510.0,
        4515.0,
        4520.0,
        4525.0,
        4530.0,
        4535.0,
        4540.0,
        4545.0,
        4550.0,
        4555.0,
        4560.0,
        4565.0,
        4570.0,
        4575.0,
        4580.0,
        4585.0,
        4590.0,
        4595.0,
        4600.0,
        4605.0,
        4610.0,
        4615.0,
        4620.0,
        4625.0,
        4630.0,
        4635.0,
        4640.0,
        4645.0,
        4650.0,
        4655.0,
        4660.0,
        4665.0,
        4670.0,
        4675.0,
        4680.0,
        4685.0,
        4690.0,
        4695.0,
        4700.0,
        4705.0,
        4710.0,
        4715.0,
        4720.0,
        4725.0,
        4730.0,
        4735.0,
        4740.0,
        4745.0,
        4750.0,
        4755.0,
        4760.0,
        4765.0,
        4770.0,
        4775.0,
        4780.0,
        4785.0,
        4790.0,
        4795.0,
        4800.0,
        4805.0,
        4810.0,
        4815.0,
        4820.0,
        4825.0,
        4830.0,
        4835.0,
        4840.0,
        4845.0,
        4850.0,
        4855.0,
        4860.0,
        4865.0,
        4870.0,
        4875.0,
        4880.0,
        4885.0,
        4890.0,
        4895.0,
        4900.0,
        4905.0,
        4910.0,
        4915.0,
        4920.0,
        4925.0,
        4930.0,
        4935.0,
        4940.0,
        4945.0,
        4950.0,
        4955.0,
        4960.0,
        4965.0,
        4970.0,
        4975.0,
        4980.0,
        4985.0,
        4990.0,
        4995.0,
        5000.0,
        5005.0,
        5010.0,
        5015.0,
        5020.0,
        5025.0,
        5030.0,
        5035.0,
        5040.0,
        5045.0,
        5050.0,
        5055.0,
        5060.0,
        5065.0,
        5070.0,
        5075.0,
        5080.0,
        5085.0,
        5090.0,
        5095.0,
        5100.0,
        5105.0,
        5110.0,
        5115.0,
        5120.0,
        5125.0,
        5130.0,
        5135.0,
        5140.0,
        5145.0,
        5150.0,
        5155.0,
        5160.0,
        5165.0,
        5170.0,
        5175.0,
        5180.0,
        5185.0,
        5190.0,
        5195.0,
        5200.0,
        5205.0,
        5210.0,
        5215.0,
        5220.0,
        5225.0,
        5230.0,
        5235.0,
        5240.0,
        5245.0,
        5250.0,
        5255.0,
        5260.0,
        5265.0,
        5270.0,
        5275.0,
        5280.0,
        5285.0,
        5290.0,
        5295.0,
        5300.0,
        5305.0,
        5310.0,
        5315.0,
        5320.0,
        5325.0,
        5330.0,
        5335.0,
        5340.0,
        5345.0,
        5350.0,
        5355.0,
        5360.0,
        5365.0,
        5370.0,
        5375.0,
        5380.0,
        5385.0,
        5390.0,
        5395.0,
        5400.0,
        5405.0,
        5410.0,
        5415.0,
        5420.0,
        5425.0,
        5430.0,
        5435.0,
        5440.0,
        5445.0,
        5450.0,
        5455.0,
        5460.0,
        5465.0,
        5470.0,
        5475.0,
        5480.0,
        5485.0,
        5490.0,
        5495.0,
        5500.0,
        5505.0,
        5510.0,
        5515.0,
        5520.0,
        5525.0,
        5530.0,
        5535.0,
        5540.0,
        5545.0,
        5550.0,
        5555.0,
        5560.0,
        5565.0,
        5570.0,
        5575.0,
        5580.0,
        5585.0,
        5590.0,
        5595.0,
        5600.0,
        5605.0,
        5610.0,
        5615.0,
        5620.0,
        5625.0,
        5630.0,
        5635.0,
        5640.0,
        5645.0,
        5650.0,
        5655.0,
        5660.0,
        5665.0,
        5670.0,
        5675.0,
        5680.0,
        5685.0,
        5690.0,
        5695.0,
        5700.0,
        5705.0,
        5710.0,
        5715.0,
        5720.0,
        5725.0,
        5730.0,
        5735.0,
        5740.0,
        5745.0,
        5750.0,
        5755.0,
        5760.0,
        5765.0,
        5770.0,
        5775.0,
        5780.0,
        5785.0,
        5790.0,
        5795.0,
        5800.0,
        5805.0,
        5810.0,
        5815.0,
        5820.0,
        5825.0,
        5830.0,
        5835.0,
        5840.0,
        5845.0,
        5850.0,
        5855.0,
        5860.0,
        5865.0,
        5870.0,
        5875.0,
        5880.0,
        5885.0,
        5890.0,
        5895.0,
        5900.0,
        5905.0,
        5910.0,
        5915.0,
        5920.0,
        5925.0,
        5930.0,
        5935.0,
        5940.0,
        5945.0,
        5950.0,
        5955.0,
        5960.0,
        5965.0,
        5970.0,
        5975.0,
        5980.0,
        5985.0,
        5990.0,
        5995.0,
        6000.0,
        6005.0,
        6010.0,
        6015.0,
        6020.0,
        6025.0,
        6030.0,
        6035.0,
        6040.0,
        6045.0,
        6050.0,
        6055.0,
        6060.0,
        6065.0,
        6070.0,
        6075.0,
        6080.0,
        6085.0,
        6090.0,
        6095.0,
        6100.0,
        6105.0,
        6110.0,
        6115.0,
        6120.0,
        6125.0,
        6130.0,
        6135.0,
        6140.0,
        6145.0,
        6150.0,
        6155.0,
        6160.0,
        6165.0,
        6170.0,
        6175.0,
        6180.0,
        6185.0,
        6190.0,
        6195.0,
        6200.0,
        6205.0,
        6210.0,
        6215.0,
        6220.0,
        6225.0,
        6230.0,
        6235.0,
        6240.0,
        6245.0,
        6250.0,
        6255.0,
        6260.0,
        6265.0,
        6270.0,
        6275.0,
        6280.0,
        6285.0,
        6290.0,
        6295.0,
        6300.0,
        6305.0,
        6310.0,
        6315.0,
        6320.0,
        6325.0,
        6330.0,
        6335.0,
        6340.0,
        6345.0,
        6350.0,
        6355.0,
        6360.0,
        6365.0,
        6370.0,
        6375.0,
        6380.0,
        6385.0,
        6390.0,
        6395.0,
        6400.0,
        6405.0,
        6410.0,
        6415.0,
        6420.0,
        6425.0,
        6430.0,
        6435.0,
        6440.0,
        6445.0,
        6450.0,
        6455.0,
        6460.0,
        6465.0,
        6470.0,
        6475.0,
        6480.0,
        6485.0,
        6490.0,
        6495.0,
        6500.0,
        6505.0,
        6510.0,
        6515.0,
        6520.0,
        6525.0,
        6530.0,
        6535.0,
        6540.0,
        6545.0,
        6550.0,
        6555.0,
        6560.0,
        6565.0,
        6570.0,
        6575.0,
        6580.0,
        6585.0,
        6590.0,
        6595.0,
        6600.0,
        6605.0,
        6610.0,
        6615.0,
        6620.0,
        6625.0,
        6630.0,
        6635.0,
        6640.0,
        6645.0,
        6650.0,
        6655.0,
        6660.0,
        6665.0,
        6670.0,
        6675.0,
        6680.0,
        6685.0,
        6690.0,
        6695.0,
        6700.0,
        6705.0,
        6710.0,
        6715.0,
        6720.0,
        6725.0,
        6730.0,
        6735.0,
        6740.0,
        6745.0,
        6750.0,
        6755.0,
        6760.0,
        6765.0,
        6770.0,
        6775.0,
        6780.0,
        6785.0,
        6790.0,
        6795.0,
        6800.0,
        6805.0,
        6810.0,
        6815.0,
        6820.0,
        6825.0,
        6830.0,
        6835.0,
        6840.0,
        6845.0,
        6850.0,
        6855.0,
        6860.0,
        6865.0,
        6870.0,
        6875.0,
        6880.0,
        6885.0,
        6890.0,
        6895.0,
        6900.0,
        6905.0,
        6910.0,
        6915.0,
        6920.0,
        6925.0,
        6930.0,
        6935.0,
        6940.0,
        6945.0,
        6950.0,
        6955.0,
        6960.0,
        6965.0,
        6970.0,
        6975.0,
        6980.0,
        6985.0,
        6990.0,
        6995.0,
        7000.0,
        7005.0,
        7010.0,
        7015.0,
        7020.0,
        7025.0,
        7030.0,
        7035.0,
        7040.0,
        7045.0,
        7050.0,
        7055.0,
        7060.0,
        7065.0,
        7070.0,
        7075.0,
        7080.0,
        7085.0,
        7090.0,
        7095.0,
        7100.0,
        7105.0,
        7110.0,
        7115.0,
        7120.0,
        7125.0,
        7130.0,
        7135.0,
        7140.0,
        7145.0,
        7150.0,
        7155.0,
        7160.0,
        7165.0,
        7170.0,
        7175.0,
        7180.0,
        7185.0,
        7190.0,
        7195.0,
        7200.0,
        7205.0,
        7210.0,
        7215.0,
        7220.0,
        7225.0,
        7230.0,
        7235.0,
        7240.0,
        7245.0,
        7250.0,
        7255.0,
        7260.0,
        7265.0,
        7270.0,
        7275.0,
        7280.0,
        7285.0,
        7290.0,
        7295.0,
        7300.0,
        7305.0,
        7310.0,
        7315.0,
        7320.0,
        7325.0,
        7330.0,
        7335.0,
        7340.0,
        7345.0,
        7350.0,
        7355.0,
        7360.0,
        7365.0,
        7370.0,
        7375.0,
        7380.0,
        7385.0,
        7390.0,
        7395.0,
        7400.0,
        7405.0,
        7410.0,
        7415.0,
        7420.0,
        7425.0,
        7430.0,
        7435.0,
        7440.0,
        7445.0,
        7450.0,
        7455.0,
        7460.0,
        7465.0,
        7470.0,
        7475.0,
        7480.0,
        7485.0,
        7490.0,
        7495.0,
        7500.0,
        7505.0,
        7510.0,
        7515.0,
        7520.0,
        7525.0,
        7530.0,
        7535.0,
        7540.0,
        7545.0,
        7550.0,
        7555.0,
        7560.0,
        7565.0,
        7570.0,
        7575.0,
        7580.0,
        7585.0,
        7590.0,
        7595.0,
        7600.0,
        7605.0,
        7610.0,
        7615.0,
        7620.0,
        7625.0,
        7630.0,
        7635.0,
        7640.0,
        7645.0,
        7650.0,
        7655.0,
        7660.0,
        7665.0,
        7670.0,
        7675.0,
        7680.0,
        7685.0,
        7690.0,
        7695.0,
        7700.0,
        7705.0,
        7710.0,
        7715.0,
        7720.0,
        7725.0,
        7730.0,
        7735.0,
        7740.0,
        7745.0,
        7750.0,
        7755.0,
        7760.0,
        7765.0,
        7770.0,
        7775.0,
        7780.0,
        7785.0,
        7790.0,
        7795.0,
        7800.0,
        7805.0,
        7810.0,
        7815.0,
        7820.0,
        7825.0,
        7830.0,
        7835.0,
        7840.0,
        7845.0,
        7850.0,
        7855.0,
        7860.0,
        7865.0,
        7870.0,
        7875.0,
        7880.0,
        7885.0,
        7890.0,
        7895.0,
        7900.0,
        7905.0,
        7910.0,
        7915.0,
        7920.0,
        7925.0,
        7930.0,
        7935.0,
        7940.0,
        7945.0,
        7950.0,
        7955.0,
        7960.0,
        7965.0,
        7970.0,
        7975.0,
        7980.0,
        7985.0,
        7990.0,
        7995.0,
        8000.0,
        8005.0,
        8010.0,
        8015.0,
        8020.0,
        8025.0,
        8030.0,
        8035.0,
        8040.0,
        8045.0,
        8050.0,
        8055.0,
        8060.0,
        8065.0,
        8070.0,
        8075.0,
        8080.0,
        8085.0,
        8090.0,
        8095.0,
        8100.0,
        8105.0,
        8110.0,
        8115.0,
        8120.0,
        8125.0,
        8130.0,
        8135.0,
        8140.0,
        8145.0,
        8150.0,
        8155.0,
        8160.0,
        8165.0,
        8170.0,
        8175.0,
        8180.0,
        8185.0,
        8190.0,
        8195.0,
        8200.0,
        8205.0,
        8210.0,
        8215.0,
        8220.0,
        8225.0,
        8230.0,
        8235.0,
        8240.0,
        8245.0,
        8250.0,
        8255.0,
        8260.0,
        8265.0,
        8270.0,
        8275.0,
        8280.0,
        8285.0,
        8290.0,
        8295.0,
        8300.0,
        8305.0,
        8310.0,
        8315.0,
        8320.0,
        8325.0,
        8330.0,
        8335.0,
        8340.0,
        8345.0,
        8350.0,
        8355.0,
        8360.0,
        8365.0,
        8370.0,
        8375.0,
        8380.0,
        8385.0,
        8390.0,
        8395.0,
        8400.0,
        8405.0,
        8410.0,
        8415.0,
        8420.0,
        8425.0,
        8430.0,
        8435.0,
        8440.0,
        8445.0,
        8450.0,
        8455.0,
        8460.0,
        8465.0,
        8470.0,
        8475.0,
        8480.0,
        8485.0,
        8490.0,
        8495.0,
        8500.0,
        8505.0,
        8510.0,
        8515.0,
        8520.0,
        8525.0,
        8530.0,
        8535.0,
        8540.0,
        8545.0,
        8550.0,
        8555.0,
        8560.0,
        8565.0,
        8570.0,
        8575.0,
        8580.0,
        8585.0,
        8590.0,
        8595.0,
        8600.0,
        8605.0,
        8610.0,
        8615.0,
        8620.0,
        8625.0,
        8630.0,
        8635.0,
        8640.0,
        8645.0,
        8650.0,
        8655.0,
        8660.0,
        8665.0,
        8670.0,
        8675.0,
        8680.0,
        8685.0,
        8690.0,
        8695.0,
        8700.0,
        8705.0,
        8710.0,
        8715.0,
        8720.0,
        8725.0,
        8730.0,
        8735.0,
        8740.0,
        8745.0,
        8750.0,
        8755.0,
        8760.0,
        8765.0,
        8770.0,
        8775.0,
        8780.0,
        8785.0,
        8790.0,
        8795.0,
        8800.0,
        8805.0,
        8810.0,
        8815.0,
        8820.0,
        8825.0,
        8830.0,
        8835.0,
        8840.0,
        8845.0,
        8850.0,
        8855.0,
        8860.0,
        8865.0,
        8870.0,
        8875.0,
        8880.0,
        8885.0,
        8890.0,
        8895.0,
        8900.0,
        8905.0,
        8910.0,
        8915.0,
        8920.0,
        8925.0,
        8930.0,
        8935.0,
        8940.0,
        8945.0,
        8950.0,
        8955.0,
        8960.0,
        8965.0,
        8970.0,
        8975.0,
        8980.0,
        8985.0,
        8990.0,
        8995.0,
        9000.0,
        9005.0,
        9010.0,
        9015.0,
        9020.0,
        9025.0,
        9030.0,
        9035.0,
        9040.0,
        9045.0,
        9050.0,
        9055.0,
        9060.0,
        9065.0,
        9070.0,
        9075.0,
        9080.0,
        9085.0,
        9090.0,
        9095.0,
        9100.0,
        9105.0,
        9110.0,
        9115.0,
        9120.0,
        9125.0,
        9130.0,
        9135.0,
        9140.0,
        9145.0,
        9150.0,
        9155.0,
        9160.0,
        9165.0,
        9170.0,
        9175.0,
        9180.0,
        9185.0,
        9190.0,
        9195.0,
        9200.0,
        9205.0,
        9210.0,
        9215.0,
        9220.0,
        9225.0,
        9230.0,
        9235.0,
        9240.0,
        9245.0,
        9250.0,
        9255.0,
        9260.0,
        9265.0,
        9270.0,
        9275.0,
        9280.0,
        9285.0,
        9290.0,
        9295.0,
        9300.0,
        9305.0,
        9310.0,
        9315.0,
        9320.0,
        9325.0,
        9330.0,
        9335.0,
        9340.0,
        9345.0,
        9350.0,
        9355.0,
        9360.0,
        9365.0,
        9370.0,
        9375.0,
        9380.0,
        9385.0,
        9390.0,
        9395.0,
        9400.0,
        9405.0,
        9410.0,
        9415.0,
        9420.0,
        9425.0,
        9430.0,
        9435.0,
        9440.0,
        9445.0,
        9450.0,
        9455.0,
        9460.0,
        9465.0,
        9470.0,
        9475.0,
        9480.0,
        9485.0,
        9490.0,
        9495.0,
        9500.0,
        9505.0,
        9510.0,
        9515.0,
        9520.0,
        9525.0,
        9530.0,
        9535.0,
        9540.0,
        9545.0,
        9550.0,
        9555.0,
        9560.0,
        9565.0,
        9570.0,
        9575.0,
        9580.0,
        9585.0,
        9590.0,
        9595.0,
        9600.0,
        9605.0,
        9610.0,
        9615.0,
        9620.0,
        9625.0,
        9630.0,
        9635.0,
        9640.0,
        9645.0,
        9650.0,
        9655.0,
        9660.0,
        9665.0,
        9670.0,
        9675.0,
        9680.0,
        9685.0,
        9690.0,
        9695.0,
        9700.0,
        9705.0,
        9710.0,
        9715.0,
        9720.0,
        9725.0,
        9730.0,
        9735.0,
        9740.0,
        9745.0,
        9750.0,
        9755.0,
        9760.0,
        9765.0,
        9770.0,
        9775.0,
        9780.0,
        9785.0,
        9790.0,
        9795.0,
        9800.0,
        9805.0,
        9810.0,
        9815.0,
        9820.0,
        9825.0,
        9830.0,
        9835.0,
        9840.0,
        9845.0,
        9850.0,
        9855.0,
        9860.0,
        9865.0,
        9870.0,
        9875.0,
        9880.0,
        9885.0,
        9890.0,
        9895.0,
        9900.0,
        9905.0,
        9910.0,
        9915.0,
        9920.0,
        9925.0,
        9930.0,
        9935.0,
        9940.0,
        9945.0,
        9950.0,
        9955.0,
        9960.0,
        9965.0,
        9970.0,
        9975.0,
        9980.0,
        9985.0,
        9990.0,
        9995.0,
        10000.0,
        10005.0,
        10010.0,
        10015.0,
        10020.0,
        10025.0,
        10030.0,
        10035.0,
        10040.0,
        10045.0,
        10050.0,
        10055.0,
        10060.0,
        10065.0,
        10070.0,
        10075.0,
        10080.0,
        10085.0,
        10090.0,
        10095.0,
        10100.0,
        10105.0,
        10110.0,
        10115.0,
        10120.0,
        10125.0,
        10130.0,
        10135.0,
        10140.0,
        10145.0,
        10150.0,
        10155.0,
        10160.0,
        10165.0,
        10170.0,
        10175.0,
        10180.0,
        10185.0,
        10190.0,
        10195.0,
        10200.0,
        10205.0,
        10210.0,
        10215.0,
        10220.0,
        10225.0,
        10230.0,
        10235.0,
        10240.0,
        10245.0,
        10250.0,
        10255.0,
        10260.0,
        10265.0,
        10270.0,
        10275.0,
        10280.0,
        10285.0,
        10290.0,
        10295.0,
        10300.0,
        10305.0,
        10310.0,
        10315.0,
        10320.0,
        10325.0,
        10330.0,
        10335.0,
        10340.0,
        10345.0,
        10350.0,
        10355.0,
        10360.0,
        10365.0,
        10370.0,
        10375.0,
        10380.0,
        10385.0,
        10390.0,
        10395.0,
        10400.0,
        10405.0,
        10410.0,
        10415.0,
        10420.0,
        10425.0,
        10430.0,
        10435.0,
        10440.0,
        10445.0,
        10450.0,
        10455.0,
        10460.0,
        10465.0,
        10470.0,
        10475.0,
        10480.0,
        10485.0,
        10490.0,
        10495.0,
        10500.0
      ],
      "units":"angstrom"
    },
    "values":{
      "value":[
        12.354247,
        9.928268,
        8.410753,
        7.509275,
        6.67068,
        6.781011,
        7.357984,
        6.85236,
        4.872262,
        3.911742,
        3.635705,
        3.118013,
        3.574178,
        4.025427,
        2.568774,
        1.621761,
        1.946986,
        3.440087,
        7.304927,
        10.425267,
        9.33257,
        8.277149,
        8.26959,
        8.999817,
        9.816989,
        10.038819,
        10.157413,
        10.720798,
        11.27099,
        11.288293,
        10.213554,
        9.725484,
        10.801042,
        11.241415,
        11.143845,
        11.355783,
        10.81262,
        9.796715,
        10.036439,
        11.388572,
        11.94284,
        11.697521,
        10.939327,
        10.472205,
        10.386893,
        10.265371,
        10.594095,
        9.101425,
        9.106222,
        10.218836,
        12.030488,
        12.692549,
        12.465882,
        12.188085,
        11.972627,
        12.549244,
        12.381,
        13.183895,
        12.588732,
        12.072426,
        11.745475,
        11.344063,
        11.55809,
        12.287302,
        13.342228,
        13.789039,
        14.373831,
        14.915152,
        15.405516,
        14.876936,
        13.815476,
        14.26436,
        14.894167,
        14.642174,
        14.612108,
        13.73827,
        10.425825,
        5.192809,
        4.034249,
        8.733002,
        16.761051,
        20.603991,
        17.648708,
        14.894928,
        14.415968,
        14.725375,
        14.549064,
        14.076339,
        13.778352,
        13.536096,
        13.048507,
        12.583019,
        12.014565,
        12.153325,
        12.099739,
        12.197218,
        12.31281,
        12.549278,
        12.834955,
        13.522785,
        13.270918,
        12.011052,
        11.829187,
        12.65026,
        12.388281,
        12.455683,
        13.185306,
        13.291745,
        13.062643,
        12.934876,
        12.634619,
        12.162938,
        10.960016,
        10.233763,
        11.535001,
        12.728098,
        12.800633,
        12.909595,
        12.77024,
        12.601005,
        12.427034,
        12.51368,
        12.520302,
        12.271631,
        12.151934,
        12.350992,
        12.207653,
        11.225578,
        9.867487,
        10.754947,
        11.228872,
        10.871095,
        10.663568,
        10.98725,
        11.055533,
        10.850305,
        10.662852,
        10.525848,
        10.271605,
        10.132284,
        9.780405,
        9.36336,
        9.375544,
        9.483219,
        9.344897,
        9.076859,
        9.020525,
        8.78304,
        8.64758,
        8.541557,
        8.310987,
        8.013688,
        7.91383,
        7.650915,
        7.274323,
        7.102759,
        7.157187,
        7.082033,
        6.943686,
        6.773274,
        6.621999,
        6.383287,
        6.088006,
        5.908768,
        5.727754,
        5.799105,
        5.645377,
        5.521245,
        5.106112,
        4.82686,
        5.111944,
        4.885216,
        4.573777,
        4.58479,
        4.503578,
        4.240175,
        4.129937,
        4.207735,
        4.035404,
        3.889281,
        3.855501,
        3.911336,
        3.437137,
        3.304794,
        3.763025,
        3.530975,
        3.654477,
        3.468575,
        3.215738,
        2.952195,
        2.596302,
        2.644565,
        2.885005,
        2.84498,
        2.621891,
        2.72895,
        2.785945,
        2.407447,
        2.330971,
        2.281234,
        2.207196,
        2.292736,
        2.328056,
        2.23281,
        2.143929,
        1.943004,
        1.752884,
        1.754634,
        1.819848,
        1.998276,
        2.062936,
        2.103238,
        1.984544,
        2.018105,
        2.051461,
        2.148038,
        2.267962,
        2.180169,
        2.178752,
        2.228225,
        2.501392,
        2.737138,
        2.591789,
        2.460554,
        2.715842,
        2.609978,
        2.570449,
        2.633254,
        2.757573,
        2.891746,
        2.875659,
        3.043302,
        3.359229,
        3.425841,
        3.16598,
        3.341468,
        3.675023,
        3.857401,
        3.769199,
        3.779188,
        3.907269,
        3.91796,
        3.969418,
        3.91883,
        4.108988,
        4.199293,
        4.316381,
        4.350537,
        4.208629,
        4.364014,
        4.731734,
        4.630998,
        4.582914,
        4.617506,
        4.691247,
        4.889919,
        5.154402,
        5.108383,
        5.118075,
        5.349842,
        5.312993,
        5.657761,
        5.981045,
        6.014513,
        5.659464,
        5.557835,
        5.56489,
        5.657494,
        5.721494,
        5.530495,
        5.810987,
        5.816087,
        5.75547,
        5.725237,
        5.730535,
        5.885444,
        6.190369,
        6.351297,
        6.236351,
        6.178383,
        6.375881,
        6.290639,
        6.221519,
        6.471826,
        6.569402,
        6.467954,
        5.467284,
        4.983804,
        5.579272,
        6.049005,
        6.081197,
        6.241147,
        6.327127,
        6.680542,
        6.848479,
        6.886405,
        6.879529,
        6.857961,
        6.556355,
        6.612978,
        6.819241,
        6.868794,
        6.779873,
        6.673353,
        6.7404,
        6.773973,
        6.790723,
        6.845486,
        7.015737,
        6.7809,
        6.700571,
        6.811278,
        6.840482,
        6.746272,
        6.753408,
        6.76957,
        6.967436,
        7.008129,
        6.983191,
        6.897233,
        7.035151,
        6.950256,
        7.161397,
        7.359293,
        7.204125,
        7.005527,
        7.01736,
        6.922927,
        6.840604,
        6.521082,
        6.245466,
        6.520746,
        7.093396,
        7.254028,
        7.235205,
        7.030965,
        6.983291,
        7.143864,
        7.283491,
        7.132699,
        7.049846,
        6.917205,
        7.058835,
        7.241823,
        7.220841,
        7.226741,
        7.167696,
        7.236569,
        7.366451,
        7.398692,
        7.330579,
        7.186863,
        7.270552,
        7.346966,
        7.412508,
        7.393971,
        7.34269,
        7.227251,
        7.237062,
        7.355906,
        7.310308,
        7.440499,
        7.511858,
        7.360662,
        7.375257,
        7.40392,
        7.4982,
        7.362726,
        7.356517,
        7.233176,
        7.216478,
        7.201781,
        7.376844,
        7.414644,
        7.274108,
        7.04741,
        7.11168,
        7.20591,
        7.335783,
        7.237627,
        7.18095,
        7.271171,
        7.012531,
        6.912734,
        7.079757,
        7.049777,
        7.36727,
        7.669431,
        7.642879,
        7.518178,
        7.707456,
        7.807666,
        7.708428,
        7.709791,
        7.734833,
        7.950598,
        7.960353,
        7.871122,
        7.914507,
        8.23149,
        8.361894,
        8.316783,
        8.103815,
        8.254359,
        8.392982,
        8.489452,
        8.378233,
        8.139612,
        8.220535,
        7.948538,
        7.355319,
        7.697585,
        7.992072,
        7.793368,
        7.500418,
        7.558261,
        7.751969,
        7.78025,
        7.656339,
        7.484559,
        7.419063,
        7.546488,
        7.633584,
        7.468321,
        7.24344,
        7.172769,
        7.149729,
        7.038074,
        6.903294,
        6.826443,
        6.749083,
        6.615716,
        6.5221,
        6.559974,
        6.653771,
        6.698923,
        6.642181,
        6.482273,
        6.374506,
        6.440778,
        6.512753,
        6.422764,
        6.296062,
        6.273357,
        6.264282,
        6.166691,
        6.062383,
        6.042455,
        6.051256,
        6.01739,
        5.953247,
        5.8911,
        5.858983,
        5.872938,
        5.905296,
        5.922138,
        5.908273,
        5.863833,
        5.831523,
        5.845898,
        5.866347,
        5.84663,
        5.793149,
        5.720603,
        5.624221,
        5.507444,
        5.426026,
        5.429195,
        5.487771,
        5.550201,
        5.553849,
        5.465034,
        5.506341,
        5.528964,
        5.525383,
        5.492723,
        5.432461,
        5.408492,
        5.383089,
        5.350412,
        5.315348,
        5.268064,
        5.215472,
        5.181294,
        5.15164,
        5.064332,
        5.000496,
        4.956786,
        4.938492,
        4.931778,
        4.9146,
        4.898636,
        4.937316,
        4.910562,
        4.87339,
        4.879949,
        4.896858,
        4.908331,
        4.906817,
        4.89773,
        4.896791,
        4.954408,
        4.96326,
        4.92126,
        4.859016,
        4.789067,
        4.730928,
        4.730941,
        4.705989,
        4.676873,
        4.639644,
        4.590496,
        4.602149,
        4.638532,
        4.603949,
        4.533883,
        4.507094,
        4.544147,
        4.59978,
        4.536463,
        4.390773,
        4.32239,
        4.326548,
        4.309671,
        4.257657,
        4.445686,
        4.638746,
        4.617775,
        4.486809,
        4.310945,
        4.340013,
        4.535757,
        4.63543,
        4.648519,
        4.598944,
        4.505975,
        4.280913,
        4.118976,
        4.288995,
        4.44787,
        4.471776,
        4.429366,
        4.410645,
        4.371662,
        4.344462,
        4.299703,
        4.121013,
        3.834561,
        3.808447,
        4.071723,
        4.249123,
        4.270894,
        4.220328,
        4.143891,
        4.077285,
        4.03838,
        3.97693,
        3.979873,
        4.065801,
        4.082828,
        4.060128,
        3.982962,
        3.787206,
        3.475824,
        3.350482,
        3.614794,
        3.806394,
        3.834706,
        3.793397,
        3.764283,
        3.74066,
        3.715607,
        3.68552,
        3.641503,
        3.555322,
        3.470134,
        3.488447,
        3.526244,
        3.56758,
        3.588054,
        3.595747,
        3.56352,
        3.546625,
        3.523078,
        3.473087,
        3.459444,
        3.439579,
        3.382276,
        3.294374,
        3.091724,
        2.89692,
        3.031221,
        3.244087,
        3.309517,
        3.318604,
        3.311059,
        3.30434,
        3.282842,
        3.258918,
        3.244801,
        3.231102,
        3.229472,
        3.213803,
        3.192666,
        3.175755,
        3.165456,
        3.15483,
        3.12508,
        3.061807,
        2.976036,
        2.925914,
        2.978519,
        3.013246,
        3.008003,
        3.002639,
        2.995408,
        2.984229,
        2.954819,
        2.932537,
        2.930752,
        2.928275,
        2.903358,
        2.871778,
        2.847426,
        2.840531,
        2.832905,
        2.820014,
        2.807442,
        2.791812,
        2.789046,
        2.784508,
        2.775176,
        2.778084,
        2.768073,
        2.745305,
        2.714263,
        2.609965,
        2.417091,
        2.304199,
        2.442607,
        2.589814,
        2.653373,
        2.662863,
        2.652761,
        2.638364,
        2.623167,
        2.597995,
        2.577212,
        2.584989,
        2.58222,
        2.561121,
        2.538024,
        2.510464,
        2.463937,
        2.417243,
        2.37576,
        2.340586,
        2.350785,
        2.384998,
        2.410148,
        2.432351,
        2.438818,
        2.41349,
        2.376311,
        2.324116,
        2.333668,
        2.348763,
        2.34637,
        2.340014,
        2.334521,
        2.328965,
        2.309363,
        2.29781,
        2.285011,
        2.280267,
        2.261416,
        2.233078,
        2.172098,
        2.108621,
        2.151205,
        2.194848,
        2.207146,
        2.209116,
        2.196997,
        2.181215,
        2.169757,
        2.171879,
        2.158612,
        2.134382,
        2.123401,
        2.116204,
        2.108387,
        2.113212,
        2.113685,
        2.102574,
        2.084434,
        2.083315,
        2.082672,
        2.088073,
        2.073948,
        2.051712,
        2.037895,
        2.044002,
        2.040011,
        2.018997,
        1.993647,
        1.916061,
        1.859749,
        1.915028,
        1.963758,
        1.958291,
        1.949402,
        1.917382,
        1.899787,
        1.889676,
        1.871239,
        1.874872,
        1.869085,
        1.864865,
        1.862967,
        1.848031,
        1.824786,
        1.803741,
        1.800319,
        1.808924,
        1.798452,
        1.784757,
        1.784232,
        1.780136,
        1.766839,
        1.754507,
        1.750172,
        1.745331,
        1.737823,
        1.733929,
        1.728627,
        1.7277,
        1.723498,
        1.719507,
        1.694735,
        1.634978,
        1.5015,
        1.382087,
        1.457954,
        1.571613,
        1.605421,
        1.610805,
        1.616123,
        1.619858,
        1.618274,
        1.61589,
        1.621166,
        1.619439,
        1.611475,
        1.587395,
        1.594559,
        1.608176,
        1.600916,
        1.587463,
        1.582775,
        1.580435,
        1.575225,
        1.573141,
        1.561011,
        1.544183,
        1.535783,
        1.522823,
        1.530253,
        1.529029,
        1.524927,
        1.521316,
        1.507041,
        1.488407,
        1.470268,
        1.470656,
        1.468634,
        1.460164,
        1.45862,
        1.455726,
        1.449439,
        1.443154,
        1.440408,
        1.435246,
        1.43258,
        1.432368,
        1.431692,
        1.428548,
        1.422792,
        1.41703,
        1.406642,
        1.405829,
        1.394181,
        1.383517,
        1.379383,
        1.373877,
        1.371288,
        1.370308,
        1.365723,
        1.361532,
        1.356145,
        1.349294,
        1.344162,
        1.340673,
        1.333722,
        1.328486,
        1.328736,
        1.323181,
        1.31593,
        1.307836,
        1.308233,
        1.298663,
        1.287448,
        1.290102,
        1.28846,
        1.280389,
        1.273036,
        1.26558,
        1.260703,
        1.255359,
        1.255282,
        1.24559,
        1.249312,
        1.248238,
        1.235956,
        1.227798,
        1.227248,
        1.221089,
        1.219573,
        1.212409,
        1.203874,
        1.1975,
        1.197945,
        1.194252,
        1.194883,
        1.192047,
        1.184911,
        1.175465,
        1.171941,
        1.165313,
        1.16412,
        1.1648,
        1.163259,
        1.151912,
        1.146598,
        1.143518,
        1.140256,
        1.138326,
        1.132392,
        1.134609,
        1.128119,
        1.108495,
        1.066491,
        1.021042,
        1.04404,
        1.086016,
        1.09527,
        1.095123,
        1.089796,
        1.086566,
        1.077528,
        1.072877,
        1.067716,
        1.068057,
        1.063363,
        1.066066,
        1.063575,
        1.052402,
        1.040744,
        1.037943,
        1.04826,
        1.047725,
        1.036965,
        1.031918,
        1.032413,
        1.027665,
        1.019546,
        1.015922,
        1.008126,
        1.006934,
        1.006305,
        1.005341,
        1.002277,
        1.001319,
        0.998932,
        0.993667,
        0.993699,
        0.988919,
        0.977233,
        0.966262,
        0.964858,
        0.970053,
        0.967947,
        0.963008,
        0.957674,
        0.956647,
        0.95392,
        0.950771,
        0.948347,
        0.945012,
        0.941731,
        0.939804,
        0.93599,
        0.931658,
        0.92752,
        0.921833,
        0.916046,
        0.915521,
        0.917493,
        0.917845,
        0.921021,
        0.910517,
        0.892511,
        0.897787,
        0.898082,
        0.889743,
        0.884772,
        0.882481,
        0.877837,
        0.873134,
        0.870006,
        0.868411,
        0.865849,
        0.865101,
        0.858722,
        0.849837,
        0.835218,
        0.814963,
        0.826499,
        0.835066,
        0.81609,
        0.803287,
        0.809841,
        0.809366,
        0.816633,
        0.829489,
        0.832,
        0.829654,
        0.825649,
        0.823412,
        0.817082,
        0.812878,
        0.809519,
        0.8101,
        0.808375,
        0.78377,
        0.756876,
        0.776266,
        0.753364,
        0.695083,
        0.705948,
        0.755212,
        0.785667,
        0.783037,
        0.781893,
        0.77351,
        0.770671,
        0.771364,
        0.768383,
        0.763973,
        0.757592,
        0.753331,
        0.754244,
        0.750452,
        0.750108,
        0.743496,
        0.744142,
        0.742761,
        0.738033,
        0.739908,
        0.741654,
        0.735786,
        0.730656,
        0.726057,
        0.725243,
        0.72572,
        0.726374,
        0.726515,
        0.715903,
        0.711509,
        0.715883,
        0.711402,
        0.711858,
        0.708347,
        0.703055,
        0.700589,
        0.69887,
        0.698184,
        0.697365,
        0.697777,
        0.695689,
        0.692154,
        0.688173,
        0.686146,
        0.686333,
        0.677671,
        0.681732,
        0.680589,
        0.677642,
        0.67771,
        0.67367,
        0.673081,
        0.66948,
        0.665481,
        0.655783,
        0.649435,
        0.650337,
        0.651746,
        0.653777,
        0.653094,
        0.652608,
        0.647681,
        0.643435,
        0.647592,
        0.646917,
        0.64652,
        0.641329,
        0.635599,
        0.634695,
        0.635969,
        0.639498,
        0.640067,
        0.636969,
        0.636878,
        0.627287,
        0.621502,
        0.606036,
        0.580205,
        0.587204,
        0.60689,
        0.611236,
        0.609379,
        0.601864,
        0.593986,
        0.594474,
        0.601604,
        0.607403,
        0.605091,
        0.605344,
        0.603081,
        0.600088,
        0.597714,
        0.594037,
        0.592365,
        0.58996,
        0.588574,
        0.584644,
        0.581084,
        0.582496,
        0.582448,
        0.57925,
        0.57125,
        0.568194,
        0.567774,
        0.570366,
        0.573342,
        0.574612,
        0.573255,
        0.57073,
        0.567817,
        0.564982,
        0.562314,
        0.559573,
        0.55871,
        0.558142,
        0.556381,
        0.555453,
        0.556333,
        0.552112,
        0.549874,
        0.550986,
        0.552667,
        0.552303,
        0.550978,
        0.544322,
        0.537988,
        0.529896,
        0.528945,
        0.53545,
        0.538616,
        0.534851,
        0.522171,
        0.489121,
        0.446247,
        0.449426,
        0.498242,
        0.524353,
        0.531931,
        0.529738,
        0.529597,
        0.528352,
        0.52785,
        0.527306,
        0.522098,
        0.519816,
        0.517831,
        0.520186,
        0.515914,
        0.515612,
        0.514102,
        0.511314,
        0.508787,
        0.504585,
        0.501759,
        0.49861,
        0.495889,
        0.486066,
        0.476114,
        0.4787,
        0.487284,
        0.492773,
        0.491704,
        0.490808,
        0.491346,
        0.489686,
        0.48866,
        0.489522,
        0.487166,
        0.485128,
        0.481536,
        0.480794,
        0.479177,
        0.477054,
        0.47754,
        0.47554,
        0.473415,
        0.471062,
        0.469223,
        0.467267,
        0.464838,
        0.465979,
        0.467827,
        0.465559,
        0.461679,
        0.46165,
        0.461801,
        0.460385,
        0.460259,
        0.458034,
        0.452001,
        0.450917,
        0.449833,
        0.448749,
        0.447665,
        0.446581,
        0.445497,
        0.444413,
        0.443329,
        0.442245,
        0.441161,
        0.440077,
        0.438993,
        0.437909,
        0.436825,
        0.435741,
        0.434657,
        0.433573,
        0.432489,
        0.431405,
        0.430321,
        0.429237,
        0.428153,
        0.427069,
        0.425986,
        0.424902,
        0.423818,
        0.430262,
        0.427752,
        0.424017,
        0.417992,
        0.417981,
        0.417153,
        0.416619,
        0.416979,
        0.413611,
        0.414764,
        0.413817,
        0.413743,
        0.413965,
        0.411701,
        0.407351,
        0.405887,
        0.407669,
        0.400735,
        0.394219,
        0.398218,
        0.403403,
        0.402212,
        0.402509,
        0.403025,
        0.402777,
        0.398624,
        0.398757,
        0.397959,
        0.396981,
        0.399811,
        0.399281,
        0.399893,
        0.400882,
        0.399617,
        0.397686,
        0.396064,
        0.394626,
        0.390738,
        0.386157,
        0.37242,
        0.363136,
        0.361233,
        0.359411,
        0.365866,
        0.370019,
        0.369296,
        0.372001,
        0.381519,
        0.383277,
        0.382119,
        0.380817,
        0.376708,
        0.369263,
        0.36579,
        0.364249,
        0.3657,
        0.363726,
        0.364879,
        0.360753,
        0.359734,
        0.354739,
        0.358906,
        0.359909,
        0.353713,
        0.35796,
        0.357475,
        0.35243,
        0.353631,
        0.351289,
        0.350849,
        0.351648,
        0.349579,
        0.35057,
        0.349845,
        0.348531,
        0.346355,
        0.34705,
        0.344469,
        0.341514,
        0.342076,
        0.342577,
        0.341096,
        0.336444,
        0.336349,
        0.337995,
        0.334411,
        0.331268,
        0.328531,
        0.330955,
        0.332923,
        0.323753,
        0.323534,
        0.32243,
        0.323027,
        0.322448,
        0.321699,
        0.322997,
        0.31936,
        0.320017,
        0.316073,
        0.317172,
        0.316454,
        0.31499,
        0.313728,
        0.313354,
        0.31329,
        0.31154,
        0.31139,
        0.311546,
        0.309484,
        0.309898,
        0.307433,
        0.306397,
        0.305547,
        0.305379,
        0.305224,
        0.304342,
        0.303459,
        0.302577,
        0.301695,
        0.300813,
        0.299931,
        0.299048,
        0.298166,
        0.297284,
        0.296402,
        0.29552,
        0.294638,
        0.293755,
        0.292873,
        0.291991,
        0.291109,
        0.290227,
        0.289344,
        0.288462,
        0.28758,
        0.286698,
        0.285816,
        0.284934,
        0.284051,
        0.283169,
        0.282287,
        0.281405,
        0.280523,
        0.279641,
        0.278758,
        0.277876,
        0.276994,
        0.276112,
        0.27523,
        0.274347,
        0.273465,
        0.272181,
        0.272959,
        0.271578,
        0.271809,
        0.270888,
        0.270185,
        0.268911,
        0.269078,
        0.268858,
        0.266375,
        0.267075,
        0.266096,
        0.265302,
        0.26522,
        0.264219,
        0.264443,
        0.263114,
        0.263755,
        0.262594,
        0.260397,
        0.260995,
        0.259578,
        0.259895,
        0.259273,
        0.259581,
        0.255743,
        0.255601,
        0.256031,
        0.255135,
        0.255578,
        0.253327,
        0.25387,
        0.251718,
        0.251173,
        0.251794,
        0.250875,
        0.251042,
        0.249965,
        0.247702,
        0.246801,
        0.247876,
        0.248405,
        0.246258,
        0.245561,
        0.244195,
        0.243798,
        0.243944,
        0.242287,
        0.242953,
        0.241731,
        0.241785,
        0.24175,
        0.240342,
        0.241027,
        0.241871,
        0.2419,
        0.240962,
        0.240642,
        0.24032,
        0.240593,
        0.240312,
        0.239552,
        0.239511,
        0.239947,
        0.240919,
        0.239463,
        0.237723,
        0.237402,
        0.236708,
        0.234768,
        0.233695,
        0.232279,
        0.231395,
        0.230269,
        0.230517,
        0.229565,
        0.231601,
        0.231277,
        0.230447,
        0.229942,
        0.228734,
        0.228566,
        0.226896,
        0.224411,
        0.222395,
        0.220686,
        0.219779,
        0.220098,
        0.221577,
        0.219163,
        0.22295,
        0.222762,
        0.218269,
        0.221286,
        0.220235,
        0.219565,
        0.217241,
        0.213787,
        0.209685,
        0.205844,
        0.207665,
        0.206825,
        0.210995,
        0.215449,
        0.215159,
        0.215591,
        0.215324,
        0.215239,
        0.212327,
        0.210988,
        0.210217,
        0.210845,
        0.211434,
        0.213217,
        0.210894,
        0.210584,
        0.20995,
        0.207969,
        0.207987,
        0.208178,
        0.207687,
        0.207829,
        0.205305,
        0.203659,
        0.202,
        0.199765,
        0.200374,
        0.201048,
        0.201847,
        0.20146,
        0.202817,
        0.202737,
        0.202338,
        0.203185,
        0.202719,
        0.201952,
        0.201639,
        0.200843,
        0.200921,
        0.199773,
        0.199466,
        0.197601,
        0.198129,
        0.197388,
        0.197881,
        0.197064,
        0.196437,
        0.195395,
        0.19648,
        0.192602,
        0.192566,
        0.193141,
        0.193749,
        0.192096,
        0.193033,
        0.193527,
        0.192745,
        0.192177,
        0.190905,
        0.189662,
        0.188396,
        0.189944,
        0.186328,
        0.186661,
        0.186961,
        0.188735,
        0.188059,
        0.186405,
        0.185071,
        0.183937,
        0.182835,
        0.181178,
        0.179652,
        0.180297,
        0.179407,
        0.1809,
        0.181318,
        0.18058,
        0.180669,
        0.181887,
        0.181324,
        0.17929,
        0.179985,
        0.180397,
        0.180075,
        0.178981,
        0.178442,
        0.179302,
        0.179921,
        0.180724,
        0.180926,
        0.180888,
        0.181117,
        0.181236,
        0.179983,
        0.179369,
        0.179049,
        0.178692,
        0.178569,
        0.177131,
        0.176025,
        0.177849,
        0.17206,
        0.172573,
        0.173268,
        0.174235,
        0.176183,
        0.173303,
        0.175029,
        0.174098,
        0.175342,
        0.175539,
        0.175036,
        0.175539,
        0.174575,
        0.175044,
        0.171914,
        0.173638,
        0.174389,
        0.173454,
        0.172716,
        0.170355,
        0.169421,
        0.167373,
        0.164249,
        0.161692,
        0.160584,
        0.161624,
        0.163316,
        0.164262,
        0.164287,
        0.165059,
        0.166174,
        0.16481,
        0.16583,
        0.164695,
        0.164141,
        0.164516,
        0.163699,
        0.170744,
        0.170748,
        0.172784,
        0.169521,
        0.166886,
        0.164368,
        0.162916,
        0.161392,
        0.158567,
        0.158966,
        0.157639,
        0.157217,
        0.151537,
        0.153548,
        0.153846,
        0.151076,
        0.152675,
        0.153207,
        0.153095,
        0.160205,
        0.163353,
        0.166849,
        0.163837,
        0.166058,
        0.16438,
        0.159692,
        0.158024,
        0.156377,
        0.153138,
        0.154081,
        0.154049,
        0.15411,
        0.155491,
        0.157237,
        0.156499,
        0.153257,
        0.156032,
        0.15746,
        0.156597,
        0.154987,
        0.153201,
        0.151501,
        0.152843,
        0.15243,
        0.150413,
        0.142405,
        0.149919,
        0.151111,
        0.150183,
        0.15028,
        0.15452,
        0.156525,
        0.15505,
        0.151963,
        0.151803,
        0.157339,
        0.153034,
        0.150143,
        0.149059,
        0.146587,
        0.148371,
        0.145322,
        0.145492,
        0.143807,
        0.145978,
        0.150806,
        0.146229,
        0.152681,
        0.154578,
        0.158911,
        0.155954,
        0.152147,
        0.162481,
        0.161985,
        0.158865,
        0.155643,
        0.146786,
        0.144053,
        0.135605,
        0.139732,
        0.138776,
        0.138055,
        0.139325,
        0.129382,
        0.133546,
        0.125537,
        0.133166,
        0.134508,
        0.130966,
        0.137493,
        0.138133,
        0.149437,
        0.156787,
        0.15804,
        0.157648,
        0.155486,
        0.153452,
        0.14151,
        0.142109,
        0.136779,
        0.13049,
        0.133261,
        0.122364,
        0.129898,
        0.135814,
        0.136588,
        0.133131,
        0.134634,
        0.133638,
        0.13553,
        0.132814,
        0.128335,
        0.133954,
        0.134717,
        0.130549,
        0.137317,
        0.135824,
        0.14249,
        0.132487,
        0.134534,
        0.135944,
        0.133391,
        0.132554,
        0.129896,
        0.127868,
        0.125606,
        0.126842,
        0.127225,
        0.127142,
        0.129306,
        0.13057,
        0.130259,
        0.127378,
        0.126884,
        0.13039,
        0.127749,
        0.13043,
        0.127319,
        0.125917,
        0.124712,
        0.128442,
        0.119889,
        0.120039,
        0.116627,
        0.123353,
        0.125512,
        0.121497,
        0.123762,
        0.125609,
        0.125228,
        0.12383,
        0.126057,
        0.127975,
        0.126356,
        0.12793,
        0.119464,
        0.118589,
        0.120682,
        0.122784,
        0.118097,
        0.116706,
        0.120789,
        0.120816,
        0.123249,
        0.115191,
        0.123822,
        0.123445,
        0.113378,
        0.117836,
        0.115103,
        0.114605,
        0.122121,
        0.120029,
        0.117535,
        0.111204,
        0.12466,
        0.117866,
        0.114331,
        0.115233,
        0.117246,
        0.121383,
        0.112666,
        0.120166,
        0.116572,
        0.115039,
        0.121421,
        0.106002,
        0.113945,
        0.110036,
        0.115981,
        0.113961,
        0.105816,
        0.113409,
        0.116386,
        0.115584,
        0.109543,
        0.11228,
        0.116639,
        0.111713,
        0.117233,
        0.106728,
        0.106886,
        0.115119,
        0.111738,
        0.110431,
        0.111192,
        0.11634,
        0.113457,
        0.107011,
        0.107764,
        0.109147,
        0.116317,
        0.10553,
        0.109625,
        0.100833,
        0.110216,
        0.114714,
        0.108846,
        0.096866,
        0.10858,
        0.112759,
        0.108607,
        0.094086,
        0.094736,
        0.103921,
        0.10011,
        0.095151,
        0.098813,
        0.104314,
        0.109975,
        0.110275,
        0.110192,
        0.101196,
        0.105043,
        0.104358,
        0.09721,
        0.090956,
        0.102539,
        0.099726,
        0.098282,
        0.091382,
        0.101177,
        0.100169,
        0.100773,
        0.101922,
        0.102974,
        0.103291,
        0.102456,
        0.100947,
        0.099469,
        0.098723,
        0.099195,
        0.100505,
        0.102054,
        0.103243,
        0.103641,
        0.103488,
        0.103189,
        0.103152,
        0.103662,
        0.104533,
        0.105459,
        0.106134,
        0.106311,
        0.105992,
        0.105239,
        0.104113,
        0.102706,
        0.101235,
        0.099948,
        0.099093,
        0.098822,
        0.09891,
        0.099036,
        0.098879,
        0.097938,
        0.09739,
        0.096857,
        0.096497,
        0.096429,
        0.096607,
        0.096947,
        0.097362,
        0.097753,
        0.097968,
        0.097839,
        0.097201,
        0.09598,
        0.094473,
        0.093072,
        0.092167,
        0.092042,
        0.092543,
        0.093411,
        0.094385,
        0.095229,
        0.095811,
        0.096022,
        0.095755,
        0.094982,
        0.094003,
        0.093199,
        0.092951,
        0.093488,
        0.094438,
        0.095276,
        0.09548,
        0.094698,
        0.093268,
        0.091696,
        0.090494,
        0.09004,
        0.090202,
        0.090717,
        0.091323
      ],
      "range":1
    }
  }
]
