[
  {
    "model":"Star, type M2(i)",
    "name":"Star, type M2(i)",
    "type":"WB_REF",
    "dataQualityMarker":3,
    "dataSource":"https://www.eso.org/sci/facilities/paranal/decommissioned/isaac/tools/lib.html",
    "manufacturer":"A. Pickles (A.J. Pickles, PASP 110,863, 1998)",
    "version":1,
    "wavelength":{
      "value":[
        1150.0,
        1155.0,
        1160.0,
        1165.0,
        1170.0,
        1175.0,
        1180.0,
        1185.0,
        1190.0,
        1195.0,
        1200.0,
        1205.0,
        1210.0,
        1215.0,
        1220.0,
        1225.0,
        1230.0,
        1235.0,
        1240.0,
        1245.0,
        1250.0,
        1255.0,
        1260.0,
        1265.0,
        1270.0,
        1275.0,
        1280.0,
        1285.0,
        1290.0,
        1295.0,
        1300.0,
        1305.0,
        1310.0,
        1315.0,
        1320.0,
        1325.0,
        1330.0,
        1335.0,
        1340.0,
        1345.0,
        1350.0,
        1355.0,
        1360.0,
        1365.0,
        1370.0,
        1375.0,
        1380.0,
        1385.0,
        1390.0,
        1395.0,
        1400.0,
        1405.0,
        1410.0,
        1415.0,
        1420.0,
        1425.0,
        1430.0,
        1435.0,
        1440.0,
        1445.0,
        1450.0,
        1455.0,
        1460.0,
        1465.0,
        1470.0,
        1475.0,
        1480.0,
        1485.0,
        1490.0,
        1495.0,
        1500.0,
        1505.0,
        1510.0,
        1515.0,
        1520.0,
        1525.0,
        1530.0,
        1535.0,
        1540.0,
        1545.0,
        1550.0,
        1555.0,
        1560.0,
        1565.0,
        1570.0,
        1575.0,
        1580.0,
        1585.0,
        1590.0,
        1595.0,
        1600.0,
        1605.0,
        1610.0,
        1615.0,
        1620.0,
        1625.0,
        1630.0,
        1635.0,
        1640.0,
        1645.0,
        1650.0,
        1655.0,
        1660.0,
        1665.0,
        1670.0,
        1675.0,
        1680.0,
        1685.0,
        1690.0,
        1695.0,
        1700.0,
        1705.0,
        1710.0,
        1715.0,
        1720.0,
        1725.0,
        1730.0,
        1735.0,
        1740.0,
        1745.0,
        1750.0,
        1755.0,
        1760.0,
        1765.0,
        1770.0,
        1775.0,
        1780.0,
        1785.0,
        1790.0,
        1795.0,
        1800.0,
        1805.0,
        1810.0,
        1815.0,
        1820.0,
        1825.0,
        1830.0,
        1835.0,
        1840.0,
        1845.0,
        1850.0,
        1855.0,
        1860.0,
        1865.0,
        1870.0,
        1875.0,
        1880.0,
        1885.0,
        1890.0,
        1895.0,
        1900.0,
        1905.0,
        1910.0,
        1915.0,
        1920.0,
        1925.0,
        1930.0,
        1935.0,
        1940.0,
        1945.0,
        1950.0,
        1955.0,
        1960.0,
        1965.0,
        1970.0,
        1975.0,
        1980.0,
        1985.0,
        1990.0,
        1995.0,
        2000.0,
        2005.0,
        2010.0,
        2015.0,
        2020.0,
        2025.0,
        2030.0,
        2035.0,
        2040.0,
        2045.0,
        2050.0,
        2055.0,
        2060.0,
        2065.0,
        2070.0,
        2075.0,
        2080.0,
        2085.0,
        2090.0,
        2095.0,
        2100.0,
        2105.0,
        2110.0,
        2115.0,
        2120.0,
        2125.0,
        2130.0,
        2135.0,
        2140.0,
        2145.0,
        2150.0,
        2155.0,
        2160.0,
        2165.0,
        2170.0,
        2175.0,
        2180.0,
        2185.0,
        2190.0,
        2195.0,
        2200.0,
        2205.0,
        2210.0,
        2215.0,
        2220.0,
        2225.0,
        2230.0,
        2235.0,
        2240.0,
        2245.0,
        2250.0,
        2255.0,
        2260.0,
        2265.0,
        2270.0,
        2275.0,
        2280.0,
        2285.0,
        2290.0,
        2295.0,
        2300.0,
        2305.0,
        2310.0,
        2315.0,
        2320.0,
        2325.0,
        2330.0,
        2335.0,
        2340.0,
        2345.0,
        2350.0,
        2355.0,
        2360.0,
        2365.0,
        2370.0,
        2375.0,
        2380.0,
        2385.0,
        2390.0,
        2395.0,
        2400.0,
        2405.0,
        2410.0,
        2415.0,
        2420.0,
        2425.0,
        2430.0,
        2435.0,
        2440.0,
        2445.0,
        2450.0,
        2455.0,
        2460.0,
        2465.0,
        2470.0,
        2475.0,
        2480.0,
        2485.0,
        2490.0,
        2495.0,
        2500.0,
        2505.0,
        2510.0,
        2515.0,
        2520.0,
        2525.0,
        2530.0,
        2535.0,
        2540.0,
        2545.0,
        2550.0,
        2555.0,
        2560.0,
        2565.0,
        2570.0,
        2575.0,
        2580.0,
        2585.0,
        2590.0,
        2595.0,
        2600.0,
        2605.0,
        2610.0,
        2615.0,
        2620.0,
        2625.0,
        2630.0,
        2635.0,
        2640.0,
        2645.0,
        2650.0,
        2655.0,
        2660.0,
        2665.0,
        2670.0,
        2675.0,
        2680.0,
        2685.0,
        2690.0,
        2695.0,
        2700.0,
        2705.0,
        2710.0,
        2715.0,
        2720.0,
        2725.0,
        2730.0,
        2735.0,
        2740.0,
        2745.0,
        2750.0,
        2755.0,
        2760.0,
        2765.0,
        2770.0,
        2775.0,
        2780.0,
        2785.0,
        2790.0,
        2795.0,
        2800.0,
        2805.0,
        2810.0,
        2815.0,
        2820.0,
        2825.0,
        2830.0,
        2835.0,
        2840.0,
        2845.0,
        2850.0,
        2855.0,
        2860.0,
        2865.0,
        2870.0,
        2875.0,
        2880.0,
        2885.0,
        2890.0,
        2895.0,
        2900.0,
        2905.0,
        2910.0,
        2915.0,
        2920.0,
        2925.0,
        2930.0,
        2935.0,
        2940.0,
        2945.0,
        2950.0,
        2955.0,
        2960.0,
        2965.0,
        2970.0,
        2975.0,
        2980.0,
        2985.0,
        2990.0,
        2995.0,
        3000.0,
        3005.0,
        3010.0,
        3015.0,
        3020.0,
        3025.0,
        3030.0,
        3035.0,
        3040.0,
        3045.0,
        3050.0,
        3055.0,
        3060.0,
        3065.0,
        3070.0,
        3075.0,
        3080.0,
        3085.0,
        3090.0,
        3095.0,
        3100.0,
        3105.0,
        3110.0,
        3115.0,
        3120.0,
        3125.0,
        3130.0,
        3135.0,
        3140.0,
        3145.0,
        3150.0,
        3155.0,
        3160.0,
        3165.0,
        3170.0,
        3175.0,
        3180.0,
        3185.0,
        3190.0,
        3195.0,
        3200.0,
        3205.0,
        3210.0,
        3215.0,
        3220.0,
        3225.0,
        3230.0,
        3235.0,
        3240.0,
        3245.0,
        3250.0,
        3255.0,
        3260.0,
        3265.0,
        3270.0,
        3275.0,
        3280.0,
        3285.0,
        3290.0,
        3295.0,
        3300.0,
        3305.0,
        3310.0,
        3315.0,
        3320.0,
        3325.0,
        3330.0,
        3335.0,
        3340.0,
        3345.0,
        3350.0,
        3355.0,
        3360.0,
        3365.0,
        3370.0,
        3375.0,
        3380.0,
        3385.0,
        3390.0,
        3395.0,
        3400.0,
        3405.0,
        3410.0,
        3415.0,
        3420.0,
        3425.0,
        3430.0,
        3435.0,
        3440.0,
        3445.0,
        3450.0,
        3455.0,
        3460.0,
        3465.0,
        3470.0,
        3475.0,
        3480.0,
        3485.0,
        3490.0,
        3495.0,
        3500.0,
        3505.0,
        3510.0,
        3515.0,
        3520.0,
        3525.0,
        3530.0,
        3535.0,
        3540.0,
        3545.0,
        3550.0,
        3555.0,
        3560.0,
        3565.0,
        3570.0,
        3575.0,
        3580.0,
        3585.0,
        3590.0,
        3595.0,
        3600.0,
        3605.0,
        3610.0,
        3615.0,
        3620.0,
        3625.0,
        3630.0,
        3635.0,
        3640.0,
        3645.0,
        3650.0,
        3655.0,
        3660.0,
        3665.0,
        3670.0,
        3675.0,
        3680.0,
        3685.0,
        3690.0,
        3695.0,
        3700.0,
        3705.0,
        3710.0,
        3715.0,
        3720.0,
        3725.0,
        3730.0,
        3735.0,
        3740.0,
        3745.0,
        3750.0,
        3755.0,
        3760.0,
        3765.0,
        3770.0,
        3775.0,
        3780.0,
        3785.0,
        3790.0,
        3795.0,
        3800.0,
        3805.0,
        3810.0,
        3815.0,
        3820.0,
        3825.0,
        3830.0,
        3835.0,
        3840.0,
        3845.0,
        3850.0,
        3855.0,
        3860.0,
        3865.0,
        3870.0,
        3875.0,
        3880.0,
        3885.0,
        3890.0,
        3895.0,
        3900.0,
        3905.0,
        3910.0,
        3915.0,
        3920.0,
        3925.0,
        3930.0,
        3935.0,
        3940.0,
        3945.0,
        3950.0,
        3955.0,
        3960.0,
        3965.0,
        3970.0,
        3975.0,
        3980.0,
        3985.0,
        3990.0,
        3995.0,
        4000.0,
        4005.0,
        4010.0,
        4015.0,
        4020.0,
        4025.0,
        4030.0,
        4035.0,
        4040.0,
        4045.0,
        4050.0,
        4055.0,
        4060.0,
        4065.0,
        4070.0,
        4075.0,
        4080.0,
        4085.0,
        4090.0,
        4095.0,
        4100.0,
        4105.0,
        4110.0,
        4115.0,
        4120.0,
        4125.0,
        4130.0,
        4135.0,
        4140.0,
        4145.0,
        4150.0,
        4155.0,
        4160.0,
        4165.0,
        4170.0,
        4175.0,
        4180.0,
        4185.0,
        4190.0,
        4195.0,
        4200.0,
        4205.0,
        4210.0,
        4215.0,
        4220.0,
        4225.0,
        4230.0,
        4235.0,
        4240.0,
        4245.0,
        4250.0,
        4255.0,
        4260.0,
        4265.0,
        4270.0,
        4275.0,
        4280.0,
        4285.0,
        4290.0,
        4295.0,
        4300.0,
        4305.0,
        4310.0,
        4315.0,
        4320.0,
        4325.0,
        4330.0,
        4335.0,
        4340.0,
        4345.0,
        4350.0,
        4355.0,
        4360.0,
        4365.0,
        4370.0,
        4375.0,
        4380.0,
        4385.0,
        4390.0,
        4395.0,
        4400.0,
        4405.0,
        4410.0,
        4415.0,
        4420.0,
        4425.0,
        4430.0,
        4435.0,
        4440.0,
        4445.0,
        4450.0,
        4455.0,
        4460.0,
        4465.0,
        4470.0,
        4475.0,
        4480.0,
        4485.0,
        4490.0,
        4495.0,
        4500.0,
        4505.0,
        4510.0,
        4515.0,
        4520.0,
        4525.0,
        4530.0,
        4535.0,
        4540.0,
        4545.0,
        4550.0,
        4555.0,
        4560.0,
        4565.0,
        4570.0,
        4575.0,
        4580.0,
        4585.0,
        4590.0,
        4595.0,
        4600.0,
        4605.0,
        4610.0,
        4615.0,
        4620.0,
        4625.0,
        4630.0,
        4635.0,
        4640.0,
        4645.0,
        4650.0,
        4655.0,
        4660.0,
        4665.0,
        4670.0,
        4675.0,
        4680.0,
        4685.0,
        4690.0,
        4695.0,
        4700.0,
        4705.0,
        4710.0,
        4715.0,
        4720.0,
        4725.0,
        4730.0,
        4735.0,
        4740.0,
        4745.0,
        4750.0,
        4755.0,
        4760.0,
        4765.0,
        4770.0,
        4775.0,
        4780.0,
        4785.0,
        4790.0,
        4795.0,
        4800.0,
        4805.0,
        4810.0,
        4815.0,
        4820.0,
        4825.0,
        4830.0,
        4835.0,
        4840.0,
        4845.0,
        4850.0,
        4855.0,
        4860.0,
        4865.0,
        4870.0,
        4875.0,
        4880.0,
        4885.0,
        4890.0,
        4895.0,
        4900.0,
        4905.0,
        4910.0,
        4915.0,
        4920.0,
        4925.0,
        4930.0,
        4935.0,
        4940.0,
        4945.0,
        4950.0,
        4955.0,
        4960.0,
        4965.0,
        4970.0,
        4975.0,
        4980.0,
        4985.0,
        4990.0,
        4995.0,
        5000.0,
        5005.0,
        5010.0,
        5015.0,
        5020.0,
        5025.0,
        5030.0,
        5035.0,
        5040.0,
        5045.0,
        5050.0,
        5055.0,
        5060.0,
        5065.0,
        5070.0,
        5075.0,
        5080.0,
        5085.0,
        5090.0,
        5095.0,
        5100.0,
        5105.0,
        5110.0,
        5115.0,
        5120.0,
        5125.0,
        5130.0,
        5135.0,
        5140.0,
        5145.0,
        5150.0,
        5155.0,
        5160.0,
        5165.0,
        5170.0,
        5175.0,
        5180.0,
        5185.0,
        5190.0,
        5195.0,
        5200.0,
        5205.0,
        5210.0,
        5215.0,
        5220.0,
        5225.0,
        5230.0,
        5235.0,
        5240.0,
        5245.0,
        5250.0,
        5255.0,
        5260.0,
        5265.0,
        5270.0,
        5275.0,
        5280.0,
        5285.0,
        5290.0,
        5295.0,
        5300.0,
        5305.0,
        5310.0,
        5315.0,
        5320.0,
        5325.0,
        5330.0,
        5335.0,
        5340.0,
        5345.0,
        5350.0,
        5355.0,
        5360.0,
        5365.0,
        5370.0,
        5375.0,
        5380.0,
        5385.0,
        5390.0,
        5395.0,
        5400.0,
        5405.0,
        5410.0,
        5415.0,
        5420.0,
        5425.0,
        5430.0,
        5435.0,
        5440.0,
        5445.0,
        5450.0,
        5455.0,
        5460.0,
        5465.0,
        5470.0,
        5475.0,
        5480.0,
        5485.0,
        5490.0,
        5495.0,
        5500.0,
        5505.0,
        5510.0,
        5515.0,
        5520.0,
        5525.0,
        5530.0,
        5535.0,
        5540.0,
        5545.0,
        5550.0,
        5555.0,
        5560.0,
        5565.0,
        5570.0,
        5575.0,
        5580.0,
        5585.0,
        5590.0,
        5595.0,
        5600.0,
        5605.0,
        5610.0,
        5615.0,
        5620.0,
        5625.0,
        5630.0,
        5635.0,
        5640.0,
        5645.0,
        5650.0,
        5655.0,
        5660.0,
        5665.0,
        5670.0,
        5675.0,
        5680.0,
        5685.0,
        5690.0,
        5695.0,
        5700.0,
        5705.0,
        5710.0,
        5715.0,
        5720.0,
        5725.0,
        5730.0,
        5735.0,
        5740.0,
        5745.0,
        5750.0,
        5755.0,
        5760.0,
        5765.0,
        5770.0,
        5775.0,
        5780.0,
        5785.0,
        5790.0,
        5795.0,
        5800.0,
        5805.0,
        5810.0,
        5815.0,
        5820.0,
        5825.0,
        5830.0,
        5835.0,
        5840.0,
        5845.0,
        5850.0,
        5855.0,
        5860.0,
        5865.0,
        5870.0,
        5875.0,
        5880.0,
        5885.0,
        5890.0,
        5895.0,
        5900.0,
        5905.0,
        5910.0,
        5915.0,
        5920.0,
        5925.0,
        5930.0,
        5935.0,
        5940.0,
        5945.0,
        5950.0,
        5955.0,
        5960.0,
        5965.0,
        5970.0,
        5975.0,
        5980.0,
        5985.0,
        5990.0,
        5995.0,
        6000.0,
        6005.0,
        6010.0,
        6015.0,
        6020.0,
        6025.0,
        6030.0,
        6035.0,
        6040.0,
        6045.0,
        6050.0,
        6055.0,
        6060.0,
        6065.0,
        6070.0,
        6075.0,
        6080.0,
        6085.0,
        6090.0,
        6095.0,
        6100.0,
        6105.0,
        6110.0,
        6115.0,
        6120.0,
        6125.0,
        6130.0,
        6135.0,
        6140.0,
        6145.0,
        6150.0,
        6155.0,
        6160.0,
        6165.0,
        6170.0,
        6175.0,
        6180.0,
        6185.0,
        6190.0,
        6195.0,
        6200.0,
        6205.0,
        6210.0,
        6215.0,
        6220.0,
        6225.0,
        6230.0,
        6235.0,
        6240.0,
        6245.0,
        6250.0,
        6255.0,
        6260.0,
        6265.0,
        6270.0,
        6275.0,
        6280.0,
        6285.0,
        6290.0,
        6295.0,
        6300.0,
        6305.0,
        6310.0,
        6315.0,
        6320.0,
        6325.0,
        6330.0,
        6335.0,
        6340.0,
        6345.0,
        6350.0,
        6355.0,
        6360.0,
        6365.0,
        6370.0,
        6375.0,
        6380.0,
        6385.0,
        6390.0,
        6395.0,
        6400.0,
        6405.0,
        6410.0,
        6415.0,
        6420.0,
        6425.0,
        6430.0,
        6435.0,
        6440.0,
        6445.0,
        6450.0,
        6455.0,
        6460.0,
        6465.0,
        6470.0,
        6475.0,
        6480.0,
        6485.0,
        6490.0,
        6495.0,
        6500.0,
        6505.0,
        6510.0,
        6515.0,
        6520.0,
        6525.0,
        6530.0,
        6535.0,
        6540.0,
        6545.0,
        6550.0,
        6555.0,
        6560.0,
        6565.0,
        6570.0,
        6575.0,
        6580.0,
        6585.0,
        6590.0,
        6595.0,
        6600.0,
        6605.0,
        6610.0,
        6615.0,
        6620.0,
        6625.0,
        6630.0,
        6635.0,
        6640.0,
        6645.0,
        6650.0,
        6655.0,
        6660.0,
        6665.0,
        6670.0,
        6675.0,
        6680.0,
        6685.0,
        6690.0,
        6695.0,
        6700.0,
        6705.0,
        6710.0,
        6715.0,
        6720.0,
        6725.0,
        6730.0,
        6735.0,
        6740.0,
        6745.0,
        6750.0,
        6755.0,
        6760.0,
        6765.0,
        6770.0,
        6775.0,
        6780.0,
        6785.0,
        6790.0,
        6795.0,
        6800.0,
        6805.0,
        6810.0,
        6815.0,
        6820.0,
        6825.0,
        6830.0,
        6835.0,
        6840.0,
        6845.0,
        6850.0,
        6855.0,
        6860.0,
        6865.0,
        6870.0,
        6875.0,
        6880.0,
        6885.0,
        6890.0,
        6895.0,
        6900.0,
        6905.0,
        6910.0,
        6915.0,
        6920.0,
        6925.0,
        6930.0,
        6935.0,
        6940.0,
        6945.0,
        6950.0,
        6955.0,
        6960.0,
        6965.0,
        6970.0,
        6975.0,
        6980.0,
        6985.0,
        6990.0,
        6995.0,
        7000.0,
        7005.0,
        7010.0,
        7015.0,
        7020.0,
        7025.0,
        7030.0,
        7035.0,
        7040.0,
        7045.0,
        7050.0,
        7055.0,
        7060.0,
        7065.0,
        7070.0,
        7075.0,
        7080.0,
        7085.0,
        7090.0,
        7095.0,
        7100.0,
        7105.0,
        7110.0,
        7115.0,
        7120.0,
        7125.0,
        7130.0,
        7135.0,
        7140.0,
        7145.0,
        7150.0,
        7155.0,
        7160.0,
        7165.0,
        7170.0,
        7175.0,
        7180.0,
        7185.0,
        7190.0,
        7195.0,
        7200.0,
        7205.0,
        7210.0,
        7215.0,
        7220.0,
        7225.0,
        7230.0,
        7235.0,
        7240.0,
        7245.0,
        7250.0,
        7255.0,
        7260.0,
        7265.0,
        7270.0,
        7275.0,
        7280.0,
        7285.0,
        7290.0,
        7295.0,
        7300.0,
        7305.0,
        7310.0,
        7315.0,
        7320.0,
        7325.0,
        7330.0,
        7335.0,
        7340.0,
        7345.0,
        7350.0,
        7355.0,
        7360.0,
        7365.0,
        7370.0,
        7375.0,
        7380.0,
        7385.0,
        7390.0,
        7395.0,
        7400.0,
        7405.0,
        7410.0,
        7415.0,
        7420.0,
        7425.0,
        7430.0,
        7435.0,
        7440.0,
        7445.0,
        7450.0,
        7455.0,
        7460.0,
        7465.0,
        7470.0,
        7475.0,
        7480.0,
        7485.0,
        7490.0,
        7495.0,
        7500.0,
        7505.0,
        7510.0,
        7515.0,
        7520.0,
        7525.0,
        7530.0,
        7535.0,
        7540.0,
        7545.0,
        7550.0,
        7555.0,
        7560.0,
        7565.0,
        7570.0,
        7575.0,
        7580.0,
        7585.0,
        7590.0,
        7595.0,
        7600.0,
        7605.0,
        7610.0,
        7615.0,
        7620.0,
        7625.0,
        7630.0,
        7635.0,
        7640.0,
        7645.0,
        7650.0,
        7655.0,
        7660.0,
        7665.0,
        7670.0,
        7675.0,
        7680.0,
        7685.0,
        7690.0,
        7695.0,
        7700.0,
        7705.0,
        7710.0,
        7715.0,
        7720.0,
        7725.0,
        7730.0,
        7735.0,
        7740.0,
        7745.0,
        7750.0,
        7755.0,
        7760.0,
        7765.0,
        7770.0,
        7775.0,
        7780.0,
        7785.0,
        7790.0,
        7795.0,
        7800.0,
        7805.0,
        7810.0,
        7815.0,
        7820.0,
        7825.0,
        7830.0,
        7835.0,
        7840.0,
        7845.0,
        7850.0,
        7855.0,
        7860.0,
        7865.0,
        7870.0,
        7875.0,
        7880.0,
        7885.0,
        7890.0,
        7895.0,
        7900.0,
        7905.0,
        7910.0,
        7915.0,
        7920.0,
        7925.0,
        7930.0,
        7935.0,
        7940.0,
        7945.0,
        7950.0,
        7955.0,
        7960.0,
        7965.0,
        7970.0,
        7975.0,
        7980.0,
        7985.0,
        7990.0,
        7995.0,
        8000.0,
        8005.0,
        8010.0,
        8015.0,
        8020.0,
        8025.0,
        8030.0,
        8035.0,
        8040.0,
        8045.0,
        8050.0,
        8055.0,
        8060.0,
        8065.0,
        8070.0,
        8075.0,
        8080.0,
        8085.0,
        8090.0,
        8095.0,
        8100.0,
        8105.0,
        8110.0,
        8115.0,
        8120.0,
        8125.0,
        8130.0,
        8135.0,
        8140.0,
        8145.0,
        8150.0,
        8155.0,
        8160.0,
        8165.0,
        8170.0,
        8175.0,
        8180.0,
        8185.0,
        8190.0,
        8195.0,
        8200.0,
        8205.0,
        8210.0,
        8215.0,
        8220.0,
        8225.0,
        8230.0,
        8235.0,
        8240.0,
        8245.0,
        8250.0,
        8255.0,
        8260.0,
        8265.0,
        8270.0,
        8275.0,
        8280.0,
        8285.0,
        8290.0,
        8295.0,
        8300.0,
        8305.0,
        8310.0,
        8315.0,
        8320.0,
        8325.0,
        8330.0,
        8335.0,
        8340.0,
        8345.0,
        8350.0,
        8355.0,
        8360.0,
        8365.0,
        8370.0,
        8375.0,
        8380.0,
        8385.0,
        8390.0,
        8395.0,
        8400.0,
        8405.0,
        8410.0,
        8415.0,
        8420.0,
        8425.0,
        8430.0,
        8435.0,
        8440.0,
        8445.0,
        8450.0,
        8455.0,
        8460.0,
        8465.0,
        8470.0,
        8475.0,
        8480.0,
        8485.0,
        8490.0,
        8495.0,
        8500.0,
        8505.0,
        8510.0,
        8515.0,
        8520.0,
        8525.0,
        8530.0,
        8535.0,
        8540.0,
        8545.0,
        8550.0,
        8555.0,
        8560.0,
        8565.0,
        8570.0,
        8575.0,
        8580.0,
        8585.0,
        8590.0,
        8595.0,
        8600.0,
        8605.0,
        8610.0,
        8615.0,
        8620.0,
        8625.0,
        8630.0,
        8635.0,
        8640.0,
        8645.0,
        8650.0,
        8655.0,
        8660.0,
        8665.0,
        8670.0,
        8675.0,
        8680.0,
        8685.0,
        8690.0,
        8695.0,
        8700.0,
        8705.0,
        8710.0,
        8715.0,
        8720.0,
        8725.0,
        8730.0,
        8735.0,
        8740.0,
        8745.0,
        8750.0,
        8755.0,
        8760.0,
        8765.0,
        8770.0,
        8775.0,
        8780.0,
        8785.0,
        8790.0,
        8795.0,
        8800.0,
        8805.0,
        8810.0,
        8815.0,
        8820.0,
        8825.0,
        8830.0,
        8835.0,
        8840.0,
        8845.0,
        8850.0,
        8855.0,
        8860.0,
        8865.0,
        8870.0,
        8875.0,
        8880.0,
        8885.0,
        8890.0,
        8895.0,
        8900.0,
        8905.0,
        8910.0,
        8915.0,
        8920.0,
        8925.0,
        8930.0,
        8935.0,
        8940.0,
        8945.0,
        8950.0,
        8955.0,
        8960.0,
        8965.0,
        8970.0,
        8975.0,
        8980.0,
        8985.0,
        8990.0,
        8995.0,
        9000.0,
        9005.0,
        9010.0,
        9015.0,
        9020.0,
        9025.0,
        9030.0,
        9035.0,
        9040.0,
        9045.0,
        9050.0,
        9055.0,
        9060.0,
        9065.0,
        9070.0,
        9075.0,
        9080.0,
        9085.0,
        9090.0,
        9095.0,
        9100.0,
        9105.0,
        9110.0,
        9115.0,
        9120.0,
        9125.0,
        9130.0,
        9135.0,
        9140.0,
        9145.0,
        9150.0,
        9155.0,
        9160.0,
        9165.0,
        9170.0,
        9175.0,
        9180.0,
        9185.0,
        9190.0,
        9195.0,
        9200.0,
        9205.0,
        9210.0,
        9215.0,
        9220.0,
        9225.0,
        9230.0,
        9235.0,
        9240.0,
        9245.0,
        9250.0,
        9255.0,
        9260.0,
        9265.0,
        9270.0,
        9275.0,
        9280.0,
        9285.0,
        9290.0,
        9295.0,
        9300.0,
        9305.0,
        9310.0,
        9315.0,
        9320.0,
        9325.0,
        9330.0,
        9335.0,
        9340.0,
        9345.0,
        9350.0,
        9355.0,
        9360.0,
        9365.0,
        9370.0,
        9375.0,
        9380.0,
        9385.0,
        9390.0,
        9395.0,
        9400.0,
        9405.0,
        9410.0,
        9415.0,
        9420.0,
        9425.0,
        9430.0,
        9435.0,
        9440.0,
        9445.0,
        9450.0,
        9455.0,
        9460.0,
        9465.0,
        9470.0,
        9475.0,
        9480.0,
        9485.0,
        9490.0,
        9495.0,
        9500.0,
        9505.0,
        9510.0,
        9515.0,
        9520.0,
        9525.0,
        9530.0,
        9535.0,
        9540.0,
        9545.0,
        9550.0,
        9555.0,
        9560.0,
        9565.0,
        9570.0,
        9575.0,
        9580.0,
        9585.0,
        9590.0,
        9595.0,
        9600.0,
        9605.0,
        9610.0,
        9615.0,
        9620.0,
        9625.0,
        9630.0,
        9635.0,
        9640.0,
        9645.0,
        9650.0,
        9655.0,
        9660.0,
        9665.0,
        9670.0,
        9675.0,
        9680.0,
        9685.0,
        9690.0,
        9695.0,
        9700.0,
        9705.0,
        9710.0,
        9715.0,
        9720.0,
        9725.0,
        9730.0,
        9735.0,
        9740.0,
        9745.0,
        9750.0,
        9755.0,
        9760.0,
        9765.0,
        9770.0,
        9775.0,
        9780.0,
        9785.0,
        9790.0,
        9795.0,
        9800.0,
        9805.0,
        9810.0,
        9815.0,
        9820.0,
        9825.0,
        9830.0,
        9835.0,
        9840.0,
        9845.0,
        9850.0,
        9855.0,
        9860.0,
        9865.0,
        9870.0,
        9875.0,
        9880.0,
        9885.0,
        9890.0,
        9895.0,
        9900.0,
        9905.0,
        9910.0,
        9915.0,
        9920.0,
        9925.0,
        9930.0,
        9935.0,
        9940.0,
        9945.0,
        9950.0,
        9955.0,
        9960.0,
        9965.0,
        9970.0,
        9975.0,
        9980.0,
        9985.0,
        9990.0,
        9995.0,
        10000.0,
        10005.0,
        10010.0,
        10015.0,
        10020.0,
        10025.0,
        10030.0,
        10035.0,
        10040.0,
        10045.0,
        10050.0,
        10055.0,
        10060.0,
        10065.0,
        10070.0,
        10075.0,
        10080.0,
        10085.0,
        10090.0,
        10095.0,
        10100.0,
        10105.0,
        10110.0,
        10115.0,
        10120.0,
        10125.0,
        10130.0,
        10135.0,
        10140.0,
        10145.0,
        10150.0,
        10155.0,
        10160.0,
        10165.0,
        10170.0,
        10175.0,
        10180.0,
        10185.0,
        10190.0,
        10195.0,
        10200.0,
        10205.0,
        10210.0,
        10215.0,
        10220.0,
        10225.0,
        10230.0,
        10235.0,
        10240.0,
        10245.0,
        10250.0,
        10255.0,
        10260.0,
        10265.0,
        10270.0,
        10275.0,
        10280.0,
        10285.0,
        10290.0,
        10295.0,
        10300.0,
        10305.0,
        10310.0,
        10315.0,
        10320.0,
        10325.0,
        10330.0,
        10335.0,
        10340.0,
        10345.0,
        10350.0,
        10355.0,
        10360.0,
        10365.0,
        10370.0,
        10375.0,
        10380.0,
        10385.0,
        10390.0,
        10395.0,
        10400.0,
        10405.0,
        10410.0,
        10415.0,
        10420.0,
        10425.0,
        10430.0,
        10435.0,
        10440.0,
        10445.0,
        10450.0,
        10455.0,
        10460.0,
        10465.0,
        10470.0,
        10475.0,
        10480.0,
        10485.0,
        10490.0,
        10495.0,
        10500.0
      ],
      "units":"angstrom"
    },
    "values":{
      "value":[
        0.0,
        0.0,
        0.0,
        0.0,
        0.0,
        0.0,
        0.0,
        0.0,
        0.0,
        0.0,
        0.0,
        0.0,
        0.0,
        0.0,
        0.0,
        0.0,
        0.0,
        0.0,
        0.0,
        0.0,
        0.0,
        0.0,
        0.0,
        0.0,
        0.0,
        0.0,
        0.0,
        0.0,
        0.0,
        0.0,
        0.0,
        0.0,
        0.0,
        0.0,
        0.0,
        0.0,
        0.0,
        0.0,
        0.0,
        0.0,
        0.0,
        0.0,
        0.0,
        0.0,
        0.0,
        0.0,
        0.0,
        0.0,
        0.0,
        0.0,
        0.0,
        0.0,
        0.0,
        0.0,
        0.0,
        0.0,
        0.0,
        0.0,
        0.0,
        0.0,
        0.0,
        0.0,
        0.0,
        0.0,
        0.0,
        0.0,
        0.0,
        0.0,
        0.0,
        0.0,
        0.0,
        0.0,
        0.0,
        0.0,
        0.0,
        0.0,
        0.0,
        0.0,
        0.0,
        0.0,
        0.0,
        0.0,
        0.0,
        0.0,
        0.0,
        0.0,
        0.0,
        0.0,
        0.0,
        0.0,
        0.0,
        0.0,
        0.0,
        0.0,
        0.0,
        0.0,
        0.0,
        0.0,
        0.0,
        0.0,
        0.0,
        0.0,
        0.0,
        0.0,
        0.0,
        0.0,
        0.0,
        0.0,
        0.0,
        0.0,
        0.0,
        0.0,
        0.0,
        0.0,
        0.0,
        0.0,
        0.0,
        0.0,
        0.0,
        0.0,
        0.0,
        0.0,
        0.0,
        0.0,
        0.0,
        0.0,
        0.0,
        0.0,
        0.0,
        0.0,
        0.0,
        0.0,
        0.0,
        0.0,
        0.0,
        0.0,
        0.0,
        0.0,
        0.0,
        0.0,
        0.0,
        0.0,
        0.0,
        0.0,
        0.0,
        0.0,
        0.0,
        0.0,
        0.0,
        0.0,
        0.0,
        0.0,
        0.0,
        0.0,
        0.0,
        0.0,
        0.0,
        0.0,
        0.0,
        0.0,
        0.0,
        0.0,
        0.0,
        0.0,
        0.0,
        0.0,
        0.0,
        0.0,
        0.0,
        0.0,
        0.0,
        0.0,
        0.0,
        0.0,
        0.0,
        0.0,
        0.0,
        0.0,
        0.0,
        0.0,
        0.0,
        0.0,
        0.0,
        0.0,
        0.0,
        0.0,
        0.0,
        0.0,
        0.0,
        0.0,
        0.0,
        0.0,
        0.0,
        0.0,
        0.0,
        0.0,
        0.0,
        0.0,
        0.0,
        0.0,
        0.0,
        0.0,
        0.0,
        0.0,
        0.0,
        0.0,
        0.0,
        0.0,
        0.0,
        0.0,
        0.0,
        0.0,
        0.0,
        0.0,
        0.0,
        0.0,
        0.0,
        0.0,
        0.0,
        0.0,
        0.0,
        0.0,
        0.0,
        0.0,
        0.0,
        0.0,
        0.0,
        0.0,
        0.0,
        0.0,
        0.0,
        0.0,
        0.0,
        0.0,
        0.0,
        0.0,
        0.0,
        0.0,
        0.0,
        0.0,
        0.0,
        0.0,
        0.0,
        0.0,
        0.0,
        0.0,
        0.0,
        0.0,
        0.0,
        0.0,
        0.0,
        0.0,
        0.0,
        0.0,
        0.0,
        0.0,
        0.0,
        0.0,
        0.0,
        0.0,
        0.0,
        0.0,
        0.0,
        0.0,
        0.0,
        0.0,
        0.0,
        0.0,
        0.0,
        0.0,
        0.0,
        0.0,
        0.0,
        0.0,
        0.0,
        1e-06,
        1e-06,
        1e-06,
        0.0,
        0.0,
        0.0,
        0.0,
        0.0,
        0.0,
        0.0,
        0.0,
        0.0,
        0.0,
        0.0,
        0.0,
        0.0,
        1e-06,
        3e-06,
        5e-06,
        6e-06,
        7e-06,
        8e-06,
        8e-06,
        6e-06,
        4e-06,
        0.0,
        0.0,
        0.0,
        0.0,
        0.0,
        0.0,
        0.0,
        0.0,
        0.0,
        0.0,
        0.0,
        2e-05,
        4.3e-05,
        6.7e-05,
        8.7e-05,
        0.000103,
        0.00011,
        0.000106,
        8.9e-05,
        5.4e-05,
        0.0,
        0.0,
        0.0,
        0.0,
        0.0,
        0.0,
        0.0,
        0.0,
        0.0,
        0.0,
        0.0,
        0.000282,
        0.000631,
        0.00103,
        0.001463,
        0.001912,
        0.002362,
        0.002794,
        0.003193,
        0.003541,
        0.003822,
        0.004023,
        0.00415,
        0.004215,
        0.004228,
        0.0042,
        0.004142,
        0.004064,
        0.003978,
        0.003893,
        0.003822,
        0.003771,
        0.003742,
        0.003728,
        0.003729,
        0.003739,
        0.003756,
        0.003776,
        0.003796,
        0.003812,
        0.003822,
        0.003821,
        0.003814,
        0.003801,
        0.003787,
        0.003773,
        0.003764,
        0.003761,
        0.003768,
        0.003787,
        0.003822,
        0.003874,
        0.003942,
        0.004023,
        0.004116,
        0.004217,
        0.004326,
        0.004438,
        0.004552,
        0.004666,
        0.004777,
        0.004884,
        0.004986,
        0.005084,
        0.00518,
        0.005273,
        0.005365,
        0.005456,
        0.005547,
        0.005639,
        0.005732,
        0.005828,
        0.005925,
        0.006023,
        0.006121,
        0.00622,
        0.006317,
        0.006413,
        0.006508,
        0.006599,
        0.006688,
        0.006773,
        0.006856,
        0.006939,
        0.007023,
        0.00711,
        0.007201,
        0.007298,
        0.007403,
        0.007518,
        0.007643,
        0.007781,
        0.007932,
        0.008094,
        0.008269,
        0.008455,
        0.008653,
        0.008862,
        0.009082,
        0.009313,
        0.009554,
        0.009806,
        0.010067,
        0.010337,
        0.010615,
        0.010901,
        0.011193,
        0.011492,
        0.011797,
        0.012107,
        0.01242,
        0.012737,
        0.013055,
        0.013371,
        0.013682,
        0.013985,
        0.014278,
        0.014557,
        0.01482,
        0.015064,
        0.015287,
        0.015486,
        0.015666,
        0.015835,
        0.015997,
        0.01616,
        0.01633,
        0.016512,
        0.016713,
        0.01694,
        0.017197,
        0.017491,
        0.017818,
        0.018172,
        0.01855,
        0.018945,
        0.019354,
        0.01977,
        0.02019,
        0.020608,
        0.021019,
        0.02142,
        0.021811,
        0.022195,
        0.022573,
        0.022947,
        0.023321,
        0.023695,
        0.024071,
        0.024453,
        0.024841,
        0.025237,
        0.033569,
        0.034938,
        0.034608,
        0.032286,
        0.033387,
        0.039409,
        0.04398,
        0.043799,
        0.045229,
        0.043808,
        0.043223,
        0.037649,
        0.030838,
        0.031623,
        0.029979,
        0.031479,
        0.034809,
        0.038561,
        0.044108,
        0.045488,
        0.043514,
        0.043747,
        0.04638,
        0.047971,
        0.047002,
        0.049243,
        0.051729,
        0.049332,
        0.050138,
        0.055028,
        0.058909,
        0.058761,
        0.057387,
        0.058218,
        0.05642,
        0.053566,
        0.054614,
        0.060632,
        0.062203,
        0.055669,
        0.054728,
        0.055373,
        0.048477,
        0.047139,
        0.044857,
        0.043439,
        0.043801,
        0.042682,
        0.045631,
        0.051772,
        0.053256,
        0.056931,
        0.062619,
        0.067378,
        0.070856,
        0.064001,
        0.057383,
        0.054936,
        0.05803,
        0.061864,
        0.061519,
        0.053658,
        0.047117,
        0.045364,
        0.04855,
        0.051771,
        0.055587,
        0.05996,
        0.060455,
        0.055042,
        0.052759,
        0.057344,
        0.060567,
        0.05946,
        0.0578,
        0.05812,
        0.061074,
        0.063427,
        0.066827,
        0.069546,
        0.069339,
        0.065083,
        0.05636,
        0.046596,
        0.036315,
        0.035699,
        0.044612,
        0.057245,
        0.068485,
        0.069073,
        0.055277,
        0.042779,
        0.043522,
        0.060966,
        0.079614,
        0.093204,
        0.099828,
        0.104739,
        0.114449,
        0.119127,
        0.12373,
        0.129973,
        0.128215,
        0.125704,
        0.120797,
        0.126418,
        0.132599,
        0.129184,
        0.134575,
        0.130377,
        0.126303,
        0.131225,
        0.13392,
        0.126757,
        0.132272,
        0.15841,
        0.173406,
        0.158081,
        0.139968,
        0.146431,
        0.152142,
        0.15078,
        0.148405,
        0.150256,
        0.145665,
        0.148333,
        0.150327,
        0.149609,
        0.154024,
        0.16861,
        0.181202,
        0.172969,
        0.156497,
        0.152921,
        0.166877,
        0.177765,
        0.177741,
        0.164339,
        0.152571,
        0.164704,
        0.181185,
        0.179744,
        0.166194,
        0.133174,
        0.132184,
        0.156795,
        0.192473,
        0.20382,
        0.18622,
        0.181041,
        0.197141,
        0.212721,
        0.19676,
        0.196663,
        0.203321,
        0.186403,
        0.169291,
        0.175561,
        0.176147,
        0.181041,
        0.211128,
        0.257821,
        0.278936,
        0.273888,
        0.285324,
        0.279591,
        0.259046,
        0.277573,
        0.29246,
        0.314475,
        0.330389,
        0.33684,
        0.313537,
        0.293821,
        0.269365,
        0.25098,
        0.266731,
        0.295032,
        0.298585,
        0.274708,
        0.283658,
        0.292368,
        0.302838,
        0.305606,
        0.302248,
        0.300435,
        0.313422,
        0.331548,
        0.335426,
        0.298614,
        0.274585,
        0.290668,
        0.32433,
        0.364276,
        0.377728,
        0.389548,
        0.382727,
        0.382536,
        0.420402,
        0.435403,
        0.433413,
        0.435888,
        0.426952,
        0.384276,
        0.357622,
        0.373678,
        0.392334,
        0.393514,
        0.392408,
        0.413626,
        0.442507,
        0.466575,
        0.482976,
        0.478006,
        0.464098,
        0.463625,
        0.450148,
        0.439655,
        0.449877,
        0.474581,
        0.516869,
        0.548313,
        0.570886,
        0.564947,
        0.541039,
        0.501036,
        0.474526,
        0.45168,
        0.454228,
        0.482541,
        0.515523,
        0.494129,
        0.489633,
        0.500168,
        0.490653,
        0.492476,
        0.511546,
        0.5416,
        0.550899,
        0.550344,
        0.550121,
        0.562644,
        0.578154,
        0.571776,
        0.559679,
        0.575251,
        0.582978,
        0.604064,
        0.625578,
        0.608691,
        0.572065,
        0.541184,
        0.527515,
        0.527972,
        0.522878,
        0.523792,
        0.544024,
        0.564896,
        0.576855,
        0.56355,
        0.554056,
        0.564243,
        0.572325,
        0.566801,
        0.568424,
        0.584674,
        0.592779,
        0.598825,
        0.590474,
        0.564359,
        0.530871,
        0.535137,
        0.550071,
        0.567437,
        0.582146,
        0.584876,
        0.607656,
        0.664436,
        0.692693,
        0.709007,
        0.707765,
        0.702631,
        0.686083,
        0.727622,
        0.761775,
        0.728485,
        0.738865,
        0.809119,
        0.827822,
        0.735984,
        0.651331,
        0.600358,
        0.584571,
        0.585363,
        0.575391,
        0.597107,
        0.617237,
        0.609123,
        0.593427,
        0.585006,
        0.559468,
        0.535328,
        0.56095,
        0.612042,
        0.656174,
        0.628153,
        0.605036,
        0.67166,
        0.708866,
        0.763846,
        0.785546,
        0.754839,
        0.745642,
        0.721005,
        0.705535,
        0.745509,
        0.780075,
        0.789907,
        0.787383,
        0.759446,
        0.736621,
        0.782036,
        0.794556,
        0.771243,
        0.771623,
        0.784521,
        0.777503,
        0.745407,
        0.733553,
        0.805461,
        0.83649,
        0.698764,
        0.566481,
        0.538206,
        0.537285,
        0.557403,
        0.582811,
        0.617482,
        0.643508,
        0.603184,
        0.604847,
        0.647536,
        0.689568,
        0.709439,
        0.760735,
        0.802895,
        0.836892,
        0.776073,
        0.701947,
        0.74128,
        0.781953,
        0.746232,
        0.726932,
        0.769372,
        0.850986,
        0.9308,
        0.965145,
        0.913897,
        0.887501,
        0.935072,
        0.985722,
        0.997247,
        0.964305,
        0.902235,
        0.87132,
        0.90161,
        0.927256,
        0.953305,
        0.988505,
        1.059118,
        1.083392,
        1.033183,
        0.97904,
        1.007091,
        1.047284,
        1.027081,
        0.97469,
        0.939305,
        0.936253,
        0.907277,
        0.920594,
        1.009202,
        1.077221,
        1.06619,
        1.008752,
        1.014555,
        1.077638,
        1.035895,
        0.916045,
        0.823008,
        0.816136,
        0.853462,
        0.872987,
        0.865039,
        0.874741,
        0.919061,
        0.950149,
        0.949976,
        0.916617,
        0.885999,
        0.886235,
        0.921863,
        0.994861,
        1.013549,
        1.005674,
        1.016098,
        1.056993,
        1.075865,
        1.085669,
        1.062064,
        1.029704,
        1.006681,
        1.012493,
        1.036909,
        1.045667,
        0.99736,
        0.951333,
        0.951988,
        0.943492,
        0.96534,
        0.99816,
        0.966126,
        0.934488,
        0.923894,
        0.939357,
        0.931589,
        0.919302,
        0.952036,
        1.002177,
        1.006697,
        0.967827,
        0.958262,
        0.973626,
        1.025722,
        1.050535,
        1.056944,
        1.077562,
        1.075891,
        1.030282,
        1.001337,
        1.013742,
        1.078302,
        1.121861,
        1.105002,
        1.08703,
        1.106254,
        1.12496,
        1.148946,
        1.157435,
        1.145984,
        1.120607,
        1.129621,
        1.150282,
        1.131304,
        1.073273,
        1.068438,
        1.141981,
        1.208986,
        1.269196,
        1.265317,
        1.218371,
        1.177503,
        1.178933,
        1.203487,
        1.233117,
        1.231553,
        1.230124,
        1.160218,
        1.056129,
        1.02089,
        1.024068,
        1.023296,
        1.023374,
        1.001941,
        0.961284,
        0.859895,
        0.731367,
        0.756072,
        0.853386,
        0.927165,
        0.939941,
        0.934609,
        0.94357,
        0.977057,
        0.994853,
        1.005362,
        1.017092,
        1.026341,
        1.006228,
        1.004911,
        1.044686,
        1.075589,
        1.093264,
        1.072666,
        1.071464,
        1.122952,
        1.173168,
        1.173677,
        1.144309,
        1.138893,
        1.151816,
        1.164763,
        1.205614,
        1.232108,
        1.281656,
        1.308188,
        1.343198,
        1.377871,
        1.363609,
        1.334466,
        1.331003,
        1.388295,
        1.450901,
        1.409158,
        1.359055,
        1.364023,
        1.381791,
        1.405022,
        1.394089,
        1.415301,
        1.440122,
        1.412035,
        1.371878,
        1.379312,
        1.361203,
        1.335205,
        1.353498,
        1.358745,
        1.268818,
        1.138994,
        1.014387,
        1.014898,
        1.025771,
        1.049949,
        1.042751,
        0.989136,
        0.956699,
        0.997785,
        1.01371,
        1.026668,
        0.97197,
        0.92176,
        0.903886,
        0.902644,
        0.908962,
        0.930252,
        0.923224,
        0.95866,
        0.973451,
        0.95787,
        0.99741,
        1.03122,
        1.046189,
        1.051552,
        1.055733,
        1.120449,
        1.165979,
        1.159693,
        1.186071,
        1.247717,
        1.281929,
        1.29489,
        1.317344,
        1.360379,
        1.387506,
        1.382284,
        1.394274,
        1.3813,
        1.367,
        1.307124,
        1.310162,
        1.412212,
        1.505616,
        1.504187,
        1.485021,
        1.492851,
        1.497036,
        1.525182,
        1.568382,
        1.589367,
        1.563913,
        1.543905,
        1.535892,
        1.567346,
        1.568103,
        1.619111,
        1.683033,
        1.652171,
        1.608003,
        1.664603,
        1.664256,
        1.656934,
        1.620257,
        1.556398,
        1.479484,
        1.469798,
        1.426769,
        1.348627,
        1.426951,
        1.520045,
        1.56913,
        1.585879,
        1.629103,
        1.641014,
        1.64133,
        1.661769,
        1.639306,
        1.559688,
        1.506291,
        1.471334,
        1.406501,
        1.492438,
        1.54511,
        1.555725,
        1.589466,
        1.611074,
        1.583144,
        1.586633,
        1.610312,
        1.571374,
        1.567764,
        1.600882,
        1.603259,
        1.561337,
        1.542147,
        1.535957,
        1.534205,
        1.500069,
        1.469566,
        1.454114,
        1.433238,
        1.442922,
        1.473,
        1.437528,
        1.407574,
        1.419688,
        1.427945,
        1.423516,
        1.427925,
        1.430873,
        1.401635,
        1.338385,
        1.334015,
        1.357061,
        1.377991,
        1.377786,
        1.3664,
        1.364468,
        1.37472,
        1.429871,
        1.463135,
        1.450132,
        1.470551,
        1.51515,
        1.482464,
        1.438848,
        1.438961,
        1.479701,
        1.518711,
        1.537848,
        1.535957,
        1.541149,
        1.561378,
        1.573067,
        1.575745,
        1.59496,
        1.592523,
        1.606203,
        1.619501,
        1.633177,
        1.647873,
        1.663021,
        1.678419,
        1.693798,
        1.709622,
        1.726036,
        1.742592,
        1.759391,
        1.776559,
        1.793892,
        1.8113,
        1.829504,
        1.847504,
        1.865307,
        1.883705,
        1.902164,
        1.9209,
        1.939523,
        1.957799,
        1.9752,
        1.994165,
        2.015728,
        2.031237,
        1.997584,
        2.009312,
        2.041793,
        2.028076,
        2.04104,
        2.049584,
        2.064372,
        2.087668,
        2.083119,
        2.11127,
        2.117537,
        2.165693,
        2.191664,
        2.246589,
        2.291375,
        2.133842,
        1.8334,
        1.657671,
        1.627974,
        1.737461,
        1.838415,
        1.838888,
        1.650488,
        1.494885,
        1.475095,
        1.497633,
        1.541961,
        1.584692,
        1.655645,
        1.649948,
        1.468634,
        1.354025,
        1.378321,
        1.428985,
        1.460016,
        1.490364,
        1.525699,
        1.52763,
        1.51654,
        1.522035,
        1.52823,
        1.547237,
        1.533274,
        1.55549,
        1.558583,
        1.564698,
        1.612094,
        1.691206,
        1.767203,
        1.810486,
        1.842862,
        1.848107,
        1.838499,
        1.842141,
        1.901238,
        1.929387,
        1.970631,
        1.990171,
        2.035186,
        2.047376,
        2.053249,
        2.054111,
        2.062827,
        2.057389,
        2.150254,
        2.195787,
        2.219392,
        2.233941,
        2.23744,
        2.245733,
        2.283038,
        2.336779,
        2.404619,
        2.433947,
        2.416203,
        2.385619,
        2.307015,
        2.325068,
        2.409821,
        2.542664,
        2.603933,
        2.571532,
        2.485011,
        2.471338,
        2.525229,
        2.578987,
        2.606048,
        2.544511,
        2.494121,
        2.497577,
        2.604001,
        2.646214,
        2.647182,
        2.629626,
        2.658908,
        2.709655,
        2.674792,
        2.60832,
        2.656241,
        2.662783,
        2.676847,
        2.669544,
        2.675158,
        2.63241,
        2.657866,
        2.717919,
        2.713218,
        2.702413,
        2.752318,
        2.762902,
        2.751886,
        2.772607,
        2.778427,
        2.781688,
        2.769456,
        2.760924,
        2.747397,
        2.734959,
        2.723438,
        2.711346,
        2.698932,
        2.687055,
        2.674595,
        2.661954,
        2.649742,
        2.637187,
        2.624512,
        2.611457,
        2.598274,
        2.584972,
        2.571609,
        2.558238,
        2.544913,
        2.53169,
        2.518628,
        2.505779,
        2.493191,
        2.48091,
        2.469,
        2.457148,
        2.444967,
        2.433913,
        2.424986,
        2.416445,
        2.407158,
        2.397762,
        2.388211,
        2.379717,
        2.372434,
        2.36248,
        2.347614,
        2.356618,
        2.412489,
        2.387213,
        2.245034,
        2.171856,
        2.244215,
        2.306324,
        2.32279,
        2.328654,
        2.363417,
        2.359806,
        2.335068,
        2.340024,
        2.382468,
        2.437537,
        2.46286,
        2.493245,
        2.533348,
        2.527665,
        2.475888,
        2.38041,
        2.359627,
        2.401573,
        2.417451,
        2.401592,
        2.448925,
        2.484437,
        2.487101,
        2.466901,
        2.458636,
        2.445873,
        2.481711,
        2.47896,
        2.409253,
        2.395763,
        2.373549,
        2.318171,
        2.301037,
        2.344143,
        2.396938,
        2.428797,
        2.386982,
        2.323083,
        2.3037,
        2.364481,
        2.394581,
        2.394989,
        2.466427,
        2.52379,
        2.511366,
        2.497484,
        2.511701,
        2.506769,
        2.451026,
        2.457943,
        2.505351,
        2.575774,
        2.635332,
        2.581848,
        2.430635,
        2.457538,
        2.610799,
        2.633828,
        2.526264,
        2.511257,
        2.57695,
        2.606023,
        2.542401,
        2.464948,
        2.510684,
        2.562844,
        2.584697,
        2.519373,
        2.506929,
        2.520076,
        2.518037,
        2.5089,
        2.483132,
        2.500819,
        2.511696,
        2.510769,
        2.534426,
        2.528188,
        2.501996,
        2.491616,
        2.489069,
        2.449848,
        2.520653,
        2.545772,
        2.502956,
        2.459991,
        2.491618,
        2.532922,
        2.47452,
        2.441981,
        2.487915,
        2.587884,
        2.636642,
        2.622276,
        2.501364,
        2.436485,
        2.543247,
        2.666939,
        2.747878,
        2.710809,
        2.67056,
        2.694779,
        2.731657,
        2.752282,
        2.710572,
        2.654462,
        2.637061,
        2.65461,
        2.673182,
        2.655972,
        2.578879,
        2.586535,
        2.636967,
        2.657757,
        2.636793,
        2.621949,
        2.662021,
        2.69743,
        2.653804,
        2.646001,
        2.68554,
        2.688296,
        2.717463,
        2.728025,
        2.699919,
        2.651629,
        2.597662,
        2.639582,
        2.684149,
        2.745588,
        2.786657,
        2.759791,
        2.726574,
        2.68024,
        2.64181,
        2.610421,
        2.47048,
        2.486543,
        2.530733,
        2.564519,
        2.567932,
        2.573585,
        2.463456,
        2.475006,
        2.587744,
        2.664251,
        2.726977,
        2.632225,
        2.221941,
        2.147017,
        2.431055,
        2.562312,
        2.467544,
        2.43251,
        2.460821,
        2.436524,
        2.1984,
        1.797472,
        1.873936,
        2.202551,
        2.434901,
        2.548287,
        2.572933,
        2.553175,
        2.553548,
        2.558361,
        2.581871,
        2.606895,
        2.59429,
        2.622481,
        2.656016,
        2.668297,
        2.69236,
        2.696693,
        2.741966,
        2.774729,
        2.797678,
        2.801906,
        2.762533,
        2.702785,
        2.55344,
        2.175336,
        2.143045,
        2.283899,
        2.445836,
        2.617141,
        2.595159,
        2.602057,
        2.825302,
        2.794554,
        2.817746,
        2.829399,
        2.852913,
        2.897216,
        2.891938,
        2.845501,
        2.832902,
        2.841944,
        2.859392,
        2.857127,
        2.864848,
        2.835784,
        2.805641,
        2.79441,
        2.844468,
        2.901354,
        2.938293,
        2.906578,
        2.889164,
        2.818306,
        2.667301,
        2.830572,
        2.933624,
        2.843696,
        2.850425,
        2.954956,
        2.879092,
        2.891816,
        2.968154,
        3.023676,
        2.99903,
        2.872136,
        2.789358,
        2.807659,
        2.803114,
        2.834817,
        2.884748,
        2.884197,
        2.895367,
        2.919698,
        2.939824,
        2.930802,
        2.903741,
        2.860815,
        2.876209,
        2.879196,
        2.920517,
        2.854015,
        2.816626,
        2.942625,
        2.993352,
        2.932556,
        2.904015,
        2.860813,
        2.888908,
        2.912193,
        2.77301,
        2.821182,
        2.856282,
        2.82851,
        2.814518,
        2.690824,
        2.690138,
        2.749582,
        2.824737,
        3.015725,
        3.084702,
        3.112597,
        3.137081,
        3.11627,
        3.074955,
        2.996933,
        2.951789,
        2.863719,
        2.861395,
        2.773778,
        2.592982,
        2.672125,
        2.803215,
        2.780037,
        2.748201,
        2.754258,
        2.683062,
        2.775903,
        2.794433,
        2.717098,
        2.624896,
        2.50778,
        2.504867,
        2.438873,
        2.428771,
        2.49518,
        2.338742,
        2.183013,
        2.301909,
        2.376467,
        2.398373,
        2.337744,
        2.348957,
        2.382485,
        2.356162,
        2.343085,
        2.347381,
        2.398296,
        2.384986,
        2.39007,
        2.379581,
        2.386627,
        2.362164,
        2.407934,
        2.434824,
        2.451007,
        2.489364,
        2.511613,
        2.457916,
        2.451915,
        2.453705,
        2.443025,
        2.448196,
        2.47997,
        2.444168,
        2.414422,
        2.334331,
        2.370341,
        2.392521,
        2.403682,
        2.353109,
        2.256856,
        2.343645,
        2.354271,
        2.284911,
        2.400728,
        2.377296,
        2.394683,
        2.422879,
        2.452368,
        2.561416,
        2.659567,
        2.685276,
        2.681812,
        2.616684,
        2.57039,
        2.564627,
        2.578656,
        2.474524,
        2.505276,
        2.452589,
        2.359632,
        2.438918,
        2.492489,
        2.472138,
        2.459082,
        2.536914,
        2.558625,
        2.538158,
        2.486566,
        2.610439,
        2.57774,
        2.473335,
        2.512469,
        2.646228,
        2.635915,
        2.527102,
        2.488043,
        2.555011,
        2.589413,
        2.613712,
        2.539296,
        2.491343,
        2.529515,
        2.520664,
        2.530125,
        2.482249,
        2.524125,
        2.570396,
        2.528933,
        2.519507,
        2.528963,
        2.525101,
        2.537904,
        2.555968,
        2.610635,
        2.560424,
        2.520254,
        2.557768,
        2.544055,
        2.471499,
        2.46648,
        2.458549,
        2.467176,
        2.492873,
        2.45322,
        2.476053,
        2.46696,
        2.479349,
        2.540584,
        2.514313,
        2.511803,
        2.555474,
        2.530222,
        2.476529,
        2.555923,
        2.516379,
        2.540452,
        2.467359,
        2.46734,
        2.504006,
        2.510382,
        2.500764,
        2.540429,
        2.526446,
        2.573778,
        2.531866,
        2.542137,
        2.567475,
        2.497724,
        2.522339,
        2.559126,
        2.596588,
        2.61879,
        2.66826,
        2.648063,
        2.634024,
        2.655094,
        2.592941,
        2.637504,
        2.647768,
        2.670169,
        2.708743,
        2.71629,
        2.713165,
        2.658183,
        2.701276,
        2.700298,
        2.708703,
        2.661818,
        2.709768,
        2.71239,
        2.676055,
        2.673209,
        2.682953,
        2.665116,
        2.69342,
        2.695003,
        2.640965,
        2.690877,
        2.714126,
        2.711806,
        2.70429,
        2.660858,
        2.719366,
        2.67467,
        2.727008,
        2.779771,
        2.741729,
        2.705887,
        2.723446,
        2.76016,
        2.730942,
        2.704918,
        2.760553,
        2.78064,
        2.766524,
        2.748349,
        2.791211,
        2.727649,
        2.726006,
        2.801435,
        2.657848,
        2.690866,
        2.651134,
        2.762076,
        2.658798,
        2.730697,
        2.738235,
        2.71854,
        2.687116,
        2.708727,
        2.74686,
        2.776016,
        2.765803,
        2.79179,
        2.724926,
        2.706434,
        2.799492,
        2.801635,
        2.746853,
        2.724064,
        2.723357,
        2.72293,
        2.722829,
        2.72304,
        2.723533,
        2.724281,
        2.725254,
        2.726424,
        2.72776,
        2.729235,
        2.730819,
        2.732484,
        2.734205,
        2.735975,
        2.737792,
        2.739652,
        2.741554,
        2.743494,
        2.745471,
        2.747481,
        2.749522,
        2.751592,
        2.753657,
        2.755557,
        2.757103,
        2.758105,
        2.758372,
        2.757715,
        2.755943,
        2.752867,
        2.748295,
        2.742038,
        2.753026,
        2.747402,
        2.74137,
        2.735196,
        2.729148,
        2.723492,
        2.718495,
        2.714424,
        2.711546,
        2.710128,
        2.710344,
        2.712003,
        2.714819,
        2.718508,
        2.722787,
        2.72737,
        2.731973,
        2.736312,
        2.740102,
        2.734527,
        2.732467,
        2.730399,
        2.728322,
        2.726236,
        2.724143,
        2.722041,
        2.71993,
        2.717812,
        2.715684,
        2.713549,
        2.711406,
        2.709254,
        2.707094,
        2.704926,
        2.702751,
        2.700567,
        2.698376,
        2.696176,
        2.693969,
        2.691753
      ],
      "range":1
    }
  }
]
