[
  {
    "model":"Star, type B5(ii)",
    "name":"Star, type B5(ii)",
    "type":"WB_REF",
    "dataQualityMarker":3,
    "dataSource":"https://www.eso.org/sci/facilities/paranal/decommissioned/isaac/tools/lib.html",
    "manufacturer":"A. Pickles (A.J. Pickles, PASP 110,863, 1998)",
    "version":1,
    "wavelength":{
      "value":[
        1150.0,
        1155.0,
        1160.0,
        1165.0,
        1170.0,
        1175.0,
        1180.0,
        1185.0,
        1190.0,
        1195.0,
        1200.0,
        1205.0,
        1210.0,
        1215.0,
        1220.0,
        1225.0,
        1230.0,
        1235.0,
        1240.0,
        1245.0,
        1250.0,
        1255.0,
        1260.0,
        1265.0,
        1270.0,
        1275.0,
        1280.0,
        1285.0,
        1290.0,
        1295.0,
        1300.0,
        1305.0,
        1310.0,
        1315.0,
        1320.0,
        1325.0,
        1330.0,
        1335.0,
        1340.0,
        1345.0,
        1350.0,
        1355.0,
        1360.0,
        1365.0,
        1370.0,
        1375.0,
        1380.0,
        1385.0,
        1390.0,
        1395.0,
        1400.0,
        1405.0,
        1410.0,
        1415.0,
        1420.0,
        1425.0,
        1430.0,
        1435.0,
        1440.0,
        1445.0,
        1450.0,
        1455.0,
        1460.0,
        1465.0,
        1470.0,
        1475.0,
        1480.0,
        1485.0,
        1490.0,
        1495.0,
        1500.0,
        1505.0,
        1510.0,
        1515.0,
        1520.0,
        1525.0,
        1530.0,
        1535.0,
        1540.0,
        1545.0,
        1550.0,
        1555.0,
        1560.0,
        1565.0,
        1570.0,
        1575.0,
        1580.0,
        1585.0,
        1590.0,
        1595.0,
        1600.0,
        1605.0,
        1610.0,
        1615.0,
        1620.0,
        1625.0,
        1630.0,
        1635.0,
        1640.0,
        1645.0,
        1650.0,
        1655.0,
        1660.0,
        1665.0,
        1670.0,
        1675.0,
        1680.0,
        1685.0,
        1690.0,
        1695.0,
        1700.0,
        1705.0,
        1710.0,
        1715.0,
        1720.0,
        1725.0,
        1730.0,
        1735.0,
        1740.0,
        1745.0,
        1750.0,
        1755.0,
        1760.0,
        1765.0,
        1770.0,
        1775.0,
        1780.0,
        1785.0,
        1790.0,
        1795.0,
        1800.0,
        1805.0,
        1810.0,
        1815.0,
        1820.0,
        1825.0,
        1830.0,
        1835.0,
        1840.0,
        1845.0,
        1850.0,
        1855.0,
        1860.0,
        1865.0,
        1870.0,
        1875.0,
        1880.0,
        1885.0,
        1890.0,
        1895.0,
        1900.0,
        1905.0,
        1910.0,
        1915.0,
        1920.0,
        1925.0,
        1930.0,
        1935.0,
        1940.0,
        1945.0,
        1950.0,
        1955.0,
        1960.0,
        1965.0,
        1970.0,
        1975.0,
        1980.0,
        1985.0,
        1990.0,
        1995.0,
        2000.0,
        2005.0,
        2010.0,
        2015.0,
        2020.0,
        2025.0,
        2030.0,
        2035.0,
        2040.0,
        2045.0,
        2050.0,
        2055.0,
        2060.0,
        2065.0,
        2070.0,
        2075.0,
        2080.0,
        2085.0,
        2090.0,
        2095.0,
        2100.0,
        2105.0,
        2110.0,
        2115.0,
        2120.0,
        2125.0,
        2130.0,
        2135.0,
        2140.0,
        2145.0,
        2150.0,
        2155.0,
        2160.0,
        2165.0,
        2170.0,
        2175.0,
        2180.0,
        2185.0,
        2190.0,
        2195.0,
        2200.0,
        2205.0,
        2210.0,
        2215.0,
        2220.0,
        2225.0,
        2230.0,
        2235.0,
        2240.0,
        2245.0,
        2250.0,
        2255.0,
        2260.0,
        2265.0,
        2270.0,
        2275.0,
        2280.0,
        2285.0,
        2290.0,
        2295.0,
        2300.0,
        2305.0,
        2310.0,
        2315.0,
        2320.0,
        2325.0,
        2330.0,
        2335.0,
        2340.0,
        2345.0,
        2350.0,
        2355.0,
        2360.0,
        2365.0,
        2370.0,
        2375.0,
        2380.0,
        2385.0,
        2390.0,
        2395.0,
        2400.0,
        2405.0,
        2410.0,
        2415.0,
        2420.0,
        2425.0,
        2430.0,
        2435.0,
        2440.0,
        2445.0,
        2450.0,
        2455.0,
        2460.0,
        2465.0,
        2470.0,
        2475.0,
        2480.0,
        2485.0,
        2490.0,
        2495.0,
        2500.0,
        2505.0,
        2510.0,
        2515.0,
        2520.0,
        2525.0,
        2530.0,
        2535.0,
        2540.0,
        2545.0,
        2550.0,
        2555.0,
        2560.0,
        2565.0,
        2570.0,
        2575.0,
        2580.0,
        2585.0,
        2590.0,
        2595.0,
        2600.0,
        2605.0,
        2610.0,
        2615.0,
        2620.0,
        2625.0,
        2630.0,
        2635.0,
        2640.0,
        2645.0,
        2650.0,
        2655.0,
        2660.0,
        2665.0,
        2670.0,
        2675.0,
        2680.0,
        2685.0,
        2690.0,
        2695.0,
        2700.0,
        2705.0,
        2710.0,
        2715.0,
        2720.0,
        2725.0,
        2730.0,
        2735.0,
        2740.0,
        2745.0,
        2750.0,
        2755.0,
        2760.0,
        2765.0,
        2770.0,
        2775.0,
        2780.0,
        2785.0,
        2790.0,
        2795.0,
        2800.0,
        2805.0,
        2810.0,
        2815.0,
        2820.0,
        2825.0,
        2830.0,
        2835.0,
        2840.0,
        2845.0,
        2850.0,
        2855.0,
        2860.0,
        2865.0,
        2870.0,
        2875.0,
        2880.0,
        2885.0,
        2890.0,
        2895.0,
        2900.0,
        2905.0,
        2910.0,
        2915.0,
        2920.0,
        2925.0,
        2930.0,
        2935.0,
        2940.0,
        2945.0,
        2950.0,
        2955.0,
        2960.0,
        2965.0,
        2970.0,
        2975.0,
        2980.0,
        2985.0,
        2990.0,
        2995.0,
        3000.0,
        3005.0,
        3010.0,
        3015.0,
        3020.0,
        3025.0,
        3030.0,
        3035.0,
        3040.0,
        3045.0,
        3050.0,
        3055.0,
        3060.0,
        3065.0,
        3070.0,
        3075.0,
        3080.0,
        3085.0,
        3090.0,
        3095.0,
        3100.0,
        3105.0,
        3110.0,
        3115.0,
        3120.0,
        3125.0,
        3130.0,
        3135.0,
        3140.0,
        3145.0,
        3150.0,
        3155.0,
        3160.0,
        3165.0,
        3170.0,
        3175.0,
        3180.0,
        3185.0,
        3190.0,
        3195.0,
        3200.0,
        3205.0,
        3210.0,
        3215.0,
        3220.0,
        3225.0,
        3230.0,
        3235.0,
        3240.0,
        3245.0,
        3250.0,
        3255.0,
        3260.0,
        3265.0,
        3270.0,
        3275.0,
        3280.0,
        3285.0,
        3290.0,
        3295.0,
        3300.0,
        3305.0,
        3310.0,
        3315.0,
        3320.0,
        3325.0,
        3330.0,
        3335.0,
        3340.0,
        3345.0,
        3350.0,
        3355.0,
        3360.0,
        3365.0,
        3370.0,
        3375.0,
        3380.0,
        3385.0,
        3390.0,
        3395.0,
        3400.0,
        3405.0,
        3410.0,
        3415.0,
        3420.0,
        3425.0,
        3430.0,
        3435.0,
        3440.0,
        3445.0,
        3450.0,
        3455.0,
        3460.0,
        3465.0,
        3470.0,
        3475.0,
        3480.0,
        3485.0,
        3490.0,
        3495.0,
        3500.0,
        3505.0,
        3510.0,
        3515.0,
        3520.0,
        3525.0,
        3530.0,
        3535.0,
        3540.0,
        3545.0,
        3550.0,
        3555.0,
        3560.0,
        3565.0,
        3570.0,
        3575.0,
        3580.0,
        3585.0,
        3590.0,
        3595.0,
        3600.0,
        3605.0,
        3610.0,
        3615.0,
        3620.0,
        3625.0,
        3630.0,
        3635.0,
        3640.0,
        3645.0,
        3650.0,
        3655.0,
        3660.0,
        3665.0,
        3670.0,
        3675.0,
        3680.0,
        3685.0,
        3690.0,
        3695.0,
        3700.0,
        3705.0,
        3710.0,
        3715.0,
        3720.0,
        3725.0,
        3730.0,
        3735.0,
        3740.0,
        3745.0,
        3750.0,
        3755.0,
        3760.0,
        3765.0,
        3770.0,
        3775.0,
        3780.0,
        3785.0,
        3790.0,
        3795.0,
        3800.0,
        3805.0,
        3810.0,
        3815.0,
        3820.0,
        3825.0,
        3830.0,
        3835.0,
        3840.0,
        3845.0,
        3850.0,
        3855.0,
        3860.0,
        3865.0,
        3870.0,
        3875.0,
        3880.0,
        3885.0,
        3890.0,
        3895.0,
        3900.0,
        3905.0,
        3910.0,
        3915.0,
        3920.0,
        3925.0,
        3930.0,
        3935.0,
        3940.0,
        3945.0,
        3950.0,
        3955.0,
        3960.0,
        3965.0,
        3970.0,
        3975.0,
        3980.0,
        3985.0,
        3990.0,
        3995.0,
        4000.0,
        4005.0,
        4010.0,
        4015.0,
        4020.0,
        4025.0,
        4030.0,
        4035.0,
        4040.0,
        4045.0,
        4050.0,
        4055.0,
        4060.0,
        4065.0,
        4070.0,
        4075.0,
        4080.0,
        4085.0,
        4090.0,
        4095.0,
        4100.0,
        4105.0,
        4110.0,
        4115.0,
        4120.0,
        4125.0,
        4130.0,
        4135.0,
        4140.0,
        4145.0,
        4150.0,
        4155.0,
        4160.0,
        4165.0,
        4170.0,
        4175.0,
        4180.0,
        4185.0,
        4190.0,
        4195.0,
        4200.0,
        4205.0,
        4210.0,
        4215.0,
        4220.0,
        4225.0,
        4230.0,
        4235.0,
        4240.0,
        4245.0,
        4250.0,
        4255.0,
        4260.0,
        4265.0,
        4270.0,
        4275.0,
        4280.0,
        4285.0,
        4290.0,
        4295.0,
        4300.0,
        4305.0,
        4310.0,
        4315.0,
        4320.0,
        4325.0,
        4330.0,
        4335.0,
        4340.0,
        4345.0,
        4350.0,
        4355.0,
        4360.0,
        4365.0,
        4370.0,
        4375.0,
        4380.0,
        4385.0,
        4390.0,
        4395.0,
        4400.0,
        4405.0,
        4410.0,
        4415.0,
        4420.0,
        4425.0,
        4430.0,
        4435.0,
        4440.0,
        4445.0,
        4450.0,
        4455.0,
        4460.0,
        4465.0,
        4470.0,
        4475.0,
        4480.0,
        4485.0,
        4490.0,
        4495.0,
        4500.0,
        4505.0,
        4510.0,
        4515.0,
        4520.0,
        4525.0,
        4530.0,
        4535.0,
        4540.0,
        4545.0,
        4550.0,
        4555.0,
        4560.0,
        4565.0,
        4570.0,
        4575.0,
        4580.0,
        4585.0,
        4590.0,
        4595.0,
        4600.0,
        4605.0,
        4610.0,
        4615.0,
        4620.0,
        4625.0,
        4630.0,
        4635.0,
        4640.0,
        4645.0,
        4650.0,
        4655.0,
        4660.0,
        4665.0,
        4670.0,
        4675.0,
        4680.0,
        4685.0,
        4690.0,
        4695.0,
        4700.0,
        4705.0,
        4710.0,
        4715.0,
        4720.0,
        4725.0,
        4730.0,
        4735.0,
        4740.0,
        4745.0,
        4750.0,
        4755.0,
        4760.0,
        4765.0,
        4770.0,
        4775.0,
        4780.0,
        4785.0,
        4790.0,
        4795.0,
        4800.0,
        4805.0,
        4810.0,
        4815.0,
        4820.0,
        4825.0,
        4830.0,
        4835.0,
        4840.0,
        4845.0,
        4850.0,
        4855.0,
        4860.0,
        4865.0,
        4870.0,
        4875.0,
        4880.0,
        4885.0,
        4890.0,
        4895.0,
        4900.0,
        4905.0,
        4910.0,
        4915.0,
        4920.0,
        4925.0,
        4930.0,
        4935.0,
        4940.0,
        4945.0,
        4950.0,
        4955.0,
        4960.0,
        4965.0,
        4970.0,
        4975.0,
        4980.0,
        4985.0,
        4990.0,
        4995.0,
        5000.0,
        5005.0,
        5010.0,
        5015.0,
        5020.0,
        5025.0,
        5030.0,
        5035.0,
        5040.0,
        5045.0,
        5050.0,
        5055.0,
        5060.0,
        5065.0,
        5070.0,
        5075.0,
        5080.0,
        5085.0,
        5090.0,
        5095.0,
        5100.0,
        5105.0,
        5110.0,
        5115.0,
        5120.0,
        5125.0,
        5130.0,
        5135.0,
        5140.0,
        5145.0,
        5150.0,
        5155.0,
        5160.0,
        5165.0,
        5170.0,
        5175.0,
        5180.0,
        5185.0,
        5190.0,
        5195.0,
        5200.0,
        5205.0,
        5210.0,
        5215.0,
        5220.0,
        5225.0,
        5230.0,
        5235.0,
        5240.0,
        5245.0,
        5250.0,
        5255.0,
        5260.0,
        5265.0,
        5270.0,
        5275.0,
        5280.0,
        5285.0,
        5290.0,
        5295.0,
        5300.0,
        5305.0,
        5310.0,
        5315.0,
        5320.0,
        5325.0,
        5330.0,
        5335.0,
        5340.0,
        5345.0,
        5350.0,
        5355.0,
        5360.0,
        5365.0,
        5370.0,
        5375.0,
        5380.0,
        5385.0,
        5390.0,
        5395.0,
        5400.0,
        5405.0,
        5410.0,
        5415.0,
        5420.0,
        5425.0,
        5430.0,
        5435.0,
        5440.0,
        5445.0,
        5450.0,
        5455.0,
        5460.0,
        5465.0,
        5470.0,
        5475.0,
        5480.0,
        5485.0,
        5490.0,
        5495.0,
        5500.0,
        5505.0,
        5510.0,
        5515.0,
        5520.0,
        5525.0,
        5530.0,
        5535.0,
        5540.0,
        5545.0,
        5550.0,
        5555.0,
        5560.0,
        5565.0,
        5570.0,
        5575.0,
        5580.0,
        5585.0,
        5590.0,
        5595.0,
        5600.0,
        5605.0,
        5610.0,
        5615.0,
        5620.0,
        5625.0,
        5630.0,
        5635.0,
        5640.0,
        5645.0,
        5650.0,
        5655.0,
        5660.0,
        5665.0,
        5670.0,
        5675.0,
        5680.0,
        5685.0,
        5690.0,
        5695.0,
        5700.0,
        5705.0,
        5710.0,
        5715.0,
        5720.0,
        5725.0,
        5730.0,
        5735.0,
        5740.0,
        5745.0,
        5750.0,
        5755.0,
        5760.0,
        5765.0,
        5770.0,
        5775.0,
        5780.0,
        5785.0,
        5790.0,
        5795.0,
        5800.0,
        5805.0,
        5810.0,
        5815.0,
        5820.0,
        5825.0,
        5830.0,
        5835.0,
        5840.0,
        5845.0,
        5850.0,
        5855.0,
        5860.0,
        5865.0,
        5870.0,
        5875.0,
        5880.0,
        5885.0,
        5890.0,
        5895.0,
        5900.0,
        5905.0,
        5910.0,
        5915.0,
        5920.0,
        5925.0,
        5930.0,
        5935.0,
        5940.0,
        5945.0,
        5950.0,
        5955.0,
        5960.0,
        5965.0,
        5970.0,
        5975.0,
        5980.0,
        5985.0,
        5990.0,
        5995.0,
        6000.0,
        6005.0,
        6010.0,
        6015.0,
        6020.0,
        6025.0,
        6030.0,
        6035.0,
        6040.0,
        6045.0,
        6050.0,
        6055.0,
        6060.0,
        6065.0,
        6070.0,
        6075.0,
        6080.0,
        6085.0,
        6090.0,
        6095.0,
        6100.0,
        6105.0,
        6110.0,
        6115.0,
        6120.0,
        6125.0,
        6130.0,
        6135.0,
        6140.0,
        6145.0,
        6150.0,
        6155.0,
        6160.0,
        6165.0,
        6170.0,
        6175.0,
        6180.0,
        6185.0,
        6190.0,
        6195.0,
        6200.0,
        6205.0,
        6210.0,
        6215.0,
        6220.0,
        6225.0,
        6230.0,
        6235.0,
        6240.0,
        6245.0,
        6250.0,
        6255.0,
        6260.0,
        6265.0,
        6270.0,
        6275.0,
        6280.0,
        6285.0,
        6290.0,
        6295.0,
        6300.0,
        6305.0,
        6310.0,
        6315.0,
        6320.0,
        6325.0,
        6330.0,
        6335.0,
        6340.0,
        6345.0,
        6350.0,
        6355.0,
        6360.0,
        6365.0,
        6370.0,
        6375.0,
        6380.0,
        6385.0,
        6390.0,
        6395.0,
        6400.0,
        6405.0,
        6410.0,
        6415.0,
        6420.0,
        6425.0,
        6430.0,
        6435.0,
        6440.0,
        6445.0,
        6450.0,
        6455.0,
        6460.0,
        6465.0,
        6470.0,
        6475.0,
        6480.0,
        6485.0,
        6490.0,
        6495.0,
        6500.0,
        6505.0,
        6510.0,
        6515.0,
        6520.0,
        6525.0,
        6530.0,
        6535.0,
        6540.0,
        6545.0,
        6550.0,
        6555.0,
        6560.0,
        6565.0,
        6570.0,
        6575.0,
        6580.0,
        6585.0,
        6590.0,
        6595.0,
        6600.0,
        6605.0,
        6610.0,
        6615.0,
        6620.0,
        6625.0,
        6630.0,
        6635.0,
        6640.0,
        6645.0,
        6650.0,
        6655.0,
        6660.0,
        6665.0,
        6670.0,
        6675.0,
        6680.0,
        6685.0,
        6690.0,
        6695.0,
        6700.0,
        6705.0,
        6710.0,
        6715.0,
        6720.0,
        6725.0,
        6730.0,
        6735.0,
        6740.0,
        6745.0,
        6750.0,
        6755.0,
        6760.0,
        6765.0,
        6770.0,
        6775.0,
        6780.0,
        6785.0,
        6790.0,
        6795.0,
        6800.0,
        6805.0,
        6810.0,
        6815.0,
        6820.0,
        6825.0,
        6830.0,
        6835.0,
        6840.0,
        6845.0,
        6850.0,
        6855.0,
        6860.0,
        6865.0,
        6870.0,
        6875.0,
        6880.0,
        6885.0,
        6890.0,
        6895.0,
        6900.0,
        6905.0,
        6910.0,
        6915.0,
        6920.0,
        6925.0,
        6930.0,
        6935.0,
        6940.0,
        6945.0,
        6950.0,
        6955.0,
        6960.0,
        6965.0,
        6970.0,
        6975.0,
        6980.0,
        6985.0,
        6990.0,
        6995.0,
        7000.0,
        7005.0,
        7010.0,
        7015.0,
        7020.0,
        7025.0,
        7030.0,
        7035.0,
        7040.0,
        7045.0,
        7050.0,
        7055.0,
        7060.0,
        7065.0,
        7070.0,
        7075.0,
        7080.0,
        7085.0,
        7090.0,
        7095.0,
        7100.0,
        7105.0,
        7110.0,
        7115.0,
        7120.0,
        7125.0,
        7130.0,
        7135.0,
        7140.0,
        7145.0,
        7150.0,
        7155.0,
        7160.0,
        7165.0,
        7170.0,
        7175.0,
        7180.0,
        7185.0,
        7190.0,
        7195.0,
        7200.0,
        7205.0,
        7210.0,
        7215.0,
        7220.0,
        7225.0,
        7230.0,
        7235.0,
        7240.0,
        7245.0,
        7250.0,
        7255.0,
        7260.0,
        7265.0,
        7270.0,
        7275.0,
        7280.0,
        7285.0,
        7290.0,
        7295.0,
        7300.0,
        7305.0,
        7310.0,
        7315.0,
        7320.0,
        7325.0,
        7330.0,
        7335.0,
        7340.0,
        7345.0,
        7350.0,
        7355.0,
        7360.0,
        7365.0,
        7370.0,
        7375.0,
        7380.0,
        7385.0,
        7390.0,
        7395.0,
        7400.0,
        7405.0,
        7410.0,
        7415.0,
        7420.0,
        7425.0,
        7430.0,
        7435.0,
        7440.0,
        7445.0,
        7450.0,
        7455.0,
        7460.0,
        7465.0,
        7470.0,
        7475.0,
        7480.0,
        7485.0,
        7490.0,
        7495.0,
        7500.0,
        7505.0,
        7510.0,
        7515.0,
        7520.0,
        7525.0,
        7530.0,
        7535.0,
        7540.0,
        7545.0,
        7550.0,
        7555.0,
        7560.0,
        7565.0,
        7570.0,
        7575.0,
        7580.0,
        7585.0,
        7590.0,
        7595.0,
        7600.0,
        7605.0,
        7610.0,
        7615.0,
        7620.0,
        7625.0,
        7630.0,
        7635.0,
        7640.0,
        7645.0,
        7650.0,
        7655.0,
        7660.0,
        7665.0,
        7670.0,
        7675.0,
        7680.0,
        7685.0,
        7690.0,
        7695.0,
        7700.0,
        7705.0,
        7710.0,
        7715.0,
        7720.0,
        7725.0,
        7730.0,
        7735.0,
        7740.0,
        7745.0,
        7750.0,
        7755.0,
        7760.0,
        7765.0,
        7770.0,
        7775.0,
        7780.0,
        7785.0,
        7790.0,
        7795.0,
        7800.0,
        7805.0,
        7810.0,
        7815.0,
        7820.0,
        7825.0,
        7830.0,
        7835.0,
        7840.0,
        7845.0,
        7850.0,
        7855.0,
        7860.0,
        7865.0,
        7870.0,
        7875.0,
        7880.0,
        7885.0,
        7890.0,
        7895.0,
        7900.0,
        7905.0,
        7910.0,
        7915.0,
        7920.0,
        7925.0,
        7930.0,
        7935.0,
        7940.0,
        7945.0,
        7950.0,
        7955.0,
        7960.0,
        7965.0,
        7970.0,
        7975.0,
        7980.0,
        7985.0,
        7990.0,
        7995.0,
        8000.0,
        8005.0,
        8010.0,
        8015.0,
        8020.0,
        8025.0,
        8030.0,
        8035.0,
        8040.0,
        8045.0,
        8050.0,
        8055.0,
        8060.0,
        8065.0,
        8070.0,
        8075.0,
        8080.0,
        8085.0,
        8090.0,
        8095.0,
        8100.0,
        8105.0,
        8110.0,
        8115.0,
        8120.0,
        8125.0,
        8130.0,
        8135.0,
        8140.0,
        8145.0,
        8150.0,
        8155.0,
        8160.0,
        8165.0,
        8170.0,
        8175.0,
        8180.0,
        8185.0,
        8190.0,
        8195.0,
        8200.0,
        8205.0,
        8210.0,
        8215.0,
        8220.0,
        8225.0,
        8230.0,
        8235.0,
        8240.0,
        8245.0,
        8250.0,
        8255.0,
        8260.0,
        8265.0,
        8270.0,
        8275.0,
        8280.0,
        8285.0,
        8290.0,
        8295.0,
        8300.0,
        8305.0,
        8310.0,
        8315.0,
        8320.0,
        8325.0,
        8330.0,
        8335.0,
        8340.0,
        8345.0,
        8350.0,
        8355.0,
        8360.0,
        8365.0,
        8370.0,
        8375.0,
        8380.0,
        8385.0,
        8390.0,
        8395.0,
        8400.0,
        8405.0,
        8410.0,
        8415.0,
        8420.0,
        8425.0,
        8430.0,
        8435.0,
        8440.0,
        8445.0,
        8450.0,
        8455.0,
        8460.0,
        8465.0,
        8470.0,
        8475.0,
        8480.0,
        8485.0,
        8490.0,
        8495.0,
        8500.0,
        8505.0,
        8510.0,
        8515.0,
        8520.0,
        8525.0,
        8530.0,
        8535.0,
        8540.0,
        8545.0,
        8550.0,
        8555.0,
        8560.0,
        8565.0,
        8570.0,
        8575.0,
        8580.0,
        8585.0,
        8590.0,
        8595.0,
        8600.0,
        8605.0,
        8610.0,
        8615.0,
        8620.0,
        8625.0,
        8630.0,
        8635.0,
        8640.0,
        8645.0,
        8650.0,
        8655.0,
        8660.0,
        8665.0,
        8670.0,
        8675.0,
        8680.0,
        8685.0,
        8690.0,
        8695.0,
        8700.0,
        8705.0,
        8710.0,
        8715.0,
        8720.0,
        8725.0,
        8730.0,
        8735.0,
        8740.0,
        8745.0,
        8750.0,
        8755.0,
        8760.0,
        8765.0,
        8770.0,
        8775.0,
        8780.0,
        8785.0,
        8790.0,
        8795.0,
        8800.0,
        8805.0,
        8810.0,
        8815.0,
        8820.0,
        8825.0,
        8830.0,
        8835.0,
        8840.0,
        8845.0,
        8850.0,
        8855.0,
        8860.0,
        8865.0,
        8870.0,
        8875.0,
        8880.0,
        8885.0,
        8890.0,
        8895.0,
        8900.0,
        8905.0,
        8910.0,
        8915.0,
        8920.0,
        8925.0,
        8930.0,
        8935.0,
        8940.0,
        8945.0,
        8950.0,
        8955.0,
        8960.0,
        8965.0,
        8970.0,
        8975.0,
        8980.0,
        8985.0,
        8990.0,
        8995.0,
        9000.0,
        9005.0,
        9010.0,
        9015.0,
        9020.0,
        9025.0,
        9030.0,
        9035.0,
        9040.0,
        9045.0,
        9050.0,
        9055.0,
        9060.0,
        9065.0,
        9070.0,
        9075.0,
        9080.0,
        9085.0,
        9090.0,
        9095.0,
        9100.0,
        9105.0,
        9110.0,
        9115.0,
        9120.0,
        9125.0,
        9130.0,
        9135.0,
        9140.0,
        9145.0,
        9150.0,
        9155.0,
        9160.0,
        9165.0,
        9170.0,
        9175.0,
        9180.0,
        9185.0,
        9190.0,
        9195.0,
        9200.0,
        9205.0,
        9210.0,
        9215.0,
        9220.0,
        9225.0,
        9230.0,
        9235.0,
        9240.0,
        9245.0,
        9250.0,
        9255.0,
        9260.0,
        9265.0,
        9270.0,
        9275.0,
        9280.0,
        9285.0,
        9290.0,
        9295.0,
        9300.0,
        9305.0,
        9310.0,
        9315.0,
        9320.0,
        9325.0,
        9330.0,
        9335.0,
        9340.0,
        9345.0,
        9350.0,
        9355.0,
        9360.0,
        9365.0,
        9370.0,
        9375.0,
        9380.0,
        9385.0,
        9390.0,
        9395.0,
        9400.0,
        9405.0,
        9410.0,
        9415.0,
        9420.0,
        9425.0,
        9430.0,
        9435.0,
        9440.0,
        9445.0,
        9450.0,
        9455.0,
        9460.0,
        9465.0,
        9470.0,
        9475.0,
        9480.0,
        9485.0,
        9490.0,
        9495.0,
        9500.0,
        9505.0,
        9510.0,
        9515.0,
        9520.0,
        9525.0,
        9530.0,
        9535.0,
        9540.0,
        9545.0,
        9550.0,
        9555.0,
        9560.0,
        9565.0,
        9570.0,
        9575.0,
        9580.0,
        9585.0,
        9590.0,
        9595.0,
        9600.0,
        9605.0,
        9610.0,
        9615.0,
        9620.0,
        9625.0,
        9630.0,
        9635.0,
        9640.0,
        9645.0,
        9650.0,
        9655.0,
        9660.0,
        9665.0,
        9670.0,
        9675.0,
        9680.0,
        9685.0,
        9690.0,
        9695.0,
        9700.0,
        9705.0,
        9710.0,
        9715.0,
        9720.0,
        9725.0,
        9730.0,
        9735.0,
        9740.0,
        9745.0,
        9750.0,
        9755.0,
        9760.0,
        9765.0,
        9770.0,
        9775.0,
        9780.0,
        9785.0,
        9790.0,
        9795.0,
        9800.0,
        9805.0,
        9810.0,
        9815.0,
        9820.0,
        9825.0,
        9830.0,
        9835.0,
        9840.0,
        9845.0,
        9850.0,
        9855.0,
        9860.0,
        9865.0,
        9870.0,
        9875.0,
        9880.0,
        9885.0,
        9890.0,
        9895.0,
        9900.0,
        9905.0,
        9910.0,
        9915.0,
        9920.0,
        9925.0,
        9930.0,
        9935.0,
        9940.0,
        9945.0,
        9950.0,
        9955.0,
        9960.0,
        9965.0,
        9970.0,
        9975.0,
        9980.0,
        9985.0,
        9990.0,
        9995.0,
        10000.0,
        10005.0,
        10010.0,
        10015.0,
        10020.0,
        10025.0,
        10030.0,
        10035.0,
        10040.0,
        10045.0,
        10050.0,
        10055.0,
        10060.0,
        10065.0,
        10070.0,
        10075.0,
        10080.0,
        10085.0,
        10090.0,
        10095.0,
        10100.0,
        10105.0,
        10110.0,
        10115.0,
        10120.0,
        10125.0,
        10130.0,
        10135.0,
        10140.0,
        10145.0,
        10150.0,
        10155.0,
        10160.0,
        10165.0,
        10170.0,
        10175.0,
        10180.0,
        10185.0,
        10190.0,
        10195.0,
        10200.0,
        10205.0,
        10210.0,
        10215.0,
        10220.0,
        10225.0,
        10230.0,
        10235.0,
        10240.0,
        10245.0,
        10250.0,
        10255.0,
        10260.0,
        10265.0,
        10270.0,
        10275.0,
        10280.0,
        10285.0,
        10290.0,
        10295.0,
        10300.0,
        10305.0,
        10310.0,
        10315.0,
        10320.0,
        10325.0,
        10330.0,
        10335.0,
        10340.0,
        10345.0,
        10350.0,
        10355.0,
        10360.0,
        10365.0,
        10370.0,
        10375.0,
        10380.0,
        10385.0,
        10390.0,
        10395.0,
        10400.0,
        10405.0,
        10410.0,
        10415.0,
        10420.0,
        10425.0,
        10430.0,
        10435.0,
        10440.0,
        10445.0,
        10450.0,
        10455.0,
        10460.0,
        10465.0,
        10470.0,
        10475.0,
        10480.0,
        10485.0,
        10490.0,
        10495.0,
        10500.0
      ],
      "units":"angstrom"
    },
    "values":{
      "value":[
        6.313648,
        5.611689,
        5.454666,
        5.484312,
        4.718596,
        3.895715,
        4.6507,
        5.147357,
        3.789891,
        2.722266,
        2.339489,
        1.06354,
        0.56122,
        0.509048,
        1.17301,
        2.440076,
        3.597513,
        4.960524,
        6.458058,
        6.526036,
        6.134216,
        6.592101,
        5.260082,
        5.223249,
        6.80777,
        6.651559,
        7.00337,
        7.182273,
        6.517368,
        5.318648,
        4.567028,
        4.627783,
        5.864954,
        7.886409,
        8.1565,
        7.28519,
        6.431397,
        5.896232,
        7.354223,
        7.648929,
        7.81851,
        7.836791,
        7.490635,
        6.545105,
        6.520151,
        6.560079,
        6.511771,
        6.828101,
        6.629295,
        6.185034,
        6.615329,
        6.952735,
        6.995972,
        6.622325,
        6.439007,
        6.981295,
        7.211042,
        6.930404,
        7.381985,
        7.590569,
        7.900753,
        7.776993,
        7.959367,
        7.60017,
        7.14993,
        7.01401,
        7.139045,
        7.169029,
        7.628071,
        7.07907,
        6.937047,
        6.975403,
        6.68464,
        6.661995,
        7.056911,
        6.621123,
        6.031206,
        5.823955,
        6.102821,
        5.836892,
        6.016413,
        6.455392,
        6.129596,
        6.195565,
        6.094961,
        6.144953,
        6.413468,
        6.655937,
        6.793093,
        6.632879,
        6.291697,
        5.923528,
        5.83991,
        6.131093,
        6.23145,
        6.128689,
        5.988781,
        6.044013,
        6.163505,
        6.139724,
        6.108505,
        5.608612,
        5.633328,
        6.174397,
        5.94589,
        5.759093,
        6.284276,
        6.294443,
        5.957052,
        5.843874,
        5.827963,
        5.562371,
        5.160022,
        5.09042,
        4.787952,
        5.110942,
        5.646534,
        5.718976,
        5.58483,
        5.480956,
        5.486299,
        5.915761,
        5.64632,
        5.610034,
        5.589366,
        5.582952,
        5.85899,
        5.680586,
        5.198372,
        5.802774,
        6.264793,
        6.125819,
        5.890455,
        5.673959,
        5.573041,
        5.7409,
        5.598207,
        5.491935,
        5.219522,
        4.728946,
        4.490475,
        4.456814,
        4.574271,
        4.837074,
        5.25147,
        5.281409,
        4.8171,
        4.331747,
        4.002225,
        4.085543,
        4.362489,
        4.507531,
        4.478876,
        4.202549,
        4.109534,
        3.889685,
        3.971436,
        4.360099,
        4.438913,
        4.436633,
        4.234227,
        4.070723,
        3.801022,
        3.647191,
        3.766189,
        4.247592,
        4.24357,
        4.170298,
        3.680829,
        3.379465,
        3.407958,
        3.600846,
        3.446983,
        3.852326,
        3.844667,
        3.810905,
        3.990834,
        3.996433,
        3.805624,
        3.429625,
        3.571208,
        3.693633,
        3.583328,
        3.143665,
        3.309952,
        3.436641,
        3.450482,
        3.658839,
        3.640281,
        3.377944,
        3.29038,
        3.234866,
        3.174796,
        3.358868,
        3.389838,
        3.327705,
        3.608164,
        3.326778,
        3.177987,
        3.095935,
        2.824861,
        3.067374,
        3.349514,
        3.082029,
        2.966775,
        2.865976,
        2.752517,
        2.840766,
        2.904745,
        2.928392,
        2.952747,
        3.009529,
        2.8148,
        2.812255,
        2.866484,
        2.70762,
        2.537989,
        2.688881,
        2.773053,
        2.665927,
        2.614251,
        2.633976,
        2.544439,
        2.532597,
        2.756349,
        2.846454,
        2.909792,
        2.863077,
        3.070152,
        3.201542,
        2.949807,
        2.739024,
        2.968466,
        3.192642,
        2.998882,
        2.968858,
        2.958208,
        2.869104,
        2.787736,
        2.868268,
        2.822926,
        2.87072,
        3.007287,
        3.027588,
        3.027756,
        3.018595,
        2.976735,
        2.988376,
        2.865341,
        2.828971,
        3.044387,
        3.135224,
        2.871082,
        2.902813,
        2.93489,
        3.01632,
        3.187099,
        3.002329,
        3.03418,
        3.117189,
        3.188852,
        3.343035,
        3.495605,
        3.329047,
        3.12717,
        3.106202,
        3.178792,
        3.277074,
        3.239868,
        3.114113,
        3.291622,
        3.371488,
        3.358094,
        3.238008,
        3.131293,
        3.148186,
        3.205675,
        3.214654,
        3.180885,
        3.084947,
        3.139926,
        3.110653,
        3.420031,
        3.361323,
        3.265371,
        3.415374,
        3.003376,
        2.845514,
        3.223263,
        3.414427,
        3.435417,
        3.370642,
        3.351645,
        3.332412,
        3.39538,
        3.527653,
        3.367965,
        3.422398,
        3.669874,
        3.755627,
        3.77878,
        3.706607,
        3.694082,
        3.661424,
        3.487064,
        3.584405,
        3.715141,
        3.655268,
        3.644128,
        3.551926,
        3.383627,
        3.565963,
        3.541068,
        3.368512,
        3.374733,
        3.416363,
        3.410334,
        3.595724,
        3.570768,
        3.357697,
        3.325855,
        3.246268,
        3.38318,
        3.512739,
        3.393134,
        3.320007,
        3.563943,
        3.52093,
        3.41538,
        3.427987,
        3.122223,
        3.112188,
        3.266709,
        3.568224,
        3.552837,
        3.521229,
        3.409163,
        3.354248,
        3.316824,
        3.274033,
        3.443053,
        3.315729,
        3.253533,
        3.41513,
        3.526204,
        3.42781,
        3.274674,
        3.38708,
        3.337169,
        3.476025,
        3.51013,
        3.52633,
        3.554487,
        3.553167,
        3.487159,
        3.380222,
        3.330909,
        3.414589,
        3.308577,
        3.317475,
        3.333546,
        3.408899,
        3.477575,
        3.336282,
        3.389929,
        3.345828,
        3.331439,
        3.345748,
        3.251183,
        3.234747,
        3.319261,
        3.319336,
        3.317982,
        3.327518,
        3.324907,
        3.249911,
        3.187625,
        3.260355,
        3.298751,
        3.262203,
        3.230961,
        3.258126,
        3.267089,
        3.228152,
        3.248388,
        3.329847,
        3.413193,
        3.337351,
        3.359126,
        3.352183,
        3.354848,
        3.339996,
        3.33618,
        3.321299,
        3.274796,
        3.296606,
        3.257188,
        3.235671,
        3.155865,
        3.198372,
        3.244311,
        3.221735,
        3.192309,
        3.239795,
        3.243083,
        3.10788,
        3.013476,
        3.049914,
        3.211812,
        3.136379,
        3.092783,
        3.083496,
        3.074362,
        3.065238,
        3.055983,
        3.046452,
        3.036505,
        3.025997,
        3.014787,
        3.002733,
        2.989691,
        2.97558,
        2.960566,
        2.944874,
        2.92873,
        2.912361,
        2.895993,
        2.879852,
        2.864164,
        2.849155,
        2.835052,
        2.822018,
        2.809973,
        2.798772,
        2.788272,
        2.77833,
        2.768802,
        2.759544,
        2.750413,
        2.741266,
        2.731959,
        2.722378,
        2.712533,
        2.702461,
        2.692202,
        2.681793,
        2.671275,
        2.660684,
        2.65006,
        2.639441,
        2.628866,
        2.618365,
        2.607937,
        2.597568,
        2.58725,
        2.57697,
        2.566719,
        2.556484,
        2.546256,
        2.536022,
        2.525773,
        2.5155,
        2.505206,
        2.494895,
        2.484572,
        2.474243,
        2.463913,
        2.453587,
        2.443269,
        2.432965,
        2.42268,
        2.412417,
        2.402169,
        2.391925,
        2.381678,
        2.371417,
        2.361134,
        2.350819,
        2.340462,
        2.330055,
        2.319588,
        2.309058,
        2.298491,
        2.28792,
        2.277376,
        2.266891,
        2.256499,
        2.246231,
        2.23612,
        2.226197,
        2.216495,
        2.207052,
        2.197928,
        2.189189,
        2.180901,
        2.17313,
        2.165941,
        2.159401,
        2.153575,
        2.148529,
        2.14433,
        2.141095,
        2.139158,
        2.138901,
        2.140711,
        2.144971,
        2.152066,
        2.162382,
        2.176302,
        2.194211,
        2.216495,
        2.243319,
        2.273977,
        2.307546,
        2.343101,
        2.379718,
        2.416473,
        2.452442,
        2.486701,
        2.518326,
        2.546392,
        2.570207,
        2.590007,
        2.606256,
        2.619422,
        2.629972,
        2.638371,
        2.645087,
        2.650585,
        2.655331,
        2.659794,
        2.664337,
        2.668925,
        2.673419,
        2.677683,
        2.681579,
        2.684969,
        2.687716,
        2.689682,
        2.69073,
        2.690722,
        2.689557,
        2.687284,
        2.683984,
        2.679742,
        2.67464,
        2.668763,
        2.662195,
        2.655019,
        2.647317,
        2.639175,
        2.630701,
        2.622106,
        2.613625,
        2.605496,
        2.597954,
        2.591235,
        2.585576,
        2.581213,
        2.578382,
        2.57732,
        2.578174,
        2.580748,
        2.584753,
        2.589905,
        2.595916,
        2.602502,
        2.609376,
        2.616252,
        2.622844,
        2.628866,
        2.634014,
        2.637915,
        2.640178,
        2.640412,
        2.638226,
        2.63323,
        2.625032,
        2.613242,
        2.597468,
        2.57732,
        2.552677,
        2.5245,
        2.49402,
        2.462468,
        2.431075,
        2.401072,
        2.373691,
        2.350163,
        2.331718,
        2.319588,
        2.314599,
        2.315964,
        2.322486,
        2.332976,
        2.346238,
        2.361079,
        2.376306,
        2.390726,
        2.403146,
        2.412371,
        2.417494,
        2.418741,
        2.416622,
        2.41165,
        2.404336,
        2.39519,
        2.384724,
        2.373449,
        2.361875,
        2.350515,
        2.339786,
        2.329735,
        2.320313,
        2.311475,
        2.303171,
        2.295357,
        2.287983,
        2.281005,
        2.274373,
        2.268041,
        2.261916,
        2.255722,
        2.249135,
        2.241833,
        2.233494,
        2.223795,
        2.212414,
        2.199027,
        2.183313,
        2.164948,
        2.143806,
        2.120533,
        2.095972,
        2.070966,
        2.046358,
        2.022989,
        2.001703,
        1.983341,
        1.968747,
        1.958763,
        1.953944,
        1.953694,
        1.957132,
        1.963375,
        1.97154,
        1.980745,
        1.990107,
        1.998743,
        2.005771,
        2.010309,
        2.011688,
        2.010092,
        2.005921,
        1.999575,
        1.991451,
        1.98195,
        1.971469,
        1.960409,
        1.949167,
        1.938144,
        1.927666,
        1.917772,
        1.908429,
        1.899604,
        1.891263,
        1.883374,
        1.875903,
        1.868817,
        1.862084,
        1.85567,
        1.849544,
        1.843685,
        1.838074,
        1.832691,
        1.827518,
        1.822535,
        1.817723,
        1.813064,
        1.808537,
        1.804124,
        1.799806,
        1.795569,
        1.791399,
        1.787281,
        1.783201,
        1.779146,
        1.775101,
        1.771052,
        1.766985,
        1.762887,
        1.758746,
        1.754574,
        1.750382,
        1.746185,
        1.741996,
        1.737829,
        1.733697,
        1.729614,
        1.725594,
        1.72165,
        1.717786,
        1.713971,
        1.710166,
        1.70633,
        1.702423,
        1.698404,
        1.694234,
        1.689872,
        1.685278,
        1.680412,
        1.675255,
        1.669871,
        1.664346,
        1.658764,
        1.653211,
        1.647772,
        1.642532,
        1.637578,
        1.632994,
        1.628866,
        1.625214,
        1.621802,
        1.618328,
        1.614493,
        1.609993,
        1.60453,
        1.597801,
        1.589505,
        1.579342,
        1.56701,
        1.552363,
        1.53587,
        1.518155,
        1.499843,
        1.481558,
        1.463923,
        1.447563,
        1.433102,
        1.421163,
        1.412371,
        1.407159,
        1.405193,
        1.405947,
        1.408897,
        1.413517,
        1.419283,
        1.425669,
        1.432151,
        1.438202,
        1.443299,
        1.447022,
        1.449381,
        1.45049,
        1.450466,
        1.449425,
        1.44748,
        1.444749,
        1.441347,
        1.437388,
        1.43299,
        1.428258,
        1.423264,
        1.418071,
        1.412743,
        1.407341,
        1.40193,
        1.396571,
        1.391329,
        1.386265,
        1.381443,
        1.376906,
        1.372616,
        1.368514,
        1.364542,
        1.360644,
        1.356759,
        1.352831,
        1.348802,
        1.344613,
        1.340206,
        1.335541,
        1.330645,
        1.325565,
        1.320346,
        1.315033,
        1.309672,
        1.304309,
        1.298988,
        1.293757,
        1.28866,
        1.283735,
        1.278989,
        1.274423,
        1.270034,
        1.265824,
        1.261791,
        1.257935,
        1.254255,
        1.250751,
        1.247423,
        1.244262,
        1.241233,
        1.238291,
        1.235394,
        1.232497,
        1.229557,
        1.226531,
        1.223374,
        1.220043,
        1.216495,
        1.212701,
        1.208698,
        1.204536,
        1.200266,
        1.19594,
        1.19161,
        1.187324,
        1.183137,
        1.179097,
        1.175258,
        1.171654,
        1.168264,
        1.165049,
        1.161973,
        1.158999,
        1.156087,
        1.153202,
        1.150306,
        1.147361,
        1.14433,
        1.141187,
        1.137958,
        1.134679,
        1.131386,
        1.128117,
        1.124907,
        1.121794,
        1.118814,
        1.116005,
        1.113402,
        1.111029,
        1.108851,
        1.106822,
        1.104894,
        1.103019,
        1.101151,
        1.09924,
        1.09724,
        1.095104,
        1.092783,
        1.090244,
        1.087502,
        1.084588,
        1.081532,
        1.078362,
        1.075109,
        1.071802,
        1.068471,
        1.065146,
        1.061856,
        1.058624,
        1.055448,
        1.052319,
        1.049227,
        1.046162,
        1.043115,
        1.040078,
        1.037041,
        1.033994,
        1.030928,
        1.027837,
        1.024725,
        1.0216,
        1.01847,
        1.015342,
        1.012223,
        1.009122,
        1.006047,
        1.003003,
        1.0,
        0.99704,
        0.994106,
        0.991178,
        0.988235,
        0.985255,
        0.982218,
        0.979102,
        0.975887,
        0.97255,
        0.969072,
        0.965441,
        0.961687,
        0.957849,
        0.953967,
        0.95008,
        0.946228,
        0.94245,
        0.938787,
        0.935276,
        0.931959,
        0.928863,
        0.925974,
        0.923266,
        0.920713,
        0.91829,
        0.915971,
        0.913729,
        0.91154,
        0.909378,
        0.907216,
        0.905035,
        0.90283,
        0.900603,
        0.898356,
        0.89609,
        0.893807,
        0.891509,
        0.889197,
        0.886872,
        0.884536,
        0.882191,
        0.879837,
        0.877476,
        0.875109,
        0.872736,
        0.870359,
        0.867978,
        0.865595,
        0.86321,
        0.860825,
        0.85844,
        0.856056,
        0.853674,
        0.851295,
        0.848919,
        0.846547,
        0.84418,
        0.841818,
        0.839462,
        0.837113,
        0.834772,
        0.832441,
        0.830122,
        0.827818,
        0.825531,
        0.823263,
        0.821017,
        0.818795,
        0.816599,
        0.814433,
        0.808741,
        0.809048,
        0.806883,
        0.805562,
        0.802281,
        0.802423,
        0.80232,
        0.799714,
        0.796938,
        0.791639,
        0.791969,
        0.783073,
        0.789922,
        0.784853,
        0.780715,
        0.773142,
        0.777436,
        0.774282,
        0.773385,
        0.769408,
        0.765757,
        0.769239,
        0.771805,
        0.765125,
        0.787062,
        0.76411,
        0.776718,
        0.754763,
        0.752215,
        0.750283,
        0.751152,
        0.745955,
        0.746034,
        0.740313,
        0.739153,
        0.737828,
        0.736809,
        0.730065,
        0.731938,
        0.727746,
        0.728961,
        0.728718,
        0.755432,
        0.720779,
        0.729775,
        0.72164,
        0.714783,
        0.713957,
        0.713761,
        0.707456,
        0.706882,
        0.701395,
        0.698237,
        0.702187,
        0.701225,
        0.715725,
        0.709585,
        0.701701,
        0.701561,
        0.690548,
        0.696473,
        0.691018,
        0.689557,
        0.683885,
        0.687459,
        0.681732,
        0.681508,
        0.682498,
        0.678235,
        0.681039,
        0.679195,
        0.682695,
        0.669982,
        0.671064,
        0.665895,
        0.646695,
        0.653668,
        0.660827,
        0.66046,
        0.658744,
        0.657531,
        0.657429,
        0.65218,
        0.653111,
        0.65279,
        0.652418,
        0.651191,
        0.651994,
        0.64338,
        0.633537,
        0.639747,
        0.645684,
        0.640991,
        0.630138,
        0.627707,
        0.631906,
        0.631988,
        0.631366,
        0.629461,
        0.629607,
        0.625639,
        0.626366,
        0.623491,
        0.62236,
        0.616227,
        0.617964,
        0.618457,
        0.616016,
        0.609861,
        0.606796,
        0.607152,
        0.606382,
        0.604374,
        0.601187,
        0.601374,
        0.596313,
        0.589282,
        0.589989,
        0.584344,
        0.596225,
        0.599096,
        0.602114,
        0.601895,
        0.599335,
        0.594769,
        0.592614,
        0.587714,
        0.580733,
        0.56432,
        0.553762,
        0.525322,
        0.468045,
        0.421172,
        0.473103,
        0.527241,
        0.551365,
        0.563102,
        0.57588,
        0.578806,
        0.578107,
        0.57827,
        0.577439,
        0.578059,
        0.575854,
        0.570952,
        0.565505,
        0.560271,
        0.556746,
        0.554199,
        0.553551,
        0.54838,
        0.545714,
        0.543852,
        0.541588,
        0.53615,
        0.53135,
        0.537862,
        0.535771,
        0.542676,
        0.536791,
        0.53504,
        0.536426,
        0.534593,
        0.528653,
        0.52723,
        0.528816,
        0.530415,
        0.526891,
        0.525439,
        0.523596,
        0.522831,
        0.521033,
        0.522207,
        0.518087,
        0.519021,
        0.519135,
        0.513906,
        0.515596,
        0.51428,
        0.512873,
        0.513741,
        0.508424,
        0.507474,
        0.506548,
        0.507174,
        0.504279,
        0.502423,
        0.501534,
        0.500576,
        0.499497,
        0.498518,
        0.497523,
        0.496538,
        0.495564,
        0.494469,
        0.493354,
        0.492256,
        0.491203,
        0.490071,
        0.488914,
        0.487758,
        0.48661,
        0.48541,
        0.484218,
        0.483022,
        0.481827,
        0.480673,
        0.479672,
        0.478535,
        0.477409,
        0.476367,
        0.475345,
        0.474224,
        0.472959,
        0.473658,
        0.472239,
        0.471699,
        0.470705,
        0.468638,
        0.463963,
        0.467101,
        0.465855,
        0.462162,
        0.461542,
        0.463325,
        0.4592,
        0.456396,
        0.453586,
        0.45669,
        0.456617,
        0.454621,
        0.454321,
        0.447945,
        0.448237,
        0.454746,
        0.450401,
        0.448477,
        0.450263,
        0.446599,
        0.443638,
        0.446371,
        0.445309,
        0.442981,
        0.446552,
        0.440089,
        0.440974,
        0.438895,
        0.440746,
        0.441247,
        0.436431,
        0.433249,
        0.436134,
        0.435646,
        0.428344,
        0.424375,
        0.420939,
        0.414504,
        0.415726,
        0.417552,
        0.416355,
        0.415727,
        0.421096,
        0.428004,
        0.424912,
        0.423259,
        0.418715,
        0.412941,
        0.410628,
        0.408714,
        0.414345,
        0.409404,
        0.415689,
        0.41167,
        0.404628,
        0.405223,
        0.404731,
        0.407003,
        0.404295,
        0.40372,
        0.407127,
        0.402341,
        0.400188,
        0.397224,
        0.394659,
        0.398247,
        0.40115,
        0.397225,
        0.396046,
        0.39672,
        0.396323,
        0.394148,
        0.392236,
        0.392374,
        0.392365,
        0.391208,
        0.38816,
        0.386474,
        0.386933,
        0.386937,
        0.387879,
        0.383785,
        0.382943,
        0.38262,
        0.38167,
        0.378991,
        0.377369,
        0.377863,
        0.378987,
        0.377671,
        0.373985,
        0.375558,
        0.374364,
        0.373816,
        0.371671,
        0.371211,
        0.370428,
        0.369253,
        0.369695,
        0.36533,
        0.366096,
        0.363761,
        0.364065,
        0.362602,
        0.361118,
        0.36059,
        0.360555,
        0.363996,
        0.360221,
        0.358314,
        0.35739,
        0.356591,
        0.355665,
        0.354807,
        0.353918,
        0.353066,
        0.352202,
        0.351324,
        0.350451,
        0.34964,
        0.348973,
        0.34819,
        0.347374,
        0.346557,
        0.345742,
        0.34493,
        0.344121,
        0.343315,
        0.342514,
        0.341717,
        0.340923,
        0.340132,
        0.339343,
        0.338556,
        0.337756,
        0.336998,
        0.336187,
        0.335404,
        0.334628,
        0.333767,
        0.332909,
        0.332082,
        0.331218,
        0.330536,
        0.329944,
        0.329242,
        0.328769,
        0.326529,
        0.327541,
        0.325353,
        0.324714,
        0.3253,
        0.324415,
        0.322691,
        0.322838,
        0.316653,
        0.314814,
        0.316045,
        0.320144,
        0.318455,
        0.316344,
        0.317652,
        0.32038,
        0.318643,
        0.315028,
        0.314496,
        0.316328,
        0.311536,
        0.310735,
        0.304762,
        0.306884,
        0.308562,
        0.310595,
        0.309708,
        0.305925,
        0.305776,
        0.30393,
        0.303144,
        0.303698,
        0.301707,
        0.298569,
        0.299575,
        0.300204,
        0.29981,
        0.300938,
        0.301026,
        0.298573,
        0.295357,
        0.29653,
        0.294776,
        0.292576,
        0.29315,
        0.291218,
        0.289864,
        0.291466,
        0.289972,
        0.29022,
        0.288159,
        0.288337,
        0.289062,
        0.285535,
        0.286141,
        0.286887,
        0.285083,
        0.286277,
        0.283786,
        0.280568,
        0.280683,
        0.283686,
        0.282301,
        0.280633,
        0.282654,
        0.282862,
        0.2806,
        0.277819,
        0.276378,
        0.27516,
        0.278262,
        0.275605,
        0.278475,
        0.27683,
        0.276219,
        0.276101,
        0.272344,
        0.270529,
        0.273971,
        0.274214,
        0.270798,
        0.268615,
        0.269755,
        0.266517,
        0.269272,
        0.267115,
        0.257962,
        0.256292,
        0.26689,
        0.261967,
        0.264421,
        0.26566,
        0.264915,
        0.265891,
        0.262477,
        0.266381,
        0.263621,
        0.261741,
        0.259639,
        0.24884,
        0.246121,
        0.255849,
        0.260606,
        0.256513,
        0.259197,
        0.254679,
        0.25459,
        0.258369,
        0.253155,
        0.250686,
        0.252828,
        0.254066,
        0.250731,
        0.250957,
        0.248251,
        0.247132,
        0.247839,
        0.247611,
        0.250212,
        0.249044,
        0.24599,
        0.249919,
        0.250167,
        0.24337,
        0.244211,
        0.246773,
        0.242797,
        0.243194,
        0.24062,
        0.242294,
        0.245008,
        0.245529,
        0.241972,
        0.238743,
        0.239731,
        0.239999,
        0.24098,
        0.237564,
        0.240172,
        0.239869,
        0.238929,
        0.237437,
        0.236108,
        0.235292,
        0.236827,
        0.238359,
        0.233428,
        0.231448,
        0.235812,
        0.2383,
        0.236865,
        0.234649,
        0.234459,
        0.230496,
        0.228259,
        0.230579,
        0.231592,
        0.232171,
        0.235726,
        0.235674,
        0.231079,
        0.227347,
        0.222926,
        0.223733,
        0.229678,
        0.233144,
        0.234923,
        0.231335,
        0.233019,
        0.231061,
        0.22885,
        0.22579,
        0.220779,
        0.217424,
        0.21595,
        0.225136,
        0.232659,
        0.237081,
        0.2377,
        0.235772,
        0.236489,
        0.235369,
        0.233502,
        0.224618,
        0.220086,
        0.218145,
        0.207333,
        0.204183,
        0.213875,
        0.224378,
        0.226456,
        0.232193,
        0.236266,
        0.232268,
        0.242134,
        0.244808,
        0.236658,
        0.237866,
        0.238828,
        0.232962,
        0.22406,
        0.214825,
        0.205688,
        0.198003,
        0.197456,
        0.203337,
        0.210388,
        0.220176,
        0.22554,
        0.219909,
        0.229072,
        0.22788,
        0.231691,
        0.230972,
        0.23327,
        0.234369,
        0.234544,
        0.236474,
        0.231655,
        0.223773,
        0.223766,
        0.220449,
        0.216995,
        0.205779,
        0.200065,
        0.193469,
        0.184482,
        0.189328,
        0.197209,
        0.209013,
        0.213375,
        0.219121,
        0.222016,
        0.22507,
        0.221398,
        0.224492,
        0.224364,
        0.221463,
        0.221265,
        0.213789,
        0.212691,
        0.220653,
        0.221186,
        0.22207,
        0.218965,
        0.217028,
        0.219285,
        0.210998,
        0.20898,
        0.207247,
        0.210369,
        0.197387,
        0.193177,
        0.194221,
        0.187476,
        0.183488,
        0.172336,
        0.158511,
        0.169725,
        0.188515,
        0.196885,
        0.205855,
        0.208719,
        0.212851,
        0.215834,
        0.212138,
        0.209944,
        0.207587,
        0.202174,
        0.203787,
        0.202157,
        0.20194,
        0.198318,
        0.203457,
        0.205321,
        0.198767,
        0.200575,
        0.194389,
        0.203206,
        0.201878,
        0.193131,
        0.194705,
        0.198123,
        0.197762,
        0.191096,
        0.197415,
        0.190063,
        0.195956,
        0.198637,
        0.194352,
        0.194296,
        0.194637,
        0.193188,
        0.192439,
        0.184351,
        0.181704,
        0.175909,
        0.170688,
        0.157899,
        0.149344,
        0.152089,
        0.161741,
        0.177037,
        0.177454,
        0.180833,
        0.184634,
        0.18077,
        0.189237,
        0.192301,
        0.190226,
        0.195465,
        0.188406,
        0.185989,
        0.183904,
        0.179217,
        0.180142,
        0.173506,
        0.168138,
        0.157428,
        0.178257,
        0.178002,
        0.160426,
        0.152299,
        0.158815,
        0.167119,
        0.160741,
        0.170766,
        0.161575,
        0.167059,
        0.17582,
        0.174681,
        0.175933,
        0.188678,
        0.195874,
        0.184593,
        0.174993,
        0.176281,
        0.186875,
        0.179223,
        0.170967,
        0.173444,
        0.152071,
        0.160997,
        0.179822,
        0.165216,
        0.155312,
        0.16933,
        0.180832,
        0.175167,
        0.167899,
        0.152431,
        0.174893,
        0.175829,
        0.164556,
        0.166366,
        0.175378,
        0.175818,
        0.183126,
        0.165974,
        0.152527,
        0.160524,
        0.155051,
        0.13805,
        0.134096,
        0.123229,
        0.138843,
        0.154833,
        0.17715,
        0.168787,
        0.171205,
        0.165696,
        0.169425,
        0.166874,
        0.152809,
        0.163709,
        0.166268,
        0.174738,
        0.164325,
        0.157121,
        0.160398,
        0.161411,
        0.169394,
        0.176881,
        0.141201,
        0.163127,
        0.154107,
        0.162078,
        0.149056,
        0.151364,
        0.168795,
        0.16244,
        0.162964,
        0.153943,
        0.166427,
        0.164343,
        0.177665,
        0.171471,
        0.155384,
        0.153869,
        0.162278,
        0.15021,
        0.1447,
        0.146321,
        0.157423,
        0.146825,
        0.154504,
        0.153871,
        0.160848,
        0.160155,
        0.147884,
        0.148343,
        0.139495,
        0.154352,
        0.163648,
        0.153669,
        0.155378,
        0.15402,
        0.166194,
        0.144288,
        0.133724,
        0.151585,
        0.160053,
        0.153645,
        0.146627,
        0.145349,
        0.152703,
        0.16115,
        0.136918,
        0.150807,
        0.136474,
        0.149761,
        0.14018,
        0.150285,
        0.162376,
        0.152467,
        0.16867,
        0.143132,
        0.145727,
        0.149775,
        0.135531,
        0.147519,
        0.14021,
        0.149277,
        0.154992,
        0.126335,
        0.172563,
        0.143208,
        0.149896,
        0.140022,
        0.137932,
        0.182006,
        0.145942,
        0.126622,
        0.144729,
        0.15441,
        0.139237,
        0.134878,
        0.135317,
        0.131545,
        0.152053,
        0.143232,
        0.138213,
        0.130229,
        0.129588,
        0.118915,
        0.129867,
        0.125879,
        0.132371,
        0.132385,
        0.135196,
        0.131637,
        0.143913,
        0.134534,
        0.138144,
        0.138308,
        0.138335,
        0.138246,
        0.138061,
        0.1378,
        0.137485,
        0.137135,
        0.136771,
        0.136413,
        0.136082,
        0.135794,
        0.135545,
        0.135327,
        0.135133,
        0.134954,
        0.134784,
        0.134613,
        0.134434,
        0.134239,
        0.134021,
        0.133773,
        0.133498,
        0.133201,
        0.132888,
        0.132562,
        0.13223,
        0.131895,
        0.131564,
        0.131239,
        0.130928,
        0.130633,
        0.130356,
        0.130098,
        0.12986,
        0.129641,
        0.129443,
        0.129265,
        0.12911,
        0.128976,
        0.128866,
        0.128466,
        0.128357,
        0.128253,
        0.128149,
        0.128043,
        0.12793,
        0.127807,
        0.127671,
        0.127517,
        0.127342,
        0.127144,
        0.126927,
        0.126695,
        0.126453,
        0.126207,
        0.12596,
        0.125719,
        0.125489,
        0.125274,
        0.125078,
        0.124906,
        0.124757,
        0.124624,
        0.124504,
        0.124394,
        0.12429,
        0.124187,
        0.124082,
        0.123971,
        0.12385,
        0.123715,
        0.123568,
        0.12341,
        0.123242,
        0.123066,
        0.122882,
        0.122694,
        0.122501,
        0.122307,
        0.122111
      ],
      "range":1
    }
  }
]
