[
  {
    "model":"Star, type F5(v)",
    "name":"Star, type F5(v)",
    "type":"WB_REF",
    "dataQualityMarker":3,
    "dataSource":"https://www.eso.org/sci/facilities/paranal/decommissioned/isaac/tools/lib.html",
    "manufacturer":"A. Pickles (A.J. Pickles, PASP 110,863, 1998)",
    "version":1,
    "wavelength":{
      "value":[
        1150.0,
        1155.0,
        1160.0,
        1165.0,
        1170.0,
        1175.0,
        1180.0,
        1185.0,
        1190.0,
        1195.0,
        1200.0,
        1205.0,
        1210.0,
        1215.0,
        1220.0,
        1225.0,
        1230.0,
        1235.0,
        1240.0,
        1245.0,
        1250.0,
        1255.0,
        1260.0,
        1265.0,
        1270.0,
        1275.0,
        1280.0,
        1285.0,
        1290.0,
        1295.0,
        1300.0,
        1305.0,
        1310.0,
        1315.0,
        1320.0,
        1325.0,
        1330.0,
        1335.0,
        1340.0,
        1345.0,
        1350.0,
        1355.0,
        1360.0,
        1365.0,
        1370.0,
        1375.0,
        1380.0,
        1385.0,
        1390.0,
        1395.0,
        1400.0,
        1405.0,
        1410.0,
        1415.0,
        1420.0,
        1425.0,
        1430.0,
        1435.0,
        1440.0,
        1445.0,
        1450.0,
        1455.0,
        1460.0,
        1465.0,
        1470.0,
        1475.0,
        1480.0,
        1485.0,
        1490.0,
        1495.0,
        1500.0,
        1505.0,
        1510.0,
        1515.0,
        1520.0,
        1525.0,
        1530.0,
        1535.0,
        1540.0,
        1545.0,
        1550.0,
        1555.0,
        1560.0,
        1565.0,
        1570.0,
        1575.0,
        1580.0,
        1585.0,
        1590.0,
        1595.0,
        1600.0,
        1605.0,
        1610.0,
        1615.0,
        1620.0,
        1625.0,
        1630.0,
        1635.0,
        1640.0,
        1645.0,
        1650.0,
        1655.0,
        1660.0,
        1665.0,
        1670.0,
        1675.0,
        1680.0,
        1685.0,
        1690.0,
        1695.0,
        1700.0,
        1705.0,
        1710.0,
        1715.0,
        1720.0,
        1725.0,
        1730.0,
        1735.0,
        1740.0,
        1745.0,
        1750.0,
        1755.0,
        1760.0,
        1765.0,
        1770.0,
        1775.0,
        1780.0,
        1785.0,
        1790.0,
        1795.0,
        1800.0,
        1805.0,
        1810.0,
        1815.0,
        1820.0,
        1825.0,
        1830.0,
        1835.0,
        1840.0,
        1845.0,
        1850.0,
        1855.0,
        1860.0,
        1865.0,
        1870.0,
        1875.0,
        1880.0,
        1885.0,
        1890.0,
        1895.0,
        1900.0,
        1905.0,
        1910.0,
        1915.0,
        1920.0,
        1925.0,
        1930.0,
        1935.0,
        1940.0,
        1945.0,
        1950.0,
        1955.0,
        1960.0,
        1965.0,
        1970.0,
        1975.0,
        1980.0,
        1985.0,
        1990.0,
        1995.0,
        2000.0,
        2005.0,
        2010.0,
        2015.0,
        2020.0,
        2025.0,
        2030.0,
        2035.0,
        2040.0,
        2045.0,
        2050.0,
        2055.0,
        2060.0,
        2065.0,
        2070.0,
        2075.0,
        2080.0,
        2085.0,
        2090.0,
        2095.0,
        2100.0,
        2105.0,
        2110.0,
        2115.0,
        2120.0,
        2125.0,
        2130.0,
        2135.0,
        2140.0,
        2145.0,
        2150.0,
        2155.0,
        2160.0,
        2165.0,
        2170.0,
        2175.0,
        2180.0,
        2185.0,
        2190.0,
        2195.0,
        2200.0,
        2205.0,
        2210.0,
        2215.0,
        2220.0,
        2225.0,
        2230.0,
        2235.0,
        2240.0,
        2245.0,
        2250.0,
        2255.0,
        2260.0,
        2265.0,
        2270.0,
        2275.0,
        2280.0,
        2285.0,
        2290.0,
        2295.0,
        2300.0,
        2305.0,
        2310.0,
        2315.0,
        2320.0,
        2325.0,
        2330.0,
        2335.0,
        2340.0,
        2345.0,
        2350.0,
        2355.0,
        2360.0,
        2365.0,
        2370.0,
        2375.0,
        2380.0,
        2385.0,
        2390.0,
        2395.0,
        2400.0,
        2405.0,
        2410.0,
        2415.0,
        2420.0,
        2425.0,
        2430.0,
        2435.0,
        2440.0,
        2445.0,
        2450.0,
        2455.0,
        2460.0,
        2465.0,
        2470.0,
        2475.0,
        2480.0,
        2485.0,
        2490.0,
        2495.0,
        2500.0,
        2505.0,
        2510.0,
        2515.0,
        2520.0,
        2525.0,
        2530.0,
        2535.0,
        2540.0,
        2545.0,
        2550.0,
        2555.0,
        2560.0,
        2565.0,
        2570.0,
        2575.0,
        2580.0,
        2585.0,
        2590.0,
        2595.0,
        2600.0,
        2605.0,
        2610.0,
        2615.0,
        2620.0,
        2625.0,
        2630.0,
        2635.0,
        2640.0,
        2645.0,
        2650.0,
        2655.0,
        2660.0,
        2665.0,
        2670.0,
        2675.0,
        2680.0,
        2685.0,
        2690.0,
        2695.0,
        2700.0,
        2705.0,
        2710.0,
        2715.0,
        2720.0,
        2725.0,
        2730.0,
        2735.0,
        2740.0,
        2745.0,
        2750.0,
        2755.0,
        2760.0,
        2765.0,
        2770.0,
        2775.0,
        2780.0,
        2785.0,
        2790.0,
        2795.0,
        2800.0,
        2805.0,
        2810.0,
        2815.0,
        2820.0,
        2825.0,
        2830.0,
        2835.0,
        2840.0,
        2845.0,
        2850.0,
        2855.0,
        2860.0,
        2865.0,
        2870.0,
        2875.0,
        2880.0,
        2885.0,
        2890.0,
        2895.0,
        2900.0,
        2905.0,
        2910.0,
        2915.0,
        2920.0,
        2925.0,
        2930.0,
        2935.0,
        2940.0,
        2945.0,
        2950.0,
        2955.0,
        2960.0,
        2965.0,
        2970.0,
        2975.0,
        2980.0,
        2985.0,
        2990.0,
        2995.0,
        3000.0,
        3005.0,
        3010.0,
        3015.0,
        3020.0,
        3025.0,
        3030.0,
        3035.0,
        3040.0,
        3045.0,
        3050.0,
        3055.0,
        3060.0,
        3065.0,
        3070.0,
        3075.0,
        3080.0,
        3085.0,
        3090.0,
        3095.0,
        3100.0,
        3105.0,
        3110.0,
        3115.0,
        3120.0,
        3125.0,
        3130.0,
        3135.0,
        3140.0,
        3145.0,
        3150.0,
        3155.0,
        3160.0,
        3165.0,
        3170.0,
        3175.0,
        3180.0,
        3185.0,
        3190.0,
        3195.0,
        3200.0,
        3205.0,
        3210.0,
        3215.0,
        3220.0,
        3225.0,
        3230.0,
        3235.0,
        3240.0,
        3245.0,
        3250.0,
        3255.0,
        3260.0,
        3265.0,
        3270.0,
        3275.0,
        3280.0,
        3285.0,
        3290.0,
        3295.0,
        3300.0,
        3305.0,
        3310.0,
        3315.0,
        3320.0,
        3325.0,
        3330.0,
        3335.0,
        3340.0,
        3345.0,
        3350.0,
        3355.0,
        3360.0,
        3365.0,
        3370.0,
        3375.0,
        3380.0,
        3385.0,
        3390.0,
        3395.0,
        3400.0,
        3405.0,
        3410.0,
        3415.0,
        3420.0,
        3425.0,
        3430.0,
        3435.0,
        3440.0,
        3445.0,
        3450.0,
        3455.0,
        3460.0,
        3465.0,
        3470.0,
        3475.0,
        3480.0,
        3485.0,
        3490.0,
        3495.0,
        3500.0,
        3505.0,
        3510.0,
        3515.0,
        3520.0,
        3525.0,
        3530.0,
        3535.0,
        3540.0,
        3545.0,
        3550.0,
        3555.0,
        3560.0,
        3565.0,
        3570.0,
        3575.0,
        3580.0,
        3585.0,
        3590.0,
        3595.0,
        3600.0,
        3605.0,
        3610.0,
        3615.0,
        3620.0,
        3625.0,
        3630.0,
        3635.0,
        3640.0,
        3645.0,
        3650.0,
        3655.0,
        3660.0,
        3665.0,
        3670.0,
        3675.0,
        3680.0,
        3685.0,
        3690.0,
        3695.0,
        3700.0,
        3705.0,
        3710.0,
        3715.0,
        3720.0,
        3725.0,
        3730.0,
        3735.0,
        3740.0,
        3745.0,
        3750.0,
        3755.0,
        3760.0,
        3765.0,
        3770.0,
        3775.0,
        3780.0,
        3785.0,
        3790.0,
        3795.0,
        3800.0,
        3805.0,
        3810.0,
        3815.0,
        3820.0,
        3825.0,
        3830.0,
        3835.0,
        3840.0,
        3845.0,
        3850.0,
        3855.0,
        3860.0,
        3865.0,
        3870.0,
        3875.0,
        3880.0,
        3885.0,
        3890.0,
        3895.0,
        3900.0,
        3905.0,
        3910.0,
        3915.0,
        3920.0,
        3925.0,
        3930.0,
        3935.0,
        3940.0,
        3945.0,
        3950.0,
        3955.0,
        3960.0,
        3965.0,
        3970.0,
        3975.0,
        3980.0,
        3985.0,
        3990.0,
        3995.0,
        4000.0,
        4005.0,
        4010.0,
        4015.0,
        4020.0,
        4025.0,
        4030.0,
        4035.0,
        4040.0,
        4045.0,
        4050.0,
        4055.0,
        4060.0,
        4065.0,
        4070.0,
        4075.0,
        4080.0,
        4085.0,
        4090.0,
        4095.0,
        4100.0,
        4105.0,
        4110.0,
        4115.0,
        4120.0,
        4125.0,
        4130.0,
        4135.0,
        4140.0,
        4145.0,
        4150.0,
        4155.0,
        4160.0,
        4165.0,
        4170.0,
        4175.0,
        4180.0,
        4185.0,
        4190.0,
        4195.0,
        4200.0,
        4205.0,
        4210.0,
        4215.0,
        4220.0,
        4225.0,
        4230.0,
        4235.0,
        4240.0,
        4245.0,
        4250.0,
        4255.0,
        4260.0,
        4265.0,
        4270.0,
        4275.0,
        4280.0,
        4285.0,
        4290.0,
        4295.0,
        4300.0,
        4305.0,
        4310.0,
        4315.0,
        4320.0,
        4325.0,
        4330.0,
        4335.0,
        4340.0,
        4345.0,
        4350.0,
        4355.0,
        4360.0,
        4365.0,
        4370.0,
        4375.0,
        4380.0,
        4385.0,
        4390.0,
        4395.0,
        4400.0,
        4405.0,
        4410.0,
        4415.0,
        4420.0,
        4425.0,
        4430.0,
        4435.0,
        4440.0,
        4445.0,
        4450.0,
        4455.0,
        4460.0,
        4465.0,
        4470.0,
        4475.0,
        4480.0,
        4485.0,
        4490.0,
        4495.0,
        4500.0,
        4505.0,
        4510.0,
        4515.0,
        4520.0,
        4525.0,
        4530.0,
        4535.0,
        4540.0,
        4545.0,
        4550.0,
        4555.0,
        4560.0,
        4565.0,
        4570.0,
        4575.0,
        4580.0,
        4585.0,
        4590.0,
        4595.0,
        4600.0,
        4605.0,
        4610.0,
        4615.0,
        4620.0,
        4625.0,
        4630.0,
        4635.0,
        4640.0,
        4645.0,
        4650.0,
        4655.0,
        4660.0,
        4665.0,
        4670.0,
        4675.0,
        4680.0,
        4685.0,
        4690.0,
        4695.0,
        4700.0,
        4705.0,
        4710.0,
        4715.0,
        4720.0,
        4725.0,
        4730.0,
        4735.0,
        4740.0,
        4745.0,
        4750.0,
        4755.0,
        4760.0,
        4765.0,
        4770.0,
        4775.0,
        4780.0,
        4785.0,
        4790.0,
        4795.0,
        4800.0,
        4805.0,
        4810.0,
        4815.0,
        4820.0,
        4825.0,
        4830.0,
        4835.0,
        4840.0,
        4845.0,
        4850.0,
        4855.0,
        4860.0,
        4865.0,
        4870.0,
        4875.0,
        4880.0,
        4885.0,
        4890.0,
        4895.0,
        4900.0,
        4905.0,
        4910.0,
        4915.0,
        4920.0,
        4925.0,
        4930.0,
        4935.0,
        4940.0,
        4945.0,
        4950.0,
        4955.0,
        4960.0,
        4965.0,
        4970.0,
        4975.0,
        4980.0,
        4985.0,
        4990.0,
        4995.0,
        5000.0,
        5005.0,
        5010.0,
        5015.0,
        5020.0,
        5025.0,
        5030.0,
        5035.0,
        5040.0,
        5045.0,
        5050.0,
        5055.0,
        5060.0,
        5065.0,
        5070.0,
        5075.0,
        5080.0,
        5085.0,
        5090.0,
        5095.0,
        5100.0,
        5105.0,
        5110.0,
        5115.0,
        5120.0,
        5125.0,
        5130.0,
        5135.0,
        5140.0,
        5145.0,
        5150.0,
        5155.0,
        5160.0,
        5165.0,
        5170.0,
        5175.0,
        5180.0,
        5185.0,
        5190.0,
        5195.0,
        5200.0,
        5205.0,
        5210.0,
        5215.0,
        5220.0,
        5225.0,
        5230.0,
        5235.0,
        5240.0,
        5245.0,
        5250.0,
        5255.0,
        5260.0,
        5265.0,
        5270.0,
        5275.0,
        5280.0,
        5285.0,
        5290.0,
        5295.0,
        5300.0,
        5305.0,
        5310.0,
        5315.0,
        5320.0,
        5325.0,
        5330.0,
        5335.0,
        5340.0,
        5345.0,
        5350.0,
        5355.0,
        5360.0,
        5365.0,
        5370.0,
        5375.0,
        5380.0,
        5385.0,
        5390.0,
        5395.0,
        5400.0,
        5405.0,
        5410.0,
        5415.0,
        5420.0,
        5425.0,
        5430.0,
        5435.0,
        5440.0,
        5445.0,
        5450.0,
        5455.0,
        5460.0,
        5465.0,
        5470.0,
        5475.0,
        5480.0,
        5485.0,
        5490.0,
        5495.0,
        5500.0,
        5505.0,
        5510.0,
        5515.0,
        5520.0,
        5525.0,
        5530.0,
        5535.0,
        5540.0,
        5545.0,
        5550.0,
        5555.0,
        5560.0,
        5565.0,
        5570.0,
        5575.0,
        5580.0,
        5585.0,
        5590.0,
        5595.0,
        5600.0,
        5605.0,
        5610.0,
        5615.0,
        5620.0,
        5625.0,
        5630.0,
        5635.0,
        5640.0,
        5645.0,
        5650.0,
        5655.0,
        5660.0,
        5665.0,
        5670.0,
        5675.0,
        5680.0,
        5685.0,
        5690.0,
        5695.0,
        5700.0,
        5705.0,
        5710.0,
        5715.0,
        5720.0,
        5725.0,
        5730.0,
        5735.0,
        5740.0,
        5745.0,
        5750.0,
        5755.0,
        5760.0,
        5765.0,
        5770.0,
        5775.0,
        5780.0,
        5785.0,
        5790.0,
        5795.0,
        5800.0,
        5805.0,
        5810.0,
        5815.0,
        5820.0,
        5825.0,
        5830.0,
        5835.0,
        5840.0,
        5845.0,
        5850.0,
        5855.0,
        5860.0,
        5865.0,
        5870.0,
        5875.0,
        5880.0,
        5885.0,
        5890.0,
        5895.0,
        5900.0,
        5905.0,
        5910.0,
        5915.0,
        5920.0,
        5925.0,
        5930.0,
        5935.0,
        5940.0,
        5945.0,
        5950.0,
        5955.0,
        5960.0,
        5965.0,
        5970.0,
        5975.0,
        5980.0,
        5985.0,
        5990.0,
        5995.0,
        6000.0,
        6005.0,
        6010.0,
        6015.0,
        6020.0,
        6025.0,
        6030.0,
        6035.0,
        6040.0,
        6045.0,
        6050.0,
        6055.0,
        6060.0,
        6065.0,
        6070.0,
        6075.0,
        6080.0,
        6085.0,
        6090.0,
        6095.0,
        6100.0,
        6105.0,
        6110.0,
        6115.0,
        6120.0,
        6125.0,
        6130.0,
        6135.0,
        6140.0,
        6145.0,
        6150.0,
        6155.0,
        6160.0,
        6165.0,
        6170.0,
        6175.0,
        6180.0,
        6185.0,
        6190.0,
        6195.0,
        6200.0,
        6205.0,
        6210.0,
        6215.0,
        6220.0,
        6225.0,
        6230.0,
        6235.0,
        6240.0,
        6245.0,
        6250.0,
        6255.0,
        6260.0,
        6265.0,
        6270.0,
        6275.0,
        6280.0,
        6285.0,
        6290.0,
        6295.0,
        6300.0,
        6305.0,
        6310.0,
        6315.0,
        6320.0,
        6325.0,
        6330.0,
        6335.0,
        6340.0,
        6345.0,
        6350.0,
        6355.0,
        6360.0,
        6365.0,
        6370.0,
        6375.0,
        6380.0,
        6385.0,
        6390.0,
        6395.0,
        6400.0,
        6405.0,
        6410.0,
        6415.0,
        6420.0,
        6425.0,
        6430.0,
        6435.0,
        6440.0,
        6445.0,
        6450.0,
        6455.0,
        6460.0,
        6465.0,
        6470.0,
        6475.0,
        6480.0,
        6485.0,
        6490.0,
        6495.0,
        6500.0,
        6505.0,
        6510.0,
        6515.0,
        6520.0,
        6525.0,
        6530.0,
        6535.0,
        6540.0,
        6545.0,
        6550.0,
        6555.0,
        6560.0,
        6565.0,
        6570.0,
        6575.0,
        6580.0,
        6585.0,
        6590.0,
        6595.0,
        6600.0,
        6605.0,
        6610.0,
        6615.0,
        6620.0,
        6625.0,
        6630.0,
        6635.0,
        6640.0,
        6645.0,
        6650.0,
        6655.0,
        6660.0,
        6665.0,
        6670.0,
        6675.0,
        6680.0,
        6685.0,
        6690.0,
        6695.0,
        6700.0,
        6705.0,
        6710.0,
        6715.0,
        6720.0,
        6725.0,
        6730.0,
        6735.0,
        6740.0,
        6745.0,
        6750.0,
        6755.0,
        6760.0,
        6765.0,
        6770.0,
        6775.0,
        6780.0,
        6785.0,
        6790.0,
        6795.0,
        6800.0,
        6805.0,
        6810.0,
        6815.0,
        6820.0,
        6825.0,
        6830.0,
        6835.0,
        6840.0,
        6845.0,
        6850.0,
        6855.0,
        6860.0,
        6865.0,
        6870.0,
        6875.0,
        6880.0,
        6885.0,
        6890.0,
        6895.0,
        6900.0,
        6905.0,
        6910.0,
        6915.0,
        6920.0,
        6925.0,
        6930.0,
        6935.0,
        6940.0,
        6945.0,
        6950.0,
        6955.0,
        6960.0,
        6965.0,
        6970.0,
        6975.0,
        6980.0,
        6985.0,
        6990.0,
        6995.0,
        7000.0,
        7005.0,
        7010.0,
        7015.0,
        7020.0,
        7025.0,
        7030.0,
        7035.0,
        7040.0,
        7045.0,
        7050.0,
        7055.0,
        7060.0,
        7065.0,
        7070.0,
        7075.0,
        7080.0,
        7085.0,
        7090.0,
        7095.0,
        7100.0,
        7105.0,
        7110.0,
        7115.0,
        7120.0,
        7125.0,
        7130.0,
        7135.0,
        7140.0,
        7145.0,
        7150.0,
        7155.0,
        7160.0,
        7165.0,
        7170.0,
        7175.0,
        7180.0,
        7185.0,
        7190.0,
        7195.0,
        7200.0,
        7205.0,
        7210.0,
        7215.0,
        7220.0,
        7225.0,
        7230.0,
        7235.0,
        7240.0,
        7245.0,
        7250.0,
        7255.0,
        7260.0,
        7265.0,
        7270.0,
        7275.0,
        7280.0,
        7285.0,
        7290.0,
        7295.0,
        7300.0,
        7305.0,
        7310.0,
        7315.0,
        7320.0,
        7325.0,
        7330.0,
        7335.0,
        7340.0,
        7345.0,
        7350.0,
        7355.0,
        7360.0,
        7365.0,
        7370.0,
        7375.0,
        7380.0,
        7385.0,
        7390.0,
        7395.0,
        7400.0,
        7405.0,
        7410.0,
        7415.0,
        7420.0,
        7425.0,
        7430.0,
        7435.0,
        7440.0,
        7445.0,
        7450.0,
        7455.0,
        7460.0,
        7465.0,
        7470.0,
        7475.0,
        7480.0,
        7485.0,
        7490.0,
        7495.0,
        7500.0,
        7505.0,
        7510.0,
        7515.0,
        7520.0,
        7525.0,
        7530.0,
        7535.0,
        7540.0,
        7545.0,
        7550.0,
        7555.0,
        7560.0,
        7565.0,
        7570.0,
        7575.0,
        7580.0,
        7585.0,
        7590.0,
        7595.0,
        7600.0,
        7605.0,
        7610.0,
        7615.0,
        7620.0,
        7625.0,
        7630.0,
        7635.0,
        7640.0,
        7645.0,
        7650.0,
        7655.0,
        7660.0,
        7665.0,
        7670.0,
        7675.0,
        7680.0,
        7685.0,
        7690.0,
        7695.0,
        7700.0,
        7705.0,
        7710.0,
        7715.0,
        7720.0,
        7725.0,
        7730.0,
        7735.0,
        7740.0,
        7745.0,
        7750.0,
        7755.0,
        7760.0,
        7765.0,
        7770.0,
        7775.0,
        7780.0,
        7785.0,
        7790.0,
        7795.0,
        7800.0,
        7805.0,
        7810.0,
        7815.0,
        7820.0,
        7825.0,
        7830.0,
        7835.0,
        7840.0,
        7845.0,
        7850.0,
        7855.0,
        7860.0,
        7865.0,
        7870.0,
        7875.0,
        7880.0,
        7885.0,
        7890.0,
        7895.0,
        7900.0,
        7905.0,
        7910.0,
        7915.0,
        7920.0,
        7925.0,
        7930.0,
        7935.0,
        7940.0,
        7945.0,
        7950.0,
        7955.0,
        7960.0,
        7965.0,
        7970.0,
        7975.0,
        7980.0,
        7985.0,
        7990.0,
        7995.0,
        8000.0,
        8005.0,
        8010.0,
        8015.0,
        8020.0,
        8025.0,
        8030.0,
        8035.0,
        8040.0,
        8045.0,
        8050.0,
        8055.0,
        8060.0,
        8065.0,
        8070.0,
        8075.0,
        8080.0,
        8085.0,
        8090.0,
        8095.0,
        8100.0,
        8105.0,
        8110.0,
        8115.0,
        8120.0,
        8125.0,
        8130.0,
        8135.0,
        8140.0,
        8145.0,
        8150.0,
        8155.0,
        8160.0,
        8165.0,
        8170.0,
        8175.0,
        8180.0,
        8185.0,
        8190.0,
        8195.0,
        8200.0,
        8205.0,
        8210.0,
        8215.0,
        8220.0,
        8225.0,
        8230.0,
        8235.0,
        8240.0,
        8245.0,
        8250.0,
        8255.0,
        8260.0,
        8265.0,
        8270.0,
        8275.0,
        8280.0,
        8285.0,
        8290.0,
        8295.0,
        8300.0,
        8305.0,
        8310.0,
        8315.0,
        8320.0,
        8325.0,
        8330.0,
        8335.0,
        8340.0,
        8345.0,
        8350.0,
        8355.0,
        8360.0,
        8365.0,
        8370.0,
        8375.0,
        8380.0,
        8385.0,
        8390.0,
        8395.0,
        8400.0,
        8405.0,
        8410.0,
        8415.0,
        8420.0,
        8425.0,
        8430.0,
        8435.0,
        8440.0,
        8445.0,
        8450.0,
        8455.0,
        8460.0,
        8465.0,
        8470.0,
        8475.0,
        8480.0,
        8485.0,
        8490.0,
        8495.0,
        8500.0,
        8505.0,
        8510.0,
        8515.0,
        8520.0,
        8525.0,
        8530.0,
        8535.0,
        8540.0,
        8545.0,
        8550.0,
        8555.0,
        8560.0,
        8565.0,
        8570.0,
        8575.0,
        8580.0,
        8585.0,
        8590.0,
        8595.0,
        8600.0,
        8605.0,
        8610.0,
        8615.0,
        8620.0,
        8625.0,
        8630.0,
        8635.0,
        8640.0,
        8645.0,
        8650.0,
        8655.0,
        8660.0,
        8665.0,
        8670.0,
        8675.0,
        8680.0,
        8685.0,
        8690.0,
        8695.0,
        8700.0,
        8705.0,
        8710.0,
        8715.0,
        8720.0,
        8725.0,
        8730.0,
        8735.0,
        8740.0,
        8745.0,
        8750.0,
        8755.0,
        8760.0,
        8765.0,
        8770.0,
        8775.0,
        8780.0,
        8785.0,
        8790.0,
        8795.0,
        8800.0,
        8805.0,
        8810.0,
        8815.0,
        8820.0,
        8825.0,
        8830.0,
        8835.0,
        8840.0,
        8845.0,
        8850.0,
        8855.0,
        8860.0,
        8865.0,
        8870.0,
        8875.0,
        8880.0,
        8885.0,
        8890.0,
        8895.0,
        8900.0,
        8905.0,
        8910.0,
        8915.0,
        8920.0,
        8925.0,
        8930.0,
        8935.0,
        8940.0,
        8945.0,
        8950.0,
        8955.0,
        8960.0,
        8965.0,
        8970.0,
        8975.0,
        8980.0,
        8985.0,
        8990.0,
        8995.0,
        9000.0,
        9005.0,
        9010.0,
        9015.0,
        9020.0,
        9025.0,
        9030.0,
        9035.0,
        9040.0,
        9045.0,
        9050.0,
        9055.0,
        9060.0,
        9065.0,
        9070.0,
        9075.0,
        9080.0,
        9085.0,
        9090.0,
        9095.0,
        9100.0,
        9105.0,
        9110.0,
        9115.0,
        9120.0,
        9125.0,
        9130.0,
        9135.0,
        9140.0,
        9145.0,
        9150.0,
        9155.0,
        9160.0,
        9165.0,
        9170.0,
        9175.0,
        9180.0,
        9185.0,
        9190.0,
        9195.0,
        9200.0,
        9205.0,
        9210.0,
        9215.0,
        9220.0,
        9225.0,
        9230.0,
        9235.0,
        9240.0,
        9245.0,
        9250.0,
        9255.0,
        9260.0,
        9265.0,
        9270.0,
        9275.0,
        9280.0,
        9285.0,
        9290.0,
        9295.0,
        9300.0,
        9305.0,
        9310.0,
        9315.0,
        9320.0,
        9325.0,
        9330.0,
        9335.0,
        9340.0,
        9345.0,
        9350.0,
        9355.0,
        9360.0,
        9365.0,
        9370.0,
        9375.0,
        9380.0,
        9385.0,
        9390.0,
        9395.0,
        9400.0,
        9405.0,
        9410.0,
        9415.0,
        9420.0,
        9425.0,
        9430.0,
        9435.0,
        9440.0,
        9445.0,
        9450.0,
        9455.0,
        9460.0,
        9465.0,
        9470.0,
        9475.0,
        9480.0,
        9485.0,
        9490.0,
        9495.0,
        9500.0,
        9505.0,
        9510.0,
        9515.0,
        9520.0,
        9525.0,
        9530.0,
        9535.0,
        9540.0,
        9545.0,
        9550.0,
        9555.0,
        9560.0,
        9565.0,
        9570.0,
        9575.0,
        9580.0,
        9585.0,
        9590.0,
        9595.0,
        9600.0,
        9605.0,
        9610.0,
        9615.0,
        9620.0,
        9625.0,
        9630.0,
        9635.0,
        9640.0,
        9645.0,
        9650.0,
        9655.0,
        9660.0,
        9665.0,
        9670.0,
        9675.0,
        9680.0,
        9685.0,
        9690.0,
        9695.0,
        9700.0,
        9705.0,
        9710.0,
        9715.0,
        9720.0,
        9725.0,
        9730.0,
        9735.0,
        9740.0,
        9745.0,
        9750.0,
        9755.0,
        9760.0,
        9765.0,
        9770.0,
        9775.0,
        9780.0,
        9785.0,
        9790.0,
        9795.0,
        9800.0,
        9805.0,
        9810.0,
        9815.0,
        9820.0,
        9825.0,
        9830.0,
        9835.0,
        9840.0,
        9845.0,
        9850.0,
        9855.0,
        9860.0,
        9865.0,
        9870.0,
        9875.0,
        9880.0,
        9885.0,
        9890.0,
        9895.0,
        9900.0,
        9905.0,
        9910.0,
        9915.0,
        9920.0,
        9925.0,
        9930.0,
        9935.0,
        9940.0,
        9945.0,
        9950.0,
        9955.0,
        9960.0,
        9965.0,
        9970.0,
        9975.0,
        9980.0,
        9985.0,
        9990.0,
        9995.0,
        10000.0,
        10005.0,
        10010.0,
        10015.0,
        10020.0,
        10025.0,
        10030.0,
        10035.0,
        10040.0,
        10045.0,
        10050.0,
        10055.0,
        10060.0,
        10065.0,
        10070.0,
        10075.0,
        10080.0,
        10085.0,
        10090.0,
        10095.0,
        10100.0,
        10105.0,
        10110.0,
        10115.0,
        10120.0,
        10125.0,
        10130.0,
        10135.0,
        10140.0,
        10145.0,
        10150.0,
        10155.0,
        10160.0,
        10165.0,
        10170.0,
        10175.0,
        10180.0,
        10185.0,
        10190.0,
        10195.0,
        10200.0,
        10205.0,
        10210.0,
        10215.0,
        10220.0,
        10225.0,
        10230.0,
        10235.0,
        10240.0,
        10245.0,
        10250.0,
        10255.0,
        10260.0,
        10265.0,
        10270.0,
        10275.0,
        10280.0,
        10285.0,
        10290.0,
        10295.0,
        10300.0,
        10305.0,
        10310.0,
        10315.0,
        10320.0,
        10325.0,
        10330.0,
        10335.0,
        10340.0,
        10345.0,
        10350.0,
        10355.0,
        10360.0,
        10365.0,
        10370.0,
        10375.0,
        10380.0,
        10385.0,
        10390.0,
        10395.0,
        10400.0,
        10405.0,
        10410.0,
        10415.0,
        10420.0,
        10425.0,
        10430.0,
        10435.0,
        10440.0,
        10445.0,
        10450.0,
        10455.0,
        10460.0,
        10465.0,
        10470.0,
        10475.0,
        10480.0,
        10485.0,
        10490.0,
        10495.0,
        10500.0
      ],
      "units":"angstrom"
    },
    "values":{
      "value":[
        0.003635,
        0.002063,
        0.001474,
        0.001403,
        0.002089,
        0.00089,
        0.0011,
        0.001237,
        0.00075,
        0.0,
        0.001912,
        0.002674,
        0.009632,
        0.021289,
        0.015726,
        0.003618,
        0.000575,
        0.00017,
        0.000516,
        0.00034,
        0.000625,
        0.000709,
        0.00067,
        0.000537,
        0.000351,
        0.000189,
        0.0006,
        0.000402,
        8.4e-05,
        0.000127,
        0.000443,
        0.000832,
        0.000724,
        0.00047,
        0.00026,
        0.00011,
        0.000469,
        0.000903,
        0.000683,
        0.00037,
        0.000544,
        0.000488,
        0.000679,
        0.000343,
        0.000326,
        0.000275,
        0.000482,
        0.000443,
        0.000436,
        0.000642,
        0.000508,
        0.00036,
        0.00026,
        0.000248,
        0.000474,
        0.000428,
        0.000638,
        0.000456,
        0.000584,
        0.000755,
        0.000868,
        0.000824,
        0.000881,
        0.000856,
        0.001054,
        0.00076,
        0.000801,
        0.001086,
        0.000688,
        0.000619,
        0.000857,
        0.000831,
        0.00077,
        0.000775,
        0.001116,
        0.001232,
        0.001295,
        0.001223,
        0.001384,
        0.001567,
        0.002252,
        0.001687,
        0.001794,
        0.001821,
        0.001459,
        0.001588,
        0.001764,
        0.001461,
        0.001368,
        0.001573,
        0.001502,
        0.001482,
        0.001283,
        0.001708,
        0.001657,
        0.001632,
        0.001468,
        0.001295,
        0.001713,
        0.002038,
        0.001914,
        0.001774,
        0.001898,
        0.002226,
        0.002334,
        0.002449,
        0.002695,
        0.002919,
        0.003011,
        0.003348,
        0.004008,
        0.00488,
        0.005406,
        0.005657,
        0.00586,
        0.006258,
        0.007299,
        0.007174,
        0.007554,
        0.008848,
        0.010473,
        0.012501,
        0.013294,
        0.013425,
        0.015677,
        0.020149,
        0.021967,
        0.020505,
        0.019731,
        0.02193,
        0.022722,
        0.021019,
        0.019964,
        0.022694,
        0.024995,
        0.028236,
        0.027295,
        0.02731,
        0.024187,
        0.020082,
        0.017558,
        0.021295,
        0.024751,
        0.027832,
        0.03312,
        0.032954,
        0.033451,
        0.03607,
        0.036157,
        0.035724,
        0.03372,
        0.036074,
        0.038514,
        0.041838,
        0.044833,
        0.041196,
        0.030798,
        0.027228,
        0.040694,
        0.055712,
        0.058978,
        0.050903,
        0.046265,
        0.05316,
        0.034615,
        0.064734,
        0.047506,
        0.065885,
        0.047406,
        0.031215,
        0.057676,
        0.048003,
        0.038555,
        0.07432,
        0.071656,
        0.065006,
        0.068785,
        0.064758,
        0.060776,
        0.069431,
        0.083349,
        0.080528,
        0.071641,
        0.078231,
        0.101114,
        0.08967,
        0.110657,
        0.130941,
        0.123597,
        0.103636,
        0.121062,
        0.12243,
        0.129517,
        0.140884,
        0.141236,
        0.151,
        0.172057,
        0.135861,
        0.129792,
        0.125561,
        0.143223,
        0.162731,
        0.153187,
        0.129064,
        0.131901,
        0.116925,
        0.105891,
        0.117032,
        0.161894,
        0.170484,
        0.172117,
        0.161817,
        0.157526,
        0.145223,
        0.131301,
        0.136992,
        0.137459,
        0.146119,
        0.154632,
        0.14528,
        0.157083,
        0.145402,
        0.143929,
        0.133613,
        0.129428,
        0.109914,
        0.096942,
        0.122665,
        0.163736,
        0.158075,
        0.143735,
        0.131046,
        0.145302,
        0.160893,
        0.147012,
        0.140769,
        0.155271,
        0.135626,
        0.108255,
        0.090759,
        0.075146,
        0.080173,
        0.106046,
        0.101891,
        0.08902,
        0.09759,
        0.113764,
        0.107211,
        0.073075,
        0.087605,
        0.094939,
        0.070479,
        0.078552,
        0.070759,
        0.080377,
        0.129003,
        0.159735,
        0.15112,
        0.149491,
        0.151248,
        0.163765,
        0.141399,
        0.125815,
        0.121061,
        0.113816,
        0.119337,
        0.127369,
        0.123655,
        0.114844,
        0.096875,
        0.108844,
        0.143772,
        0.145582,
        0.138023,
        0.115691,
        0.09067,
        0.088676,
        0.093432,
        0.102848,
        0.106354,
        0.112788,
        0.125148,
        0.145405,
        0.156214,
        0.178218,
        0.198814,
        0.163058,
        0.168007,
        0.188982,
        0.192132,
        0.175712,
        0.143549,
        0.15008,
        0.135753,
        0.137004,
        0.157228,
        0.162791,
        0.148873,
        0.207157,
        0.308884,
        0.344581,
        0.333426,
        0.341301,
        0.331876,
        0.294697,
        0.297227,
        0.312208,
        0.308589,
        0.303592,
        0.285118,
        0.274318,
        0.302031,
        0.315733,
        0.292896,
        0.276307,
        0.255476,
        0.262767,
        0.279428,
        0.2694,
        0.211677,
        0.182248,
        0.173125,
        0.202653,
        0.246859,
        0.27253,
        0.275763,
        0.284097,
        0.234039,
        0.202593,
        0.165008,
        0.102132,
        0.081316,
        0.104929,
        0.179685,
        0.263913,
        0.325425,
        0.341137,
        0.341137,
        0.347254,
        0.348297,
        0.332451,
        0.270122,
        0.260064,
        0.35535,
        0.384254,
        0.383215,
        0.372639,
        0.339831,
        0.384006,
        0.396021,
        0.410897,
        0.472675,
        0.520994,
        0.505657,
        0.492005,
        0.461632,
        0.422486,
        0.429648,
        0.4618,
        0.46124,
        0.459387,
        0.469355,
        0.517671,
        0.535956,
        0.504432,
        0.470021,
        0.505905,
        0.478853,
        0.433548,
        0.471421,
        0.493679,
        0.451333,
        0.453855,
        0.488082,
        0.492171,
        0.465582,
        0.491829,
        0.514878,
        0.510849,
        0.500693,
        0.518867,
        0.550747,
        0.522033,
        0.493602,
        0.510372,
        0.528926,
        0.539188,
        0.556711,
        0.586394,
        0.545657,
        0.512644,
        0.526225,
        0.563789,
        0.604995,
        0.579042,
        0.541408,
        0.561521,
        0.606763,
        0.611645,
        0.627117,
        0.581049,
        0.589785,
        0.576483,
        0.574672,
        0.614475,
        0.667253,
        0.641456,
        0.596424,
        0.608988,
        0.631506,
        0.699669,
        0.701186,
        0.681258,
        0.661434,
        0.641915,
        0.620337,
        0.605436,
        0.606141,
        0.621066,
        0.645997,
        0.675722,
        0.70444,
        0.724994,
        0.731505,
        0.72456,
        0.710482,
        0.712081,
        0.744246,
        0.773707,
        0.768551,
        0.750454,
        0.745929,
        0.747249,
        0.742255,
        0.735311,
        0.732428,
        0.729685,
        0.723686,
        0.723085,
        0.733657,
        0.737618,
        0.719407,
        0.695902,
        0.687126,
        0.693224,
        0.708559,
        0.724242,
        0.732734,
        0.735149,
        0.734419,
        0.732086,
        0.729511,
        0.728706,
        0.731293,
        0.736692,
        0.741788,
        0.735531,
        0.711565,
        0.690234,
        0.69148,
        0.706923,
        0.721956,
        0.725377,
        0.712003,
        0.697323,
        0.69603,
        0.698963,
        0.696145,
        0.6982,
        0.715878,
        0.739849,
        0.75709,
        0.73842,
        0.749667,
        0.740593,
        0.734302,
        0.759347,
        0.783535,
        0.803304,
        0.814235,
        0.804052,
        0.783863,
        0.768689,
        0.723787,
        0.693361,
        0.688352,
        0.673298,
        0.664009,
        0.71263,
        0.755942,
        0.75616,
        0.723427,
        0.686177,
        0.6943,
        0.698116,
        0.750479,
        0.732319,
        0.714797,
        0.75865,
        0.741697,
        0.750497,
        0.818762,
        0.843869,
        0.816948,
        0.805184,
        0.801423,
        0.777222,
        0.781846,
        0.799128,
        0.851394,
        0.863155,
        0.798703,
        0.79679,
        0.87228,
        0.806212,
        0.806085,
        0.810914,
        0.73037,
        0.800017,
        0.777604,
        0.73947,
        0.875489,
        0.871813,
        0.857701,
        0.811004,
        0.927062,
        1.062102,
        1.052915,
        0.934163,
        0.825487,
        0.870826,
        1.021339,
        1.077546,
        1.013232,
        0.967744,
        0.861816,
        0.738707,
        0.667405,
        0.814613,
        1.020072,
        1.112865,
        1.096984,
        1.092499,
        1.131489,
        1.073322,
        1.019467,
        0.967645,
        0.818667,
        0.798248,
        0.948291,
        1.026598,
        0.988588,
        1.047399,
        1.060236,
        1.003337,
        0.868034,
        0.650938,
        0.588453,
        0.735652,
        0.877191,
        0.972243,
        0.992445,
        0.902842,
        0.709866,
        0.635034,
        0.779354,
        0.933284,
        1.041383,
        1.125815,
        1.169108,
        1.183233,
        1.181489,
        1.205239,
        1.228411,
        1.244035,
        1.244228,
        1.212666,
        1.209697,
        1.213283,
        1.191231,
        1.214213,
        1.190385,
        1.16913,
        1.160038,
        1.16195,
        1.153842,
        1.175472,
        1.201108,
        1.177039,
        1.079336,
        0.963319,
        0.986257,
        1.086872,
        1.163134,
        1.195251,
        1.20874,
        1.210029,
        1.225127,
        1.238401,
        1.238076,
        1.243515,
        1.238151,
        1.253162,
        1.252683,
        1.21143,
        1.185944,
        1.201463,
        1.203061,
        1.214166,
        1.213086,
        1.203996,
        1.232931,
        1.259437,
        1.250509,
        1.222435,
        1.168155,
        1.184172,
        1.188288,
        1.195707,
        1.209818,
        1.211522,
        1.213564,
        1.201021,
        1.206331,
        1.180243,
        1.17467,
        1.183762,
        1.155409,
        1.125751,
        1.102226,
        1.038434,
        1.018312,
        1.03988,
        1.108923,
        1.148663,
        1.1301,
        1.132409,
        1.062842,
        0.964308,
        1.015377,
        1.082126,
        1.142915,
        1.209023,
        1.237507,
        1.222134,
        1.205003,
        1.186184,
        1.158206,
        1.183328,
        1.200822,
        1.203577,
        1.206587,
        1.225746,
        1.229109,
        1.2391,
        1.245684,
        1.242165,
        1.235699,
        1.240322,
        1.225425,
        1.217248,
        1.187866,
        1.18636,
        1.210034,
        1.231833,
        1.254922,
        1.234648,
        1.235323,
        1.231435,
        1.24055,
        1.263034,
        1.285756,
        1.287452,
        1.276685,
        1.256365,
        1.225416,
        1.199576,
        1.217864,
        1.238678,
        1.224672,
        1.207176,
        1.217086,
        1.233021,
        1.236862,
        1.24881,
        1.252191,
        1.231093,
        1.222923,
        1.224332,
        1.225007,
        1.229509,
        1.241795,
        1.251966,
        1.251878,
        1.25404,
        1.254962,
        1.240363,
        1.230937,
        1.229565,
        1.216495,
        1.218277,
        1.22656,
        1.234505,
        1.209787,
        1.203478,
        1.214574,
        1.22069,
        1.229194,
        1.224499,
        1.218929,
        1.186604,
        1.172822,
        1.182506,
        1.203679,
        1.218368,
        1.219866,
        1.200914,
        1.194389,
        1.203873,
        1.209492,
        1.207378,
        1.191014,
        1.180562,
        1.170246,
        1.183953,
        1.200279,
        1.194884,
        1.182986,
        1.183353,
        1.189156,
        1.18656,
        1.188114,
        1.195892,
        1.203755,
        1.193821,
        1.181183,
        1.177443,
        1.178809,
        1.169461,
        1.146715,
        1.100354,
        1.006516,
        0.905801,
        0.924946,
        0.997295,
        1.045997,
        1.100697,
        1.114314,
        1.12357,
        1.150485,
        1.156704,
        1.156186,
        1.15649,
        1.159245,
        1.130197,
        1.131126,
        1.144724,
        1.13182,
        1.137386,
        1.163267,
        1.172403,
        1.157077,
        1.152139,
        1.162172,
        1.157624,
        1.155155,
        1.124589,
        1.113824,
        1.136342,
        1.137993,
        1.129531,
        1.109516,
        1.09754,
        1.08158,
        1.08682,
        1.101487,
        1.114804,
        1.111122,
        1.093744,
        1.110846,
        1.115944,
        1.12952,
        1.144837,
        1.132477,
        1.122057,
        1.110727,
        1.104883,
        1.117575,
        1.133928,
        1.131195,
        1.118096,
        1.120879,
        1.117093,
        1.129711,
        1.127198,
        1.110583,
        1.098458,
        1.090308,
        1.081935,
        1.087782,
        1.094227,
        1.093863,
        1.084515,
        1.037663,
        1.005551,
        1.031449,
        1.038697,
        1.020407,
        1.037245,
        1.04801,
        1.05906,
        1.054106,
        1.065988,
        1.073352,
        1.079919,
        1.062438,
        1.057088,
        1.067006,
        1.078365,
        1.084278,
        1.082688,
        1.08421,
        1.06544,
        1.020046,
        1.01291,
        1.02882,
        1.048891,
        1.069798,
        1.096045,
        1.087742,
        1.070607,
        1.081578,
        1.086748,
        1.078534,
        1.064186,
        1.036432,
        1.025918,
        1.040433,
        1.040131,
        1.052279,
        1.06457,
        1.076328,
        1.065645,
        1.040753,
        1.035896,
        1.05447,
        1.06536,
        1.065574,
        1.057437,
        1.041055,
        1.030774,
        1.017183,
        1.022611,
        1.035507,
        1.041027,
        1.034146,
        1.028547,
        1.031073,
        1.049485,
        1.04575,
        1.047521,
        1.044131,
        1.041315,
        1.031188,
        1.031237,
        1.016133,
        1.010487,
        1.023218,
        1.025297,
        1.024528,
        1.019914,
        1.014852,
        1.011297,
        1.01116,
        1.013557,
        1.005579,
        1.005597,
        1.011596,
        1.020304,
        1.024226,
        1.022328,
        1.017241,
        1.012851,
        1.004078,
        0.992949,
        0.991594,
        0.992222,
        0.975285,
        0.966359,
        0.965737,
        0.968731,
        0.986831,
        1.001713,
        0.986561,
        0.982669,
        0.984365,
        0.988898,
        0.988432,
        0.990352,
        0.999365,
        0.998595,
        0.978796,
        0.962991,
        0.963222,
        0.972009,
        0.982429,
        0.98013,
        0.970153,
        0.967089,
        0.966125,
        0.960998,
        0.948786,
        0.940282,
        0.95216,
        0.96674,
        0.976485,
        0.972035,
        0.971457,
        0.968859,
        0.963782,
        0.957765,
        0.950762,
        0.953331,
        0.954575,
        0.958807,
        0.955996,
        0.952397,
        0.947035,
        0.947812,
        0.947539,
        0.948624,
        0.951325,
        0.954208,
        0.957103,
        0.961144,
        0.958402,
        0.955279,
        0.956596,
        0.957917,
        0.957631,
        0.952831,
        0.940665,
        0.937969,
        0.945363,
        0.949692,
        0.940928,
        0.935004,
        0.919828,
        0.889125,
        0.878687,
        0.901413,
        0.920301,
        0.924416,
        0.926735,
        0.925299,
        0.923025,
        0.917976,
        0.920446,
        0.913941,
        0.908345,
        0.905337,
        0.906977,
        0.911758,
        0.912238,
        0.908659,
        0.903768,
        0.90219,
        0.898998,
        0.901786,
        0.904202,
        0.900876,
        0.890206,
        0.883259,
        0.873615,
        0.869832,
        0.878108,
        0.8867,
        0.890468,
        0.886509,
        0.884098,
        0.891161,
        0.889982,
        0.890387,
        0.886758,
        0.890902,
        0.88555,
        0.880152,
        0.877253,
        0.873749,
        0.869664,
        0.864037,
        0.86597,
        0.878007,
        0.877734,
        0.873588,
        0.868952,
        0.866901,
        0.854341,
        0.850626,
        0.854195,
        0.855447,
        0.85717,
        0.847907,
        0.842263,
        0.83965,
        0.847673,
        0.852326,
        0.859695,
        0.858883,
        0.863129,
        0.867385,
        0.862497,
        0.85936,
        0.853785,
        0.851382,
        0.853229,
        0.844036,
        0.840369,
        0.838736,
        0.8331,
        0.834334,
        0.831122,
        0.832318,
        0.832612,
        0.833434,
        0.825762,
        0.812642,
        0.823466,
        0.828651,
        0.822851,
        0.817779,
        0.818373,
        0.815464,
        0.810543,
        0.8126,
        0.821956,
        0.82514,
        0.819993,
        0.816648,
        0.81318,
        0.816389,
        0.818498,
        0.81261,
        0.814538,
        0.816969,
        0.819607,
        0.81736,
        0.818043,
        0.817893,
        0.813009,
        0.807598,
        0.806797,
        0.803669,
        0.804657,
        0.797839,
        0.799658,
        0.797706,
        0.797486,
        0.799761,
        0.800229,
        0.79002,
        0.783729,
        0.780281,
        0.779963,
        0.78419,
        0.785952,
        0.784822,
        0.78133,
        0.770343,
        0.759067,
        0.774034,
        0.787745,
        0.788659,
        0.785722,
        0.789079,
        0.790752,
        0.788695,
        0.790954,
        0.787738,
        0.769011,
        0.740607,
        0.69588,
        0.625906,
        0.617286,
        0.673569,
        0.713156,
        0.742115,
        0.756865,
        0.760336,
        0.757888,
        0.760338,
        0.762053,
        0.764091,
        0.766106,
        0.767356,
        0.763862,
        0.755805,
        0.752846,
        0.758672,
        0.762884,
        0.764786,
        0.762891,
        0.758601,
        0.754933,
        0.751367,
        0.747476,
        0.74542,
        0.74552,
        0.74288,
        0.743561,
        0.7443,
        0.741543,
        0.739099,
        0.737746,
        0.738624,
        0.743734,
        0.741194,
        0.736884,
        0.732775,
        0.725849,
        0.722336,
        0.725158,
        0.729738,
        0.731347,
        0.738268,
        0.738977,
        0.735459,
        0.732416,
        0.733063,
        0.734156,
        0.736677,
        0.730708,
        0.729807,
        0.73117,
        0.72698,
        0.723098,
        0.719077,
        0.712502,
        0.704363,
        0.702848,
        0.701552,
        0.698933,
        0.693721,
        0.68592,
        0.677331,
        0.670888,
        0.668982,
        0.672016,
        0.677984,
        0.683377,
        0.685192,
        0.682806,
        0.67827,
        0.675092,
        0.676141,
        0.681764,
        0.689406,
        0.695205,
        0.696353,
        0.692653,
        0.686422,
        0.680828,
        0.677637,
        0.676199,
        0.674242,
        0.688529,
        0.682225,
        0.67837,
        0.670467,
        0.670618,
        0.669214,
        0.666413,
        0.668306,
        0.667555,
        0.663088,
        0.658907,
        0.656753,
        0.660353,
        0.666962,
        0.671058,
        0.672409,
        0.674295,
        0.66976,
        0.663411,
        0.665496,
        0.67357,
        0.678882,
        0.679391,
        0.677767,
        0.675884,
        0.674433,
        0.674462,
        0.672529,
        0.670698,
        0.666343,
        0.658117,
        0.655178,
        0.662308,
        0.670464,
        0.670868,
        0.671086,
        0.669859,
        0.65999,
        0.644142,
        0.64194,
        0.640234,
        0.639328,
        0.626649,
        0.626804,
        0.624454,
        0.618891,
        0.619504,
        0.629369,
        0.639575,
        0.642679,
        0.636699,
        0.631806,
        0.628587,
        0.633084,
        0.631663,
        0.624942,
        0.6144,
        0.614611,
        0.62036,
        0.630076,
        0.625238,
        0.62343,
        0.621951,
        0.604169,
        0.602524,
        0.614667,
        0.610858,
        0.616403,
        0.626741,
        0.628554,
        0.625443,
        0.622993,
        0.625091,
        0.625144,
        0.61784,
        0.61216,
        0.613366,
        0.611526,
        0.603817,
        0.608187,
        0.61315,
        0.610652,
        0.600545,
        0.595567,
        0.595907,
        0.595176,
        0.604363,
        0.60364,
        0.604667,
        0.605732,
        0.608058,
        0.61089,
        0.608957,
        0.602214,
        0.595029,
        0.592463,
        0.595501,
        0.600474,
        0.603834,
        0.603443,
        0.599242,
        0.593399,
        0.589755,
        0.58754,
        0.587206,
        0.587779,
        0.587212,
        0.58367,
        0.581665,
        0.581381,
        0.58038,
        0.580414,
        0.583943,
        0.588283,
        0.591024,
        0.588305,
        0.587667,
        0.587028,
        0.58639,
        0.585751,
        0.585113,
        0.584474,
        0.583836,
        0.583197,
        0.582559,
        0.58192,
        0.581282,
        0.580643,
        0.580005,
        0.579366,
        0.578727,
        0.578089,
        0.57745,
        0.576812,
        0.576173,
        0.575535,
        0.574896,
        0.574258,
        0.573619,
        0.572981,
        0.572342,
        0.571704,
        0.571065,
        0.570427,
        0.569788,
        0.56915,
        0.568511,
        0.567873,
        0.567234,
        0.566595,
        0.565957,
        0.565318,
        0.563186,
        0.557393,
        0.55129,
        0.550759,
        0.555246,
        0.561247,
        0.562343,
        0.556196,
        0.546686,
        0.544527,
        0.54908,
        0.556847,
        0.564678,
        0.566075,
        0.561249,
        0.550309,
        0.538753,
        0.532297,
        0.531084,
        0.53453,
        0.541359,
        0.548428,
        0.552527,
        0.552424,
        0.549192,
        0.547154,
        0.545728,
        0.545729,
        0.547058,
        0.546869,
        0.544379,
        0.536736,
        0.526194,
        0.516972,
        0.5126,
        0.512865,
        0.516722,
        0.522645,
        0.527411,
        0.528003,
        0.528773,
        0.529949,
        0.53125,
        0.533688,
        0.532117,
        0.524644,
        0.516585,
        0.51491,
        0.519204,
        0.529698,
        0.539366,
        0.541133,
        0.53366,
        0.518787,
        0.511865,
        0.52214,
        0.521222,
        0.521255,
        0.519994,
        0.520292,
        0.521863,
        0.522174,
        0.520937,
        0.521158,
        0.522778,
        0.522571,
        0.522148,
        0.521681,
        0.520679,
        0.519221,
        0.516321,
        0.5139,
        0.511573,
        0.510747,
        0.511129,
        0.512273,
        0.513535,
        0.514273,
        0.514004,
        0.512891,
        0.511258,
        0.509427,
        0.507674,
        0.506081,
        0.504681,
        0.503511,
        0.50262,
        0.502129,
        0.502177,
        0.5029,
        0.504278,
        0.505653,
        0.506207,
        0.505123,
        0.501979,
        0.497928,
        0.494519,
        0.4933,
        0.495264,
        0.499181,
        0.503269,
        0.505743,
        0.505371,
        0.503119,
        0.500505,
        0.499048,
        0.499761,
        0.501645,
        0.503196,
        0.50291,
        0.499789,
        0.494855,
        0.489638,
        0.485665,
        0.484053,
        0.48427,
        0.485373,
        0.486418,
        0.486616,
        0.485788,
        0.48391,
        0.480958,
        0.47709,
        0.473191,
        0.470329,
        0.469572,
        0.471553,
        0.475171,
        0.478891,
        0.481176,
        0.480929,
        0.4788,
        0.475876,
        0.473245,
        0.47177,
        0.476877,
        0.47743,
        0.475546,
        0.476825,
        0.475379,
        0.473121,
        0.468193,
        0.467522,
        0.468012,
        0.471239,
        0.470088,
        0.466702,
        0.466829,
        0.468276,
        0.466327,
        0.467284,
        0.462021,
        0.444089,
        0.432169,
        0.447464,
        0.457724,
        0.455188,
        0.456959,
        0.458622,
        0.454352,
        0.436405,
        0.39715,
        0.391097,
        0.429372,
        0.44907,
        0.450413,
        0.453134,
        0.452143,
        0.451041,
        0.448751,
        0.449024,
        0.447667,
        0.446542,
        0.445076,
        0.446952,
        0.447872,
        0.448456,
        0.449302,
        0.44805,
        0.446161,
        0.447522,
        0.447482,
        0.444312,
        0.43955,
        0.428869,
        0.39867,
        0.388574,
        0.42181,
        0.436963,
        0.440469,
        0.439767,
        0.438481,
        0.44053,
        0.442611,
        0.443833,
        0.440372,
        0.441347,
        0.441018,
        0.442076,
        0.441423,
        0.437822,
        0.434659,
        0.430607,
        0.425384,
        0.428508,
        0.432894,
        0.435537,
        0.436855,
        0.436034,
        0.436894,
        0.437693,
        0.434926,
        0.434291,
        0.433424,
        0.425865,
        0.426216,
        0.432771,
        0.433546,
        0.430925,
        0.431203,
        0.431131,
        0.429828,
        0.428806,
        0.425571,
        0.421653,
        0.415073,
        0.411525,
        0.419419,
        0.425476,
        0.427559,
        0.429718,
        0.431677,
        0.430383,
        0.431116,
        0.428778,
        0.429409,
        0.430034,
        0.431122,
        0.425577,
        0.427201,
        0.42263,
        0.418003,
        0.41399,
        0.410221,
        0.406062,
        0.400882,
        0.394317,
        0.387075,
        0.380134,
        0.37447,
        0.370864,
        0.369318,
        0.369639,
        0.371634,
        0.375109,
        0.379873,
        0.385736,
        0.392506,
        0.399851,
        0.40687,
        0.412523,
        0.415765,
        0.415828,
        0.413028,
        0.407953,
        0.401191,
        0.393512,
        0.38641,
        0.381562,
        0.380644,
        0.384548,
        0.391035,
        0.397079,
        0.399657,
        0.396755,
        0.390399,
        0.383624,
        0.379466,
        0.38009,
        0.384179,
        0.389547,
        0.394007,
        0.3959,
        0.395682,
        0.394338,
        0.392852,
        0.392039,
        0.392038,
        0.392819,
        0.39435,
        0.396463,
        0.398428,
        0.399379,
        0.398447,
        0.395123,
        0.390332,
        0.385356,
        0.38148,
        0.379687,
        0.379768,
        0.381212,
        0.38351,
        0.386182,
        0.388872,
        0.391254,
        0.393,
        0.393864,
        0.393908,
        0.393278,
        0.392114,
        0.39043,
        0.38771,
        0.383307,
        0.376576,
        0.367535,
        0.358874,
        0.353946,
        0.356107,
        0.367187,
        0.382915,
        0.397498,
        0.405141,
        0.402003,
        0.392046,
        0.381186,
        0.375336,
        0.378695,
        0.388584,
        0.40061,
        0.410377,
        0.414423,
        0.413017,
        0.407361,
        0.398657,
        0.388062,
        0.376565,
        0.365107,
        0.354633,
        0.346095,
        0.340475,
        0.338766,
        0.341959,
        0.350358,
        0.361519,
        0.372308,
        0.379591,
        0.381193,
        0.378763,
        0.374908,
        0.372235,
        0.372573,
        0.374645,
        0.376399,
        0.375783,
        0.37145,
        0.364886,
        0.358284,
        0.353836,
        0.353132,
        0.355349,
        0.359061,
        0.362842,
        0.365522,
        0.366958,
        0.367261,
        0.366546,
        0.364949,
        0.36271,
        0.360092,
        0.35736,
        0.354764,
        0.3525,
        0.350753,
        0.349706,
        0.349392,
        0.349251,
        0.348571,
        0.34664,
        0.343127,
        0.33921,
        0.336449,
        0.336401,
        0.340065,
        0.346199,
        0.353,
        0.358665,
        0.361814,
        0.36275,
        0.3622,
        0.360889,
        0.359424,
        0.357937,
        0.356444,
        0.354958,
        0.353465,
        0.35183,
        0.349891,
        0.347483,
        0.344541,
        0.341374,
        0.338391,
        0.335998,
        0.33448,
        0.333625,
        0.333102,
        0.332576,
        0.331831,
        0.331113,
        0.330782,
        0.331202,
        0.332504,
        0.333905,
        0.334389,
        0.332942,
        0.329023,
        0.323972,
        0.319599,
        0.317719,
        0.319581,
        0.324198,
        0.330019,
        0.335497,
        0.339304,
        0.341,
        0.340368,
        0.337191,
        0.331545,
        0.324689,
        0.318174,
        0.313553,
        0.311954,
        0.312807,
        0.315118,
        0.317892,
        0.320318,
        0.322312,
        0.323977,
        0.325412,
        0.326664,
        0.327565,
        0.327896,
        0.327435,
        0.326118,
        0.324505,
        0.323315,
        0.323266,
        0.324794,
        0.327205,
        0.329527,
        0.330785,
        0.330285,
        0.328457,
        0.326009,
        0.323648,
        0.321894,
        0.320495,
        0.31901,
        0.316997,
        0.314173,
        0.310888,
        0.307649,
        0.304965,
        0.303271,
        0.302707,
        0.303342,
        0.305244,
        0.308344,
        0.312021,
        0.315519,
        0.318081,
        0.319143,
        0.318918,
        0.317814,
        0.316237,
        0.3145,
        0.312538,
        0.310189,
        0.307295,
        0.303949,
        0.301264,
        0.300606,
        0.303342,
        0.310105,
        0.318586,
        0.325741,
        0.328527,
        0.324985,
        0.317498,
        0.309534,
        0.304562,
        0.305049,
        0.309466,
        0.315282,
        0.319969,
        0.321537,
        0.320159,
        0.316548,
        0.311419,
        0.305495,
        0.299539,
        0.294324,
        0.290621,
        0.28903,
        0.289451,
        0.291613,
        0.295241,
        0.299891,
        0.304431,
        0.307556,
        0.307963,
        0.304901,
        0.299845,
        0.294823,
        0.291862,
        0.296125,
        0.297331,
        0.298758,
        0.299493,
        0.298889,
        0.297356,
        0.295569,
        0.294204,
        0.293764,
        0.294071,
        0.294775,
        0.295528,
        0.296056,
        0.296384,
        0.296613,
        0.296846,
        0.297131,
        0.297309,
        0.297172,
        0.296508,
        0.295217,
        0.293634,
        0.292205,
        0.291375,
        0.291431,
        0.29204,
        0.292706,
        0.292938,
        0.292397,
        0.291354,
        0.290234,
        0.289461,
        0.289325,
        0.289575,
        0.289823,
        0.289683,
        0.288858,
        0.287413,
        0.285502,
        0.283281
      ],
      "range":1
    }
  }
]
