[
  {
    "model":"Star, type F0(ii)",
    "name":"Star, type F0(ii)",
    "type":"WB_REF",
    "dataQualityMarker":3,
    "dataSource":"https://www.eso.org/sci/facilities/paranal/decommissioned/isaac/tools/lib.html",
    "manufacturer":"A. Pickles (A.J. Pickles, PASP 110,863, 1998)",
    "version":1,
    "wavelength":{
      "value":[
        1150.0,
        1155.0,
        1160.0,
        1165.0,
        1170.0,
        1175.0,
        1180.0,
        1185.0,
        1190.0,
        1195.0,
        1200.0,
        1205.0,
        1210.0,
        1215.0,
        1220.0,
        1225.0,
        1230.0,
        1235.0,
        1240.0,
        1245.0,
        1250.0,
        1255.0,
        1260.0,
        1265.0,
        1270.0,
        1275.0,
        1280.0,
        1285.0,
        1290.0,
        1295.0,
        1300.0,
        1305.0,
        1310.0,
        1315.0,
        1320.0,
        1325.0,
        1330.0,
        1335.0,
        1340.0,
        1345.0,
        1350.0,
        1355.0,
        1360.0,
        1365.0,
        1370.0,
        1375.0,
        1380.0,
        1385.0,
        1390.0,
        1395.0,
        1400.0,
        1405.0,
        1410.0,
        1415.0,
        1420.0,
        1425.0,
        1430.0,
        1435.0,
        1440.0,
        1445.0,
        1450.0,
        1455.0,
        1460.0,
        1465.0,
        1470.0,
        1475.0,
        1480.0,
        1485.0,
        1490.0,
        1495.0,
        1500.0,
        1505.0,
        1510.0,
        1515.0,
        1520.0,
        1525.0,
        1530.0,
        1535.0,
        1540.0,
        1545.0,
        1550.0,
        1555.0,
        1560.0,
        1565.0,
        1570.0,
        1575.0,
        1580.0,
        1585.0,
        1590.0,
        1595.0,
        1600.0,
        1605.0,
        1610.0,
        1615.0,
        1620.0,
        1625.0,
        1630.0,
        1635.0,
        1640.0,
        1645.0,
        1650.0,
        1655.0,
        1660.0,
        1665.0,
        1670.0,
        1675.0,
        1680.0,
        1685.0,
        1690.0,
        1695.0,
        1700.0,
        1705.0,
        1710.0,
        1715.0,
        1720.0,
        1725.0,
        1730.0,
        1735.0,
        1740.0,
        1745.0,
        1750.0,
        1755.0,
        1760.0,
        1765.0,
        1770.0,
        1775.0,
        1780.0,
        1785.0,
        1790.0,
        1795.0,
        1800.0,
        1805.0,
        1810.0,
        1815.0,
        1820.0,
        1825.0,
        1830.0,
        1835.0,
        1840.0,
        1845.0,
        1850.0,
        1855.0,
        1860.0,
        1865.0,
        1870.0,
        1875.0,
        1880.0,
        1885.0,
        1890.0,
        1895.0,
        1900.0,
        1905.0,
        1910.0,
        1915.0,
        1920.0,
        1925.0,
        1930.0,
        1935.0,
        1940.0,
        1945.0,
        1950.0,
        1955.0,
        1960.0,
        1965.0,
        1970.0,
        1975.0,
        1980.0,
        1985.0,
        1990.0,
        1995.0,
        2000.0,
        2005.0,
        2010.0,
        2015.0,
        2020.0,
        2025.0,
        2030.0,
        2035.0,
        2040.0,
        2045.0,
        2050.0,
        2055.0,
        2060.0,
        2065.0,
        2070.0,
        2075.0,
        2080.0,
        2085.0,
        2090.0,
        2095.0,
        2100.0,
        2105.0,
        2110.0,
        2115.0,
        2120.0,
        2125.0,
        2130.0,
        2135.0,
        2140.0,
        2145.0,
        2150.0,
        2155.0,
        2160.0,
        2165.0,
        2170.0,
        2175.0,
        2180.0,
        2185.0,
        2190.0,
        2195.0,
        2200.0,
        2205.0,
        2210.0,
        2215.0,
        2220.0,
        2225.0,
        2230.0,
        2235.0,
        2240.0,
        2245.0,
        2250.0,
        2255.0,
        2260.0,
        2265.0,
        2270.0,
        2275.0,
        2280.0,
        2285.0,
        2290.0,
        2295.0,
        2300.0,
        2305.0,
        2310.0,
        2315.0,
        2320.0,
        2325.0,
        2330.0,
        2335.0,
        2340.0,
        2345.0,
        2350.0,
        2355.0,
        2360.0,
        2365.0,
        2370.0,
        2375.0,
        2380.0,
        2385.0,
        2390.0,
        2395.0,
        2400.0,
        2405.0,
        2410.0,
        2415.0,
        2420.0,
        2425.0,
        2430.0,
        2435.0,
        2440.0,
        2445.0,
        2450.0,
        2455.0,
        2460.0,
        2465.0,
        2470.0,
        2475.0,
        2480.0,
        2485.0,
        2490.0,
        2495.0,
        2500.0,
        2505.0,
        2510.0,
        2515.0,
        2520.0,
        2525.0,
        2530.0,
        2535.0,
        2540.0,
        2545.0,
        2550.0,
        2555.0,
        2560.0,
        2565.0,
        2570.0,
        2575.0,
        2580.0,
        2585.0,
        2590.0,
        2595.0,
        2600.0,
        2605.0,
        2610.0,
        2615.0,
        2620.0,
        2625.0,
        2630.0,
        2635.0,
        2640.0,
        2645.0,
        2650.0,
        2655.0,
        2660.0,
        2665.0,
        2670.0,
        2675.0,
        2680.0,
        2685.0,
        2690.0,
        2695.0,
        2700.0,
        2705.0,
        2710.0,
        2715.0,
        2720.0,
        2725.0,
        2730.0,
        2735.0,
        2740.0,
        2745.0,
        2750.0,
        2755.0,
        2760.0,
        2765.0,
        2770.0,
        2775.0,
        2780.0,
        2785.0,
        2790.0,
        2795.0,
        2800.0,
        2805.0,
        2810.0,
        2815.0,
        2820.0,
        2825.0,
        2830.0,
        2835.0,
        2840.0,
        2845.0,
        2850.0,
        2855.0,
        2860.0,
        2865.0,
        2870.0,
        2875.0,
        2880.0,
        2885.0,
        2890.0,
        2895.0,
        2900.0,
        2905.0,
        2910.0,
        2915.0,
        2920.0,
        2925.0,
        2930.0,
        2935.0,
        2940.0,
        2945.0,
        2950.0,
        2955.0,
        2960.0,
        2965.0,
        2970.0,
        2975.0,
        2980.0,
        2985.0,
        2990.0,
        2995.0,
        3000.0,
        3005.0,
        3010.0,
        3015.0,
        3020.0,
        3025.0,
        3030.0,
        3035.0,
        3040.0,
        3045.0,
        3050.0,
        3055.0,
        3060.0,
        3065.0,
        3070.0,
        3075.0,
        3080.0,
        3085.0,
        3090.0,
        3095.0,
        3100.0,
        3105.0,
        3110.0,
        3115.0,
        3120.0,
        3125.0,
        3130.0,
        3135.0,
        3140.0,
        3145.0,
        3150.0,
        3155.0,
        3160.0,
        3165.0,
        3170.0,
        3175.0,
        3180.0,
        3185.0,
        3190.0,
        3195.0,
        3200.0,
        3205.0,
        3210.0,
        3215.0,
        3220.0,
        3225.0,
        3230.0,
        3235.0,
        3240.0,
        3245.0,
        3250.0,
        3255.0,
        3260.0,
        3265.0,
        3270.0,
        3275.0,
        3280.0,
        3285.0,
        3290.0,
        3295.0,
        3300.0,
        3305.0,
        3310.0,
        3315.0,
        3320.0,
        3325.0,
        3330.0,
        3335.0,
        3340.0,
        3345.0,
        3350.0,
        3355.0,
        3360.0,
        3365.0,
        3370.0,
        3375.0,
        3380.0,
        3385.0,
        3390.0,
        3395.0,
        3400.0,
        3405.0,
        3410.0,
        3415.0,
        3420.0,
        3425.0,
        3430.0,
        3435.0,
        3440.0,
        3445.0,
        3450.0,
        3455.0,
        3460.0,
        3465.0,
        3470.0,
        3475.0,
        3480.0,
        3485.0,
        3490.0,
        3495.0,
        3500.0,
        3505.0,
        3510.0,
        3515.0,
        3520.0,
        3525.0,
        3530.0,
        3535.0,
        3540.0,
        3545.0,
        3550.0,
        3555.0,
        3560.0,
        3565.0,
        3570.0,
        3575.0,
        3580.0,
        3585.0,
        3590.0,
        3595.0,
        3600.0,
        3605.0,
        3610.0,
        3615.0,
        3620.0,
        3625.0,
        3630.0,
        3635.0,
        3640.0,
        3645.0,
        3650.0,
        3655.0,
        3660.0,
        3665.0,
        3670.0,
        3675.0,
        3680.0,
        3685.0,
        3690.0,
        3695.0,
        3700.0,
        3705.0,
        3710.0,
        3715.0,
        3720.0,
        3725.0,
        3730.0,
        3735.0,
        3740.0,
        3745.0,
        3750.0,
        3755.0,
        3760.0,
        3765.0,
        3770.0,
        3775.0,
        3780.0,
        3785.0,
        3790.0,
        3795.0,
        3800.0,
        3805.0,
        3810.0,
        3815.0,
        3820.0,
        3825.0,
        3830.0,
        3835.0,
        3840.0,
        3845.0,
        3850.0,
        3855.0,
        3860.0,
        3865.0,
        3870.0,
        3875.0,
        3880.0,
        3885.0,
        3890.0,
        3895.0,
        3900.0,
        3905.0,
        3910.0,
        3915.0,
        3920.0,
        3925.0,
        3930.0,
        3935.0,
        3940.0,
        3945.0,
        3950.0,
        3955.0,
        3960.0,
        3965.0,
        3970.0,
        3975.0,
        3980.0,
        3985.0,
        3990.0,
        3995.0,
        4000.0,
        4005.0,
        4010.0,
        4015.0,
        4020.0,
        4025.0,
        4030.0,
        4035.0,
        4040.0,
        4045.0,
        4050.0,
        4055.0,
        4060.0,
        4065.0,
        4070.0,
        4075.0,
        4080.0,
        4085.0,
        4090.0,
        4095.0,
        4100.0,
        4105.0,
        4110.0,
        4115.0,
        4120.0,
        4125.0,
        4130.0,
        4135.0,
        4140.0,
        4145.0,
        4150.0,
        4155.0,
        4160.0,
        4165.0,
        4170.0,
        4175.0,
        4180.0,
        4185.0,
        4190.0,
        4195.0,
        4200.0,
        4205.0,
        4210.0,
        4215.0,
        4220.0,
        4225.0,
        4230.0,
        4235.0,
        4240.0,
        4245.0,
        4250.0,
        4255.0,
        4260.0,
        4265.0,
        4270.0,
        4275.0,
        4280.0,
        4285.0,
        4290.0,
        4295.0,
        4300.0,
        4305.0,
        4310.0,
        4315.0,
        4320.0,
        4325.0,
        4330.0,
        4335.0,
        4340.0,
        4345.0,
        4350.0,
        4355.0,
        4360.0,
        4365.0,
        4370.0,
        4375.0,
        4380.0,
        4385.0,
        4390.0,
        4395.0,
        4400.0,
        4405.0,
        4410.0,
        4415.0,
        4420.0,
        4425.0,
        4430.0,
        4435.0,
        4440.0,
        4445.0,
        4450.0,
        4455.0,
        4460.0,
        4465.0,
        4470.0,
        4475.0,
        4480.0,
        4485.0,
        4490.0,
        4495.0,
        4500.0,
        4505.0,
        4510.0,
        4515.0,
        4520.0,
        4525.0,
        4530.0,
        4535.0,
        4540.0,
        4545.0,
        4550.0,
        4555.0,
        4560.0,
        4565.0,
        4570.0,
        4575.0,
        4580.0,
        4585.0,
        4590.0,
        4595.0,
        4600.0,
        4605.0,
        4610.0,
        4615.0,
        4620.0,
        4625.0,
        4630.0,
        4635.0,
        4640.0,
        4645.0,
        4650.0,
        4655.0,
        4660.0,
        4665.0,
        4670.0,
        4675.0,
        4680.0,
        4685.0,
        4690.0,
        4695.0,
        4700.0,
        4705.0,
        4710.0,
        4715.0,
        4720.0,
        4725.0,
        4730.0,
        4735.0,
        4740.0,
        4745.0,
        4750.0,
        4755.0,
        4760.0,
        4765.0,
        4770.0,
        4775.0,
        4780.0,
        4785.0,
        4790.0,
        4795.0,
        4800.0,
        4805.0,
        4810.0,
        4815.0,
        4820.0,
        4825.0,
        4830.0,
        4835.0,
        4840.0,
        4845.0,
        4850.0,
        4855.0,
        4860.0,
        4865.0,
        4870.0,
        4875.0,
        4880.0,
        4885.0,
        4890.0,
        4895.0,
        4900.0,
        4905.0,
        4910.0,
        4915.0,
        4920.0,
        4925.0,
        4930.0,
        4935.0,
        4940.0,
        4945.0,
        4950.0,
        4955.0,
        4960.0,
        4965.0,
        4970.0,
        4975.0,
        4980.0,
        4985.0,
        4990.0,
        4995.0,
        5000.0,
        5005.0,
        5010.0,
        5015.0,
        5020.0,
        5025.0,
        5030.0,
        5035.0,
        5040.0,
        5045.0,
        5050.0,
        5055.0,
        5060.0,
        5065.0,
        5070.0,
        5075.0,
        5080.0,
        5085.0,
        5090.0,
        5095.0,
        5100.0,
        5105.0,
        5110.0,
        5115.0,
        5120.0,
        5125.0,
        5130.0,
        5135.0,
        5140.0,
        5145.0,
        5150.0,
        5155.0,
        5160.0,
        5165.0,
        5170.0,
        5175.0,
        5180.0,
        5185.0,
        5190.0,
        5195.0,
        5200.0,
        5205.0,
        5210.0,
        5215.0,
        5220.0,
        5225.0,
        5230.0,
        5235.0,
        5240.0,
        5245.0,
        5250.0,
        5255.0,
        5260.0,
        5265.0,
        5270.0,
        5275.0,
        5280.0,
        5285.0,
        5290.0,
        5295.0,
        5300.0,
        5305.0,
        5310.0,
        5315.0,
        5320.0,
        5325.0,
        5330.0,
        5335.0,
        5340.0,
        5345.0,
        5350.0,
        5355.0,
        5360.0,
        5365.0,
        5370.0,
        5375.0,
        5380.0,
        5385.0,
        5390.0,
        5395.0,
        5400.0,
        5405.0,
        5410.0,
        5415.0,
        5420.0,
        5425.0,
        5430.0,
        5435.0,
        5440.0,
        5445.0,
        5450.0,
        5455.0,
        5460.0,
        5465.0,
        5470.0,
        5475.0,
        5480.0,
        5485.0,
        5490.0,
        5495.0,
        5500.0,
        5505.0,
        5510.0,
        5515.0,
        5520.0,
        5525.0,
        5530.0,
        5535.0,
        5540.0,
        5545.0,
        5550.0,
        5555.0,
        5560.0,
        5565.0,
        5570.0,
        5575.0,
        5580.0,
        5585.0,
        5590.0,
        5595.0,
        5600.0,
        5605.0,
        5610.0,
        5615.0,
        5620.0,
        5625.0,
        5630.0,
        5635.0,
        5640.0,
        5645.0,
        5650.0,
        5655.0,
        5660.0,
        5665.0,
        5670.0,
        5675.0,
        5680.0,
        5685.0,
        5690.0,
        5695.0,
        5700.0,
        5705.0,
        5710.0,
        5715.0,
        5720.0,
        5725.0,
        5730.0,
        5735.0,
        5740.0,
        5745.0,
        5750.0,
        5755.0,
        5760.0,
        5765.0,
        5770.0,
        5775.0,
        5780.0,
        5785.0,
        5790.0,
        5795.0,
        5800.0,
        5805.0,
        5810.0,
        5815.0,
        5820.0,
        5825.0,
        5830.0,
        5835.0,
        5840.0,
        5845.0,
        5850.0,
        5855.0,
        5860.0,
        5865.0,
        5870.0,
        5875.0,
        5880.0,
        5885.0,
        5890.0,
        5895.0,
        5900.0,
        5905.0,
        5910.0,
        5915.0,
        5920.0,
        5925.0,
        5930.0,
        5935.0,
        5940.0,
        5945.0,
        5950.0,
        5955.0,
        5960.0,
        5965.0,
        5970.0,
        5975.0,
        5980.0,
        5985.0,
        5990.0,
        5995.0,
        6000.0,
        6005.0,
        6010.0,
        6015.0,
        6020.0,
        6025.0,
        6030.0,
        6035.0,
        6040.0,
        6045.0,
        6050.0,
        6055.0,
        6060.0,
        6065.0,
        6070.0,
        6075.0,
        6080.0,
        6085.0,
        6090.0,
        6095.0,
        6100.0,
        6105.0,
        6110.0,
        6115.0,
        6120.0,
        6125.0,
        6130.0,
        6135.0,
        6140.0,
        6145.0,
        6150.0,
        6155.0,
        6160.0,
        6165.0,
        6170.0,
        6175.0,
        6180.0,
        6185.0,
        6190.0,
        6195.0,
        6200.0,
        6205.0,
        6210.0,
        6215.0,
        6220.0,
        6225.0,
        6230.0,
        6235.0,
        6240.0,
        6245.0,
        6250.0,
        6255.0,
        6260.0,
        6265.0,
        6270.0,
        6275.0,
        6280.0,
        6285.0,
        6290.0,
        6295.0,
        6300.0,
        6305.0,
        6310.0,
        6315.0,
        6320.0,
        6325.0,
        6330.0,
        6335.0,
        6340.0,
        6345.0,
        6350.0,
        6355.0,
        6360.0,
        6365.0,
        6370.0,
        6375.0,
        6380.0,
        6385.0,
        6390.0,
        6395.0,
        6400.0,
        6405.0,
        6410.0,
        6415.0,
        6420.0,
        6425.0,
        6430.0,
        6435.0,
        6440.0,
        6445.0,
        6450.0,
        6455.0,
        6460.0,
        6465.0,
        6470.0,
        6475.0,
        6480.0,
        6485.0,
        6490.0,
        6495.0,
        6500.0,
        6505.0,
        6510.0,
        6515.0,
        6520.0,
        6525.0,
        6530.0,
        6535.0,
        6540.0,
        6545.0,
        6550.0,
        6555.0,
        6560.0,
        6565.0,
        6570.0,
        6575.0,
        6580.0,
        6585.0,
        6590.0,
        6595.0,
        6600.0,
        6605.0,
        6610.0,
        6615.0,
        6620.0,
        6625.0,
        6630.0,
        6635.0,
        6640.0,
        6645.0,
        6650.0,
        6655.0,
        6660.0,
        6665.0,
        6670.0,
        6675.0,
        6680.0,
        6685.0,
        6690.0,
        6695.0,
        6700.0,
        6705.0,
        6710.0,
        6715.0,
        6720.0,
        6725.0,
        6730.0,
        6735.0,
        6740.0,
        6745.0,
        6750.0,
        6755.0,
        6760.0,
        6765.0,
        6770.0,
        6775.0,
        6780.0,
        6785.0,
        6790.0,
        6795.0,
        6800.0,
        6805.0,
        6810.0,
        6815.0,
        6820.0,
        6825.0,
        6830.0,
        6835.0,
        6840.0,
        6845.0,
        6850.0,
        6855.0,
        6860.0,
        6865.0,
        6870.0,
        6875.0,
        6880.0,
        6885.0,
        6890.0,
        6895.0,
        6900.0,
        6905.0,
        6910.0,
        6915.0,
        6920.0,
        6925.0,
        6930.0,
        6935.0,
        6940.0,
        6945.0,
        6950.0,
        6955.0,
        6960.0,
        6965.0,
        6970.0,
        6975.0,
        6980.0,
        6985.0,
        6990.0,
        6995.0,
        7000.0,
        7005.0,
        7010.0,
        7015.0,
        7020.0,
        7025.0,
        7030.0,
        7035.0,
        7040.0,
        7045.0,
        7050.0,
        7055.0,
        7060.0,
        7065.0,
        7070.0,
        7075.0,
        7080.0,
        7085.0,
        7090.0,
        7095.0,
        7100.0,
        7105.0,
        7110.0,
        7115.0,
        7120.0,
        7125.0,
        7130.0,
        7135.0,
        7140.0,
        7145.0,
        7150.0,
        7155.0,
        7160.0,
        7165.0,
        7170.0,
        7175.0,
        7180.0,
        7185.0,
        7190.0,
        7195.0,
        7200.0,
        7205.0,
        7210.0,
        7215.0,
        7220.0,
        7225.0,
        7230.0,
        7235.0,
        7240.0,
        7245.0,
        7250.0,
        7255.0,
        7260.0,
        7265.0,
        7270.0,
        7275.0,
        7280.0,
        7285.0,
        7290.0,
        7295.0,
        7300.0,
        7305.0,
        7310.0,
        7315.0,
        7320.0,
        7325.0,
        7330.0,
        7335.0,
        7340.0,
        7345.0,
        7350.0,
        7355.0,
        7360.0,
        7365.0,
        7370.0,
        7375.0,
        7380.0,
        7385.0,
        7390.0,
        7395.0,
        7400.0,
        7405.0,
        7410.0,
        7415.0,
        7420.0,
        7425.0,
        7430.0,
        7435.0,
        7440.0,
        7445.0,
        7450.0,
        7455.0,
        7460.0,
        7465.0,
        7470.0,
        7475.0,
        7480.0,
        7485.0,
        7490.0,
        7495.0,
        7500.0,
        7505.0,
        7510.0,
        7515.0,
        7520.0,
        7525.0,
        7530.0,
        7535.0,
        7540.0,
        7545.0,
        7550.0,
        7555.0,
        7560.0,
        7565.0,
        7570.0,
        7575.0,
        7580.0,
        7585.0,
        7590.0,
        7595.0,
        7600.0,
        7605.0,
        7610.0,
        7615.0,
        7620.0,
        7625.0,
        7630.0,
        7635.0,
        7640.0,
        7645.0,
        7650.0,
        7655.0,
        7660.0,
        7665.0,
        7670.0,
        7675.0,
        7680.0,
        7685.0,
        7690.0,
        7695.0,
        7700.0,
        7705.0,
        7710.0,
        7715.0,
        7720.0,
        7725.0,
        7730.0,
        7735.0,
        7740.0,
        7745.0,
        7750.0,
        7755.0,
        7760.0,
        7765.0,
        7770.0,
        7775.0,
        7780.0,
        7785.0,
        7790.0,
        7795.0,
        7800.0,
        7805.0,
        7810.0,
        7815.0,
        7820.0,
        7825.0,
        7830.0,
        7835.0,
        7840.0,
        7845.0,
        7850.0,
        7855.0,
        7860.0,
        7865.0,
        7870.0,
        7875.0,
        7880.0,
        7885.0,
        7890.0,
        7895.0,
        7900.0,
        7905.0,
        7910.0,
        7915.0,
        7920.0,
        7925.0,
        7930.0,
        7935.0,
        7940.0,
        7945.0,
        7950.0,
        7955.0,
        7960.0,
        7965.0,
        7970.0,
        7975.0,
        7980.0,
        7985.0,
        7990.0,
        7995.0,
        8000.0,
        8005.0,
        8010.0,
        8015.0,
        8020.0,
        8025.0,
        8030.0,
        8035.0,
        8040.0,
        8045.0,
        8050.0,
        8055.0,
        8060.0,
        8065.0,
        8070.0,
        8075.0,
        8080.0,
        8085.0,
        8090.0,
        8095.0,
        8100.0,
        8105.0,
        8110.0,
        8115.0,
        8120.0,
        8125.0,
        8130.0,
        8135.0,
        8140.0,
        8145.0,
        8150.0,
        8155.0,
        8160.0,
        8165.0,
        8170.0,
        8175.0,
        8180.0,
        8185.0,
        8190.0,
        8195.0,
        8200.0,
        8205.0,
        8210.0,
        8215.0,
        8220.0,
        8225.0,
        8230.0,
        8235.0,
        8240.0,
        8245.0,
        8250.0,
        8255.0,
        8260.0,
        8265.0,
        8270.0,
        8275.0,
        8280.0,
        8285.0,
        8290.0,
        8295.0,
        8300.0,
        8305.0,
        8310.0,
        8315.0,
        8320.0,
        8325.0,
        8330.0,
        8335.0,
        8340.0,
        8345.0,
        8350.0,
        8355.0,
        8360.0,
        8365.0,
        8370.0,
        8375.0,
        8380.0,
        8385.0,
        8390.0,
        8395.0,
        8400.0,
        8405.0,
        8410.0,
        8415.0,
        8420.0,
        8425.0,
        8430.0,
        8435.0,
        8440.0,
        8445.0,
        8450.0,
        8455.0,
        8460.0,
        8465.0,
        8470.0,
        8475.0,
        8480.0,
        8485.0,
        8490.0,
        8495.0,
        8500.0,
        8505.0,
        8510.0,
        8515.0,
        8520.0,
        8525.0,
        8530.0,
        8535.0,
        8540.0,
        8545.0,
        8550.0,
        8555.0,
        8560.0,
        8565.0,
        8570.0,
        8575.0,
        8580.0,
        8585.0,
        8590.0,
        8595.0,
        8600.0,
        8605.0,
        8610.0,
        8615.0,
        8620.0,
        8625.0,
        8630.0,
        8635.0,
        8640.0,
        8645.0,
        8650.0,
        8655.0,
        8660.0,
        8665.0,
        8670.0,
        8675.0,
        8680.0,
        8685.0,
        8690.0,
        8695.0,
        8700.0,
        8705.0,
        8710.0,
        8715.0,
        8720.0,
        8725.0,
        8730.0,
        8735.0,
        8740.0,
        8745.0,
        8750.0,
        8755.0,
        8760.0,
        8765.0,
        8770.0,
        8775.0,
        8780.0,
        8785.0,
        8790.0,
        8795.0,
        8800.0,
        8805.0,
        8810.0,
        8815.0,
        8820.0,
        8825.0,
        8830.0,
        8835.0,
        8840.0,
        8845.0,
        8850.0,
        8855.0,
        8860.0,
        8865.0,
        8870.0,
        8875.0,
        8880.0,
        8885.0,
        8890.0,
        8895.0,
        8900.0,
        8905.0,
        8910.0,
        8915.0,
        8920.0,
        8925.0,
        8930.0,
        8935.0,
        8940.0,
        8945.0,
        8950.0,
        8955.0,
        8960.0,
        8965.0,
        8970.0,
        8975.0,
        8980.0,
        8985.0,
        8990.0,
        8995.0,
        9000.0,
        9005.0,
        9010.0,
        9015.0,
        9020.0,
        9025.0,
        9030.0,
        9035.0,
        9040.0,
        9045.0,
        9050.0,
        9055.0,
        9060.0,
        9065.0,
        9070.0,
        9075.0,
        9080.0,
        9085.0,
        9090.0,
        9095.0,
        9100.0,
        9105.0,
        9110.0,
        9115.0,
        9120.0,
        9125.0,
        9130.0,
        9135.0,
        9140.0,
        9145.0,
        9150.0,
        9155.0,
        9160.0,
        9165.0,
        9170.0,
        9175.0,
        9180.0,
        9185.0,
        9190.0,
        9195.0,
        9200.0,
        9205.0,
        9210.0,
        9215.0,
        9220.0,
        9225.0,
        9230.0,
        9235.0,
        9240.0,
        9245.0,
        9250.0,
        9255.0,
        9260.0,
        9265.0,
        9270.0,
        9275.0,
        9280.0,
        9285.0,
        9290.0,
        9295.0,
        9300.0,
        9305.0,
        9310.0,
        9315.0,
        9320.0,
        9325.0,
        9330.0,
        9335.0,
        9340.0,
        9345.0,
        9350.0,
        9355.0,
        9360.0,
        9365.0,
        9370.0,
        9375.0,
        9380.0,
        9385.0,
        9390.0,
        9395.0,
        9400.0,
        9405.0,
        9410.0,
        9415.0,
        9420.0,
        9425.0,
        9430.0,
        9435.0,
        9440.0,
        9445.0,
        9450.0,
        9455.0,
        9460.0,
        9465.0,
        9470.0,
        9475.0,
        9480.0,
        9485.0,
        9490.0,
        9495.0,
        9500.0,
        9505.0,
        9510.0,
        9515.0,
        9520.0,
        9525.0,
        9530.0,
        9535.0,
        9540.0,
        9545.0,
        9550.0,
        9555.0,
        9560.0,
        9565.0,
        9570.0,
        9575.0,
        9580.0,
        9585.0,
        9590.0,
        9595.0,
        9600.0,
        9605.0,
        9610.0,
        9615.0,
        9620.0,
        9625.0,
        9630.0,
        9635.0,
        9640.0,
        9645.0,
        9650.0,
        9655.0,
        9660.0,
        9665.0,
        9670.0,
        9675.0,
        9680.0,
        9685.0,
        9690.0,
        9695.0,
        9700.0,
        9705.0,
        9710.0,
        9715.0,
        9720.0,
        9725.0,
        9730.0,
        9735.0,
        9740.0,
        9745.0,
        9750.0,
        9755.0,
        9760.0,
        9765.0,
        9770.0,
        9775.0,
        9780.0,
        9785.0,
        9790.0,
        9795.0,
        9800.0,
        9805.0,
        9810.0,
        9815.0,
        9820.0,
        9825.0,
        9830.0,
        9835.0,
        9840.0,
        9845.0,
        9850.0,
        9855.0,
        9860.0,
        9865.0,
        9870.0,
        9875.0,
        9880.0,
        9885.0,
        9890.0,
        9895.0,
        9900.0,
        9905.0,
        9910.0,
        9915.0,
        9920.0,
        9925.0,
        9930.0,
        9935.0,
        9940.0,
        9945.0,
        9950.0,
        9955.0,
        9960.0,
        9965.0,
        9970.0,
        9975.0,
        9980.0,
        9985.0,
        9990.0,
        9995.0,
        10000.0,
        10005.0,
        10010.0,
        10015.0,
        10020.0,
        10025.0,
        10030.0,
        10035.0,
        10040.0,
        10045.0,
        10050.0,
        10055.0,
        10060.0,
        10065.0,
        10070.0,
        10075.0,
        10080.0,
        10085.0,
        10090.0,
        10095.0,
        10100.0,
        10105.0,
        10110.0,
        10115.0,
        10120.0,
        10125.0,
        10130.0,
        10135.0,
        10140.0,
        10145.0,
        10150.0,
        10155.0,
        10160.0,
        10165.0,
        10170.0,
        10175.0,
        10180.0,
        10185.0,
        10190.0,
        10195.0,
        10200.0,
        10205.0,
        10210.0,
        10215.0,
        10220.0,
        10225.0,
        10230.0,
        10235.0,
        10240.0,
        10245.0,
        10250.0,
        10255.0,
        10260.0,
        10265.0,
        10270.0,
        10275.0,
        10280.0,
        10285.0,
        10290.0,
        10295.0,
        10300.0,
        10305.0,
        10310.0,
        10315.0,
        10320.0,
        10325.0,
        10330.0,
        10335.0,
        10340.0,
        10345.0,
        10350.0,
        10355.0,
        10360.0,
        10365.0,
        10370.0,
        10375.0,
        10380.0,
        10385.0,
        10390.0,
        10395.0,
        10400.0,
        10405.0,
        10410.0,
        10415.0,
        10420.0,
        10425.0,
        10430.0,
        10435.0,
        10440.0,
        10445.0,
        10450.0,
        10455.0,
        10460.0,
        10465.0,
        10470.0,
        10475.0,
        10480.0,
        10485.0,
        10490.0,
        10495.0,
        10500.0
      ],
      "units":"angstrom"
    },
    "values":{
      "value":[
        0.0,
        0.0,
        0.0,
        0.0,
        0.0,
        0.0,
        0.0,
        0.0,
        0.0,
        0.0,
        0.0,
        0.0,
        0.0,
        0.0,
        0.0,
        1e-06,
        1e-06,
        1e-06,
        0.0,
        0.0,
        0.0,
        0.0,
        0.0,
        0.0,
        0.0,
        0.0,
        0.0,
        0.0,
        0.0,
        0.0,
        0.0,
        1e-06,
        3e-06,
        4e-06,
        5e-06,
        6e-06,
        7e-06,
        6e-06,
        5e-06,
        3e-06,
        0.0,
        0.0,
        0.0,
        0.0,
        0.0,
        0.0,
        0.0,
        0.0,
        0.0,
        0.0,
        0.0,
        1.6e-05,
        3.5e-05,
        5.5e-05,
        7.2e-05,
        8.5e-05,
        9.1e-05,
        8.8e-05,
        7.3e-05,
        4.5e-05,
        0.0,
        0.0,
        0.0,
        0.0,
        0.0,
        0.0,
        0.0,
        0.0,
        0.0,
        0.0,
        0.0,
        0.000232,
        0.000526,
        0.000872,
        0.001263,
        0.00169,
        0.002146,
        0.002623,
        0.003111,
        0.003604,
        0.004093,
        0.004571,
        0.005036,
        0.005487,
        0.005923,
        0.006344,
        0.006749,
        0.007136,
        0.007505,
        0.007855,
        0.008186,
        0.0085,
        0.008824,
        0.009187,
        0.009619,
        0.010151,
        0.010812,
        0.011632,
        0.012641,
        0.01387,
        0.015348,
        0.017098,
        0.019112,
        0.021375,
        0.023874,
        0.026593,
        0.029518,
        0.032633,
        0.035924,
        0.039376,
        0.042974,
        0.046702,
        0.050536,
        0.054448,
        0.058414,
        0.062407,
        0.0664,
        0.070368,
        0.074283,
        0.078121,
        0.081855,
        0.085459,
        0.088904,
        0.092163,
        0.095209,
        0.098013,
        0.100547,
        0.102785,
        0.104697,
        0.106256,
        0.107435,
        0.108223,
        0.108678,
        0.108877,
        0.108895,
        0.10881,
        0.108696,
        0.10863,
        0.108688,
        0.108947,
        0.109482,
        0.11035,
        0.111533,
        0.112995,
        0.114697,
        0.116604,
        0.118677,
        0.120881,
        0.123177,
        0.125529,
        0.127899,
        0.130255,
        0.132579,
        0.134857,
        0.137075,
        0.13922,
        0.141278,
        0.143235,
        0.145077,
        0.146791,
        0.148363,
        0.149785,
        0.151077,
        0.152261,
        0.153363,
        0.154408,
        0.155419,
        0.156421,
        0.157438,
        0.158496,
        0.159618,
        0.160823,
        0.162107,
        0.163459,
        0.164869,
        0.166325,
        0.167818,
        0.169336,
        0.17087,
        0.172409,
        0.173943,
        0.175452,
        0.17689,
        0.178199,
        0.179323,
        0.180208,
        0.180795,
        0.18103,
        0.180857,
        0.180218,
        0.179059,
        0.177354,
        0.17521,
        0.172762,
        0.170146,
        0.1675,
        0.16496,
        0.162663,
        0.160746,
        0.159344,
        0.158595,
        0.158587,
        0.159215,
        0.160327,
        0.16177,
        0.163391,
        0.165038,
        0.166558,
        0.167798,
        0.168605,
        0.168827,
        0.168359,
        0.167289,
        0.165755,
        0.163892,
        0.161839,
        0.15973,
        0.157703,
        0.155894,
        0.154441,
        0.153479,
        0.153098,
        0.153197,
        0.153628,
        0.154243,
        0.154892,
        0.155429,
        0.155704,
        0.15557,
        0.154877,
        0.153479,
        0.151275,
        0.148367,
        0.144903,
        0.141033,
        0.136907,
        0.132674,
        0.128484,
        0.124487,
        0.120831,
        0.117667,
        0.115116,
        0.113185,
        0.111856,
        0.111106,
        0.110917,
        0.111268,
        0.112139,
        0.113509,
        0.115359,
        0.117667,
        0.120407,
        0.123516,
        0.126927,
        0.130571,
        0.134379,
        0.138283,
        0.142213,
        0.146102,
        0.14988,
        0.153479,
        0.156834,
        0.159899,
        0.16263,
        0.164985,
        0.166922,
        0.168397,
        0.169367,
        0.169791,
        0.169625,
        0.168827,
        0.16738,
        0.165375,
        0.162928,
        0.160156,
        0.157177,
        0.154106,
        0.151061,
        0.148158,
        0.145515,
        0.143247,
        0.141458,
        0.140199,
        0.139504,
        0.13941,
        0.139952,
        0.141168,
        0.143092,
        0.145761,
        0.149212,
        0.153479,
        0.158565,
        0.164335,
        0.170621,
        0.177253,
        0.184063,
        0.190881,
        0.19754,
        0.203871,
        0.209704,
        0.21487,
        0.21924,
        0.22283,
        0.225696,
        0.227896,
        0.229485,
        0.230518,
        0.231052,
        0.231143,
        0.230846,
        0.230218,
        0.229302,
        0.228085,
        0.226544,
        0.224655,
        0.222393,
        0.219734,
        0.216654,
        0.213127,
        0.20913,
        0.204638,
        0.199675,
        0.194448,
        0.189215,
        0.184233,
        0.179756,
        0.176043,
        0.173348,
        0.171929,
        0.172042,
        0.173943,
        0.177791,
        0.183358,
        0.190318,
        0.198346,
        0.207115,
        0.216299,
        0.225574,
        0.234613,
        0.243091,
        0.250682,
        0.25714,
        0.262542,
        0.267044,
        0.270803,
        0.273974,
        0.276714,
        0.279179,
        0.281527,
        0.283913,
        0.286494,
        0.289396,
        0.292625,
        0.296159,
        0.299972,
        0.304043,
        0.308347,
        0.31286,
        0.317559,
        0.322421,
        0.327422,
        0.332531,
        0.337693,
        0.342847,
        0.34793,
        0.35288,
        0.357635,
        0.362133,
        0.366312,
        0.37011,
        0.373465,
        0.376337,
        0.378773,
        0.380842,
        0.382613,
        0.384156,
        0.385539,
        0.386832,
        0.388104,
        0.389423,
        0.39086,
        0.392465,
        0.394219,
        0.396087,
        0.398032,
        0.400017,
        0.402007,
        0.403964,
        0.405852,
        0.407635,
        0.409277,
        0.41075,
        0.412067,
        0.413248,
        0.414315,
        0.415289,
        0.416191,
        0.417043,
        0.417866,
        0.418681,
        0.419509,
        0.420368,
        0.421263,
        0.422193,
        0.423159,
        0.424162,
        0.425202,
        0.426279,
        0.427395,
        0.428548,
        0.443376,
        0.445396,
        0.44696,
        0.446865,
        0.441003,
        0.428358,
        0.408439,
        0.433078,
        0.457012,
        0.445929,
        0.43564,
        0.462301,
        0.493319,
        0.491208,
        0.467657,
        0.444986,
        0.438861,
        0.456792,
        0.480316,
        0.48948,
        0.484314,
        0.471062,
        0.460816,
        0.462019,
        0.467657,
        0.468468,
        0.461666,
        0.44817,
        0.437248,
        0.438915,
        0.457854,
        0.489933,
        0.501103,
        0.466769,
        0.430058,
        0.43376,
        0.451572,
        0.451755,
        0.449912,
        0.464837,
        0.480759,
        0.480072,
        0.472419,
        0.471594,
        0.480759,
        0.496211,
        0.497425,
        0.471393,
        0.451989,
        0.469031,
        0.489246,
        0.478099,
        0.459121,
        0.460354,
        0.469816,
        0.47015,
        0.462517,
        0.453079,
        0.449498,
        0.456437,
        0.46508,
        0.46691,
        0.470442,
        0.473424,
        0.480072,
        0.486465,
        0.488743,
        0.50531,
        0.506732,
        0.496194,
        0.481435,
        0.481474,
        0.484301,
        0.4641,
        0.443095,
        0.452012,
        0.459806,
        0.456737,
        0.452662,
        0.462212,
        0.476519,
        0.471315,
        0.466528,
        0.472375,
        0.478362,
        0.477245,
        0.474169,
        0.484527,
        0.472407,
        0.479338,
        0.505475,
        0.518752,
        0.516326,
        0.522676,
        0.528836,
        0.540165,
        0.565894,
        0.621096,
        0.687747,
        0.714748,
        0.760466,
        0.759942,
        0.809573,
        0.910502,
        0.911931,
        0.966389,
        0.982145,
        0.995806,
        1.176014,
        1.040991,
        0.922531,
        1.176618,
        1.27182,
        1.158848,
        1.008499,
        1.344063,
        1.725464,
        1.742434,
        1.519716,
        1.181681,
        1.188645,
        1.586009,
        1.844921,
        1.884201,
        1.819909,
        1.528613,
        1.207928,
        1.028678,
        1.320542,
        1.71099,
        1.949109,
        1.985068,
        1.964121,
        2.017595,
        2.041908,
        1.935321,
        1.69768,
        1.261036,
        1.081642,
        1.39806,
        1.733878,
        1.913154,
        1.976685,
        1.97295,
        1.915086,
        1.547079,
        1.047831,
        1.126923,
        1.622128,
        1.809537,
        1.84259,
        1.814832,
        1.570847,
        1.004041,
        0.780026,
        1.260356,
        1.732846,
        1.949348,
        2.023406,
        1.996106,
        1.940758,
        1.954412,
        1.995922,
        2.026549,
        2.031406,
        1.93484,
        1.89759,
        1.972472,
        2.016052,
        1.953381,
        1.926391,
        1.932653,
        1.9492,
        1.928276,
        1.887063,
        1.837733,
        1.847548,
        1.869326,
        1.775978,
        1.408318,
        1.049953,
        1.262552,
        1.64201,
        1.835883,
        1.859475,
        1.803867,
        1.776728,
        1.868313,
        1.925777,
        1.911617,
        1.880111,
        1.849706,
        1.834783,
        1.845959,
        1.776084,
        1.684482,
        1.676236,
        1.741096,
        1.789797,
        1.77594,
        1.739148,
        1.751236,
        1.784542,
        1.78744,
        1.770509,
        1.706184,
        1.709651,
        1.705579,
        1.736344,
        1.696977,
        1.660694,
        1.681041,
        1.690115,
        1.709076,
        1.671773,
        1.689481,
        1.713462,
        1.673157,
        1.607872,
        1.565486,
        1.517189,
        1.558802,
        1.592454,
        1.578748,
        1.613996,
        1.602686,
        1.501107,
        1.170548,
        0.897579,
        1.123207,
        1.427499,
        1.616919,
        1.691708,
        1.694666,
        1.64747,
        1.639985,
        1.638901,
        1.581031,
        1.594882,
        1.547119,
        1.561029,
        1.594371,
        1.577251,
        1.514279,
        1.528879,
        1.581983,
        1.594161,
        1.590933,
        1.557508,
        1.542899,
        1.587161,
        1.581828,
        1.56091,
        1.52884,
        1.524495,
        1.561912,
        1.548607,
        1.554178,
        1.546267,
        1.58157,
        1.602556,
        1.618899,
        1.614782,
        1.567493,
        1.522852,
        1.521152,
        1.522199,
        1.56143,
        1.557016,
        1.50961,
        1.447523,
        1.460805,
        1.498249,
        1.536982,
        1.540921,
        1.516214,
        1.470612,
        1.450922,
        1.479323,
        1.519696,
        1.56372,
        1.592175,
        1.587582,
        1.537423,
        1.526167,
        1.533899,
        1.516442,
        1.525845,
        1.552343,
        1.564007,
        1.553988,
        1.534068,
        1.517644,
        1.478736,
        1.485252,
        1.537762,
        1.560912,
        1.564488,
        1.54797,
        1.530569,
        1.508814,
        1.491847,
        1.505126,
        1.518446,
        1.513399,
        1.486791,
        1.455336,
        1.456946,
        1.475057,
        1.487705,
        1.48669,
        1.482578,
        1.435299,
        1.411915,
        1.432676,
        1.437628,
        1.439345,
        1.439201,
        1.435944,
        1.425858,
        1.42531,
        1.414814,
        1.419548,
        1.422989,
        1.417349,
        1.406035,
        1.396464,
        1.392505,
        1.381675,
        1.333512,
        1.209644,
        0.94932,
        0.778229,
        0.953139,
        1.149824,
        1.233217,
        1.283468,
        1.309998,
        1.322651,
        1.348009,
        1.361379,
        1.375625,
        1.348343,
        1.337417,
        1.287697,
        1.293078,
        1.340656,
        1.345518,
        1.362289,
        1.382144,
        1.37846,
        1.343566,
        1.344661,
        1.359755,
        1.353813,
        1.33522,
        1.298819,
        1.302206,
        1.311211,
        1.302124,
        1.300614,
        1.281409,
        1.2776,
        1.232007,
        1.198282,
        1.262562,
        1.281436,
        1.267086,
        1.263004,
        1.281798,
        1.281711,
        1.281173,
        1.293351,
        1.283059,
        1.262342,
        1.259089,
        1.266663,
        1.272536,
        1.27974,
        1.266014,
        1.251163,
        1.263521,
        1.274056,
        1.26583,
        1.245706,
        1.225492,
        1.208854,
        1.212913,
        1.210786,
        1.218592,
        1.21185,
        1.206537,
        1.200567,
        1.120939,
        1.087808,
        1.16286,
        1.185304,
        1.147186,
        1.128737,
        1.128841,
        1.148765,
        1.142242,
        1.149416,
        1.170642,
        1.177545,
        1.124025,
        1.097977,
        1.104541,
        1.148318,
        1.159858,
        1.148762,
        1.139605,
        1.118587,
        1.077918,
        1.065835,
        1.064864,
        1.098009,
        1.135284,
        1.166805,
        1.166704,
        1.147867,
        1.128397,
        1.111121,
        1.095726,
        1.100323,
        1.086276,
        1.091488,
        1.074324,
        1.080662,
        1.105027,
        1.116288,
        1.122483,
        1.101201,
        1.077119,
        1.071234,
        1.076365,
        1.080688,
        1.092361,
        1.088027,
        1.070204,
        1.0547,
        1.046462,
        1.042966,
        1.045879,
        1.043048,
        1.032706,
        1.036826,
        1.050086,
        1.068509,
        1.056401,
        1.049673,
        1.048716,
        1.061737,
        1.056842,
        1.049803,
        1.035989,
        1.031225,
        1.03759,
        1.038762,
        1.035849,
        1.026439,
        1.014606,
        1.015007,
        1.034658,
        1.03437,
        0.998366,
        0.985883,
        0.996538,
        1.006915,
        1.004876,
        1.007957,
        1.006468,
        1.001304,
        1.000905,
        0.991537,
        0.999642,
        1.003911,
        0.98782,
        0.977166,
        0.977959,
        0.976124,
        0.983705,
        0.988528,
        0.972406,
        0.971988,
        0.977095,
        0.974537,
        0.980974,
        0.970492,
        0.971103,
        0.975907,
        0.949107,
        0.928469,
        0.930675,
        0.944748,
        0.954692,
        0.950115,
        0.940423,
        0.942068,
        0.949317,
        0.949061,
        0.937044,
        0.930902,
        0.9344,
        0.938832,
        0.944428,
        0.944339,
        0.940681,
        0.936064,
        0.929567,
        0.930127,
        0.926551,
        0.925428,
        0.925989,
        0.918846,
        0.904695,
        0.882811,
        0.886408,
        0.895133,
        0.896801,
        0.903881,
        0.906317,
        0.902764,
        0.902403,
        0.900903,
        0.896056,
        0.894176,
        0.89939,
        0.897299,
        0.887227,
        0.881517,
        0.880816,
        0.890393,
        0.891447,
        0.892198,
        0.88844,
        0.876712,
        0.84411,
        0.802221,
        0.808886,
        0.849154,
        0.862852,
        0.870212,
        0.864051,
        0.858271,
        0.855227,
        0.856351,
        0.861683,
        0.859926,
        0.850186,
        0.845819,
        0.847501,
        0.849973,
        0.850106,
        0.844663,
        0.844131,
        0.844346,
        0.837836,
        0.829956,
        0.837621,
        0.839007,
        0.830818,
        0.826419,
        0.821008,
        0.819429,
        0.823963,
        0.821095,
        0.818919,
        0.816973,
        0.816483,
        0.812665,
        0.811404,
        0.815004,
        0.814755,
        0.813197,
        0.80888,
        0.804201,
        0.801466,
        0.803101,
        0.802591,
        0.799796,
        0.799093,
        0.800011,
        0.799406,
        0.793444,
        0.788491,
        0.785311,
        0.777638,
        0.768033,
        0.766412,
        0.763995,
        0.764786,
        0.762308,
        0.769785,
        0.772099,
        0.77185,
        0.772821,
        0.772,
        0.773671,
        0.772421,
        0.772754,
        0.773287,
        0.770584,
        0.765121,
        0.765917,
        0.766262,
        0.757023,
        0.749258,
        0.742991,
        0.736434,
        0.739158,
        0.748971,
        0.751136,
        0.7465,
        0.746963,
        0.734711,
        0.706106,
        0.712226,
        0.732108,
        0.737026,
        0.732218,
        0.733084,
        0.735952,
        0.73048,
        0.730792,
        0.737734,
        0.738809,
        0.738723,
        0.735579,
        0.720331,
        0.717348,
        0.731056,
        0.734374,
        0.724923,
        0.709473,
        0.719108,
        0.727524,
        0.725882,
        0.722876,
        0.722479,
        0.719539,
        0.71962,
        0.715149,
        0.710121,
        0.708561,
        0.715169,
        0.709243,
        0.70753,
        0.707025,
        0.708028,
        0.700394,
        0.682292,
        0.683613,
        0.692137,
        0.698516,
        0.698285,
        0.691296,
        0.686136,
        0.680446,
        0.675399,
        0.688344,
        0.699162,
        0.697942,
        0.685821,
        0.685929,
        0.69164,
        0.68758,
        0.681562,
        0.677967,
        0.666398,
        0.632924,
        0.561155,
        0.461826,
        0.468213,
        0.563542,
        0.624909,
        0.658045,
        0.663799,
        0.666746,
        0.674715,
        0.679702,
        0.67825,
        0.675992,
        0.677289,
        0.679611,
        0.677385,
        0.67266,
        0.668205,
        0.665161,
        0.662251,
        0.662748,
        0.659558,
        0.65746,
        0.658249,
        0.658093,
        0.652785,
        0.649941,
        0.65342,
        0.656731,
        0.65604,
        0.652239,
        0.652045,
        0.650279,
        0.646976,
        0.645817,
        0.646406,
        0.646535,
        0.645722,
        0.643482,
        0.641566,
        0.641307,
        0.63963,
        0.635682,
        0.636642,
        0.634365,
        0.634538,
        0.634875,
        0.632902,
        0.632126,
        0.629291,
        0.626623,
        0.628582,
        0.627347,
        0.623162,
        0.620522,
        0.619505,
        0.617373,
        0.616753,
        0.606897,
        0.605891,
        0.604849,
        0.603792,
        0.602727,
        0.601641,
        0.600588,
        0.599551,
        0.598486,
        0.597422,
        0.596355,
        0.595215,
        0.594073,
        0.592943,
        0.591822,
        0.590735,
        0.589681,
        0.588629,
        0.587684,
        0.5867,
        0.585783,
        0.585026,
        0.584161,
        0.583205,
        0.582365,
        0.581686,
        0.580733,
        0.588842,
        0.587376,
        0.58584,
        0.580477,
        0.578322,
        0.575222,
        0.57399,
        0.580268,
        0.58082,
        0.579342,
        0.575723,
        0.57418,
        0.576302,
        0.57672,
        0.578607,
        0.575929,
        0.574313,
        0.575825,
        0.574875,
        0.573559,
        0.573378,
        0.573005,
        0.572317,
        0.569431,
        0.56907,
        0.568944,
        0.570863,
        0.563114,
        0.558578,
        0.561731,
        0.565555,
        0.569216,
        0.571407,
        0.570738,
        0.565135,
        0.561981,
        0.565526,
        0.561881,
        0.545339,
        0.531033,
        0.520722,
        0.515164,
        0.500671,
        0.498694,
        0.505262,
        0.508213,
        0.51863,
        0.532933,
        0.542117,
        0.543153,
        0.535796,
        0.526701,
        0.513649,
        0.509975,
        0.511982,
        0.515208,
        0.514731,
        0.520556,
        0.519554,
        0.520877,
        0.50967,
        0.512144,
        0.513399,
        0.501871,
        0.509244,
        0.514346,
        0.507543,
        0.506105,
        0.508834,
        0.513561,
        0.517976,
        0.518328,
        0.520269,
        0.525258,
        0.525659,
        0.521044,
        0.516843,
        0.515727,
        0.512159,
        0.51197,
        0.51358,
        0.513638,
        0.507905,
        0.503816,
        0.504683,
        0.501745,
        0.499586,
        0.49593,
        0.491226,
        0.489738,
        0.482668,
        0.487085,
        0.487744,
        0.485371,
        0.479719,
        0.479367,
        0.482886,
        0.482743,
        0.477271,
        0.474672,
        0.476932,
        0.4784,
        0.480133,
        0.479611,
        0.477209,
        0.477006,
        0.475619,
        0.472473,
        0.470071,
        0.470577,
        0.472327,
        0.471767,
        0.469623,
        0.47212,
        0.47129,
        0.471516,
        0.470817,
        0.469832,
        0.468996,
        0.468263,
        0.467433,
        0.466533,
        0.465677,
        0.464903,
        0.464132,
        0.463303,
        0.462574,
        0.461814,
        0.461066,
        0.460318,
        0.459573,
        0.458829,
        0.458087,
        0.457345,
        0.456604,
        0.455865,
        0.455127,
        0.45439,
        0.453658,
        0.452896,
        0.45214,
        0.451419,
        0.450725,
        0.450005,
        0.449306,
        0.448605,
        0.447909,
        0.447465,
        0.447552,
        0.44728,
        0.446586,
        0.446862,
        0.445089,
        0.443545,
        0.442334,
        0.442774,
        0.441728,
        0.440959,
        0.438496,
        0.425394,
        0.40379,
        0.412577,
        0.426032,
        0.434007,
        0.43513,
        0.43218,
        0.431523,
        0.431118,
        0.430967,
        0.431231,
        0.43054,
        0.428616,
        0.425966,
        0.424149,
        0.424966,
        0.420491,
        0.422278,
        0.421963,
        0.420678,
        0.42005,
        0.416118,
        0.412408,
        0.417829,
        0.419619,
        0.413279,
        0.408421,
        0.413345,
        0.416447,
        0.414351,
        0.411367,
        0.411648,
        0.410981,
        0.41194,
        0.414896,
        0.410411,
        0.407796,
        0.408644,
        0.410304,
        0.412246,
        0.411368,
        0.410674,
        0.410451,
        0.407886,
        0.408068,
        0.404597,
        0.406485,
        0.408588,
        0.410349,
        0.410347,
        0.407272,
        0.407371,
        0.408487,
        0.406007,
        0.40402,
        0.403283,
        0.40319,
        0.401795,
        0.402882,
        0.400047,
        0.400889,
        0.403492,
        0.400972,
        0.39758,
        0.398043,
        0.397968,
        0.397917,
        0.395977,
        0.39517,
        0.393873,
        0.395338,
        0.393468,
        0.393425,
        0.390371,
        0.390634,
        0.389388,
        0.386433,
        0.382919,
        0.381086,
        0.376434,
        0.381701,
        0.381028,
        0.373937,
        0.373112,
        0.373001,
        0.375698,
        0.37248,
        0.378823,
        0.386488,
        0.376531,
        0.370673,
        0.364261,
        0.357248,
        0.365719,
        0.379374,
        0.37089,
        0.372864,
        0.373761,
        0.37444,
        0.374429,
        0.374137,
        0.369545,
        0.366585,
        0.368427,
        0.364689,
        0.365281,
        0.367908,
        0.367504,
        0.368005,
        0.36569,
        0.363021,
        0.358209,
        0.360336,
        0.354278,
        0.359421,
        0.360207,
        0.361567,
        0.363924,
        0.35581,
        0.360535,
        0.36126,
        0.352455,
        0.357712,
        0.363019,
        0.353621,
        0.34486,
        0.36087,
        0.367682,
        0.354587,
        0.340538,
        0.35577,
        0.368843,
        0.367884,
        0.341854,
        0.3224,
        0.336716,
        0.349763,
        0.368169,
        0.352773,
        0.325406,
        0.316384,
        0.34431,
        0.364534,
        0.373533,
        0.3712,
        0.34743,
        0.303369,
        0.294845,
        0.329321,
        0.353839,
        0.365225,
        0.368102,
        0.363653,
        0.345161,
        0.304643,
        0.263485,
        0.294543,
        0.334667,
        0.357272,
        0.361597,
        0.361872,
        0.363805,
        0.357626,
        0.344489,
        0.326558,
        0.29335,
        0.270976,
        0.301277,
        0.332042,
        0.34983,
        0.356437,
        0.361836,
        0.36067,
        0.36483,
        0.364354,
        0.357498,
        0.348919,
        0.325733,
        0.283793,
        0.240262,
        0.265398,
        0.301655,
        0.314885,
        0.32283,
        0.34004,
        0.357211,
        0.364643,
        0.364048,
        0.364524,
        0.362922,
        0.362402,
        0.357234,
        0.346765,
        0.33417,
        0.31221,
        0.291086,
        0.255519,
        0.261014,
        0.293776,
        0.315568,
        0.32819,
        0.336219,
        0.336464,
        0.339649,
        0.340367,
        0.340777,
        0.344402,
        0.344158,
        0.337354,
        0.344355,
        0.340669,
        0.33324,
        0.330832,
        0.328172,
        0.325109,
        0.316205,
        0.305663,
        0.286346,
        0.257069,
        0.240009,
        0.266383,
        0.290872,
        0.304557,
        0.313198,
        0.322493,
        0.328857,
        0.326242,
        0.328064,
        0.321887,
        0.319246,
        0.320024,
        0.31149,
        0.305217,
        0.310489,
        0.312712,
        0.309531,
        0.303392,
        0.303021,
        0.312284,
        0.308061,
        0.305917,
        0.303425,
        0.303829,
        0.298784,
        0.285394,
        0.281683,
        0.283,
        0.270656,
        0.248789,
        0.224194,
        0.23467,
        0.265198,
        0.287477,
        0.304942,
        0.30799,
        0.319254,
        0.321521,
        0.32111,
        0.309964,
        0.299656,
        0.306011,
        0.30713,
        0.299014,
        0.299546,
        0.291365,
        0.294002,
        0.301811,
        0.306401,
        0.302008,
        0.30859,
        0.312072,
        0.312794,
        0.307542,
        0.302524,
        0.30401,
        0.312815,
        0.304519,
        0.294589,
        0.300134,
        0.309528,
        0.309985,
        0.302941,
        0.301201,
        0.309541,
        0.310909,
        0.305457,
        0.304769,
        0.298553,
        0.293496,
        0.276207,
        0.264406,
        0.24362,
        0.223333,
        0.246679,
        0.264656,
        0.274367,
        0.288095,
        0.29752,
        0.294661,
        0.289609,
        0.302526,
        0.315908,
        0.312002,
        0.318797,
        0.311183,
        0.30505,
        0.299223,
        0.292882,
        0.28864,
        0.27767,
        0.268106,
        0.269916,
        0.27235,
        0.263777,
        0.257497,
        0.248373,
        0.275126,
        0.26795,
        0.268383,
        0.283335,
        0.263484,
        0.278909,
        0.276597,
        0.287145,
        0.301239,
        0.314906,
        0.313268,
        0.305013,
        0.294511,
        0.293733,
        0.288952,
        0.286408,
        0.264361,
        0.282377,
        0.245931,
        0.259857,
        0.284427,
        0.278946,
        0.262774,
        0.271921,
        0.286626,
        0.287744,
        0.2759,
        0.272672,
        0.293151,
        0.275592,
        0.261456,
        0.275088,
        0.294788,
        0.287527,
        0.265345,
        0.255109,
        0.245199,
        0.251371,
        0.225007,
        0.20426,
        0.202154,
        0.218487,
        0.246757,
        0.250656,
        0.261286,
        0.280849,
        0.270718,
        0.278342,
        0.267216,
        0.2631,
        0.270455,
        0.269952,
        0.268443,
        0.280729,
        0.261828,
        0.257828,
        0.274129,
        0.269134,
        0.260543,
        0.265138,
        0.265355,
        0.26733,
        0.255769,
        0.253355,
        0.26392,
        0.27472,
        0.270864,
        0.271947,
        0.275198,
        0.273386,
        0.271767,
        0.269841,
        0.277058,
        0.256676,
        0.268297,
        0.263291,
        0.259544,
        0.261452,
        0.265654,
        0.268328,
        0.269957,
        0.256498,
        0.255828,
        0.262162,
        0.265948,
        0.265151,
        0.263805,
        0.266916,
        0.262343,
        0.270859,
        0.260138,
        0.264713,
        0.26629,
        0.267013,
        0.264791,
        0.264231,
        0.252501,
        0.26427,
        0.260082,
        0.274269,
        0.275125,
        0.263594,
        0.255494,
        0.289823,
        0.263053,
        0.272389,
        0.264034,
        0.260802,
        0.262663,
        0.257395,
        0.255794,
        0.247984,
        0.267087,
        0.258013,
        0.262023,
        0.246555,
        0.24745,
        0.257917,
        0.26309,
        0.245268,
        0.245447,
        0.236315,
        0.25369,
        0.24895,
        0.253033,
        0.248899,
        0.248439,
        0.272531,
        0.261,
        0.248293,
        0.254793,
        0.240275,
        0.245167,
        0.240905,
        0.23218,
        0.238658,
        0.239778,
        0.246319,
        0.23505,
        0.225045,
        0.231267,
        0.22191,
        0.235253,
        0.230497,
        0.241458,
        0.241422,
        0.25368,
        0.259656,
        0.243356,
        0.255231,
        0.266737,
        0.246319,
        0.246229,
        0.241302,
        0.249328,
        0.243315,
        0.240652,
        0.2459,
        0.241194,
        0.24742,
        0.247613,
        0.247109,
        0.246538,
        0.245906,
        0.245221,
        0.244492,
        0.243726,
        0.242931,
        0.242115,
        0.241285,
        0.24045,
        0.239617,
        0.238793,
        0.237984,
        0.237197,
        0.236437,
        0.235713,
        0.235029,
        0.234392,
        0.23381,
        0.233288,
        0.23283,
        0.23243,
        0.232078,
        0.231766,
        0.231484,
        0.231224,
        0.230977,
        0.230733,
        0.230483,
        0.230218,
        0.229519,
        0.229255,
        0.228985,
        0.22871,
        0.228434,
        0.228158,
        0.227887,
        0.227622,
        0.227365,
        0.22712,
        0.226888,
        0.226667,
        0.226455,
        0.226248,
        0.226044,
        0.22584,
        0.225633,
        0.225421,
        0.225199,
        0.224967,
        0.224721,
        0.224464,
        0.224197,
        0.223924,
        0.223647,
        0.223368,
        0.22309,
        0.222816,
        0.222548,
        0.222289,
        0.222039,
        0.2218,
        0.22157,
        0.221347,
        0.221132,
        0.220921,
        0.220714,
        0.220511,
        0.220309,
        0.220108
      ],
      "range":1
    }
  }
]
