[
  {
    "model":"Star, type F5(iii)",
    "name":"Star, type F5(iii)",
    "type":"WB_REF",
    "dataQualityMarker":3,
    "dataSource":"https://www.eso.org/sci/facilities/paranal/decommissioned/isaac/tools/lib.html",
    "manufacturer":"A. Pickles (A.J. Pickles, PASP 110,863, 1998)",
    "version":1,
    "wavelength":{
      "value":[
        1150.0,
        1155.0,
        1160.0,
        1165.0,
        1170.0,
        1175.0,
        1180.0,
        1185.0,
        1190.0,
        1195.0,
        1200.0,
        1205.0,
        1210.0,
        1215.0,
        1220.0,
        1225.0,
        1230.0,
        1235.0,
        1240.0,
        1245.0,
        1250.0,
        1255.0,
        1260.0,
        1265.0,
        1270.0,
        1275.0,
        1280.0,
        1285.0,
        1290.0,
        1295.0,
        1300.0,
        1305.0,
        1310.0,
        1315.0,
        1320.0,
        1325.0,
        1330.0,
        1335.0,
        1340.0,
        1345.0,
        1350.0,
        1355.0,
        1360.0,
        1365.0,
        1370.0,
        1375.0,
        1380.0,
        1385.0,
        1390.0,
        1395.0,
        1400.0,
        1405.0,
        1410.0,
        1415.0,
        1420.0,
        1425.0,
        1430.0,
        1435.0,
        1440.0,
        1445.0,
        1450.0,
        1455.0,
        1460.0,
        1465.0,
        1470.0,
        1475.0,
        1480.0,
        1485.0,
        1490.0,
        1495.0,
        1500.0,
        1505.0,
        1510.0,
        1515.0,
        1520.0,
        1525.0,
        1530.0,
        1535.0,
        1540.0,
        1545.0,
        1550.0,
        1555.0,
        1560.0,
        1565.0,
        1570.0,
        1575.0,
        1580.0,
        1585.0,
        1590.0,
        1595.0,
        1600.0,
        1605.0,
        1610.0,
        1615.0,
        1620.0,
        1625.0,
        1630.0,
        1635.0,
        1640.0,
        1645.0,
        1650.0,
        1655.0,
        1660.0,
        1665.0,
        1670.0,
        1675.0,
        1680.0,
        1685.0,
        1690.0,
        1695.0,
        1700.0,
        1705.0,
        1710.0,
        1715.0,
        1720.0,
        1725.0,
        1730.0,
        1735.0,
        1740.0,
        1745.0,
        1750.0,
        1755.0,
        1760.0,
        1765.0,
        1770.0,
        1775.0,
        1780.0,
        1785.0,
        1790.0,
        1795.0,
        1800.0,
        1805.0,
        1810.0,
        1815.0,
        1820.0,
        1825.0,
        1830.0,
        1835.0,
        1840.0,
        1845.0,
        1850.0,
        1855.0,
        1860.0,
        1865.0,
        1870.0,
        1875.0,
        1880.0,
        1885.0,
        1890.0,
        1895.0,
        1900.0,
        1905.0,
        1910.0,
        1915.0,
        1920.0,
        1925.0,
        1930.0,
        1935.0,
        1940.0,
        1945.0,
        1950.0,
        1955.0,
        1960.0,
        1965.0,
        1970.0,
        1975.0,
        1980.0,
        1985.0,
        1990.0,
        1995.0,
        2000.0,
        2005.0,
        2010.0,
        2015.0,
        2020.0,
        2025.0,
        2030.0,
        2035.0,
        2040.0,
        2045.0,
        2050.0,
        2055.0,
        2060.0,
        2065.0,
        2070.0,
        2075.0,
        2080.0,
        2085.0,
        2090.0,
        2095.0,
        2100.0,
        2105.0,
        2110.0,
        2115.0,
        2120.0,
        2125.0,
        2130.0,
        2135.0,
        2140.0,
        2145.0,
        2150.0,
        2155.0,
        2160.0,
        2165.0,
        2170.0,
        2175.0,
        2180.0,
        2185.0,
        2190.0,
        2195.0,
        2200.0,
        2205.0,
        2210.0,
        2215.0,
        2220.0,
        2225.0,
        2230.0,
        2235.0,
        2240.0,
        2245.0,
        2250.0,
        2255.0,
        2260.0,
        2265.0,
        2270.0,
        2275.0,
        2280.0,
        2285.0,
        2290.0,
        2295.0,
        2300.0,
        2305.0,
        2310.0,
        2315.0,
        2320.0,
        2325.0,
        2330.0,
        2335.0,
        2340.0,
        2345.0,
        2350.0,
        2355.0,
        2360.0,
        2365.0,
        2370.0,
        2375.0,
        2380.0,
        2385.0,
        2390.0,
        2395.0,
        2400.0,
        2405.0,
        2410.0,
        2415.0,
        2420.0,
        2425.0,
        2430.0,
        2435.0,
        2440.0,
        2445.0,
        2450.0,
        2455.0,
        2460.0,
        2465.0,
        2470.0,
        2475.0,
        2480.0,
        2485.0,
        2490.0,
        2495.0,
        2500.0,
        2505.0,
        2510.0,
        2515.0,
        2520.0,
        2525.0,
        2530.0,
        2535.0,
        2540.0,
        2545.0,
        2550.0,
        2555.0,
        2560.0,
        2565.0,
        2570.0,
        2575.0,
        2580.0,
        2585.0,
        2590.0,
        2595.0,
        2600.0,
        2605.0,
        2610.0,
        2615.0,
        2620.0,
        2625.0,
        2630.0,
        2635.0,
        2640.0,
        2645.0,
        2650.0,
        2655.0,
        2660.0,
        2665.0,
        2670.0,
        2675.0,
        2680.0,
        2685.0,
        2690.0,
        2695.0,
        2700.0,
        2705.0,
        2710.0,
        2715.0,
        2720.0,
        2725.0,
        2730.0,
        2735.0,
        2740.0,
        2745.0,
        2750.0,
        2755.0,
        2760.0,
        2765.0,
        2770.0,
        2775.0,
        2780.0,
        2785.0,
        2790.0,
        2795.0,
        2800.0,
        2805.0,
        2810.0,
        2815.0,
        2820.0,
        2825.0,
        2830.0,
        2835.0,
        2840.0,
        2845.0,
        2850.0,
        2855.0,
        2860.0,
        2865.0,
        2870.0,
        2875.0,
        2880.0,
        2885.0,
        2890.0,
        2895.0,
        2900.0,
        2905.0,
        2910.0,
        2915.0,
        2920.0,
        2925.0,
        2930.0,
        2935.0,
        2940.0,
        2945.0,
        2950.0,
        2955.0,
        2960.0,
        2965.0,
        2970.0,
        2975.0,
        2980.0,
        2985.0,
        2990.0,
        2995.0,
        3000.0,
        3005.0,
        3010.0,
        3015.0,
        3020.0,
        3025.0,
        3030.0,
        3035.0,
        3040.0,
        3045.0,
        3050.0,
        3055.0,
        3060.0,
        3065.0,
        3070.0,
        3075.0,
        3080.0,
        3085.0,
        3090.0,
        3095.0,
        3100.0,
        3105.0,
        3110.0,
        3115.0,
        3120.0,
        3125.0,
        3130.0,
        3135.0,
        3140.0,
        3145.0,
        3150.0,
        3155.0,
        3160.0,
        3165.0,
        3170.0,
        3175.0,
        3180.0,
        3185.0,
        3190.0,
        3195.0,
        3200.0,
        3205.0,
        3210.0,
        3215.0,
        3220.0,
        3225.0,
        3230.0,
        3235.0,
        3240.0,
        3245.0,
        3250.0,
        3255.0,
        3260.0,
        3265.0,
        3270.0,
        3275.0,
        3280.0,
        3285.0,
        3290.0,
        3295.0,
        3300.0,
        3305.0,
        3310.0,
        3315.0,
        3320.0,
        3325.0,
        3330.0,
        3335.0,
        3340.0,
        3345.0,
        3350.0,
        3355.0,
        3360.0,
        3365.0,
        3370.0,
        3375.0,
        3380.0,
        3385.0,
        3390.0,
        3395.0,
        3400.0,
        3405.0,
        3410.0,
        3415.0,
        3420.0,
        3425.0,
        3430.0,
        3435.0,
        3440.0,
        3445.0,
        3450.0,
        3455.0,
        3460.0,
        3465.0,
        3470.0,
        3475.0,
        3480.0,
        3485.0,
        3490.0,
        3495.0,
        3500.0,
        3505.0,
        3510.0,
        3515.0,
        3520.0,
        3525.0,
        3530.0,
        3535.0,
        3540.0,
        3545.0,
        3550.0,
        3555.0,
        3560.0,
        3565.0,
        3570.0,
        3575.0,
        3580.0,
        3585.0,
        3590.0,
        3595.0,
        3600.0,
        3605.0,
        3610.0,
        3615.0,
        3620.0,
        3625.0,
        3630.0,
        3635.0,
        3640.0,
        3645.0,
        3650.0,
        3655.0,
        3660.0,
        3665.0,
        3670.0,
        3675.0,
        3680.0,
        3685.0,
        3690.0,
        3695.0,
        3700.0,
        3705.0,
        3710.0,
        3715.0,
        3720.0,
        3725.0,
        3730.0,
        3735.0,
        3740.0,
        3745.0,
        3750.0,
        3755.0,
        3760.0,
        3765.0,
        3770.0,
        3775.0,
        3780.0,
        3785.0,
        3790.0,
        3795.0,
        3800.0,
        3805.0,
        3810.0,
        3815.0,
        3820.0,
        3825.0,
        3830.0,
        3835.0,
        3840.0,
        3845.0,
        3850.0,
        3855.0,
        3860.0,
        3865.0,
        3870.0,
        3875.0,
        3880.0,
        3885.0,
        3890.0,
        3895.0,
        3900.0,
        3905.0,
        3910.0,
        3915.0,
        3920.0,
        3925.0,
        3930.0,
        3935.0,
        3940.0,
        3945.0,
        3950.0,
        3955.0,
        3960.0,
        3965.0,
        3970.0,
        3975.0,
        3980.0,
        3985.0,
        3990.0,
        3995.0,
        4000.0,
        4005.0,
        4010.0,
        4015.0,
        4020.0,
        4025.0,
        4030.0,
        4035.0,
        4040.0,
        4045.0,
        4050.0,
        4055.0,
        4060.0,
        4065.0,
        4070.0,
        4075.0,
        4080.0,
        4085.0,
        4090.0,
        4095.0,
        4100.0,
        4105.0,
        4110.0,
        4115.0,
        4120.0,
        4125.0,
        4130.0,
        4135.0,
        4140.0,
        4145.0,
        4150.0,
        4155.0,
        4160.0,
        4165.0,
        4170.0,
        4175.0,
        4180.0,
        4185.0,
        4190.0,
        4195.0,
        4200.0,
        4205.0,
        4210.0,
        4215.0,
        4220.0,
        4225.0,
        4230.0,
        4235.0,
        4240.0,
        4245.0,
        4250.0,
        4255.0,
        4260.0,
        4265.0,
        4270.0,
        4275.0,
        4280.0,
        4285.0,
        4290.0,
        4295.0,
        4300.0,
        4305.0,
        4310.0,
        4315.0,
        4320.0,
        4325.0,
        4330.0,
        4335.0,
        4340.0,
        4345.0,
        4350.0,
        4355.0,
        4360.0,
        4365.0,
        4370.0,
        4375.0,
        4380.0,
        4385.0,
        4390.0,
        4395.0,
        4400.0,
        4405.0,
        4410.0,
        4415.0,
        4420.0,
        4425.0,
        4430.0,
        4435.0,
        4440.0,
        4445.0,
        4450.0,
        4455.0,
        4460.0,
        4465.0,
        4470.0,
        4475.0,
        4480.0,
        4485.0,
        4490.0,
        4495.0,
        4500.0,
        4505.0,
        4510.0,
        4515.0,
        4520.0,
        4525.0,
        4530.0,
        4535.0,
        4540.0,
        4545.0,
        4550.0,
        4555.0,
        4560.0,
        4565.0,
        4570.0,
        4575.0,
        4580.0,
        4585.0,
        4590.0,
        4595.0,
        4600.0,
        4605.0,
        4610.0,
        4615.0,
        4620.0,
        4625.0,
        4630.0,
        4635.0,
        4640.0,
        4645.0,
        4650.0,
        4655.0,
        4660.0,
        4665.0,
        4670.0,
        4675.0,
        4680.0,
        4685.0,
        4690.0,
        4695.0,
        4700.0,
        4705.0,
        4710.0,
        4715.0,
        4720.0,
        4725.0,
        4730.0,
        4735.0,
        4740.0,
        4745.0,
        4750.0,
        4755.0,
        4760.0,
        4765.0,
        4770.0,
        4775.0,
        4780.0,
        4785.0,
        4790.0,
        4795.0,
        4800.0,
        4805.0,
        4810.0,
        4815.0,
        4820.0,
        4825.0,
        4830.0,
        4835.0,
        4840.0,
        4845.0,
        4850.0,
        4855.0,
        4860.0,
        4865.0,
        4870.0,
        4875.0,
        4880.0,
        4885.0,
        4890.0,
        4895.0,
        4900.0,
        4905.0,
        4910.0,
        4915.0,
        4920.0,
        4925.0,
        4930.0,
        4935.0,
        4940.0,
        4945.0,
        4950.0,
        4955.0,
        4960.0,
        4965.0,
        4970.0,
        4975.0,
        4980.0,
        4985.0,
        4990.0,
        4995.0,
        5000.0,
        5005.0,
        5010.0,
        5015.0,
        5020.0,
        5025.0,
        5030.0,
        5035.0,
        5040.0,
        5045.0,
        5050.0,
        5055.0,
        5060.0,
        5065.0,
        5070.0,
        5075.0,
        5080.0,
        5085.0,
        5090.0,
        5095.0,
        5100.0,
        5105.0,
        5110.0,
        5115.0,
        5120.0,
        5125.0,
        5130.0,
        5135.0,
        5140.0,
        5145.0,
        5150.0,
        5155.0,
        5160.0,
        5165.0,
        5170.0,
        5175.0,
        5180.0,
        5185.0,
        5190.0,
        5195.0,
        5200.0,
        5205.0,
        5210.0,
        5215.0,
        5220.0,
        5225.0,
        5230.0,
        5235.0,
        5240.0,
        5245.0,
        5250.0,
        5255.0,
        5260.0,
        5265.0,
        5270.0,
        5275.0,
        5280.0,
        5285.0,
        5290.0,
        5295.0,
        5300.0,
        5305.0,
        5310.0,
        5315.0,
        5320.0,
        5325.0,
        5330.0,
        5335.0,
        5340.0,
        5345.0,
        5350.0,
        5355.0,
        5360.0,
        5365.0,
        5370.0,
        5375.0,
        5380.0,
        5385.0,
        5390.0,
        5395.0,
        5400.0,
        5405.0,
        5410.0,
        5415.0,
        5420.0,
        5425.0,
        5430.0,
        5435.0,
        5440.0,
        5445.0,
        5450.0,
        5455.0,
        5460.0,
        5465.0,
        5470.0,
        5475.0,
        5480.0,
        5485.0,
        5490.0,
        5495.0,
        5500.0,
        5505.0,
        5510.0,
        5515.0,
        5520.0,
        5525.0,
        5530.0,
        5535.0,
        5540.0,
        5545.0,
        5550.0,
        5555.0,
        5560.0,
        5565.0,
        5570.0,
        5575.0,
        5580.0,
        5585.0,
        5590.0,
        5595.0,
        5600.0,
        5605.0,
        5610.0,
        5615.0,
        5620.0,
        5625.0,
        5630.0,
        5635.0,
        5640.0,
        5645.0,
        5650.0,
        5655.0,
        5660.0,
        5665.0,
        5670.0,
        5675.0,
        5680.0,
        5685.0,
        5690.0,
        5695.0,
        5700.0,
        5705.0,
        5710.0,
        5715.0,
        5720.0,
        5725.0,
        5730.0,
        5735.0,
        5740.0,
        5745.0,
        5750.0,
        5755.0,
        5760.0,
        5765.0,
        5770.0,
        5775.0,
        5780.0,
        5785.0,
        5790.0,
        5795.0,
        5800.0,
        5805.0,
        5810.0,
        5815.0,
        5820.0,
        5825.0,
        5830.0,
        5835.0,
        5840.0,
        5845.0,
        5850.0,
        5855.0,
        5860.0,
        5865.0,
        5870.0,
        5875.0,
        5880.0,
        5885.0,
        5890.0,
        5895.0,
        5900.0,
        5905.0,
        5910.0,
        5915.0,
        5920.0,
        5925.0,
        5930.0,
        5935.0,
        5940.0,
        5945.0,
        5950.0,
        5955.0,
        5960.0,
        5965.0,
        5970.0,
        5975.0,
        5980.0,
        5985.0,
        5990.0,
        5995.0,
        6000.0,
        6005.0,
        6010.0,
        6015.0,
        6020.0,
        6025.0,
        6030.0,
        6035.0,
        6040.0,
        6045.0,
        6050.0,
        6055.0,
        6060.0,
        6065.0,
        6070.0,
        6075.0,
        6080.0,
        6085.0,
        6090.0,
        6095.0,
        6100.0,
        6105.0,
        6110.0,
        6115.0,
        6120.0,
        6125.0,
        6130.0,
        6135.0,
        6140.0,
        6145.0,
        6150.0,
        6155.0,
        6160.0,
        6165.0,
        6170.0,
        6175.0,
        6180.0,
        6185.0,
        6190.0,
        6195.0,
        6200.0,
        6205.0,
        6210.0,
        6215.0,
        6220.0,
        6225.0,
        6230.0,
        6235.0,
        6240.0,
        6245.0,
        6250.0,
        6255.0,
        6260.0,
        6265.0,
        6270.0,
        6275.0,
        6280.0,
        6285.0,
        6290.0,
        6295.0,
        6300.0,
        6305.0,
        6310.0,
        6315.0,
        6320.0,
        6325.0,
        6330.0,
        6335.0,
        6340.0,
        6345.0,
        6350.0,
        6355.0,
        6360.0,
        6365.0,
        6370.0,
        6375.0,
        6380.0,
        6385.0,
        6390.0,
        6395.0,
        6400.0,
        6405.0,
        6410.0,
        6415.0,
        6420.0,
        6425.0,
        6430.0,
        6435.0,
        6440.0,
        6445.0,
        6450.0,
        6455.0,
        6460.0,
        6465.0,
        6470.0,
        6475.0,
        6480.0,
        6485.0,
        6490.0,
        6495.0,
        6500.0,
        6505.0,
        6510.0,
        6515.0,
        6520.0,
        6525.0,
        6530.0,
        6535.0,
        6540.0,
        6545.0,
        6550.0,
        6555.0,
        6560.0,
        6565.0,
        6570.0,
        6575.0,
        6580.0,
        6585.0,
        6590.0,
        6595.0,
        6600.0,
        6605.0,
        6610.0,
        6615.0,
        6620.0,
        6625.0,
        6630.0,
        6635.0,
        6640.0,
        6645.0,
        6650.0,
        6655.0,
        6660.0,
        6665.0,
        6670.0,
        6675.0,
        6680.0,
        6685.0,
        6690.0,
        6695.0,
        6700.0,
        6705.0,
        6710.0,
        6715.0,
        6720.0,
        6725.0,
        6730.0,
        6735.0,
        6740.0,
        6745.0,
        6750.0,
        6755.0,
        6760.0,
        6765.0,
        6770.0,
        6775.0,
        6780.0,
        6785.0,
        6790.0,
        6795.0,
        6800.0,
        6805.0,
        6810.0,
        6815.0,
        6820.0,
        6825.0,
        6830.0,
        6835.0,
        6840.0,
        6845.0,
        6850.0,
        6855.0,
        6860.0,
        6865.0,
        6870.0,
        6875.0,
        6880.0,
        6885.0,
        6890.0,
        6895.0,
        6900.0,
        6905.0,
        6910.0,
        6915.0,
        6920.0,
        6925.0,
        6930.0,
        6935.0,
        6940.0,
        6945.0,
        6950.0,
        6955.0,
        6960.0,
        6965.0,
        6970.0,
        6975.0,
        6980.0,
        6985.0,
        6990.0,
        6995.0,
        7000.0,
        7005.0,
        7010.0,
        7015.0,
        7020.0,
        7025.0,
        7030.0,
        7035.0,
        7040.0,
        7045.0,
        7050.0,
        7055.0,
        7060.0,
        7065.0,
        7070.0,
        7075.0,
        7080.0,
        7085.0,
        7090.0,
        7095.0,
        7100.0,
        7105.0,
        7110.0,
        7115.0,
        7120.0,
        7125.0,
        7130.0,
        7135.0,
        7140.0,
        7145.0,
        7150.0,
        7155.0,
        7160.0,
        7165.0,
        7170.0,
        7175.0,
        7180.0,
        7185.0,
        7190.0,
        7195.0,
        7200.0,
        7205.0,
        7210.0,
        7215.0,
        7220.0,
        7225.0,
        7230.0,
        7235.0,
        7240.0,
        7245.0,
        7250.0,
        7255.0,
        7260.0,
        7265.0,
        7270.0,
        7275.0,
        7280.0,
        7285.0,
        7290.0,
        7295.0,
        7300.0,
        7305.0,
        7310.0,
        7315.0,
        7320.0,
        7325.0,
        7330.0,
        7335.0,
        7340.0,
        7345.0,
        7350.0,
        7355.0,
        7360.0,
        7365.0,
        7370.0,
        7375.0,
        7380.0,
        7385.0,
        7390.0,
        7395.0,
        7400.0,
        7405.0,
        7410.0,
        7415.0,
        7420.0,
        7425.0,
        7430.0,
        7435.0,
        7440.0,
        7445.0,
        7450.0,
        7455.0,
        7460.0,
        7465.0,
        7470.0,
        7475.0,
        7480.0,
        7485.0,
        7490.0,
        7495.0,
        7500.0,
        7505.0,
        7510.0,
        7515.0,
        7520.0,
        7525.0,
        7530.0,
        7535.0,
        7540.0,
        7545.0,
        7550.0,
        7555.0,
        7560.0,
        7565.0,
        7570.0,
        7575.0,
        7580.0,
        7585.0,
        7590.0,
        7595.0,
        7600.0,
        7605.0,
        7610.0,
        7615.0,
        7620.0,
        7625.0,
        7630.0,
        7635.0,
        7640.0,
        7645.0,
        7650.0,
        7655.0,
        7660.0,
        7665.0,
        7670.0,
        7675.0,
        7680.0,
        7685.0,
        7690.0,
        7695.0,
        7700.0,
        7705.0,
        7710.0,
        7715.0,
        7720.0,
        7725.0,
        7730.0,
        7735.0,
        7740.0,
        7745.0,
        7750.0,
        7755.0,
        7760.0,
        7765.0,
        7770.0,
        7775.0,
        7780.0,
        7785.0,
        7790.0,
        7795.0,
        7800.0,
        7805.0,
        7810.0,
        7815.0,
        7820.0,
        7825.0,
        7830.0,
        7835.0,
        7840.0,
        7845.0,
        7850.0,
        7855.0,
        7860.0,
        7865.0,
        7870.0,
        7875.0,
        7880.0,
        7885.0,
        7890.0,
        7895.0,
        7900.0,
        7905.0,
        7910.0,
        7915.0,
        7920.0,
        7925.0,
        7930.0,
        7935.0,
        7940.0,
        7945.0,
        7950.0,
        7955.0,
        7960.0,
        7965.0,
        7970.0,
        7975.0,
        7980.0,
        7985.0,
        7990.0,
        7995.0,
        8000.0,
        8005.0,
        8010.0,
        8015.0,
        8020.0,
        8025.0,
        8030.0,
        8035.0,
        8040.0,
        8045.0,
        8050.0,
        8055.0,
        8060.0,
        8065.0,
        8070.0,
        8075.0,
        8080.0,
        8085.0,
        8090.0,
        8095.0,
        8100.0,
        8105.0,
        8110.0,
        8115.0,
        8120.0,
        8125.0,
        8130.0,
        8135.0,
        8140.0,
        8145.0,
        8150.0,
        8155.0,
        8160.0,
        8165.0,
        8170.0,
        8175.0,
        8180.0,
        8185.0,
        8190.0,
        8195.0,
        8200.0,
        8205.0,
        8210.0,
        8215.0,
        8220.0,
        8225.0,
        8230.0,
        8235.0,
        8240.0,
        8245.0,
        8250.0,
        8255.0,
        8260.0,
        8265.0,
        8270.0,
        8275.0,
        8280.0,
        8285.0,
        8290.0,
        8295.0,
        8300.0,
        8305.0,
        8310.0,
        8315.0,
        8320.0,
        8325.0,
        8330.0,
        8335.0,
        8340.0,
        8345.0,
        8350.0,
        8355.0,
        8360.0,
        8365.0,
        8370.0,
        8375.0,
        8380.0,
        8385.0,
        8390.0,
        8395.0,
        8400.0,
        8405.0,
        8410.0,
        8415.0,
        8420.0,
        8425.0,
        8430.0,
        8435.0,
        8440.0,
        8445.0,
        8450.0,
        8455.0,
        8460.0,
        8465.0,
        8470.0,
        8475.0,
        8480.0,
        8485.0,
        8490.0,
        8495.0,
        8500.0,
        8505.0,
        8510.0,
        8515.0,
        8520.0,
        8525.0,
        8530.0,
        8535.0,
        8540.0,
        8545.0,
        8550.0,
        8555.0,
        8560.0,
        8565.0,
        8570.0,
        8575.0,
        8580.0,
        8585.0,
        8590.0,
        8595.0,
        8600.0,
        8605.0,
        8610.0,
        8615.0,
        8620.0,
        8625.0,
        8630.0,
        8635.0,
        8640.0,
        8645.0,
        8650.0,
        8655.0,
        8660.0,
        8665.0,
        8670.0,
        8675.0,
        8680.0,
        8685.0,
        8690.0,
        8695.0,
        8700.0,
        8705.0,
        8710.0,
        8715.0,
        8720.0,
        8725.0,
        8730.0,
        8735.0,
        8740.0,
        8745.0,
        8750.0,
        8755.0,
        8760.0,
        8765.0,
        8770.0,
        8775.0,
        8780.0,
        8785.0,
        8790.0,
        8795.0,
        8800.0,
        8805.0,
        8810.0,
        8815.0,
        8820.0,
        8825.0,
        8830.0,
        8835.0,
        8840.0,
        8845.0,
        8850.0,
        8855.0,
        8860.0,
        8865.0,
        8870.0,
        8875.0,
        8880.0,
        8885.0,
        8890.0,
        8895.0,
        8900.0,
        8905.0,
        8910.0,
        8915.0,
        8920.0,
        8925.0,
        8930.0,
        8935.0,
        8940.0,
        8945.0,
        8950.0,
        8955.0,
        8960.0,
        8965.0,
        8970.0,
        8975.0,
        8980.0,
        8985.0,
        8990.0,
        8995.0,
        9000.0,
        9005.0,
        9010.0,
        9015.0,
        9020.0,
        9025.0,
        9030.0,
        9035.0,
        9040.0,
        9045.0,
        9050.0,
        9055.0,
        9060.0,
        9065.0,
        9070.0,
        9075.0,
        9080.0,
        9085.0,
        9090.0,
        9095.0,
        9100.0,
        9105.0,
        9110.0,
        9115.0,
        9120.0,
        9125.0,
        9130.0,
        9135.0,
        9140.0,
        9145.0,
        9150.0,
        9155.0,
        9160.0,
        9165.0,
        9170.0,
        9175.0,
        9180.0,
        9185.0,
        9190.0,
        9195.0,
        9200.0,
        9205.0,
        9210.0,
        9215.0,
        9220.0,
        9225.0,
        9230.0,
        9235.0,
        9240.0,
        9245.0,
        9250.0,
        9255.0,
        9260.0,
        9265.0,
        9270.0,
        9275.0,
        9280.0,
        9285.0,
        9290.0,
        9295.0,
        9300.0,
        9305.0,
        9310.0,
        9315.0,
        9320.0,
        9325.0,
        9330.0,
        9335.0,
        9340.0,
        9345.0,
        9350.0,
        9355.0,
        9360.0,
        9365.0,
        9370.0,
        9375.0,
        9380.0,
        9385.0,
        9390.0,
        9395.0,
        9400.0,
        9405.0,
        9410.0,
        9415.0,
        9420.0,
        9425.0,
        9430.0,
        9435.0,
        9440.0,
        9445.0,
        9450.0,
        9455.0,
        9460.0,
        9465.0,
        9470.0,
        9475.0,
        9480.0,
        9485.0,
        9490.0,
        9495.0,
        9500.0,
        9505.0,
        9510.0,
        9515.0,
        9520.0,
        9525.0,
        9530.0,
        9535.0,
        9540.0,
        9545.0,
        9550.0,
        9555.0,
        9560.0,
        9565.0,
        9570.0,
        9575.0,
        9580.0,
        9585.0,
        9590.0,
        9595.0,
        9600.0,
        9605.0,
        9610.0,
        9615.0,
        9620.0,
        9625.0,
        9630.0,
        9635.0,
        9640.0,
        9645.0,
        9650.0,
        9655.0,
        9660.0,
        9665.0,
        9670.0,
        9675.0,
        9680.0,
        9685.0,
        9690.0,
        9695.0,
        9700.0,
        9705.0,
        9710.0,
        9715.0,
        9720.0,
        9725.0,
        9730.0,
        9735.0,
        9740.0,
        9745.0,
        9750.0,
        9755.0,
        9760.0,
        9765.0,
        9770.0,
        9775.0,
        9780.0,
        9785.0,
        9790.0,
        9795.0,
        9800.0,
        9805.0,
        9810.0,
        9815.0,
        9820.0,
        9825.0,
        9830.0,
        9835.0,
        9840.0,
        9845.0,
        9850.0,
        9855.0,
        9860.0,
        9865.0,
        9870.0,
        9875.0,
        9880.0,
        9885.0,
        9890.0,
        9895.0,
        9900.0,
        9905.0,
        9910.0,
        9915.0,
        9920.0,
        9925.0,
        9930.0,
        9935.0,
        9940.0,
        9945.0,
        9950.0,
        9955.0,
        9960.0,
        9965.0,
        9970.0,
        9975.0,
        9980.0,
        9985.0,
        9990.0,
        9995.0,
        10000.0,
        10005.0,
        10010.0,
        10015.0,
        10020.0,
        10025.0,
        10030.0,
        10035.0,
        10040.0,
        10045.0,
        10050.0,
        10055.0,
        10060.0,
        10065.0,
        10070.0,
        10075.0,
        10080.0,
        10085.0,
        10090.0,
        10095.0,
        10100.0,
        10105.0,
        10110.0,
        10115.0,
        10120.0,
        10125.0,
        10130.0,
        10135.0,
        10140.0,
        10145.0,
        10150.0,
        10155.0,
        10160.0,
        10165.0,
        10170.0,
        10175.0,
        10180.0,
        10185.0,
        10190.0,
        10195.0,
        10200.0,
        10205.0,
        10210.0,
        10215.0,
        10220.0,
        10225.0,
        10230.0,
        10235.0,
        10240.0,
        10245.0,
        10250.0,
        10255.0,
        10260.0,
        10265.0,
        10270.0,
        10275.0,
        10280.0,
        10285.0,
        10290.0,
        10295.0,
        10300.0,
        10305.0,
        10310.0,
        10315.0,
        10320.0,
        10325.0,
        10330.0,
        10335.0,
        10340.0,
        10345.0,
        10350.0,
        10355.0,
        10360.0,
        10365.0,
        10370.0,
        10375.0,
        10380.0,
        10385.0,
        10390.0,
        10395.0,
        10400.0,
        10405.0,
        10410.0,
        10415.0,
        10420.0,
        10425.0,
        10430.0,
        10435.0,
        10440.0,
        10445.0,
        10450.0,
        10455.0,
        10460.0,
        10465.0,
        10470.0,
        10475.0,
        10480.0,
        10485.0,
        10490.0,
        10495.0,
        10500.0
      ],
      "units":"angstrom"
    },
    "values":{
      "value":[
        0.020165,
        0.003506,
        0.0,
        0.0,
        0.001559,
        0.003457,
        0.002289,
        0.000794,
        0.002459,
        0.002342,
        0.002719,
        0.003027,
        0.003623,
        0.00745,
        0.005345,
        0.001066,
        0.000347,
        0.000863,
        0.000829,
        0.001122,
        0.000527,
        0.000676,
        0.00095,
        0.000796,
        0.000591,
        0.001029,
        0.000247,
        0.0,
        0.000768,
        0.000793,
        0.000369,
        0.000719,
        0.001216,
        0.001393,
        0.001626,
        0.000322,
        0.000638,
        0.001464,
        0.001389,
        0.001012,
        0.000807,
        0.000802,
        0.000718,
        0.001011,
        0.001205,
        0.001565,
        0.001119,
        0.000763,
        0.000851,
        0.001336,
        0.000597,
        0.000815,
        0.001881,
        0.001852,
        0.001064,
        0.00161,
        0.001116,
        0.001708,
        0.001557,
        0.00217,
        0.001383,
        0.001569,
        0.001895,
        0.001654,
        0.002674,
        0.002988,
        0.002242,
        0.002787,
        0.003285,
        0.00388,
        0.003442,
        0.002393,
        0.0023,
        0.002052,
        0.002223,
        0.002399,
        0.002496,
        0.002381,
        0.001692,
        0.00163,
        0.002721,
        0.00371,
        0.003298,
        0.003242,
        0.002271,
        0.002395,
        0.002922,
        0.000791,
        0.001216,
        0.003507,
        0.002684,
        0.002558,
        0.002931,
        0.00297,
        0.003333,
        0.003605,
        0.004815,
        0.004264,
        0.004136,
        0.003518,
        0.002774,
        0.003053,
        0.004359,
        0.005371,
        0.004904,
        0.004636,
        0.005465,
        0.007217,
        0.007651,
        0.008348,
        0.010594,
        0.01425,
        0.022006,
        0.029096,
        0.033754,
        0.032153,
        0.03845,
        0.040306,
        0.038001,
        0.041111,
        0.049433,
        0.055608,
        0.053918,
        0.051313,
        0.075088,
        0.110166,
        0.11883,
        0.117118,
        0.11435,
        0.11809,
        0.122676,
        0.118938,
        0.109755,
        0.124687,
        0.124243,
        0.119888,
        0.112598,
        0.115113,
        0.099056,
        0.08389,
        0.074014,
        0.086782,
        0.110697,
        0.120084,
        0.125611,
        0.139275,
        0.137199,
        0.141147,
        0.142952,
        0.132811,
        0.125752,
        0.126714,
        0.133678,
        0.131261,
        0.136367,
        0.128595,
        0.111386,
        0.096235,
        0.121715,
        0.149073,
        0.163645,
        0.196918,
        0.204593,
        0.182576,
        0.188223,
        0.209855,
        0.226404,
        0.20634,
        0.186969,
        0.1726,
        0.164684,
        0.171462,
        0.169013,
        0.153178,
        0.175327,
        0.186978,
        0.186865,
        0.190017,
        0.17856,
        0.1911,
        0.230792,
        0.231589,
        0.223817,
        0.213521,
        0.217707,
        0.247599,
        0.282021,
        0.287977,
        0.274643,
        0.26822,
        0.244406,
        0.235862,
        0.2327,
        0.223887,
        0.229554,
        0.247151,
        0.230465,
        0.189963,
        0.186008,
        0.223987,
        0.241711,
        0.243282,
        0.240982,
        0.230408,
        0.207349,
        0.200024,
        0.216261,
        0.249353,
        0.266073,
        0.264691,
        0.257719,
        0.250398,
        0.240531,
        0.213222,
        0.186251,
        0.193254,
        0.221467,
        0.2358,
        0.243612,
        0.221056,
        0.213142,
        0.212824,
        0.219559,
        0.209165,
        0.197992,
        0.2039,
        0.225168,
        0.237007,
        0.232144,
        0.228695,
        0.217835,
        0.223165,
        0.222269,
        0.221169,
        0.212761,
        0.206879,
        0.194516,
        0.184922,
        0.179145,
        0.153449,
        0.145642,
        0.163213,
        0.180611,
        0.178382,
        0.171047,
        0.185598,
        0.167326,
        0.138799,
        0.13522,
        0.147477,
        0.1509,
        0.144704,
        0.118834,
        0.120501,
        0.189642,
        0.222907,
        0.220425,
        0.208851,
        0.197973,
        0.215958,
        0.211669,
        0.190154,
        0.188234,
        0.179114,
        0.169619,
        0.177709,
        0.184168,
        0.178898,
        0.173388,
        0.181058,
        0.216158,
        0.251475,
        0.218836,
        0.200133,
        0.181644,
        0.152121,
        0.140302,
        0.138784,
        0.143147,
        0.144907,
        0.163974,
        0.182437,
        0.199765,
        0.205212,
        0.219479,
        0.2362,
        0.22026,
        0.218107,
        0.234041,
        0.243207,
        0.214439,
        0.198182,
        0.198608,
        0.187841,
        0.190716,
        0.216957,
        0.220159,
        0.221962,
        0.265962,
        0.303191,
        0.306966,
        0.296086,
        0.285168,
        0.26652,
        0.251003,
        0.261167,
        0.265858,
        0.257317,
        0.248552,
        0.247177,
        0.24389,
        0.256616,
        0.250497,
        0.236219,
        0.246503,
        0.242509,
        0.242717,
        0.242031,
        0.230609,
        0.218313,
        0.209442,
        0.211428,
        0.229098,
        0.239464,
        0.240914,
        0.250907,
        0.253966,
        0.244102,
        0.231262,
        0.194147,
        0.136416,
        0.14032,
        0.197419,
        0.250641,
        0.281022,
        0.28799,
        0.27735,
        0.267763,
        0.264925,
        0.271144,
        0.260221,
        0.247669,
        0.252984,
        0.274711,
        0.277148,
        0.272529,
        0.273813,
        0.276695,
        0.284292,
        0.284058,
        0.288051,
        0.295172,
        0.298378,
        0.306035,
        0.310768,
        0.314726,
        0.311629,
        0.31819,
        0.313694,
        0.312133,
        0.311673,
        0.327301,
        0.344059,
        0.343609,
        0.331888,
        0.334006,
        0.346479,
        0.347854,
        0.355335,
        0.372859,
        0.358162,
        0.35334,
        0.372802,
        0.385634,
        0.372293,
        0.367333,
        0.369483,
        0.376146,
        0.389883,
        0.397531,
        0.404558,
        0.413887,
        0.411994,
        0.415675,
        0.42255,
        0.424759,
        0.452104,
        0.467803,
        0.474208,
        0.468712,
        0.469589,
        0.453477,
        0.470887,
        0.511511,
        0.514382,
        0.493023,
        0.504012,
        0.49177,
        0.530021,
        0.537653,
        0.52191,
        0.562947,
        0.515786,
        0.467838,
        0.514208,
        0.520364,
        0.48247,
        0.44832,
        0.469785,
        0.51717,
        0.554803,
        0.565989,
        0.574036,
        0.57287,
        0.544677,
        0.484034,
        0.446826,
        0.478882,
        0.524492,
        0.526445,
        0.523045,
        0.557997,
        0.601089,
        0.61422,
        0.601643,
        0.579324,
        0.567726,
        0.582868,
        0.618499,
        0.658722,
        0.671334,
        0.634298,
        0.582558,
        0.556847,
        0.564078,
        0.59548,
        0.613393,
        0.589919,
        0.565118,
        0.578155,
        0.596676,
        0.58377,
        0.555826,
        0.537202,
        0.53081,
        0.534735,
        0.549211,
        0.574156,
        0.606092,
        0.636999,
        0.644079,
        0.613628,
        0.583094,
        0.589757,
        0.619069,
        0.64436,
        0.642301,
        0.604215,
        0.576685,
        0.59878,
        0.624222,
        0.60618,
        0.58095,
        0.589217,
        0.606092,
        0.600612,
        0.583094,
        0.571026,
        0.569297,
        0.577867,
        0.589575,
        0.597425,
        0.679627,
        0.691986,
        0.679431,
        0.650954,
        0.675151,
        0.717847,
        0.786192,
        0.797036,
        0.755989,
        0.728759,
        0.705852,
        0.658877,
        0.626102,
        0.629201,
        0.622782,
        0.6034,
        0.631816,
        0.686503,
        0.708241,
        0.682066,
        0.654707,
        0.652063,
        0.663041,
        0.699591,
        0.698836,
        0.694523,
        0.721542,
        0.712056,
        0.715363,
        0.76448,
        0.821905,
        0.815098,
        0.807203,
        0.77813,
        0.751387,
        0.750905,
        0.775734,
        0.824219,
        0.823059,
        0.761715,
        0.76633,
        0.815263,
        0.799607,
        0.784491,
        0.771809,
        0.745172,
        0.777885,
        0.749675,
        0.723728,
        0.81516,
        0.854463,
        0.834281,
        0.817382,
        0.908465,
        1.008273,
        0.993331,
        0.895944,
        0.816197,
        0.83645,
        0.952292,
        1.015699,
        0.987173,
        0.926458,
        0.82411,
        0.714917,
        0.669665,
        0.757975,
        0.924186,
        1.033199,
        1.050881,
        1.043747,
        1.073774,
        1.062079,
        1.027066,
        0.963166,
        0.841757,
        0.784259,
        0.882449,
        0.989652,
        1.060785,
        1.101088,
        1.106021,
        1.02812,
        0.853066,
        0.649606,
        0.614046,
        0.76832,
        0.923521,
        1.012595,
        1.00947,
        0.897496,
        0.699033,
        0.61996,
        0.795999,
        1.01958,
        1.139737,
        1.197345,
        1.224461,
        1.243495,
        1.243269,
        1.261614,
        1.291312,
        1.310281,
        1.295712,
        1.264061,
        1.275581,
        1.30276,
        1.287888,
        1.281598,
        1.256614,
        1.23437,
        1.227163,
        1.225542,
        1.19679,
        1.189351,
        1.223635,
        1.213212,
        1.113134,
        1.001155,
        1.034417,
        1.148504,
        1.2257,
        1.250109,
        1.239245,
        1.23438,
        1.263559,
        1.3016,
        1.293608,
        1.279583,
        1.276108,
        1.298382,
        1.293767,
        1.253645,
        1.219205,
        1.227535,
        1.247299,
        1.267572,
        1.253238,
        1.230153,
        1.262056,
        1.294728,
        1.294221,
        1.267671,
        1.218735,
        1.21472,
        1.226117,
        1.226154,
        1.231389,
        1.240989,
        1.252862,
        1.254764,
        1.258775,
        1.246279,
        1.24594,
        1.257241,
        1.224545,
        1.176062,
        1.139886,
        1.091231,
        1.07837,
        1.103724,
        1.160812,
        1.203566,
        1.182835,
        1.146455,
        1.056649,
        0.954675,
        1.001157,
        1.112954,
        1.194089,
        1.252356,
        1.272649,
        1.253176,
        1.235072,
        1.221292,
        1.190882,
        1.2041,
        1.223813,
        1.233024,
        1.23521,
        1.247904,
        1.252841,
        1.260668,
        1.271533,
        1.27174,
        1.258788,
        1.258543,
        1.256653,
        1.254655,
        1.221037,
        1.205975,
        1.22454,
        1.253917,
        1.276986,
        1.26305,
        1.260692,
        1.262013,
        1.279233,
        1.306181,
        1.329732,
        1.331948,
        1.310423,
        1.278968,
        1.230038,
        1.203835,
        1.231739,
        1.2649,
        1.252146,
        1.224942,
        1.235392,
        1.260688,
        1.273755,
        1.277967,
        1.273174,
        1.2483,
        1.240076,
        1.251816,
        1.256274,
        1.258894,
        1.274607,
        1.284316,
        1.277683,
        1.276237,
        1.277902,
        1.27511,
        1.265708,
        1.259596,
        1.246117,
        1.242636,
        1.257666,
        1.258856,
        1.223102,
        1.212416,
        1.236631,
        1.248645,
        1.259324,
        1.257743,
        1.245833,
        1.217967,
        1.204421,
        1.215586,
        1.240416,
        1.259275,
        1.253152,
        1.231447,
        1.231782,
        1.238667,
        1.241957,
        1.230561,
        1.215374,
        1.205795,
        1.201934,
        1.215811,
        1.231082,
        1.235632,
        1.22516,
        1.221969,
        1.229962,
        1.226016,
        1.21789,
        1.213637,
        1.219268,
        1.213433,
        1.200725,
        1.195005,
        1.185422,
        1.169169,
        1.14777,
        1.093676,
        0.983944,
        0.8876,
        0.920556,
        1.012091,
        1.07544,
        1.112683,
        1.126451,
        1.138261,
        1.16523,
        1.188467,
        1.187181,
        1.165986,
        1.142563,
        1.123157,
        1.130219,
        1.157979,
        1.162776,
        1.161736,
        1.177411,
        1.187186,
        1.178703,
        1.172027,
        1.182191,
        1.181109,
        1.162379,
        1.138106,
        1.128294,
        1.142128,
        1.146096,
        1.130441,
        1.109376,
        1.09787,
        1.082978,
        1.082684,
        1.107818,
        1.127041,
        1.1173,
        1.097995,
        1.10297,
        1.123041,
        1.141852,
        1.156526,
        1.150522,
        1.129979,
        1.111423,
        1.102288,
        1.113623,
        1.132136,
        1.129372,
        1.114379,
        1.114681,
        1.118906,
        1.124947,
        1.121449,
        1.101702,
        1.087848,
        1.07954,
        1.070147,
        1.069132,
        1.07776,
        1.084655,
        1.078078,
        1.035021,
        0.994444,
        1.01009,
        1.037395,
        1.02603,
        1.016675,
        1.02687,
        1.037851,
        1.041145,
        1.045052,
        1.059657,
        1.065192,
        1.046448,
        1.029959,
        1.041458,
        1.064009,
        1.071616,
        1.065847,
        1.05856,
        1.040154,
        0.998155,
        0.976902,
        0.994238,
        1.031744,
        1.060919,
        1.078628,
        1.072656,
        1.058149,
        1.062403,
        1.069823,
        1.065445,
        1.051042,
        1.029299,
        1.014114,
        1.022927,
        1.031728,
        1.036433,
        1.048556,
        1.065657,
        1.064699,
        1.044679,
        1.029761,
        1.033184,
        1.041574,
        1.040712,
        1.033261,
        1.01818,
        1.003526,
        0.996722,
        1.000969,
        1.015767,
        1.022619,
        1.018972,
        1.017474,
        1.024472,
        1.036797,
        1.03512,
        1.027686,
        1.026876,
        1.029486,
        1.027493,
        1.021002,
        1.010822,
        1.005209,
        1.013733,
        1.024222,
        1.026221,
        1.022146,
        1.01558,
        1.012514,
        1.016975,
        1.018674,
        1.009342,
        1.001379,
        1.005475,
        1.014847,
        1.019668,
        1.022748,
        1.016754,
        1.007322,
        0.999138,
        0.994179,
        0.998166,
        0.998572,
        0.982367,
        0.962377,
        0.959515,
        0.968553,
        0.984715,
        0.998748,
        0.991945,
        0.982481,
        0.984519,
        0.988525,
        0.988832,
        0.983439,
        0.985841,
        0.985395,
        0.96448,
        0.944878,
        0.951442,
        0.967904,
        0.976091,
        0.972009,
        0.963938,
        0.964427,
        0.96917,
        0.968287,
        0.95371,
        0.942183,
        0.948547,
        0.962528,
        0.9725,
        0.975424,
        0.975127,
        0.969014,
        0.958405,
        0.949715,
        0.943843,
        0.945766,
        0.951865,
        0.956972,
        0.953836,
        0.946165,
        0.940047,
        0.941427,
        0.945838,
        0.948207,
        0.951553,
        0.952478,
        0.955958,
        0.957996,
        0.954771,
        0.952819,
        0.956037,
        0.961114,
        0.958616,
        0.948669,
        0.93383,
        0.928232,
        0.933996,
        0.94351,
        0.946602,
        0.937747,
        0.914031,
        0.886816,
        0.88161,
        0.897048,
        0.916303,
        0.923315,
        0.927091,
        0.928759,
        0.92333,
        0.91501,
        0.914764,
        0.91699,
        0.912782,
        0.907503,
        0.909761,
        0.913156,
        0.91449,
        0.913417,
        0.906374,
        0.898497,
        0.894795,
        0.897474,
        0.901937,
        0.898696,
        0.893071,
        0.886917,
        0.883617,
        0.881501,
        0.882291,
        0.892397,
        0.898589,
        0.897835,
        0.895272,
        0.892538,
        0.889267,
        0.890314,
        0.889287,
        0.891256,
        0.886499,
        0.880948,
        0.881117,
        0.879634,
        0.872285,
        0.863079,
        0.866728,
        0.87636,
        0.875173,
        0.870119,
        0.867887,
        0.864707,
        0.847023,
        0.841645,
        0.84837,
        0.853799,
        0.848432,
        0.835276,
        0.829145,
        0.833463,
        0.847537,
        0.856822,
        0.85534,
        0.85178,
        0.856993,
        0.862821,
        0.86403,
        0.857624,
        0.848492,
        0.846351,
        0.8461,
        0.835759,
        0.830649,
        0.827473,
        0.819947,
        0.822689,
        0.824405,
        0.832986,
        0.839373,
        0.839829,
        0.825967,
        0.815605,
        0.827782,
        0.829522,
        0.823075,
        0.815372,
        0.822316,
        0.825197,
        0.816482,
        0.815336,
        0.824365,
        0.824336,
        0.816591,
        0.815225,
        0.819002,
        0.82266,
        0.820852,
        0.816921,
        0.816962,
        0.819213,
        0.822483,
        0.820956,
        0.817269,
        0.812439,
        0.807957,
        0.8069,
        0.805086,
        0.801215,
        0.797502,
        0.797827,
        0.803751,
        0.804084,
        0.805298,
        0.806318,
        0.807403,
        0.799137,
        0.789769,
        0.785215,
        0.786568,
        0.79121,
        0.79297,
        0.792066,
        0.784788,
        0.771318,
        0.757253,
        0.772328,
        0.790955,
        0.794923,
        0.785908,
        0.783182,
        0.783459,
        0.782171,
        0.780351,
        0.777087,
        0.765885,
        0.736155,
        0.675027,
        0.595619,
        0.604386,
        0.683236,
        0.72753,
        0.749247,
        0.755262,
        0.753887,
        0.75546,
        0.763427,
        0.766392,
        0.770792,
        0.776449,
        0.777967,
        0.773475,
        0.763525,
        0.759251,
        0.762501,
        0.766253,
        0.77051,
        0.768324,
        0.762601,
        0.76057,
        0.762738,
        0.758807,
        0.75739,
        0.761862,
        0.762486,
        0.758333,
        0.756124,
        0.753495,
        0.74911,
        0.74183,
        0.741998,
        0.746486,
        0.748622,
        0.751512,
        0.749378,
        0.745331,
        0.738765,
        0.737906,
        0.739427,
        0.740357,
        0.738943,
        0.739616,
        0.737461,
        0.734554,
        0.737454,
        0.737131,
        0.736832,
        0.735854,
        0.734762,
        0.732427,
        0.729009,
        0.726284,
        0.723694,
        0.72121,
        0.721086,
        0.720844,
        0.720952,
        0.719862,
        0.716238,
        0.710602,
        0.705383,
        0.703307,
        0.705299,
        0.709743,
        0.713705,
        0.715226,
        0.714738,
        0.714302,
        0.715411,
        0.71753,
        0.718341,
        0.715631,
        0.709721,
        0.703322,
        0.699675,
        0.700075,
        0.702825,
        0.704955,
        0.704353,
        0.701,
        0.695809,
        0.689329,
        0.685249,
        0.689758,
        0.690739,
        0.68886,
        0.681841,
        0.676438,
        0.682729,
        0.679343,
        0.677214,
        0.676715,
        0.677343,
        0.675559,
        0.677794,
        0.68375,
        0.68655,
        0.687368,
        0.684673,
        0.680532,
        0.679107,
        0.682573,
        0.683,
        0.678756,
        0.677955,
        0.679401,
        0.680234,
        0.677408,
        0.671884,
        0.670473,
        0.672853,
        0.677257,
        0.678176,
        0.676898,
        0.671753,
        0.659774,
        0.653136,
        0.655702,
        0.658576,
        0.655713,
        0.656991,
        0.655018,
        0.646139,
        0.632668,
        0.631432,
        0.635967,
        0.638392,
        0.640216,
        0.647569,
        0.652492,
        0.652157,
        0.65081,
        0.650308,
        0.647826,
        0.644168,
        0.642052,
        0.640503,
        0.642361,
        0.646363,
        0.645791,
        0.644639,
        0.636917,
        0.6335,
        0.625056,
        0.617346,
        0.624328,
        0.62651,
        0.621621,
        0.620413,
        0.624428,
        0.625666,
        0.623221,
        0.622086,
        0.628201,
        0.630471,
        0.627735,
        0.623781,
        0.618862,
        0.618293,
        0.61709,
        0.618575,
        0.618494,
        0.616547,
        0.603064,
        0.598274,
        0.607408,
        0.609968,
        0.60392,
        0.59598,
        0.593628,
        0.596069,
        0.60759,
        0.612881,
        0.61262,
        0.608356,
        0.602786,
        0.605263,
        0.609024,
        0.606491,
        0.607383,
        0.610624,
        0.607393,
        0.604982,
        0.603942,
        0.602148,
        0.598647,
        0.600065,
        0.595262,
        0.588829,
        0.592765,
        0.598226,
        0.595276,
        0.592185,
        0.594076,
        0.597025,
        0.595566,
        0.594281,
        0.593611,
        0.592707,
        0.59192,
        0.591137,
        0.590278,
        0.589468,
        0.588685,
        0.587864,
        0.587043,
        0.58628,
        0.585578,
        0.584828,
        0.584061,
        0.583297,
        0.582533,
        0.581771,
        0.581008,
        0.580245,
        0.579481,
        0.578714,
        0.577946,
        0.577174,
        0.5764,
        0.575624,
        0.574807,
        0.574006,
        0.573296,
        0.572585,
        0.571803,
        0.570958,
        0.570124,
        0.569482,
        0.56903,
        0.568269,
        0.567179,
        0.566685,
        0.569255,
        0.56643,
        0.557989,
        0.55641,
        0.560868,
        0.564424,
        0.562188,
        0.550798,
        0.540407,
        0.545432,
        0.553455,
        0.559554,
        0.556566,
        0.550148,
        0.551577,
        0.553256,
        0.55612,
        0.558249,
        0.556245,
        0.550705,
        0.548033,
        0.551294,
        0.551031,
        0.549463,
        0.550053,
        0.550622,
        0.549388,
        0.548395,
        0.545132,
        0.543047,
        0.545358,
        0.546546,
        0.543059,
        0.541746,
        0.542668,
        0.543157,
        0.54122,
        0.537019,
        0.53461,
        0.529881,
        0.526247,
        0.525766,
        0.523774,
        0.527564,
        0.530861,
        0.532451,
        0.535105,
        0.534198,
        0.533915,
        0.53319,
        0.533969,
        0.534015,
        0.527021,
        0.520353,
        0.522237,
        0.524369,
        0.527001,
        0.526459,
        0.523713,
        0.521222,
        0.523771,
        0.52426,
        0.517297,
        0.513628,
        0.516934,
        0.520156,
        0.52062,
        0.518363,
        0.51875,
        0.519194,
        0.515332,
        0.513484,
        0.510863,
        0.512343,
        0.515047,
        0.515344,
        0.514373,
        0.512673,
        0.512255,
        0.510883,
        0.508465,
        0.507032,
        0.50454,
        0.502558,
        0.501214,
        0.499571,
        0.49607,
        0.496586,
        0.495079,
        0.493057,
        0.491685,
        0.490318,
        0.485676,
        0.486576,
        0.49577,
        0.49999,
        0.496801,
        0.490542,
        0.481369,
        0.47751,
        0.485878,
        0.493527,
        0.493563,
        0.489638,
        0.487435,
        0.489571,
        0.491972,
        0.49235,
        0.488014,
        0.484969,
        0.487027,
        0.487424,
        0.485815,
        0.484334,
        0.48333,
        0.483835,
        0.484223,
        0.483569,
        0.482375,
        0.477839,
        0.471971,
        0.471088,
        0.475281,
        0.480966,
        0.483693,
        0.483013,
        0.482118,
        0.4818,
        0.48147,
        0.480875,
        0.4777,
        0.477033,
        0.479715,
        0.481233,
        0.47913,
        0.476902,
        0.476245,
        0.475909,
        0.478202,
        0.480284,
        0.473969,
        0.46799,
        0.463675,
        0.46683,
        0.473935,
        0.476898,
        0.47222,
        0.464045,
        0.466742,
        0.472318,
        0.473844,
        0.467664,
        0.443255,
        0.42539,
        0.444577,
        0.453605,
        0.454304,
        0.457847,
        0.457235,
        0.453528,
        0.436749,
        0.392615,
        0.368684,
        0.392375,
        0.418402,
        0.44206,
        0.452483,
        0.450807,
        0.448442,
        0.445868,
        0.443347,
        0.439943,
        0.430261,
        0.426599,
        0.433336,
        0.437671,
        0.440619,
        0.445459,
        0.448894,
        0.452162,
        0.451843,
        0.448771,
        0.44492,
        0.439786,
        0.430163,
        0.39219,
        0.368813,
        0.383084,
        0.404953,
        0.422623,
        0.424187,
        0.425228,
        0.439237,
        0.427588,
        0.441682,
        0.438712,
        0.436194,
        0.438406,
        0.437927,
        0.432461,
        0.426703,
        0.422077,
        0.415988,
        0.407617,
        0.413667,
        0.42724,
        0.432606,
        0.430198,
        0.431248,
        0.43497,
        0.431618,
        0.426787,
        0.42766,
        0.429522,
        0.4203,
        0.422565,
        0.427976,
        0.430555,
        0.43263,
        0.432105,
        0.427236,
        0.420913,
        0.419275,
        0.416792,
        0.409384,
        0.392059,
        0.391408,
        0.403505,
        0.410706,
        0.416496,
        0.422866,
        0.421221,
        0.418819,
        0.422197,
        0.421323,
        0.417599,
        0.419056,
        0.421038,
        0.407977,
        0.422818,
        0.429618,
        0.43153,
        0.426835,
        0.42908,
        0.432714,
        0.429021,
        0.425853,
        0.426268,
        0.424608,
        0.421421,
        0.41482,
        0.405702,
        0.413467,
        0.40095,
        0.397064,
        0.381765,
        0.370886,
        0.383475,
        0.400924,
        0.417418,
        0.428867,
        0.428942,
        0.430225,
        0.429527,
        0.429237,
        0.415433,
        0.412255,
        0.414177,
        0.411577,
        0.403196,
        0.40372,
        0.39581,
        0.397157,
        0.403197,
        0.410518,
        0.411769,
        0.409707,
        0.411356,
        0.415988,
        0.411468,
        0.406644,
        0.41399,
        0.413325,
        0.404198,
        0.401091,
        0.408323,
        0.408263,
        0.406927,
        0.40258,
        0.410669,
        0.413403,
        0.415424,
        0.412263,
        0.414758,
        0.406949,
        0.396272,
        0.384767,
        0.380356,
        0.371594,
        0.362673,
        0.371465,
        0.385749,
        0.395292,
        0.403616,
        0.397992,
        0.403635,
        0.415036,
        0.419056,
        0.417126,
        0.422,
        0.421655,
        0.420642,
        0.41255,
        0.408644,
        0.399016,
        0.391072,
        0.376564,
        0.374488,
        0.368114,
        0.373329,
        0.36706,
        0.345704,
        0.343943,
        0.377519,
        0.356997,
        0.371393,
        0.377971,
        0.371005,
        0.383352,
        0.380636,
        0.402339,
        0.418779,
        0.421227,
        0.413779,
        0.411865,
        0.395837,
        0.389217,
        0.397273,
        0.379617,
        0.368378,
        0.370205,
        0.350853,
        0.369038,
        0.383906,
        0.370725,
        0.372041,
        0.390867,
        0.394455,
        0.392854,
        0.382116,
        0.390632,
        0.395403,
        0.372606,
        0.367859,
        0.393108,
        0.406429,
        0.377703,
        0.360438,
        0.369552,
        0.376719,
        0.371162,
        0.345505,
        0.333029,
        0.342444,
        0.350389,
        0.367644,
        0.367824,
        0.375437,
        0.388576,
        0.376712,
        0.373778,
        0.366463,
        0.375277,
        0.380091,
        0.37722,
        0.37954,
        0.373424,
        0.363565,
        0.364503,
        0.371215,
        0.363171,
        0.366111,
        0.36391,
        0.368149,
        0.361658,
        0.357831,
        0.362476,
        0.371942,
        0.368399,
        0.36498,
        0.371444,
        0.369693,
        0.37035,
        0.37033,
        0.370132,
        0.370474,
        0.364281,
        0.364414,
        0.361526,
        0.360321,
        0.36322,
        0.353848,
        0.352914,
        0.356182,
        0.356517,
        0.355322,
        0.351474,
        0.36359,
        0.357541,
        0.356038,
        0.357204,
        0.355331,
        0.358597,
        0.361927,
        0.354035,
        0.355695,
        0.354802,
        0.359575,
        0.354044,
        0.350082,
        0.352279,
        0.362055,
        0.35346,
        0.349573,
        0.35341,
        0.343959,
        0.351908,
        0.354615,
        0.346529,
        0.344478,
        0.349321,
        0.33927,
        0.346966,
        0.345201,
        0.341438,
        0.351347,
        0.342669,
        0.343158,
        0.352107,
        0.350127,
        0.34421,
        0.339118,
        0.34914,
        0.344384,
        0.349906,
        0.343062,
        0.347758,
        0.335144,
        0.345393,
        0.349441,
        0.345904,
        0.33886,
        0.348536,
        0.351058,
        0.33971,
        0.336142,
        0.341071,
        0.339122,
        0.335812,
        0.349832,
        0.338936,
        0.327144,
        0.318083,
        0.315048,
        0.316248,
        0.31862,
        0.327746,
        0.327228,
        0.33148,
        0.336636,
        0.339703,
        0.336656,
        0.326821,
        0.334273,
        0.335637,
        0.333171,
        0.333861,
        0.334024,
        0.332079,
        0.33035,
        0.32849,
        0.328596,
        0.330231,
        0.328739,
        0.328267,
        0.327822,
        0.3274,
        0.326996,
        0.326605,
        0.326225,
        0.325849,
        0.325473,
        0.325094,
        0.324706,
        0.324306,
        0.323897,
        0.323482,
        0.323063,
        0.322645,
        0.32223,
        0.321822,
        0.321424,
        0.32104,
        0.320672,
        0.320324,
        0.319993,
        0.319676,
        0.319372,
        0.319077,
        0.318788,
        0.318504,
        0.318221,
        0.317936,
        0.317647,
        0.31761,
        0.317285,
        0.316958,
        0.31663,
        0.316302,
        0.315973,
        0.315645,
        0.315318,
        0.314994,
        0.314672,
        0.314354,
        0.314038,
        0.313722,
        0.313405,
        0.313086,
        0.312763,
        0.312435,
        0.3121,
        0.311756,
        0.311404,
        0.31104,
        0.310668,
        0.310288,
        0.309904,
        0.309518,
        0.309131,
        0.308745,
        0.308363,
        0.307988,
        0.30762,
        0.307262,
        0.306913,
        0.306573,
        0.306239,
        0.305912,
        0.30559,
        0.305272,
        0.304956,
        0.304643,
        0.304331
      ],
      "range":1
    }
  }
]
