[
  {
    "model":"Star, type A0(v)",
    "name":"Star, type A0(v)",
    "type":"WB_REF",
    "dataQualityMarker":3,
    "dataSource":"https://www.eso.org/sci/facilities/paranal/decommissioned/isaac/tools/lib.html",
    "manufacturer":"A. Pickles (A.J. Pickles, PASP 110,863, 1998)",
    "version":1,
    "wavelength":{
      "value":[
        1150.0,
        1155.0,
        1160.0,
        1165.0,
        1170.0,
        1175.0,
        1180.0,
        1185.0,
        1190.0,
        1195.0,
        1200.0,
        1205.0,
        1210.0,
        1215.0,
        1220.0,
        1225.0,
        1230.0,
        1235.0,
        1240.0,
        1245.0,
        1250.0,
        1255.0,
        1260.0,
        1265.0,
        1270.0,
        1275.0,
        1280.0,
        1285.0,
        1290.0,
        1295.0,
        1300.0,
        1305.0,
        1310.0,
        1315.0,
        1320.0,
        1325.0,
        1330.0,
        1335.0,
        1340.0,
        1345.0,
        1350.0,
        1355.0,
        1360.0,
        1365.0,
        1370.0,
        1375.0,
        1380.0,
        1385.0,
        1390.0,
        1395.0,
        1400.0,
        1405.0,
        1410.0,
        1415.0,
        1420.0,
        1425.0,
        1430.0,
        1435.0,
        1440.0,
        1445.0,
        1450.0,
        1455.0,
        1460.0,
        1465.0,
        1470.0,
        1475.0,
        1480.0,
        1485.0,
        1490.0,
        1495.0,
        1500.0,
        1505.0,
        1510.0,
        1515.0,
        1520.0,
        1525.0,
        1530.0,
        1535.0,
        1540.0,
        1545.0,
        1550.0,
        1555.0,
        1560.0,
        1565.0,
        1570.0,
        1575.0,
        1580.0,
        1585.0,
        1590.0,
        1595.0,
        1600.0,
        1605.0,
        1610.0,
        1615.0,
        1620.0,
        1625.0,
        1630.0,
        1635.0,
        1640.0,
        1645.0,
        1650.0,
        1655.0,
        1660.0,
        1665.0,
        1670.0,
        1675.0,
        1680.0,
        1685.0,
        1690.0,
        1695.0,
        1700.0,
        1705.0,
        1710.0,
        1715.0,
        1720.0,
        1725.0,
        1730.0,
        1735.0,
        1740.0,
        1745.0,
        1750.0,
        1755.0,
        1760.0,
        1765.0,
        1770.0,
        1775.0,
        1780.0,
        1785.0,
        1790.0,
        1795.0,
        1800.0,
        1805.0,
        1810.0,
        1815.0,
        1820.0,
        1825.0,
        1830.0,
        1835.0,
        1840.0,
        1845.0,
        1850.0,
        1855.0,
        1860.0,
        1865.0,
        1870.0,
        1875.0,
        1880.0,
        1885.0,
        1890.0,
        1895.0,
        1900.0,
        1905.0,
        1910.0,
        1915.0,
        1920.0,
        1925.0,
        1930.0,
        1935.0,
        1940.0,
        1945.0,
        1950.0,
        1955.0,
        1960.0,
        1965.0,
        1970.0,
        1975.0,
        1980.0,
        1985.0,
        1990.0,
        1995.0,
        2000.0,
        2005.0,
        2010.0,
        2015.0,
        2020.0,
        2025.0,
        2030.0,
        2035.0,
        2040.0,
        2045.0,
        2050.0,
        2055.0,
        2060.0,
        2065.0,
        2070.0,
        2075.0,
        2080.0,
        2085.0,
        2090.0,
        2095.0,
        2100.0,
        2105.0,
        2110.0,
        2115.0,
        2120.0,
        2125.0,
        2130.0,
        2135.0,
        2140.0,
        2145.0,
        2150.0,
        2155.0,
        2160.0,
        2165.0,
        2170.0,
        2175.0,
        2180.0,
        2185.0,
        2190.0,
        2195.0,
        2200.0,
        2205.0,
        2210.0,
        2215.0,
        2220.0,
        2225.0,
        2230.0,
        2235.0,
        2240.0,
        2245.0,
        2250.0,
        2255.0,
        2260.0,
        2265.0,
        2270.0,
        2275.0,
        2280.0,
        2285.0,
        2290.0,
        2295.0,
        2300.0,
        2305.0,
        2310.0,
        2315.0,
        2320.0,
        2325.0,
        2330.0,
        2335.0,
        2340.0,
        2345.0,
        2350.0,
        2355.0,
        2360.0,
        2365.0,
        2370.0,
        2375.0,
        2380.0,
        2385.0,
        2390.0,
        2395.0,
        2400.0,
        2405.0,
        2410.0,
        2415.0,
        2420.0,
        2425.0,
        2430.0,
        2435.0,
        2440.0,
        2445.0,
        2450.0,
        2455.0,
        2460.0,
        2465.0,
        2470.0,
        2475.0,
        2480.0,
        2485.0,
        2490.0,
        2495.0,
        2500.0,
        2505.0,
        2510.0,
        2515.0,
        2520.0,
        2525.0,
        2530.0,
        2535.0,
        2540.0,
        2545.0,
        2550.0,
        2555.0,
        2560.0,
        2565.0,
        2570.0,
        2575.0,
        2580.0,
        2585.0,
        2590.0,
        2595.0,
        2600.0,
        2605.0,
        2610.0,
        2615.0,
        2620.0,
        2625.0,
        2630.0,
        2635.0,
        2640.0,
        2645.0,
        2650.0,
        2655.0,
        2660.0,
        2665.0,
        2670.0,
        2675.0,
        2680.0,
        2685.0,
        2690.0,
        2695.0,
        2700.0,
        2705.0,
        2710.0,
        2715.0,
        2720.0,
        2725.0,
        2730.0,
        2735.0,
        2740.0,
        2745.0,
        2750.0,
        2755.0,
        2760.0,
        2765.0,
        2770.0,
        2775.0,
        2780.0,
        2785.0,
        2790.0,
        2795.0,
        2800.0,
        2805.0,
        2810.0,
        2815.0,
        2820.0,
        2825.0,
        2830.0,
        2835.0,
        2840.0,
        2845.0,
        2850.0,
        2855.0,
        2860.0,
        2865.0,
        2870.0,
        2875.0,
        2880.0,
        2885.0,
        2890.0,
        2895.0,
        2900.0,
        2905.0,
        2910.0,
        2915.0,
        2920.0,
        2925.0,
        2930.0,
        2935.0,
        2940.0,
        2945.0,
        2950.0,
        2955.0,
        2960.0,
        2965.0,
        2970.0,
        2975.0,
        2980.0,
        2985.0,
        2990.0,
        2995.0,
        3000.0,
        3005.0,
        3010.0,
        3015.0,
        3020.0,
        3025.0,
        3030.0,
        3035.0,
        3040.0,
        3045.0,
        3050.0,
        3055.0,
        3060.0,
        3065.0,
        3070.0,
        3075.0,
        3080.0,
        3085.0,
        3090.0,
        3095.0,
        3100.0,
        3105.0,
        3110.0,
        3115.0,
        3120.0,
        3125.0,
        3130.0,
        3135.0,
        3140.0,
        3145.0,
        3150.0,
        3155.0,
        3160.0,
        3165.0,
        3170.0,
        3175.0,
        3180.0,
        3185.0,
        3190.0,
        3195.0,
        3200.0,
        3205.0,
        3210.0,
        3215.0,
        3220.0,
        3225.0,
        3230.0,
        3235.0,
        3240.0,
        3245.0,
        3250.0,
        3255.0,
        3260.0,
        3265.0,
        3270.0,
        3275.0,
        3280.0,
        3285.0,
        3290.0,
        3295.0,
        3300.0,
        3305.0,
        3310.0,
        3315.0,
        3320.0,
        3325.0,
        3330.0,
        3335.0,
        3340.0,
        3345.0,
        3350.0,
        3355.0,
        3360.0,
        3365.0,
        3370.0,
        3375.0,
        3380.0,
        3385.0,
        3390.0,
        3395.0,
        3400.0,
        3405.0,
        3410.0,
        3415.0,
        3420.0,
        3425.0,
        3430.0,
        3435.0,
        3440.0,
        3445.0,
        3450.0,
        3455.0,
        3460.0,
        3465.0,
        3470.0,
        3475.0,
        3480.0,
        3485.0,
        3490.0,
        3495.0,
        3500.0,
        3505.0,
        3510.0,
        3515.0,
        3520.0,
        3525.0,
        3530.0,
        3535.0,
        3540.0,
        3545.0,
        3550.0,
        3555.0,
        3560.0,
        3565.0,
        3570.0,
        3575.0,
        3580.0,
        3585.0,
        3590.0,
        3595.0,
        3600.0,
        3605.0,
        3610.0,
        3615.0,
        3620.0,
        3625.0,
        3630.0,
        3635.0,
        3640.0,
        3645.0,
        3650.0,
        3655.0,
        3660.0,
        3665.0,
        3670.0,
        3675.0,
        3680.0,
        3685.0,
        3690.0,
        3695.0,
        3700.0,
        3705.0,
        3710.0,
        3715.0,
        3720.0,
        3725.0,
        3730.0,
        3735.0,
        3740.0,
        3745.0,
        3750.0,
        3755.0,
        3760.0,
        3765.0,
        3770.0,
        3775.0,
        3780.0,
        3785.0,
        3790.0,
        3795.0,
        3800.0,
        3805.0,
        3810.0,
        3815.0,
        3820.0,
        3825.0,
        3830.0,
        3835.0,
        3840.0,
        3845.0,
        3850.0,
        3855.0,
        3860.0,
        3865.0,
        3870.0,
        3875.0,
        3880.0,
        3885.0,
        3890.0,
        3895.0,
        3900.0,
        3905.0,
        3910.0,
        3915.0,
        3920.0,
        3925.0,
        3930.0,
        3935.0,
        3940.0,
        3945.0,
        3950.0,
        3955.0,
        3960.0,
        3965.0,
        3970.0,
        3975.0,
        3980.0,
        3985.0,
        3990.0,
        3995.0,
        4000.0,
        4005.0,
        4010.0,
        4015.0,
        4020.0,
        4025.0,
        4030.0,
        4035.0,
        4040.0,
        4045.0,
        4050.0,
        4055.0,
        4060.0,
        4065.0,
        4070.0,
        4075.0,
        4080.0,
        4085.0,
        4090.0,
        4095.0,
        4100.0,
        4105.0,
        4110.0,
        4115.0,
        4120.0,
        4125.0,
        4130.0,
        4135.0,
        4140.0,
        4145.0,
        4150.0,
        4155.0,
        4160.0,
        4165.0,
        4170.0,
        4175.0,
        4180.0,
        4185.0,
        4190.0,
        4195.0,
        4200.0,
        4205.0,
        4210.0,
        4215.0,
        4220.0,
        4225.0,
        4230.0,
        4235.0,
        4240.0,
        4245.0,
        4250.0,
        4255.0,
        4260.0,
        4265.0,
        4270.0,
        4275.0,
        4280.0,
        4285.0,
        4290.0,
        4295.0,
        4300.0,
        4305.0,
        4310.0,
        4315.0,
        4320.0,
        4325.0,
        4330.0,
        4335.0,
        4340.0,
        4345.0,
        4350.0,
        4355.0,
        4360.0,
        4365.0,
        4370.0,
        4375.0,
        4380.0,
        4385.0,
        4390.0,
        4395.0,
        4400.0,
        4405.0,
        4410.0,
        4415.0,
        4420.0,
        4425.0,
        4430.0,
        4435.0,
        4440.0,
        4445.0,
        4450.0,
        4455.0,
        4460.0,
        4465.0,
        4470.0,
        4475.0,
        4480.0,
        4485.0,
        4490.0,
        4495.0,
        4500.0,
        4505.0,
        4510.0,
        4515.0,
        4520.0,
        4525.0,
        4530.0,
        4535.0,
        4540.0,
        4545.0,
        4550.0,
        4555.0,
        4560.0,
        4565.0,
        4570.0,
        4575.0,
        4580.0,
        4585.0,
        4590.0,
        4595.0,
        4600.0,
        4605.0,
        4610.0,
        4615.0,
        4620.0,
        4625.0,
        4630.0,
        4635.0,
        4640.0,
        4645.0,
        4650.0,
        4655.0,
        4660.0,
        4665.0,
        4670.0,
        4675.0,
        4680.0,
        4685.0,
        4690.0,
        4695.0,
        4700.0,
        4705.0,
        4710.0,
        4715.0,
        4720.0,
        4725.0,
        4730.0,
        4735.0,
        4740.0,
        4745.0,
        4750.0,
        4755.0,
        4760.0,
        4765.0,
        4770.0,
        4775.0,
        4780.0,
        4785.0,
        4790.0,
        4795.0,
        4800.0,
        4805.0,
        4810.0,
        4815.0,
        4820.0,
        4825.0,
        4830.0,
        4835.0,
        4840.0,
        4845.0,
        4850.0,
        4855.0,
        4860.0,
        4865.0,
        4870.0,
        4875.0,
        4880.0,
        4885.0,
        4890.0,
        4895.0,
        4900.0,
        4905.0,
        4910.0,
        4915.0,
        4920.0,
        4925.0,
        4930.0,
        4935.0,
        4940.0,
        4945.0,
        4950.0,
        4955.0,
        4960.0,
        4965.0,
        4970.0,
        4975.0,
        4980.0,
        4985.0,
        4990.0,
        4995.0,
        5000.0,
        5005.0,
        5010.0,
        5015.0,
        5020.0,
        5025.0,
        5030.0,
        5035.0,
        5040.0,
        5045.0,
        5050.0,
        5055.0,
        5060.0,
        5065.0,
        5070.0,
        5075.0,
        5080.0,
        5085.0,
        5090.0,
        5095.0,
        5100.0,
        5105.0,
        5110.0,
        5115.0,
        5120.0,
        5125.0,
        5130.0,
        5135.0,
        5140.0,
        5145.0,
        5150.0,
        5155.0,
        5160.0,
        5165.0,
        5170.0,
        5175.0,
        5180.0,
        5185.0,
        5190.0,
        5195.0,
        5200.0,
        5205.0,
        5210.0,
        5215.0,
        5220.0,
        5225.0,
        5230.0,
        5235.0,
        5240.0,
        5245.0,
        5250.0,
        5255.0,
        5260.0,
        5265.0,
        5270.0,
        5275.0,
        5280.0,
        5285.0,
        5290.0,
        5295.0,
        5300.0,
        5305.0,
        5310.0,
        5315.0,
        5320.0,
        5325.0,
        5330.0,
        5335.0,
        5340.0,
        5345.0,
        5350.0,
        5355.0,
        5360.0,
        5365.0,
        5370.0,
        5375.0,
        5380.0,
        5385.0,
        5390.0,
        5395.0,
        5400.0,
        5405.0,
        5410.0,
        5415.0,
        5420.0,
        5425.0,
        5430.0,
        5435.0,
        5440.0,
        5445.0,
        5450.0,
        5455.0,
        5460.0,
        5465.0,
        5470.0,
        5475.0,
        5480.0,
        5485.0,
        5490.0,
        5495.0,
        5500.0,
        5505.0,
        5510.0,
        5515.0,
        5520.0,
        5525.0,
        5530.0,
        5535.0,
        5540.0,
        5545.0,
        5550.0,
        5555.0,
        5560.0,
        5565.0,
        5570.0,
        5575.0,
        5580.0,
        5585.0,
        5590.0,
        5595.0,
        5600.0,
        5605.0,
        5610.0,
        5615.0,
        5620.0,
        5625.0,
        5630.0,
        5635.0,
        5640.0,
        5645.0,
        5650.0,
        5655.0,
        5660.0,
        5665.0,
        5670.0,
        5675.0,
        5680.0,
        5685.0,
        5690.0,
        5695.0,
        5700.0,
        5705.0,
        5710.0,
        5715.0,
        5720.0,
        5725.0,
        5730.0,
        5735.0,
        5740.0,
        5745.0,
        5750.0,
        5755.0,
        5760.0,
        5765.0,
        5770.0,
        5775.0,
        5780.0,
        5785.0,
        5790.0,
        5795.0,
        5800.0,
        5805.0,
        5810.0,
        5815.0,
        5820.0,
        5825.0,
        5830.0,
        5835.0,
        5840.0,
        5845.0,
        5850.0,
        5855.0,
        5860.0,
        5865.0,
        5870.0,
        5875.0,
        5880.0,
        5885.0,
        5890.0,
        5895.0,
        5900.0,
        5905.0,
        5910.0,
        5915.0,
        5920.0,
        5925.0,
        5930.0,
        5935.0,
        5940.0,
        5945.0,
        5950.0,
        5955.0,
        5960.0,
        5965.0,
        5970.0,
        5975.0,
        5980.0,
        5985.0,
        5990.0,
        5995.0,
        6000.0,
        6005.0,
        6010.0,
        6015.0,
        6020.0,
        6025.0,
        6030.0,
        6035.0,
        6040.0,
        6045.0,
        6050.0,
        6055.0,
        6060.0,
        6065.0,
        6070.0,
        6075.0,
        6080.0,
        6085.0,
        6090.0,
        6095.0,
        6100.0,
        6105.0,
        6110.0,
        6115.0,
        6120.0,
        6125.0,
        6130.0,
        6135.0,
        6140.0,
        6145.0,
        6150.0,
        6155.0,
        6160.0,
        6165.0,
        6170.0,
        6175.0,
        6180.0,
        6185.0,
        6190.0,
        6195.0,
        6200.0,
        6205.0,
        6210.0,
        6215.0,
        6220.0,
        6225.0,
        6230.0,
        6235.0,
        6240.0,
        6245.0,
        6250.0,
        6255.0,
        6260.0,
        6265.0,
        6270.0,
        6275.0,
        6280.0,
        6285.0,
        6290.0,
        6295.0,
        6300.0,
        6305.0,
        6310.0,
        6315.0,
        6320.0,
        6325.0,
        6330.0,
        6335.0,
        6340.0,
        6345.0,
        6350.0,
        6355.0,
        6360.0,
        6365.0,
        6370.0,
        6375.0,
        6380.0,
        6385.0,
        6390.0,
        6395.0,
        6400.0,
        6405.0,
        6410.0,
        6415.0,
        6420.0,
        6425.0,
        6430.0,
        6435.0,
        6440.0,
        6445.0,
        6450.0,
        6455.0,
        6460.0,
        6465.0,
        6470.0,
        6475.0,
        6480.0,
        6485.0,
        6490.0,
        6495.0,
        6500.0,
        6505.0,
        6510.0,
        6515.0,
        6520.0,
        6525.0,
        6530.0,
        6535.0,
        6540.0,
        6545.0,
        6550.0,
        6555.0,
        6560.0,
        6565.0,
        6570.0,
        6575.0,
        6580.0,
        6585.0,
        6590.0,
        6595.0,
        6600.0,
        6605.0,
        6610.0,
        6615.0,
        6620.0,
        6625.0,
        6630.0,
        6635.0,
        6640.0,
        6645.0,
        6650.0,
        6655.0,
        6660.0,
        6665.0,
        6670.0,
        6675.0,
        6680.0,
        6685.0,
        6690.0,
        6695.0,
        6700.0,
        6705.0,
        6710.0,
        6715.0,
        6720.0,
        6725.0,
        6730.0,
        6735.0,
        6740.0,
        6745.0,
        6750.0,
        6755.0,
        6760.0,
        6765.0,
        6770.0,
        6775.0,
        6780.0,
        6785.0,
        6790.0,
        6795.0,
        6800.0,
        6805.0,
        6810.0,
        6815.0,
        6820.0,
        6825.0,
        6830.0,
        6835.0,
        6840.0,
        6845.0,
        6850.0,
        6855.0,
        6860.0,
        6865.0,
        6870.0,
        6875.0,
        6880.0,
        6885.0,
        6890.0,
        6895.0,
        6900.0,
        6905.0,
        6910.0,
        6915.0,
        6920.0,
        6925.0,
        6930.0,
        6935.0,
        6940.0,
        6945.0,
        6950.0,
        6955.0,
        6960.0,
        6965.0,
        6970.0,
        6975.0,
        6980.0,
        6985.0,
        6990.0,
        6995.0,
        7000.0,
        7005.0,
        7010.0,
        7015.0,
        7020.0,
        7025.0,
        7030.0,
        7035.0,
        7040.0,
        7045.0,
        7050.0,
        7055.0,
        7060.0,
        7065.0,
        7070.0,
        7075.0,
        7080.0,
        7085.0,
        7090.0,
        7095.0,
        7100.0,
        7105.0,
        7110.0,
        7115.0,
        7120.0,
        7125.0,
        7130.0,
        7135.0,
        7140.0,
        7145.0,
        7150.0,
        7155.0,
        7160.0,
        7165.0,
        7170.0,
        7175.0,
        7180.0,
        7185.0,
        7190.0,
        7195.0,
        7200.0,
        7205.0,
        7210.0,
        7215.0,
        7220.0,
        7225.0,
        7230.0,
        7235.0,
        7240.0,
        7245.0,
        7250.0,
        7255.0,
        7260.0,
        7265.0,
        7270.0,
        7275.0,
        7280.0,
        7285.0,
        7290.0,
        7295.0,
        7300.0,
        7305.0,
        7310.0,
        7315.0,
        7320.0,
        7325.0,
        7330.0,
        7335.0,
        7340.0,
        7345.0,
        7350.0,
        7355.0,
        7360.0,
        7365.0,
        7370.0,
        7375.0,
        7380.0,
        7385.0,
        7390.0,
        7395.0,
        7400.0,
        7405.0,
        7410.0,
        7415.0,
        7420.0,
        7425.0,
        7430.0,
        7435.0,
        7440.0,
        7445.0,
        7450.0,
        7455.0,
        7460.0,
        7465.0,
        7470.0,
        7475.0,
        7480.0,
        7485.0,
        7490.0,
        7495.0,
        7500.0,
        7505.0,
        7510.0,
        7515.0,
        7520.0,
        7525.0,
        7530.0,
        7535.0,
        7540.0,
        7545.0,
        7550.0,
        7555.0,
        7560.0,
        7565.0,
        7570.0,
        7575.0,
        7580.0,
        7585.0,
        7590.0,
        7595.0,
        7600.0,
        7605.0,
        7610.0,
        7615.0,
        7620.0,
        7625.0,
        7630.0,
        7635.0,
        7640.0,
        7645.0,
        7650.0,
        7655.0,
        7660.0,
        7665.0,
        7670.0,
        7675.0,
        7680.0,
        7685.0,
        7690.0,
        7695.0,
        7700.0,
        7705.0,
        7710.0,
        7715.0,
        7720.0,
        7725.0,
        7730.0,
        7735.0,
        7740.0,
        7745.0,
        7750.0,
        7755.0,
        7760.0,
        7765.0,
        7770.0,
        7775.0,
        7780.0,
        7785.0,
        7790.0,
        7795.0,
        7800.0,
        7805.0,
        7810.0,
        7815.0,
        7820.0,
        7825.0,
        7830.0,
        7835.0,
        7840.0,
        7845.0,
        7850.0,
        7855.0,
        7860.0,
        7865.0,
        7870.0,
        7875.0,
        7880.0,
        7885.0,
        7890.0,
        7895.0,
        7900.0,
        7905.0,
        7910.0,
        7915.0,
        7920.0,
        7925.0,
        7930.0,
        7935.0,
        7940.0,
        7945.0,
        7950.0,
        7955.0,
        7960.0,
        7965.0,
        7970.0,
        7975.0,
        7980.0,
        7985.0,
        7990.0,
        7995.0,
        8000.0,
        8005.0,
        8010.0,
        8015.0,
        8020.0,
        8025.0,
        8030.0,
        8035.0,
        8040.0,
        8045.0,
        8050.0,
        8055.0,
        8060.0,
        8065.0,
        8070.0,
        8075.0,
        8080.0,
        8085.0,
        8090.0,
        8095.0,
        8100.0,
        8105.0,
        8110.0,
        8115.0,
        8120.0,
        8125.0,
        8130.0,
        8135.0,
        8140.0,
        8145.0,
        8150.0,
        8155.0,
        8160.0,
        8165.0,
        8170.0,
        8175.0,
        8180.0,
        8185.0,
        8190.0,
        8195.0,
        8200.0,
        8205.0,
        8210.0,
        8215.0,
        8220.0,
        8225.0,
        8230.0,
        8235.0,
        8240.0,
        8245.0,
        8250.0,
        8255.0,
        8260.0,
        8265.0,
        8270.0,
        8275.0,
        8280.0,
        8285.0,
        8290.0,
        8295.0,
        8300.0,
        8305.0,
        8310.0,
        8315.0,
        8320.0,
        8325.0,
        8330.0,
        8335.0,
        8340.0,
        8345.0,
        8350.0,
        8355.0,
        8360.0,
        8365.0,
        8370.0,
        8375.0,
        8380.0,
        8385.0,
        8390.0,
        8395.0,
        8400.0,
        8405.0,
        8410.0,
        8415.0,
        8420.0,
        8425.0,
        8430.0,
        8435.0,
        8440.0,
        8445.0,
        8450.0,
        8455.0,
        8460.0,
        8465.0,
        8470.0,
        8475.0,
        8480.0,
        8485.0,
        8490.0,
        8495.0,
        8500.0,
        8505.0,
        8510.0,
        8515.0,
        8520.0,
        8525.0,
        8530.0,
        8535.0,
        8540.0,
        8545.0,
        8550.0,
        8555.0,
        8560.0,
        8565.0,
        8570.0,
        8575.0,
        8580.0,
        8585.0,
        8590.0,
        8595.0,
        8600.0,
        8605.0,
        8610.0,
        8615.0,
        8620.0,
        8625.0,
        8630.0,
        8635.0,
        8640.0,
        8645.0,
        8650.0,
        8655.0,
        8660.0,
        8665.0,
        8670.0,
        8675.0,
        8680.0,
        8685.0,
        8690.0,
        8695.0,
        8700.0,
        8705.0,
        8710.0,
        8715.0,
        8720.0,
        8725.0,
        8730.0,
        8735.0,
        8740.0,
        8745.0,
        8750.0,
        8755.0,
        8760.0,
        8765.0,
        8770.0,
        8775.0,
        8780.0,
        8785.0,
        8790.0,
        8795.0,
        8800.0,
        8805.0,
        8810.0,
        8815.0,
        8820.0,
        8825.0,
        8830.0,
        8835.0,
        8840.0,
        8845.0,
        8850.0,
        8855.0,
        8860.0,
        8865.0,
        8870.0,
        8875.0,
        8880.0,
        8885.0,
        8890.0,
        8895.0,
        8900.0,
        8905.0,
        8910.0,
        8915.0,
        8920.0,
        8925.0,
        8930.0,
        8935.0,
        8940.0,
        8945.0,
        8950.0,
        8955.0,
        8960.0,
        8965.0,
        8970.0,
        8975.0,
        8980.0,
        8985.0,
        8990.0,
        8995.0,
        9000.0,
        9005.0,
        9010.0,
        9015.0,
        9020.0,
        9025.0,
        9030.0,
        9035.0,
        9040.0,
        9045.0,
        9050.0,
        9055.0,
        9060.0,
        9065.0,
        9070.0,
        9075.0,
        9080.0,
        9085.0,
        9090.0,
        9095.0,
        9100.0,
        9105.0,
        9110.0,
        9115.0,
        9120.0,
        9125.0,
        9130.0,
        9135.0,
        9140.0,
        9145.0,
        9150.0,
        9155.0,
        9160.0,
        9165.0,
        9170.0,
        9175.0,
        9180.0,
        9185.0,
        9190.0,
        9195.0,
        9200.0,
        9205.0,
        9210.0,
        9215.0,
        9220.0,
        9225.0,
        9230.0,
        9235.0,
        9240.0,
        9245.0,
        9250.0,
        9255.0,
        9260.0,
        9265.0,
        9270.0,
        9275.0,
        9280.0,
        9285.0,
        9290.0,
        9295.0,
        9300.0,
        9305.0,
        9310.0,
        9315.0,
        9320.0,
        9325.0,
        9330.0,
        9335.0,
        9340.0,
        9345.0,
        9350.0,
        9355.0,
        9360.0,
        9365.0,
        9370.0,
        9375.0,
        9380.0,
        9385.0,
        9390.0,
        9395.0,
        9400.0,
        9405.0,
        9410.0,
        9415.0,
        9420.0,
        9425.0,
        9430.0,
        9435.0,
        9440.0,
        9445.0,
        9450.0,
        9455.0,
        9460.0,
        9465.0,
        9470.0,
        9475.0,
        9480.0,
        9485.0,
        9490.0,
        9495.0,
        9500.0,
        9505.0,
        9510.0,
        9515.0,
        9520.0,
        9525.0,
        9530.0,
        9535.0,
        9540.0,
        9545.0,
        9550.0,
        9555.0,
        9560.0,
        9565.0,
        9570.0,
        9575.0,
        9580.0,
        9585.0,
        9590.0,
        9595.0,
        9600.0,
        9605.0,
        9610.0,
        9615.0,
        9620.0,
        9625.0,
        9630.0,
        9635.0,
        9640.0,
        9645.0,
        9650.0,
        9655.0,
        9660.0,
        9665.0,
        9670.0,
        9675.0,
        9680.0,
        9685.0,
        9690.0,
        9695.0,
        9700.0,
        9705.0,
        9710.0,
        9715.0,
        9720.0,
        9725.0,
        9730.0,
        9735.0,
        9740.0,
        9745.0,
        9750.0,
        9755.0,
        9760.0,
        9765.0,
        9770.0,
        9775.0,
        9780.0,
        9785.0,
        9790.0,
        9795.0,
        9800.0,
        9805.0,
        9810.0,
        9815.0,
        9820.0,
        9825.0,
        9830.0,
        9835.0,
        9840.0,
        9845.0,
        9850.0,
        9855.0,
        9860.0,
        9865.0,
        9870.0,
        9875.0,
        9880.0,
        9885.0,
        9890.0,
        9895.0,
        9900.0,
        9905.0,
        9910.0,
        9915.0,
        9920.0,
        9925.0,
        9930.0,
        9935.0,
        9940.0,
        9945.0,
        9950.0,
        9955.0,
        9960.0,
        9965.0,
        9970.0,
        9975.0,
        9980.0,
        9985.0,
        9990.0,
        9995.0,
        10000.0,
        10005.0,
        10010.0,
        10015.0,
        10020.0,
        10025.0,
        10030.0,
        10035.0,
        10040.0,
        10045.0,
        10050.0,
        10055.0,
        10060.0,
        10065.0,
        10070.0,
        10075.0,
        10080.0,
        10085.0,
        10090.0,
        10095.0,
        10100.0,
        10105.0,
        10110.0,
        10115.0,
        10120.0,
        10125.0,
        10130.0,
        10135.0,
        10140.0,
        10145.0,
        10150.0,
        10155.0,
        10160.0,
        10165.0,
        10170.0,
        10175.0,
        10180.0,
        10185.0,
        10190.0,
        10195.0,
        10200.0,
        10205.0,
        10210.0,
        10215.0,
        10220.0,
        10225.0,
        10230.0,
        10235.0,
        10240.0,
        10245.0,
        10250.0,
        10255.0,
        10260.0,
        10265.0,
        10270.0,
        10275.0,
        10280.0,
        10285.0,
        10290.0,
        10295.0,
        10300.0,
        10305.0,
        10310.0,
        10315.0,
        10320.0,
        10325.0,
        10330.0,
        10335.0,
        10340.0,
        10345.0,
        10350.0,
        10355.0,
        10360.0,
        10365.0,
        10370.0,
        10375.0,
        10380.0,
        10385.0,
        10390.0,
        10395.0,
        10400.0,
        10405.0,
        10410.0,
        10415.0,
        10420.0,
        10425.0,
        10430.0,
        10435.0,
        10440.0,
        10445.0,
        10450.0,
        10455.0,
        10460.0,
        10465.0,
        10470.0,
        10475.0,
        10480.0,
        10485.0,
        10490.0,
        10495.0,
        10500.0
      ],
      "units":"angstrom"
    },
    "values":{
      "value":[
        0.181751,
        0.203323,
        0.142062,
        0.0,
        0.00556,
        0.0,
        0.0,
        0.0,
        0.0,
        0.0,
        0.001004,
        0.010154,
        0.022296,
        0.030977,
        0.038257,
        0.03288,
        0.034612,
        0.036263,
        0.032804,
        0.044974,
        0.08978,
        0.107513,
        0.102995,
        0.163623,
        0.287057,
        0.339408,
        0.464954,
        0.543897,
        0.583538,
        0.652544,
        0.56833,
        0.465444,
        0.558746,
        0.815444,
        0.91704,
        0.916888,
        0.866914,
        0.921322,
        1.129171,
        1.148396,
        1.041099,
        0.968124,
        0.997185,
        1.005895,
        1.014634,
        1.075655,
        1.069204,
        1.104056,
        1.125309,
        1.078729,
        1.100604,
        1.154207,
        1.137578,
        1.184795,
        1.269107,
        1.304509,
        1.219985,
        1.186735,
        1.309849,
        1.406803,
        1.486661,
        1.484581,
        1.451358,
        1.365868,
        1.315616,
        1.332583,
        1.387421,
        1.51995,
        1.627695,
        1.648123,
        1.684521,
        1.548495,
        1.372714,
        1.42765,
        1.563507,
        1.455529,
        1.410062,
        1.457652,
        1.578568,
        1.603379,
        1.561301,
        1.503601,
        1.469595,
        1.540034,
        1.513548,
        1.531422,
        1.6506,
        1.634291,
        1.604415,
        1.584613,
        1.620305,
        1.574995,
        1.566226,
        1.570178,
        1.545103,
        1.548708,
        1.565555,
        1.535559,
        1.496622,
        1.52779,
        1.456422,
        1.307141,
        1.376759,
        1.469498,
        1.334264,
        1.411232,
        1.529826,
        1.53379,
        1.519363,
        1.501917,
        1.49516,
        1.476834,
        1.49811,
        1.489971,
        1.4391,
        1.444888,
        1.504957,
        1.499872,
        1.52096,
        1.557133,
        1.597241,
        1.650849,
        1.554383,
        1.48154,
        1.547907,
        1.618634,
        1.611885,
        1.427459,
        1.240522,
        1.564539,
        1.69243,
        1.622366,
        1.610677,
        1.62451,
        1.636437,
        1.615233,
        1.570097,
        1.545615,
        1.474328,
        1.450122,
        1.492966,
        1.493837,
        1.502229,
        1.523196,
        1.565632,
        1.55951,
        1.55931,
        1.550405,
        1.515476,
        1.466529,
        1.432495,
        1.451178,
        1.454121,
        1.449397,
        1.450922,
        1.451281,
        1.474975,
        1.494214,
        1.510554,
        1.513651,
        1.516806,
        1.517341,
        1.512847,
        1.494291,
        1.55698,
        1.612514,
        1.577098,
        1.575749,
        1.462473,
        1.346299,
        1.41597,
        1.447126,
        1.408796,
        1.410385,
        1.405684,
        1.3852,
        1.423803,
        1.394906,
        1.351791,
        1.385793,
        1.408168,
        1.415598,
        1.402481,
        1.358988,
        1.377304,
        1.463738,
        1.526606,
        1.54047,
        1.515747,
        1.44425,
        1.376611,
        1.372526,
        1.412419,
        1.391838,
        1.357974,
        1.441591,
        1.41903,
        1.31145,
        1.229758,
        1.269933,
        1.35926,
        1.393734,
        1.427121,
        1.305439,
        1.240546,
        1.179187,
        1.182986,
        1.288429,
        1.352522,
        1.378479,
        1.397609,
        1.314984,
        1.219098,
        1.155421,
        1.142993,
        1.144974,
        1.168503,
        1.14432,
        1.177647,
        1.117671,
        1.161664,
        1.164579,
        1.148342,
        1.143074,
        1.158862,
        1.155643,
        1.167622,
        1.178513,
        1.231651,
        1.258505,
        1.227084,
        1.213497,
        1.234254,
        1.221961,
        1.118709,
        1.11494,
        1.162866,
        1.144673,
        1.104673,
        1.082394,
        1.064599,
        1.028451,
        1.040521,
        1.0226,
        1.03288,
        1.016219,
        1.081483,
        1.01178,
        0.897727,
        0.887073,
        0.960789,
        0.9454,
        0.878021,
        0.924556,
        0.97092,
        1.009371,
        1.064369,
        1.017737,
        0.982849,
        1.040864,
        1.086633,
        1.097703,
        1.102613,
        1.077132,
        1.015053,
        0.990589,
        1.003847,
        0.959149,
        0.914129,
        0.890856,
        1.048169,
        1.03285,
        0.991732,
        1.031929,
        0.983655,
        0.927448,
        0.917317,
        0.986263,
        0.991221,
        0.941384,
        0.95825,
        0.986258,
        0.994516,
        1.016402,
        1.074358,
        1.039314,
        0.793666,
        0.766393,
        0.950952,
        1.041492,
        1.040669,
        1.018071,
        1.02571,
        1.015422,
        1.048844,
        1.039886,
        1.017217,
        1.059603,
        1.064705,
        1.100167,
        1.144326,
        1.150931,
        1.108117,
        1.065427,
        1.011902,
        1.008321,
        1.065549,
        1.090489,
        1.055726,
        0.997226,
        1.015496,
        1.054217,
        0.997694,
        0.992235,
        0.993181,
        0.978159,
        0.996837,
        1.035138,
        1.031072,
        0.98061,
        0.959419,
        0.921392,
        0.93869,
        0.981846,
        0.989572,
        1.026034,
        1.087187,
        1.039397,
        1.013213,
        0.95979,
        0.854565,
        0.847115,
        0.920482,
        1.02754,
        1.068462,
        1.036374,
        1.002689,
        1.023119,
        1.050926,
        1.035849,
        0.998238,
        0.961054,
        0.959937,
        0.992102,
        1.003491,
        0.990969,
        0.981512,
        1.003459,
        1.025574,
        1.007366,
        0.995669,
        1.016709,
        1.076558,
        1.082485,
        1.086017,
        1.040866,
        1.027064,
        1.044562,
        1.042548,
        1.068666,
        1.022596,
        1.065236,
        1.095379,
        1.071008,
        1.061609,
        1.080706,
        1.072428,
        1.054782,
        1.079901,
        1.070195,
        1.075974,
        1.042763,
        1.066428,
        1.042527,
        1.001714,
        1.014394,
        1.019927,
        1.022885,
        1.057637,
        1.051592,
        1.036622,
        1.036418,
        1.005969,
        0.974454,
        0.956507,
        0.972521,
        1.04536,
        1.046632,
        1.01376,
        1.027994,
        1.011138,
        0.982877,
        0.95348,
        0.946203,
        0.965026,
        1.013101,
        1.054124,
        1.007729,
        0.985666,
        1.034042,
        1.038314,
        1.024035,
        1.003496,
        1.025234,
        1.052744,
        1.045524,
        0.998782,
        1.014678,
        1.073331,
        1.071585,
        1.02561,
        1.027123,
        1.028811,
        1.011811,
        0.989788,
        0.97996,
        0.98122,
        0.98717,
        0.988567,
        0.980252,
        0.976231,
        0.988487,
        1.001723,
        1.000031,
        0.992324,
        0.989331,
        0.984206,
        0.971932,
        0.972359,
        0.999411,
        1.018435,
        0.998059,
        0.968613,
        0.96423,
        0.972542,
        0.975001,
        0.974833,
        0.978138,
        0.980742,
        0.977971,
        0.97343,
        0.970812,
        0.965897,
        0.955103,
        0.945304,
        0.942864,
        0.941656,
        0.935501,
        0.930504,
        0.934256,
        0.947981,
        0.968577,
        0.981979,
        0.977178,
        0.966353,
        0.962162,
        0.955995,
        0.939342,
        0.925386,
        0.926828,
        0.932775,
        0.931227,
        0.929353,
        0.93483,
        0.938193,
        0.930411,
        0.921333,
        0.920843,
        0.920065,
        0.910705,
        0.905543,
        0.916023,
        0.922815,
        0.919272,
        0.916501,
        0.917938,
        0.925882,
        0.934025,
        0.934882,
        0.928635,
        0.922378,
        0.919969,
        0.917202,
        0.90607,
        0.894498,
        0.893153,
        0.892547,
        0.887421,
        0.889092,
        0.895562,
        0.897085,
        0.896206,
        0.883098,
        0.881046,
        0.885908,
        0.896548,
        0.899074,
        0.90141,
        0.903462,
        0.900716,
        0.907777,
        0.919733,
        0.921648,
        0.91967,
        0.917523,
        0.90844,
        0.897727,
        0.89579,
        0.904367,
        0.916081,
        0.920332,
        0.942691,
        0.962079,
        1.006473,
        1.015919,
        1.066856,
        1.07168,
        1.02315,
        1.15286,
        1.121979,
        1.014114,
        1.176449,
        1.308511,
        1.20392,
        1.058592,
        1.254845,
        1.547439,
        1.629362,
        1.421449,
        1.132716,
        1.151134,
        1.51222,
        1.808515,
        1.906824,
        1.848355,
        1.605863,
        1.239301,
        1.024814,
        1.288405,
        1.665269,
        1.967488,
        2.133631,
        2.222178,
        2.2409,
        2.131039,
        1.892601,
        1.56164,
        1.171697,
        1.066769,
        1.381757,
        1.757191,
        2.015894,
        2.211767,
        2.313839,
        2.364872,
        2.32377,
        2.086366,
        2.056262,
        2.212616,
        2.212184,
        2.072719,
        1.877199,
        1.55922,
        1.143353,
        0.985721,
        1.275134,
        1.649597,
        1.946936,
        2.155706,
        2.272316,
        2.340788,
        2.3644,
        2.392617,
        2.402697,
        2.406213,
        2.385914,
        2.363976,
        2.362967,
        2.357623,
        2.349137,
        2.356597,
        2.33783,
        2.307925,
        2.256997,
        2.182526,
        2.097172,
        2.005089,
        1.871567,
        1.642101,
        1.327834,
        1.073181,
        1.113944,
        1.364009,
        1.621284,
        1.831318,
        1.968552,
        2.060154,
        2.15128,
        2.214909,
        2.249613,
        2.268199,
        2.269451,
        2.269143,
        2.263573,
        2.225933,
        2.195532,
        2.1812,
        2.18156,
        2.199191,
        2.208719,
        2.211377,
        2.247003,
        2.257165,
        2.229093,
        2.201925,
        2.167549,
        2.153373,
        2.153649,
        2.15001,
        2.124971,
        2.114018,
        2.115392,
        2.109489,
        2.11013,
        2.097033,
        2.117196,
        2.136546,
        2.126377,
        2.083192,
        2.037815,
        1.970364,
        1.932392,
        1.911035,
        1.881848,
        1.810205,
        1.652199,
        1.427604,
        1.148925,
        0.971719,
        1.053994,
        1.26957,
        1.506908,
        1.693613,
        1.824733,
        1.889272,
        1.915232,
        1.919991,
        1.915014,
        1.928407,
        1.935735,
        1.935139,
        1.941841,
        1.942488,
        1.924015,
        1.929782,
        1.935769,
        1.916791,
        1.90854,
        1.901613,
        1.905883,
        1.913008,
        1.904084,
        1.886469,
        1.867539,
        1.85208,
        1.848929,
        1.822841,
        1.831402,
        1.845854,
        1.855295,
        1.85885,
        1.860867,
        1.863026,
        1.848286,
        1.826406,
        1.809914,
        1.796286,
        1.802478,
        1.80279,
        1.771593,
        1.747621,
        1.754564,
        1.764052,
        1.758464,
        1.744937,
        1.739346,
        1.721821,
        1.702466,
        1.710641,
        1.721394,
        1.720887,
        1.727435,
        1.722228,
        1.708244,
        1.708604,
        1.696159,
        1.682961,
        1.680371,
        1.68165,
        1.677869,
        1.681063,
        1.678982,
        1.674366,
        1.659065,
        1.643987,
        1.636964,
        1.64057,
        1.654559,
        1.644642,
        1.641658,
        1.637853,
        1.636871,
        1.625782,
        1.602599,
        1.591068,
        1.592402,
        1.583284,
        1.568989,
        1.568756,
        1.573964,
        1.573592,
        1.563951,
        1.543588,
        1.536354,
        1.534852,
        1.538411,
        1.534401,
        1.532353,
        1.536658,
        1.532649,
        1.507267,
        1.49001,
        1.475463,
        1.46482,
        1.446877,
        1.414371,
        1.382949,
        1.345409,
        1.2928,
        1.205864,
        1.066348,
        0.876355,
        0.740252,
        0.799844,
        0.949182,
        1.085515,
        1.199023,
        1.274462,
        1.326849,
        1.360454,
        1.370639,
        1.381424,
        1.39031,
        1.387375,
        1.369356,
        1.371291,
        1.380753,
        1.375868,
        1.3892,
        1.40309,
        1.396418,
        1.380802,
        1.387028,
        1.393493,
        1.393398,
        1.393729,
        1.37395,
        1.358311,
        1.362219,
        1.351835,
        1.336844,
        1.33748,
        1.334718,
        1.31552,
        1.311738,
        1.328276,
        1.326832,
        1.324649,
        1.320409,
        1.320525,
        1.311644,
        1.308595,
        1.315903,
        1.307889,
        1.308864,
        1.299827,
        1.294157,
        1.303408,
        1.306235,
        1.295048,
        1.286553,
        1.291311,
        1.29282,
        1.300972,
        1.292756,
        1.278494,
        1.275868,
        1.271073,
        1.263027,
        1.260117,
        1.252581,
        1.242483,
        1.234197,
        1.203999,
        1.188146,
        1.207414,
        1.208427,
        1.198629,
        1.20353,
        1.203652,
        1.19272,
        1.181677,
        1.187004,
        1.196549,
        1.201535,
        1.189719,
        1.182821,
        1.181218,
        1.178149,
        1.178211,
        1.173713,
        1.176514,
        1.165546,
        1.138234,
        1.125457,
        1.125626,
        1.131924,
        1.144124,
        1.157735,
        1.160639,
        1.152411,
        1.141087,
        1.128224,
        1.121126,
        1.124102,
        1.115967,
        1.109685,
        1.1099,
        1.113292,
        1.118225,
        1.127562,
        1.130347,
        1.114008,
        1.096971,
        1.088406,
        1.092872,
        1.096639,
        1.099284,
        1.098863,
        1.087443,
        1.075101,
        1.067527,
        1.069422,
        1.072702,
        1.071494,
        1.063486,
        1.056304,
        1.057664,
        1.058368,
        1.058678,
        1.059019,
        1.05857,
        1.05796,
        1.054021,
        1.047414,
        1.042513,
        1.042664,
        1.044128,
        1.037018,
        1.033671,
        1.031497,
        1.022962,
        1.015458,
        1.020975,
        1.021036,
        1.013966,
        1.008259,
        1.009308,
        1.005198,
        1.003282,
        1.011062,
        1.012813,
        1.009363,
        1.001138,
        0.995758,
        0.995112,
        0.993655,
        0.985399,
        0.980309,
        0.97151,
        0.969788,
        0.971245,
        0.969932,
        0.96135,
        0.961391,
        0.964294,
        0.963931,
        0.964918,
        0.964163,
        0.959639,
        0.952994,
        0.944186,
        0.934322,
        0.935654,
        0.940013,
        0.940889,
        0.932962,
        0.925541,
        0.926619,
        0.922722,
        0.919115,
        0.918732,
        0.922994,
        0.927025,
        0.923747,
        0.920432,
        0.916399,
        0.912506,
        0.907463,
        0.901393,
        0.896856,
        0.896227,
        0.902244,
        0.899645,
        0.891126,
        0.883296,
        0.874814,
        0.875782,
        0.87635,
        0.868799,
        0.867793,
        0.871261,
        0.868453,
        0.866922,
        0.870531,
        0.874054,
        0.877312,
        0.873676,
        0.868309,
        0.863822,
        0.863795,
        0.860255,
        0.864186,
        0.861657,
        0.855994,
        0.849204,
        0.840569,
        0.82301,
        0.808472,
        0.809661,
        0.82773,
        0.830761,
        0.826676,
        0.826644,
        0.825769,
        0.821208,
        0.819709,
        0.819495,
        0.814234,
        0.807174,
        0.804822,
        0.804437,
        0.80284,
        0.804999,
        0.802897,
        0.799626,
        0.797863,
        0.797071,
        0.792456,
        0.794637,
        0.794601,
        0.791093,
        0.788428,
        0.785948,
        0.782421,
        0.781103,
        0.779333,
        0.778514,
        0.77516,
        0.776237,
        0.773777,
        0.771288,
        0.770566,
        0.768194,
        0.768426,
        0.763557,
        0.757481,
        0.755058,
        0.755177,
        0.754559,
        0.752717,
        0.748703,
        0.748352,
        0.749442,
        0.747081,
        0.745749,
        0.746761,
        0.744312,
        0.738706,
        0.732324,
        0.727165,
        0.721943,
        0.720105,
        0.725232,
        0.724474,
        0.728876,
        0.726868,
        0.722772,
        0.724229,
        0.730074,
        0.726416,
        0.719998,
        0.716323,
        0.713357,
        0.708544,
        0.704178,
        0.701025,
        0.700081,
        0.698933,
        0.698172,
        0.698888,
        0.701625,
        0.700791,
        0.694674,
        0.687126,
        0.676533,
        0.665254,
        0.674913,
        0.680504,
        0.680416,
        0.676011,
        0.673755,
        0.672402,
        0.669672,
        0.671742,
        0.675309,
        0.672874,
        0.671399,
        0.669285,
        0.662524,
        0.66075,
        0.665366,
        0.666667,
        0.664504,
        0.659935,
        0.660673,
        0.661222,
        0.657684,
        0.654948,
        0.655631,
        0.656793,
        0.654182,
        0.650239,
        0.648577,
        0.646361,
        0.648377,
        0.646862,
        0.647049,
        0.647712,
        0.641928,
        0.637801,
        0.633519,
        0.632811,
        0.63375,
        0.631497,
        0.6264,
        0.623332,
        0.62346,
        0.618315,
        0.613227,
        0.61724,
        0.618455,
        0.612423,
        0.604327,
        0.599741,
        0.593783,
        0.585786,
        0.577994,
        0.559423,
        0.530566,
        0.49482,
        0.445639,
        0.387141,
        0.383494,
        0.440645,
        0.490634,
        0.526743,
        0.55045,
        0.567959,
        0.576827,
        0.58157,
        0.582938,
        0.585495,
        0.589771,
        0.588803,
        0.590842,
        0.588545,
        0.586986,
        0.588796,
        0.587881,
        0.586622,
        0.583577,
        0.582297,
        0.577257,
        0.57684,
        0.574182,
        0.57501,
        0.577058,
        0.577292,
        0.576001,
        0.572869,
        0.572201,
        0.569137,
        0.565666,
        0.566061,
        0.567662,
        0.563994,
        0.562363,
        0.559562,
        0.559246,
        0.558876,
        0.557265,
        0.556734,
        0.555203,
        0.5536,
        0.552449,
        0.552745,
        0.550434,
        0.552717,
        0.553126,
        0.551552,
        0.551454,
        0.549133,
        0.54874,
        0.547746,
        0.544781,
        0.542914,
        0.541328,
        0.539912,
        0.540229,
        0.542038,
        0.543049,
        0.541932,
        0.539451,
        0.537691,
        0.537832,
        0.538934,
        0.538634,
        0.5351,
        0.52877,
        0.522335,
        0.518858,
        0.519544,
        0.522964,
        0.526103,
        0.526447,
        0.523623,
        0.519398,
        0.516242,
        0.515648,
        0.517246,
        0.519189,
        0.519594,
        0.517884,
        0.514923,
        0.512839,
        0.511897,
        0.512649,
        0.509168,
        0.508755,
        0.507389,
        0.504241,
        0.503905,
        0.501765,
        0.499839,
        0.497949,
        0.499422,
        0.498656,
        0.495765,
        0.496395,
        0.499189,
        0.499314,
        0.499049,
        0.498177,
        0.497152,
        0.494278,
        0.493516,
        0.493479,
        0.492319,
        0.491148,
        0.489862,
        0.486858,
        0.483619,
        0.481052,
        0.481716,
        0.484591,
        0.48084,
        0.481651,
        0.484793,
        0.481697,
        0.481246,
        0.486243,
        0.484457,
        0.479726,
        0.468617,
        0.460054,
        0.454525,
        0.445861,
        0.446275,
        0.445152,
        0.441943,
        0.440879,
        0.458005,
        0.469662,
        0.472794,
        0.468631,
        0.460114,
        0.450098,
        0.450005,
        0.445188,
        0.443737,
        0.44316,
        0.450329,
        0.453331,
        0.455126,
        0.445824,
        0.442898,
        0.448625,
        0.441254,
        0.442551,
        0.443547,
        0.444674,
        0.442466,
        0.442171,
        0.440274,
        0.440797,
        0.438235,
        0.440354,
        0.439209,
        0.437955,
        0.436961,
        0.436011,
        0.434783,
        0.434848,
        0.432394,
        0.432349,
        0.433036,
        0.433852,
        0.435932,
        0.433486,
        0.432015,
        0.428357,
        0.42412,
        0.42657,
        0.431545,
        0.428953,
        0.429413,
        0.427864,
        0.424417,
        0.420214,
        0.417546,
        0.415445,
        0.412012,
        0.411861,
        0.412201,
        0.415711,
        0.418427,
        0.419049,
        0.416838,
        0.412928,
        0.410493,
        0.408522,
        0.408693,
        0.41098,
        0.412988,
        0.412496,
        0.410266,
        0.407872,
        0.407964,
        0.408424,
        0.408889,
        0.407197,
        0.403182,
        0.398006,
        0.396316,
        0.399426,
        0.408053,
        0.416527,
        0.418298,
        0.410939,
        0.398171,
        0.387409,
        0.384712,
        0.390478,
        0.399103,
        0.403505,
        0.400258,
        0.391546,
        0.383008,
        0.379319,
        0.38101,
        0.385077,
        0.38814,
        0.388938,
        0.388478,
        0.388207,
        0.388128,
        0.386759,
        0.383143,
        0.37824,
        0.374644,
        0.374786,
        0.378761,
        0.384052,
        0.387307,
        0.379778,
        0.378008,
        0.375933,
        0.374159,
        0.374499,
        0.377602,
        0.379436,
        0.378094,
        0.373339,
        0.361561,
        0.354589,
        0.36547,
        0.372405,
        0.375396,
        0.377504,
        0.375441,
        0.372839,
        0.369793,
        0.366151,
        0.365266,
        0.36383,
        0.362176,
        0.362033,
        0.363228,
        0.364155,
        0.365373,
        0.366129,
        0.362388,
        0.360436,
        0.358388,
        0.356062,
        0.356824,
        0.356661,
        0.356413,
        0.352896,
        0.352643,
        0.353626,
        0.352244,
        0.348478,
        0.345822,
        0.344261,
        0.34508,
        0.346678,
        0.346685,
        0.343324,
        0.339639,
        0.336974,
        0.3383,
        0.34317,
        0.347311,
        0.349508,
        0.347939,
        0.345113,
        0.344387,
        0.344671,
        0.345366,
        0.345161,
        0.343594,
        0.339053,
        0.334836,
        0.333275,
        0.334551,
        0.337939,
        0.339747,
        0.339884,
        0.339712,
        0.338381,
        0.335804,
        0.333216,
        0.330914,
        0.329356,
        0.328766,
        0.328813,
        0.328124,
        0.327612,
        0.328865,
        0.327219,
        0.324668,
        0.322779,
        0.321983,
        0.321035,
        0.319348,
        0.315033,
        0.3148,
        0.311295,
        0.308496,
        0.306733,
        0.304132,
        0.300884,
        0.302679,
        0.305764,
        0.301219,
        0.302806,
        0.300273,
        0.299333,
        0.300343,
        0.304406,
        0.307521,
        0.306808,
        0.305509,
        0.300199,
        0.289992,
        0.294647,
        0.300845,
        0.300965,
        0.303298,
        0.301641,
        0.300903,
        0.301967,
        0.303442,
        0.298171,
        0.297393,
        0.297413,
        0.297336,
        0.297581,
        0.296521,
        0.296769,
        0.297919,
        0.2974,
        0.296959,
        0.29486,
        0.296591,
        0.295422,
        0.294681,
        0.296301,
        0.294597,
        0.2957,
        0.294467,
        0.2946,
        0.293966,
        0.293728,
        0.293804,
        0.29331,
        0.292417,
        0.291851,
        0.291566,
        0.290385,
        0.287584,
        0.288367,
        0.288147,
        0.28967,
        0.289839,
        0.289507,
        0.283611,
        0.276913,
        0.281159,
        0.285944,
        0.284416,
        0.282008,
        0.280488,
        0.284115,
        0.28568,
        0.286778,
        0.285189,
        0.274475,
        0.270005,
        0.273692,
        0.279309,
        0.283168,
        0.285962,
        0.285925,
        0.282583,
        0.273948,
        0.258127,
        0.253735,
        0.265971,
        0.275018,
        0.283288,
        0.285008,
        0.286087,
        0.284799,
        0.280766,
        0.274829,
        0.264067,
        0.252793,
        0.250306,
        0.259279,
        0.271181,
        0.279498,
        0.284287,
        0.287573,
        0.286856,
        0.286338,
        0.281676,
        0.277804,
        0.269458,
        0.256682,
        0.237084,
        0.228316,
        0.239257,
        0.254298,
        0.262843,
        0.270235,
        0.277516,
        0.282539,
        0.284073,
        0.284174,
        0.277839,
        0.283596,
        0.280767,
        0.275808,
        0.269673,
        0.259512,
        0.246847,
        0.229009,
        0.218496,
        0.226373,
        0.243132,
        0.257532,
        0.266325,
        0.273084,
        0.279191,
        0.274604,
        0.274939,
        0.275659,
        0.277358,
        0.275689,
        0.283718,
        0.276312,
        0.275647,
        0.281248,
        0.277759,
        0.271701,
        0.263536,
        0.247639,
        0.241965,
        0.223806,
        0.206907,
        0.20549,
        0.222924,
        0.238259,
        0.24927,
        0.261231,
        0.267794,
        0.265412,
        0.267435,
        0.271045,
        0.271142,
        0.273528,
        0.280429,
        0.272948,
        0.280552,
        0.280161,
        0.280712,
        0.277902,
        0.273739,
        0.269398,
        0.26516,
        0.258277,
        0.249648,
        0.245873,
        0.241439,
        0.234129,
        0.223623,
        0.221977,
        0.220272,
        0.21439,
        0.209945,
        0.207717,
        0.21145,
        0.223343,
        0.234445,
        0.245005,
        0.252999,
        0.257445,
        0.26284,
        0.262899,
        0.262518,
        0.259665,
        0.257987,
        0.255984,
        0.254676,
        0.253862,
        0.251839,
        0.253264,
        0.257221,
        0.257053,
        0.261065,
        0.264041,
        0.26118,
        0.263225,
        0.257342,
        0.252475,
        0.251696,
        0.253235,
        0.250387,
        0.242576,
        0.245816,
        0.250651,
        0.25314,
        0.247046,
        0.248596,
        0.247441,
        0.240678,
        0.23469,
        0.229126,
        0.224443,
        0.215025,
        0.207318,
        0.201475,
        0.194374,
        0.190973,
        0.19635,
        0.204166,
        0.211056,
        0.219031,
        0.225638,
        0.228475,
        0.234508,
        0.244772,
        0.249925,
        0.248717,
        0.249623,
        0.248748,
        0.243251,
        0.236909,
        0.232304,
        0.227318,
        0.22101,
        0.21682,
        0.216727,
        0.221338,
        0.220802,
        0.219328,
        0.213393,
        0.227356,
        0.222999,
        0.224611,
        0.234577,
        0.22768,
        0.235085,
        0.234429,
        0.23873,
        0.24948,
        0.254038,
        0.248912,
        0.242781,
        0.238835,
        0.232737,
        0.228388,
        0.22276,
        0.210919,
        0.218602,
        0.20787,
        0.21179,
        0.225157,
        0.221661,
        0.217307,
        0.22182,
        0.223775,
        0.221596,
        0.214485,
        0.212963,
        0.218806,
        0.214117,
        0.20499,
        0.205921,
        0.210033,
        0.205195,
        0.188097,
        0.180081,
        0.177512,
        0.179283,
        0.172703,
        0.164942,
        0.168364,
        0.175767,
        0.179106,
        0.190175,
        0.196482,
        0.205022,
        0.209433,
        0.20944,
        0.21017,
        0.20354,
        0.213078,
        0.211576,
        0.211642,
        0.212166,
        0.207939,
        0.208837,
        0.212405,
        0.213805,
        0.213752,
        0.21212,
        0.214383,
        0.21496,
        0.210843,
        0.210143,
        0.211318,
        0.216211,
        0.212783,
        0.215762,
        0.214026,
        0.21189,
        0.210853,
        0.209639,
        0.21173,
        0.213149,
        0.210439,
        0.207201,
        0.202945,
        0.204475,
        0.203321,
        0.20523,
        0.20523,
        0.209753,
        0.211071,
        0.207982,
        0.21129,
        0.21149,
        0.207655,
        0.208044,
        0.20589,
        0.206898,
        0.208006,
        0.212538,
        0.211901,
        0.206509,
        0.206125,
        0.205469,
        0.208315,
        0.202143,
        0.209274,
        0.210149,
        0.20665,
        0.204388,
        0.20398,
        0.203672,
        0.207104,
        0.207786,
        0.203337,
        0.200196,
        0.199245,
        0.198569,
        0.199893,
        0.193942,
        0.19448,
        0.199013,
        0.196895,
        0.199583,
        0.200535,
        0.199916,
        0.199683,
        0.192748,
        0.188488,
        0.185139,
        0.188144,
        0.184994,
        0.18761,
        0.189416,
        0.186516,
        0.191154,
        0.182692,
        0.182245,
        0.178647,
        0.17732,
        0.17004,
        0.166144,
        0.159202,
        0.161064,
        0.154773,
        0.155553,
        0.148779,
        0.14459,
        0.145691,
        0.153829,
        0.150342,
        0.157244,
        0.164504,
        0.168632,
        0.16971,
        0.171018,
        0.175074,
        0.17414,
        0.176636,
        0.181357,
        0.180568,
        0.179481,
        0.179657,
        0.176616,
        0.180016,
        0.174641,
        0.177958,
        0.17873,
        0.179911,
        0.180808,
        0.180727,
        0.17923,
        0.176907,
        0.174602,
        0.17316,
        0.17318,
        0.174281,
        0.175837,
        0.177221,
        0.177931,
        0.177964,
        0.177442,
        0.176487,
        0.175265,
        0.174121,
        0.173444,
        0.173625,
        0.174867,
        0.176621,
        0.178155,
        0.178735,
        0.177859,
        0.175955,
        0.173681,
        0.171697,
        0.170493,
        0.169885,
        0.169519,
        0.169042,
        0.168212,
        0.167231,
        0.166412,
        0.166069,
        0.16637,
        0.166911,
        0.167142,
        0.166515,
        0.164721,
        0.162409,
        0.16047,
        0.159793,
        0.160927,
        0.163048,
        0.164994,
        0.1656,
        0.164079,
        0.16115,
        0.157909,
        0.155452,
        0.154595,
        0.155038,
        0.156204,
        0.157513,
        0.15848,
        0.158998,
        0.159052,
        0.158627,
        0.157762,
        0.156711,
        0.155778,
        0.15527,
        0.155384,
        0.155878,
        0.156402,
        0.156605,
        0.156243,
        0.155495,
        0.154643,
        0.153973
      ],
      "range":1
    }
  }
]
