[
  {
    "model":"Star, type RK2(iii)",
    "name":"Star, type RK2(iii)",
    "type":"WB_REF",
    "dataQualityMarker":3,
    "dataSource":"https://www.eso.org/sci/facilities/paranal/decommissioned/isaac/tools/lib.html",
    "manufacturer":"A. Pickles (A.J. Pickles, PASP 110,863, 1998)",
    "version":1,
    "wavelength":{
      "value":[
        1150.0,
        1155.0,
        1160.0,
        1165.0,
        1170.0,
        1175.0,
        1180.0,
        1185.0,
        1190.0,
        1195.0,
        1200.0,
        1205.0,
        1210.0,
        1215.0,
        1220.0,
        1225.0,
        1230.0,
        1235.0,
        1240.0,
        1245.0,
        1250.0,
        1255.0,
        1260.0,
        1265.0,
        1270.0,
        1275.0,
        1280.0,
        1285.0,
        1290.0,
        1295.0,
        1300.0,
        1305.0,
        1310.0,
        1315.0,
        1320.0,
        1325.0,
        1330.0,
        1335.0,
        1340.0,
        1345.0,
        1350.0,
        1355.0,
        1360.0,
        1365.0,
        1370.0,
        1375.0,
        1380.0,
        1385.0,
        1390.0,
        1395.0,
        1400.0,
        1405.0,
        1410.0,
        1415.0,
        1420.0,
        1425.0,
        1430.0,
        1435.0,
        1440.0,
        1445.0,
        1450.0,
        1455.0,
        1460.0,
        1465.0,
        1470.0,
        1475.0,
        1480.0,
        1485.0,
        1490.0,
        1495.0,
        1500.0,
        1505.0,
        1510.0,
        1515.0,
        1520.0,
        1525.0,
        1530.0,
        1535.0,
        1540.0,
        1545.0,
        1550.0,
        1555.0,
        1560.0,
        1565.0,
        1570.0,
        1575.0,
        1580.0,
        1585.0,
        1590.0,
        1595.0,
        1600.0,
        1605.0,
        1610.0,
        1615.0,
        1620.0,
        1625.0,
        1630.0,
        1635.0,
        1640.0,
        1645.0,
        1650.0,
        1655.0,
        1660.0,
        1665.0,
        1670.0,
        1675.0,
        1680.0,
        1685.0,
        1690.0,
        1695.0,
        1700.0,
        1705.0,
        1710.0,
        1715.0,
        1720.0,
        1725.0,
        1730.0,
        1735.0,
        1740.0,
        1745.0,
        1750.0,
        1755.0,
        1760.0,
        1765.0,
        1770.0,
        1775.0,
        1780.0,
        1785.0,
        1790.0,
        1795.0,
        1800.0,
        1805.0,
        1810.0,
        1815.0,
        1820.0,
        1825.0,
        1830.0,
        1835.0,
        1840.0,
        1845.0,
        1850.0,
        1855.0,
        1860.0,
        1865.0,
        1870.0,
        1875.0,
        1880.0,
        1885.0,
        1890.0,
        1895.0,
        1900.0,
        1905.0,
        1910.0,
        1915.0,
        1920.0,
        1925.0,
        1930.0,
        1935.0,
        1940.0,
        1945.0,
        1950.0,
        1955.0,
        1960.0,
        1965.0,
        1970.0,
        1975.0,
        1980.0,
        1985.0,
        1990.0,
        1995.0,
        2000.0,
        2005.0,
        2010.0,
        2015.0,
        2020.0,
        2025.0,
        2030.0,
        2035.0,
        2040.0,
        2045.0,
        2050.0,
        2055.0,
        2060.0,
        2065.0,
        2070.0,
        2075.0,
        2080.0,
        2085.0,
        2090.0,
        2095.0,
        2100.0,
        2105.0,
        2110.0,
        2115.0,
        2120.0,
        2125.0,
        2130.0,
        2135.0,
        2140.0,
        2145.0,
        2150.0,
        2155.0,
        2160.0,
        2165.0,
        2170.0,
        2175.0,
        2180.0,
        2185.0,
        2190.0,
        2195.0,
        2200.0,
        2205.0,
        2210.0,
        2215.0,
        2220.0,
        2225.0,
        2230.0,
        2235.0,
        2240.0,
        2245.0,
        2250.0,
        2255.0,
        2260.0,
        2265.0,
        2270.0,
        2275.0,
        2280.0,
        2285.0,
        2290.0,
        2295.0,
        2300.0,
        2305.0,
        2310.0,
        2315.0,
        2320.0,
        2325.0,
        2330.0,
        2335.0,
        2340.0,
        2345.0,
        2350.0,
        2355.0,
        2360.0,
        2365.0,
        2370.0,
        2375.0,
        2380.0,
        2385.0,
        2390.0,
        2395.0,
        2400.0,
        2405.0,
        2410.0,
        2415.0,
        2420.0,
        2425.0,
        2430.0,
        2435.0,
        2440.0,
        2445.0,
        2450.0,
        2455.0,
        2460.0,
        2465.0,
        2470.0,
        2475.0,
        2480.0,
        2485.0,
        2490.0,
        2495.0,
        2500.0,
        2505.0,
        2510.0,
        2515.0,
        2520.0,
        2525.0,
        2530.0,
        2535.0,
        2540.0,
        2545.0,
        2550.0,
        2555.0,
        2560.0,
        2565.0,
        2570.0,
        2575.0,
        2580.0,
        2585.0,
        2590.0,
        2595.0,
        2600.0,
        2605.0,
        2610.0,
        2615.0,
        2620.0,
        2625.0,
        2630.0,
        2635.0,
        2640.0,
        2645.0,
        2650.0,
        2655.0,
        2660.0,
        2665.0,
        2670.0,
        2675.0,
        2680.0,
        2685.0,
        2690.0,
        2695.0,
        2700.0,
        2705.0,
        2710.0,
        2715.0,
        2720.0,
        2725.0,
        2730.0,
        2735.0,
        2740.0,
        2745.0,
        2750.0,
        2755.0,
        2760.0,
        2765.0,
        2770.0,
        2775.0,
        2780.0,
        2785.0,
        2790.0,
        2795.0,
        2800.0,
        2805.0,
        2810.0,
        2815.0,
        2820.0,
        2825.0,
        2830.0,
        2835.0,
        2840.0,
        2845.0,
        2850.0,
        2855.0,
        2860.0,
        2865.0,
        2870.0,
        2875.0,
        2880.0,
        2885.0,
        2890.0,
        2895.0,
        2900.0,
        2905.0,
        2910.0,
        2915.0,
        2920.0,
        2925.0,
        2930.0,
        2935.0,
        2940.0,
        2945.0,
        2950.0,
        2955.0,
        2960.0,
        2965.0,
        2970.0,
        2975.0,
        2980.0,
        2985.0,
        2990.0,
        2995.0,
        3000.0,
        3005.0,
        3010.0,
        3015.0,
        3020.0,
        3025.0,
        3030.0,
        3035.0,
        3040.0,
        3045.0,
        3050.0,
        3055.0,
        3060.0,
        3065.0,
        3070.0,
        3075.0,
        3080.0,
        3085.0,
        3090.0,
        3095.0,
        3100.0,
        3105.0,
        3110.0,
        3115.0,
        3120.0,
        3125.0,
        3130.0,
        3135.0,
        3140.0,
        3145.0,
        3150.0,
        3155.0,
        3160.0,
        3165.0,
        3170.0,
        3175.0,
        3180.0,
        3185.0,
        3190.0,
        3195.0,
        3200.0,
        3205.0,
        3210.0,
        3215.0,
        3220.0,
        3225.0,
        3230.0,
        3235.0,
        3240.0,
        3245.0,
        3250.0,
        3255.0,
        3260.0,
        3265.0,
        3270.0,
        3275.0,
        3280.0,
        3285.0,
        3290.0,
        3295.0,
        3300.0,
        3305.0,
        3310.0,
        3315.0,
        3320.0,
        3325.0,
        3330.0,
        3335.0,
        3340.0,
        3345.0,
        3350.0,
        3355.0,
        3360.0,
        3365.0,
        3370.0,
        3375.0,
        3380.0,
        3385.0,
        3390.0,
        3395.0,
        3400.0,
        3405.0,
        3410.0,
        3415.0,
        3420.0,
        3425.0,
        3430.0,
        3435.0,
        3440.0,
        3445.0,
        3450.0,
        3455.0,
        3460.0,
        3465.0,
        3470.0,
        3475.0,
        3480.0,
        3485.0,
        3490.0,
        3495.0,
        3500.0,
        3505.0,
        3510.0,
        3515.0,
        3520.0,
        3525.0,
        3530.0,
        3535.0,
        3540.0,
        3545.0,
        3550.0,
        3555.0,
        3560.0,
        3565.0,
        3570.0,
        3575.0,
        3580.0,
        3585.0,
        3590.0,
        3595.0,
        3600.0,
        3605.0,
        3610.0,
        3615.0,
        3620.0,
        3625.0,
        3630.0,
        3635.0,
        3640.0,
        3645.0,
        3650.0,
        3655.0,
        3660.0,
        3665.0,
        3670.0,
        3675.0,
        3680.0,
        3685.0,
        3690.0,
        3695.0,
        3700.0,
        3705.0,
        3710.0,
        3715.0,
        3720.0,
        3725.0,
        3730.0,
        3735.0,
        3740.0,
        3745.0,
        3750.0,
        3755.0,
        3760.0,
        3765.0,
        3770.0,
        3775.0,
        3780.0,
        3785.0,
        3790.0,
        3795.0,
        3800.0,
        3805.0,
        3810.0,
        3815.0,
        3820.0,
        3825.0,
        3830.0,
        3835.0,
        3840.0,
        3845.0,
        3850.0,
        3855.0,
        3860.0,
        3865.0,
        3870.0,
        3875.0,
        3880.0,
        3885.0,
        3890.0,
        3895.0,
        3900.0,
        3905.0,
        3910.0,
        3915.0,
        3920.0,
        3925.0,
        3930.0,
        3935.0,
        3940.0,
        3945.0,
        3950.0,
        3955.0,
        3960.0,
        3965.0,
        3970.0,
        3975.0,
        3980.0,
        3985.0,
        3990.0,
        3995.0,
        4000.0,
        4005.0,
        4010.0,
        4015.0,
        4020.0,
        4025.0,
        4030.0,
        4035.0,
        4040.0,
        4045.0,
        4050.0,
        4055.0,
        4060.0,
        4065.0,
        4070.0,
        4075.0,
        4080.0,
        4085.0,
        4090.0,
        4095.0,
        4100.0,
        4105.0,
        4110.0,
        4115.0,
        4120.0,
        4125.0,
        4130.0,
        4135.0,
        4140.0,
        4145.0,
        4150.0,
        4155.0,
        4160.0,
        4165.0,
        4170.0,
        4175.0,
        4180.0,
        4185.0,
        4190.0,
        4195.0,
        4200.0,
        4205.0,
        4210.0,
        4215.0,
        4220.0,
        4225.0,
        4230.0,
        4235.0,
        4240.0,
        4245.0,
        4250.0,
        4255.0,
        4260.0,
        4265.0,
        4270.0,
        4275.0,
        4280.0,
        4285.0,
        4290.0,
        4295.0,
        4300.0,
        4305.0,
        4310.0,
        4315.0,
        4320.0,
        4325.0,
        4330.0,
        4335.0,
        4340.0,
        4345.0,
        4350.0,
        4355.0,
        4360.0,
        4365.0,
        4370.0,
        4375.0,
        4380.0,
        4385.0,
        4390.0,
        4395.0,
        4400.0,
        4405.0,
        4410.0,
        4415.0,
        4420.0,
        4425.0,
        4430.0,
        4435.0,
        4440.0,
        4445.0,
        4450.0,
        4455.0,
        4460.0,
        4465.0,
        4470.0,
        4475.0,
        4480.0,
        4485.0,
        4490.0,
        4495.0,
        4500.0,
        4505.0,
        4510.0,
        4515.0,
        4520.0,
        4525.0,
        4530.0,
        4535.0,
        4540.0,
        4545.0,
        4550.0,
        4555.0,
        4560.0,
        4565.0,
        4570.0,
        4575.0,
        4580.0,
        4585.0,
        4590.0,
        4595.0,
        4600.0,
        4605.0,
        4610.0,
        4615.0,
        4620.0,
        4625.0,
        4630.0,
        4635.0,
        4640.0,
        4645.0,
        4650.0,
        4655.0,
        4660.0,
        4665.0,
        4670.0,
        4675.0,
        4680.0,
        4685.0,
        4690.0,
        4695.0,
        4700.0,
        4705.0,
        4710.0,
        4715.0,
        4720.0,
        4725.0,
        4730.0,
        4735.0,
        4740.0,
        4745.0,
        4750.0,
        4755.0,
        4760.0,
        4765.0,
        4770.0,
        4775.0,
        4780.0,
        4785.0,
        4790.0,
        4795.0,
        4800.0,
        4805.0,
        4810.0,
        4815.0,
        4820.0,
        4825.0,
        4830.0,
        4835.0,
        4840.0,
        4845.0,
        4850.0,
        4855.0,
        4860.0,
        4865.0,
        4870.0,
        4875.0,
        4880.0,
        4885.0,
        4890.0,
        4895.0,
        4900.0,
        4905.0,
        4910.0,
        4915.0,
        4920.0,
        4925.0,
        4930.0,
        4935.0,
        4940.0,
        4945.0,
        4950.0,
        4955.0,
        4960.0,
        4965.0,
        4970.0,
        4975.0,
        4980.0,
        4985.0,
        4990.0,
        4995.0,
        5000.0,
        5005.0,
        5010.0,
        5015.0,
        5020.0,
        5025.0,
        5030.0,
        5035.0,
        5040.0,
        5045.0,
        5050.0,
        5055.0,
        5060.0,
        5065.0,
        5070.0,
        5075.0,
        5080.0,
        5085.0,
        5090.0,
        5095.0,
        5100.0,
        5105.0,
        5110.0,
        5115.0,
        5120.0,
        5125.0,
        5130.0,
        5135.0,
        5140.0,
        5145.0,
        5150.0,
        5155.0,
        5160.0,
        5165.0,
        5170.0,
        5175.0,
        5180.0,
        5185.0,
        5190.0,
        5195.0,
        5200.0,
        5205.0,
        5210.0,
        5215.0,
        5220.0,
        5225.0,
        5230.0,
        5235.0,
        5240.0,
        5245.0,
        5250.0,
        5255.0,
        5260.0,
        5265.0,
        5270.0,
        5275.0,
        5280.0,
        5285.0,
        5290.0,
        5295.0,
        5300.0,
        5305.0,
        5310.0,
        5315.0,
        5320.0,
        5325.0,
        5330.0,
        5335.0,
        5340.0,
        5345.0,
        5350.0,
        5355.0,
        5360.0,
        5365.0,
        5370.0,
        5375.0,
        5380.0,
        5385.0,
        5390.0,
        5395.0,
        5400.0,
        5405.0,
        5410.0,
        5415.0,
        5420.0,
        5425.0,
        5430.0,
        5435.0,
        5440.0,
        5445.0,
        5450.0,
        5455.0,
        5460.0,
        5465.0,
        5470.0,
        5475.0,
        5480.0,
        5485.0,
        5490.0,
        5495.0,
        5500.0,
        5505.0,
        5510.0,
        5515.0,
        5520.0,
        5525.0,
        5530.0,
        5535.0,
        5540.0,
        5545.0,
        5550.0,
        5555.0,
        5560.0,
        5565.0,
        5570.0,
        5575.0,
        5580.0,
        5585.0,
        5590.0,
        5595.0,
        5600.0,
        5605.0,
        5610.0,
        5615.0,
        5620.0,
        5625.0,
        5630.0,
        5635.0,
        5640.0,
        5645.0,
        5650.0,
        5655.0,
        5660.0,
        5665.0,
        5670.0,
        5675.0,
        5680.0,
        5685.0,
        5690.0,
        5695.0,
        5700.0,
        5705.0,
        5710.0,
        5715.0,
        5720.0,
        5725.0,
        5730.0,
        5735.0,
        5740.0,
        5745.0,
        5750.0,
        5755.0,
        5760.0,
        5765.0,
        5770.0,
        5775.0,
        5780.0,
        5785.0,
        5790.0,
        5795.0,
        5800.0,
        5805.0,
        5810.0,
        5815.0,
        5820.0,
        5825.0,
        5830.0,
        5835.0,
        5840.0,
        5845.0,
        5850.0,
        5855.0,
        5860.0,
        5865.0,
        5870.0,
        5875.0,
        5880.0,
        5885.0,
        5890.0,
        5895.0,
        5900.0,
        5905.0,
        5910.0,
        5915.0,
        5920.0,
        5925.0,
        5930.0,
        5935.0,
        5940.0,
        5945.0,
        5950.0,
        5955.0,
        5960.0,
        5965.0,
        5970.0,
        5975.0,
        5980.0,
        5985.0,
        5990.0,
        5995.0,
        6000.0,
        6005.0,
        6010.0,
        6015.0,
        6020.0,
        6025.0,
        6030.0,
        6035.0,
        6040.0,
        6045.0,
        6050.0,
        6055.0,
        6060.0,
        6065.0,
        6070.0,
        6075.0,
        6080.0,
        6085.0,
        6090.0,
        6095.0,
        6100.0,
        6105.0,
        6110.0,
        6115.0,
        6120.0,
        6125.0,
        6130.0,
        6135.0,
        6140.0,
        6145.0,
        6150.0,
        6155.0,
        6160.0,
        6165.0,
        6170.0,
        6175.0,
        6180.0,
        6185.0,
        6190.0,
        6195.0,
        6200.0,
        6205.0,
        6210.0,
        6215.0,
        6220.0,
        6225.0,
        6230.0,
        6235.0,
        6240.0,
        6245.0,
        6250.0,
        6255.0,
        6260.0,
        6265.0,
        6270.0,
        6275.0,
        6280.0,
        6285.0,
        6290.0,
        6295.0,
        6300.0,
        6305.0,
        6310.0,
        6315.0,
        6320.0,
        6325.0,
        6330.0,
        6335.0,
        6340.0,
        6345.0,
        6350.0,
        6355.0,
        6360.0,
        6365.0,
        6370.0,
        6375.0,
        6380.0,
        6385.0,
        6390.0,
        6395.0,
        6400.0,
        6405.0,
        6410.0,
        6415.0,
        6420.0,
        6425.0,
        6430.0,
        6435.0,
        6440.0,
        6445.0,
        6450.0,
        6455.0,
        6460.0,
        6465.0,
        6470.0,
        6475.0,
        6480.0,
        6485.0,
        6490.0,
        6495.0,
        6500.0,
        6505.0,
        6510.0,
        6515.0,
        6520.0,
        6525.0,
        6530.0,
        6535.0,
        6540.0,
        6545.0,
        6550.0,
        6555.0,
        6560.0,
        6565.0,
        6570.0,
        6575.0,
        6580.0,
        6585.0,
        6590.0,
        6595.0,
        6600.0,
        6605.0,
        6610.0,
        6615.0,
        6620.0,
        6625.0,
        6630.0,
        6635.0,
        6640.0,
        6645.0,
        6650.0,
        6655.0,
        6660.0,
        6665.0,
        6670.0,
        6675.0,
        6680.0,
        6685.0,
        6690.0,
        6695.0,
        6700.0,
        6705.0,
        6710.0,
        6715.0,
        6720.0,
        6725.0,
        6730.0,
        6735.0,
        6740.0,
        6745.0,
        6750.0,
        6755.0,
        6760.0,
        6765.0,
        6770.0,
        6775.0,
        6780.0,
        6785.0,
        6790.0,
        6795.0,
        6800.0,
        6805.0,
        6810.0,
        6815.0,
        6820.0,
        6825.0,
        6830.0,
        6835.0,
        6840.0,
        6845.0,
        6850.0,
        6855.0,
        6860.0,
        6865.0,
        6870.0,
        6875.0,
        6880.0,
        6885.0,
        6890.0,
        6895.0,
        6900.0,
        6905.0,
        6910.0,
        6915.0,
        6920.0,
        6925.0,
        6930.0,
        6935.0,
        6940.0,
        6945.0,
        6950.0,
        6955.0,
        6960.0,
        6965.0,
        6970.0,
        6975.0,
        6980.0,
        6985.0,
        6990.0,
        6995.0,
        7000.0,
        7005.0,
        7010.0,
        7015.0,
        7020.0,
        7025.0,
        7030.0,
        7035.0,
        7040.0,
        7045.0,
        7050.0,
        7055.0,
        7060.0,
        7065.0,
        7070.0,
        7075.0,
        7080.0,
        7085.0,
        7090.0,
        7095.0,
        7100.0,
        7105.0,
        7110.0,
        7115.0,
        7120.0,
        7125.0,
        7130.0,
        7135.0,
        7140.0,
        7145.0,
        7150.0,
        7155.0,
        7160.0,
        7165.0,
        7170.0,
        7175.0,
        7180.0,
        7185.0,
        7190.0,
        7195.0,
        7200.0,
        7205.0,
        7210.0,
        7215.0,
        7220.0,
        7225.0,
        7230.0,
        7235.0,
        7240.0,
        7245.0,
        7250.0,
        7255.0,
        7260.0,
        7265.0,
        7270.0,
        7275.0,
        7280.0,
        7285.0,
        7290.0,
        7295.0,
        7300.0,
        7305.0,
        7310.0,
        7315.0,
        7320.0,
        7325.0,
        7330.0,
        7335.0,
        7340.0,
        7345.0,
        7350.0,
        7355.0,
        7360.0,
        7365.0,
        7370.0,
        7375.0,
        7380.0,
        7385.0,
        7390.0,
        7395.0,
        7400.0,
        7405.0,
        7410.0,
        7415.0,
        7420.0,
        7425.0,
        7430.0,
        7435.0,
        7440.0,
        7445.0,
        7450.0,
        7455.0,
        7460.0,
        7465.0,
        7470.0,
        7475.0,
        7480.0,
        7485.0,
        7490.0,
        7495.0,
        7500.0,
        7505.0,
        7510.0,
        7515.0,
        7520.0,
        7525.0,
        7530.0,
        7535.0,
        7540.0,
        7545.0,
        7550.0,
        7555.0,
        7560.0,
        7565.0,
        7570.0,
        7575.0,
        7580.0,
        7585.0,
        7590.0,
        7595.0,
        7600.0,
        7605.0,
        7610.0,
        7615.0,
        7620.0,
        7625.0,
        7630.0,
        7635.0,
        7640.0,
        7645.0,
        7650.0,
        7655.0,
        7660.0,
        7665.0,
        7670.0,
        7675.0,
        7680.0,
        7685.0,
        7690.0,
        7695.0,
        7700.0,
        7705.0,
        7710.0,
        7715.0,
        7720.0,
        7725.0,
        7730.0,
        7735.0,
        7740.0,
        7745.0,
        7750.0,
        7755.0,
        7760.0,
        7765.0,
        7770.0,
        7775.0,
        7780.0,
        7785.0,
        7790.0,
        7795.0,
        7800.0,
        7805.0,
        7810.0,
        7815.0,
        7820.0,
        7825.0,
        7830.0,
        7835.0,
        7840.0,
        7845.0,
        7850.0,
        7855.0,
        7860.0,
        7865.0,
        7870.0,
        7875.0,
        7880.0,
        7885.0,
        7890.0,
        7895.0,
        7900.0,
        7905.0,
        7910.0,
        7915.0,
        7920.0,
        7925.0,
        7930.0,
        7935.0,
        7940.0,
        7945.0,
        7950.0,
        7955.0,
        7960.0,
        7965.0,
        7970.0,
        7975.0,
        7980.0,
        7985.0,
        7990.0,
        7995.0,
        8000.0,
        8005.0,
        8010.0,
        8015.0,
        8020.0,
        8025.0,
        8030.0,
        8035.0,
        8040.0,
        8045.0,
        8050.0,
        8055.0,
        8060.0,
        8065.0,
        8070.0,
        8075.0,
        8080.0,
        8085.0,
        8090.0,
        8095.0,
        8100.0,
        8105.0,
        8110.0,
        8115.0,
        8120.0,
        8125.0,
        8130.0,
        8135.0,
        8140.0,
        8145.0,
        8150.0,
        8155.0,
        8160.0,
        8165.0,
        8170.0,
        8175.0,
        8180.0,
        8185.0,
        8190.0,
        8195.0,
        8200.0,
        8205.0,
        8210.0,
        8215.0,
        8220.0,
        8225.0,
        8230.0,
        8235.0,
        8240.0,
        8245.0,
        8250.0,
        8255.0,
        8260.0,
        8265.0,
        8270.0,
        8275.0,
        8280.0,
        8285.0,
        8290.0,
        8295.0,
        8300.0,
        8305.0,
        8310.0,
        8315.0,
        8320.0,
        8325.0,
        8330.0,
        8335.0,
        8340.0,
        8345.0,
        8350.0,
        8355.0,
        8360.0,
        8365.0,
        8370.0,
        8375.0,
        8380.0,
        8385.0,
        8390.0,
        8395.0,
        8400.0,
        8405.0,
        8410.0,
        8415.0,
        8420.0,
        8425.0,
        8430.0,
        8435.0,
        8440.0,
        8445.0,
        8450.0,
        8455.0,
        8460.0,
        8465.0,
        8470.0,
        8475.0,
        8480.0,
        8485.0,
        8490.0,
        8495.0,
        8500.0,
        8505.0,
        8510.0,
        8515.0,
        8520.0,
        8525.0,
        8530.0,
        8535.0,
        8540.0,
        8545.0,
        8550.0,
        8555.0,
        8560.0,
        8565.0,
        8570.0,
        8575.0,
        8580.0,
        8585.0,
        8590.0,
        8595.0,
        8600.0,
        8605.0,
        8610.0,
        8615.0,
        8620.0,
        8625.0,
        8630.0,
        8635.0,
        8640.0,
        8645.0,
        8650.0,
        8655.0,
        8660.0,
        8665.0,
        8670.0,
        8675.0,
        8680.0,
        8685.0,
        8690.0,
        8695.0,
        8700.0,
        8705.0,
        8710.0,
        8715.0,
        8720.0,
        8725.0,
        8730.0,
        8735.0,
        8740.0,
        8745.0,
        8750.0,
        8755.0,
        8760.0,
        8765.0,
        8770.0,
        8775.0,
        8780.0,
        8785.0,
        8790.0,
        8795.0,
        8800.0,
        8805.0,
        8810.0,
        8815.0,
        8820.0,
        8825.0,
        8830.0,
        8835.0,
        8840.0,
        8845.0,
        8850.0,
        8855.0,
        8860.0,
        8865.0,
        8870.0,
        8875.0,
        8880.0,
        8885.0,
        8890.0,
        8895.0,
        8900.0,
        8905.0,
        8910.0,
        8915.0,
        8920.0,
        8925.0,
        8930.0,
        8935.0,
        8940.0,
        8945.0,
        8950.0,
        8955.0,
        8960.0,
        8965.0,
        8970.0,
        8975.0,
        8980.0,
        8985.0,
        8990.0,
        8995.0,
        9000.0,
        9005.0,
        9010.0,
        9015.0,
        9020.0,
        9025.0,
        9030.0,
        9035.0,
        9040.0,
        9045.0,
        9050.0,
        9055.0,
        9060.0,
        9065.0,
        9070.0,
        9075.0,
        9080.0,
        9085.0,
        9090.0,
        9095.0,
        9100.0,
        9105.0,
        9110.0,
        9115.0,
        9120.0,
        9125.0,
        9130.0,
        9135.0,
        9140.0,
        9145.0,
        9150.0,
        9155.0,
        9160.0,
        9165.0,
        9170.0,
        9175.0,
        9180.0,
        9185.0,
        9190.0,
        9195.0,
        9200.0,
        9205.0,
        9210.0,
        9215.0,
        9220.0,
        9225.0,
        9230.0,
        9235.0,
        9240.0,
        9245.0,
        9250.0,
        9255.0,
        9260.0,
        9265.0,
        9270.0,
        9275.0,
        9280.0,
        9285.0,
        9290.0,
        9295.0,
        9300.0,
        9305.0,
        9310.0,
        9315.0,
        9320.0,
        9325.0,
        9330.0,
        9335.0,
        9340.0,
        9345.0,
        9350.0,
        9355.0,
        9360.0,
        9365.0,
        9370.0,
        9375.0,
        9380.0,
        9385.0,
        9390.0,
        9395.0,
        9400.0,
        9405.0,
        9410.0,
        9415.0,
        9420.0,
        9425.0,
        9430.0,
        9435.0,
        9440.0,
        9445.0,
        9450.0,
        9455.0,
        9460.0,
        9465.0,
        9470.0,
        9475.0,
        9480.0,
        9485.0,
        9490.0,
        9495.0,
        9500.0,
        9505.0,
        9510.0,
        9515.0,
        9520.0,
        9525.0,
        9530.0,
        9535.0,
        9540.0,
        9545.0,
        9550.0,
        9555.0,
        9560.0,
        9565.0,
        9570.0,
        9575.0,
        9580.0,
        9585.0,
        9590.0,
        9595.0,
        9600.0,
        9605.0,
        9610.0,
        9615.0,
        9620.0,
        9625.0,
        9630.0,
        9635.0,
        9640.0,
        9645.0,
        9650.0,
        9655.0,
        9660.0,
        9665.0,
        9670.0,
        9675.0,
        9680.0,
        9685.0,
        9690.0,
        9695.0,
        9700.0,
        9705.0,
        9710.0,
        9715.0,
        9720.0,
        9725.0,
        9730.0,
        9735.0,
        9740.0,
        9745.0,
        9750.0,
        9755.0,
        9760.0,
        9765.0,
        9770.0,
        9775.0,
        9780.0,
        9785.0,
        9790.0,
        9795.0,
        9800.0,
        9805.0,
        9810.0,
        9815.0,
        9820.0,
        9825.0,
        9830.0,
        9835.0,
        9840.0,
        9845.0,
        9850.0,
        9855.0,
        9860.0,
        9865.0,
        9870.0,
        9875.0,
        9880.0,
        9885.0,
        9890.0,
        9895.0,
        9900.0,
        9905.0,
        9910.0,
        9915.0,
        9920.0,
        9925.0,
        9930.0,
        9935.0,
        9940.0,
        9945.0,
        9950.0,
        9955.0,
        9960.0,
        9965.0,
        9970.0,
        9975.0,
        9980.0,
        9985.0,
        9990.0,
        9995.0,
        10000.0,
        10005.0,
        10010.0,
        10015.0,
        10020.0,
        10025.0,
        10030.0,
        10035.0,
        10040.0,
        10045.0,
        10050.0,
        10055.0,
        10060.0,
        10065.0,
        10070.0,
        10075.0,
        10080.0,
        10085.0,
        10090.0,
        10095.0,
        10100.0,
        10105.0,
        10110.0,
        10115.0,
        10120.0,
        10125.0,
        10130.0,
        10135.0,
        10140.0,
        10145.0,
        10150.0,
        10155.0,
        10160.0,
        10165.0,
        10170.0,
        10175.0,
        10180.0,
        10185.0,
        10190.0,
        10195.0,
        10200.0,
        10205.0,
        10210.0,
        10215.0,
        10220.0,
        10225.0,
        10230.0,
        10235.0,
        10240.0,
        10245.0,
        10250.0,
        10255.0,
        10260.0,
        10265.0,
        10270.0,
        10275.0,
        10280.0,
        10285.0,
        10290.0,
        10295.0,
        10300.0,
        10305.0,
        10310.0,
        10315.0,
        10320.0,
        10325.0,
        10330.0,
        10335.0,
        10340.0,
        10345.0,
        10350.0,
        10355.0,
        10360.0,
        10365.0,
        10370.0,
        10375.0,
        10380.0,
        10385.0,
        10390.0,
        10395.0,
        10400.0,
        10405.0,
        10410.0,
        10415.0,
        10420.0,
        10425.0,
        10430.0,
        10435.0,
        10440.0,
        10445.0,
        10450.0,
        10455.0,
        10460.0,
        10465.0,
        10470.0,
        10475.0,
        10480.0,
        10485.0,
        10490.0,
        10495.0,
        10500.0
      ],
      "units":"angstrom"
    },
    "values":{
      "value":[
        0.0,
        0.0,
        0.0,
        0.0,
        0.0,
        0.0,
        0.0,
        0.0,
        0.0,
        0.0,
        0.0,
        0.0,
        0.0,
        0.0,
        0.0,
        0.0,
        0.0,
        0.0,
        0.0,
        0.0,
        0.0,
        0.0,
        0.0,
        0.0,
        0.0,
        0.0,
        0.0,
        0.0,
        0.0,
        0.0,
        0.0,
        0.0,
        0.0,
        0.0,
        0.0,
        0.0,
        0.0,
        0.0,
        0.0,
        0.0,
        0.0,
        0.0,
        0.0,
        0.0,
        0.0,
        0.0,
        0.0,
        0.0,
        0.0,
        0.0,
        0.0,
        0.0,
        0.0,
        0.0,
        0.0,
        0.0,
        0.0,
        0.0,
        0.0,
        0.0,
        0.0,
        0.0,
        0.0,
        0.0,
        0.0,
        0.0,
        0.0,
        0.0,
        0.0,
        0.0,
        0.0,
        0.0,
        0.0,
        0.0,
        0.0,
        0.0,
        0.0,
        0.0,
        0.0,
        0.0,
        0.0,
        0.0,
        0.0,
        0.0,
        0.0,
        0.0,
        0.0,
        0.0,
        0.0,
        0.0,
        0.0,
        0.0,
        0.0,
        0.0,
        0.0,
        0.0,
        0.0,
        0.0,
        0.0,
        0.0,
        0.0,
        0.0,
        0.0,
        0.0,
        0.0,
        0.0,
        0.0,
        0.0,
        0.0,
        0.0,
        0.0,
        0.0,
        0.0,
        0.0,
        0.0,
        0.0,
        0.0,
        0.0,
        0.0,
        0.0,
        0.0,
        0.0,
        0.0,
        0.0,
        0.0,
        0.0,
        0.0,
        0.0,
        0.0,
        0.0,
        0.0,
        0.0,
        0.0,
        0.0,
        0.0,
        0.0,
        0.0,
        0.0,
        0.0,
        0.0,
        0.0,
        0.0,
        0.0,
        0.0,
        0.0,
        0.0,
        0.0,
        0.0,
        0.0,
        0.0,
        0.0,
        0.0,
        0.0,
        0.0,
        0.0,
        0.0,
        0.0,
        0.0,
        0.0,
        0.0,
        0.0,
        0.0,
        0.0,
        0.0,
        0.0,
        0.0,
        0.0,
        0.0,
        0.0,
        0.0,
        0.0,
        0.0,
        0.0,
        0.0,
        0.0,
        0.0,
        0.0,
        0.0,
        0.0,
        0.0,
        0.0,
        0.0,
        0.0,
        0.0,
        0.0,
        0.0,
        0.0,
        0.0,
        0.0,
        0.0,
        0.0,
        0.0,
        0.0,
        0.0,
        0.0,
        0.0,
        0.0,
        0.0,
        0.0,
        0.0,
        0.0,
        0.0,
        0.0,
        0.0,
        0.0,
        0.0,
        0.0,
        0.0,
        0.0,
        0.0,
        0.0,
        0.0,
        0.0,
        0.0,
        0.0,
        0.0,
        0.0,
        0.0,
        0.0,
        0.0,
        0.0,
        0.0,
        0.0,
        0.0,
        0.0,
        0.0,
        0.0,
        0.0,
        0.0,
        0.0,
        0.0,
        0.0,
        0.0,
        0.0,
        0.0,
        0.0,
        0.0,
        0.0,
        0.0,
        0.0,
        0.0,
        0.0,
        0.0,
        0.0,
        0.0,
        0.0,
        0.0,
        0.0,
        0.0,
        0.0,
        0.0,
        1e-06,
        1e-06,
        2e-06,
        3e-06,
        3e-06,
        3e-06,
        3e-06,
        3e-06,
        2e-06,
        0.0,
        0.0,
        0.0,
        0.0,
        0.0,
        0.0,
        0.0,
        0.0,
        0.0,
        0.0,
        0.0,
        8e-06,
        1.7e-05,
        2.7e-05,
        3.5e-05,
        4.1e-05,
        4.4e-05,
        4.3e-05,
        3.6e-05,
        2.2e-05,
        0.0,
        0.0,
        0.0,
        0.0,
        0.0,
        0.0,
        0.0,
        0.0,
        0.0,
        0.0,
        0.0,
        0.000114,
        0.000257,
        0.000426,
        0.000616,
        0.000824,
        0.001045,
        0.001275,
        0.00151,
        0.001747,
        0.00198,
        0.002207,
        0.002427,
        0.00264,
        0.002847,
        0.003047,
        0.003241,
        0.00343,
        0.003612,
        0.003789,
        0.00396,
        0.004127,
        0.004292,
        0.004459,
        0.00463,
        0.004809,
        0.004999,
        0.005204,
        0.005427,
        0.005672,
        0.005941,
        0.006234,
        0.006543,
        0.006852,
        0.007149,
        0.00742,
        0.007652,
        0.007832,
        0.007945,
        0.007979,
        0.007921,
        0.007764,
        0.007533,
        0.007261,
        0.00698,
        0.006723,
        0.006522,
        0.00641,
        0.006419,
        0.006582,
        0.006931,
        0.007488,
        0.008237,
        0.00915,
        0.010199,
        0.011357,
        0.012597,
        0.013891,
        0.015211,
        0.01653,
        0.017822,
        0.019059,
        0.020223,
        0.021295,
        0.022259,
        0.023096,
        0.023788,
        0.024317,
        0.024666,
        0.024817,
        0.024752,
        0.024465,
        0.023996,
        0.023395,
        0.022714,
        0.022003,
        0.021314,
        0.020699,
        0.020208,
        0.019892,
        0.019802,
        0.019978,
        0.020411,
        0.021081,
        0.021968,
        0.023051,
        0.024309,
        0.025723,
        0.027272,
        0.028935,
        0.030693,
        0.032525,
        0.034414,
        0.036343,
        0.038294,
        0.04025,
        0.042194,
        0.044108,
        0.045977,
        0.047781,
        0.049505,
        0.051137,
        0.052688,
        0.054177,
        0.055622,
        0.05704,
        0.058449,
        0.059868,
        0.061313,
        0.062803,
        0.064356,
        0.065982,
        0.067658,
        0.069353,
        0.071037,
        0.07268,
        0.074251,
        0.07572,
        0.077056,
        0.078229,
        0.077042,
        0.075218,
        0.072833,
        0.069438,
        0.065032,
        0.060295,
        0.058174,
        0.060692,
        0.063904,
        0.064623,
        0.068664,
        0.080755,
        0.092284,
        0.094197,
        0.089028,
        0.082414,
        0.080821,
        0.08867,
        0.101374,
        0.112247,
        0.11522,
        0.107119,
        0.095747,
        0.089919,
        0.091522,
        0.098714,
        0.101654,
        0.093166,
        0.084708,
        0.08766,
        0.094434,
        0.09499,
        0.088456,
        0.077839,
        0.072498,
        0.079116,
        0.087323,
        0.087543,
        0.090433,
        0.105669,
        0.118775,
        0.115439,
        0.106152,
        0.104478,
        0.111462,
        0.122709,
        0.124602,
        0.108292,
        0.093224,
        0.097809,
        0.108026,
        0.108091,
        0.107628,
        0.116791,
        0.122441,
        0.112243,
        0.100352,
        0.102192,
        0.11177,
        0.120129,
        0.127858,
        0.136306,
        0.107349,
        0.100495,
        0.102138,
        0.084374,
        0.100488,
        0.113095,
        0.125202,
        0.120927,
        0.104857,
        0.096883,
        0.09837,
        0.07811,
        0.072099,
        0.06951,
        0.063712,
        0.05875,
        0.074508,
        0.105801,
        0.133162,
        0.10921,
        0.096589,
        0.107161,
        0.113293,
        0.141482,
        0.138968,
        0.139404,
        0.159526,
        0.140295,
        0.136605,
        0.174366,
        0.203271,
        0.196136,
        0.183617,
        0.180233,
        0.163442,
        0.158099,
        0.162262,
        0.18361,
        0.19984,
        0.159605,
        0.147859,
        0.162999,
        0.123304,
        0.128321,
        0.121138,
        0.094589,
        0.09735,
        0.089974,
        0.092763,
        0.127958,
        0.115005,
        0.127859,
        0.152515,
        0.17683,
        0.186787,
        0.168785,
        0.131266,
        0.117071,
        0.123902,
        0.142958,
        0.139014,
        0.111758,
        0.077752,
        0.068572,
        0.071436,
        0.073236,
        0.078391,
        0.091832,
        0.098945,
        0.094277,
        0.08452,
        0.092683,
        0.090944,
        0.098572,
        0.102017,
        0.124674,
        0.159629,
        0.18447,
        0.180366,
        0.181066,
        0.195719,
        0.198379,
        0.160403,
        0.127863,
        0.08102,
        0.064874,
        0.09766,
        0.141093,
        0.189697,
        0.207173,
        0.171578,
        0.1044,
        0.081342,
        0.151001,
        0.232306,
        0.282221,
        0.305108,
        0.317802,
        0.338973,
        0.340306,
        0.350631,
        0.383057,
        0.384652,
        0.376903,
        0.344695,
        0.341165,
        0.363398,
        0.321342,
        0.347489,
        0.338157,
        0.317662,
        0.318151,
        0.329979,
        0.336532,
        0.36375,
        0.411474,
        0.427002,
        0.386484,
        0.351668,
        0.364281,
        0.371895,
        0.368467,
        0.356535,
        0.356801,
        0.34093,
        0.335941,
        0.329549,
        0.299968,
        0.286916,
        0.300256,
        0.334219,
        0.33951,
        0.327917,
        0.306881,
        0.313571,
        0.343779,
        0.357547,
        0.340601,
        0.328862,
        0.353662,
        0.377364,
        0.394909,
        0.436794,
        0.352423,
        0.358008,
        0.396174,
        0.441268,
        0.479554,
        0.437002,
        0.420928,
        0.430334,
        0.464163,
        0.421093,
        0.407213,
        0.440102,
        0.426583,
        0.402207,
        0.396977,
        0.352862,
        0.305928,
        0.319162,
        0.48265,
        0.581106,
        0.517278,
        0.549225,
        0.577904,
        0.54676,
        0.592457,
        0.596122,
        0.58254,
        0.604961,
        0.632519,
        0.603166,
        0.565342,
        0.520222,
        0.44251,
        0.484858,
        0.539129,
        0.570184,
        0.515158,
        0.545609,
        0.569356,
        0.601259,
        0.609825,
        0.607528,
        0.591687,
        0.628368,
        0.654205,
        0.676826,
        0.613279,
        0.566065,
        0.606525,
        0.653458,
        0.71081,
        0.715567,
        0.735693,
        0.704526,
        0.684884,
        0.731682,
        0.789261,
        0.805271,
        0.768857,
        0.757745,
        0.684023,
        0.629434,
        0.674185,
        0.708508,
        0.716733,
        0.714147,
        0.751357,
        0.782397,
        0.764477,
        0.772141,
        0.76775,
        0.746423,
        0.758033,
        0.775248,
        0.73847,
        0.729773,
        0.771381,
        0.832122,
        0.843321,
        0.850386,
        0.8524,
        0.840183,
        0.794808,
        0.754642,
        0.713635,
        0.740172,
        0.788578,
        0.811318,
        0.736493,
        0.725723,
        0.771734,
        0.766104,
        0.769421,
        0.76347,
        0.767399,
        0.747652,
        0.74321,
        0.749291,
        0.790075,
        0.843736,
        0.825438,
        0.759479,
        0.792157,
        0.828688,
        0.85092,
        0.85647,
        0.833272,
        0.828914,
        0.801933,
        0.830828,
        0.8755,
        0.878283,
        0.829782,
        0.835575,
        0.87818,
        0.882823,
        0.877391,
        0.871624,
        0.89978,
        0.910362,
        0.883464,
        0.862034,
        0.866472,
        0.863004,
        0.875038,
        0.876788,
        0.826683,
        0.775823,
        0.777579,
        0.785804,
        0.815503,
        0.856985,
        0.808496,
        0.797163,
        0.887602,
        0.930094,
        0.914624,
        0.866403,
        0.852031,
        0.802306,
        0.835916,
        0.913956,
        0.879448,
        0.844674,
        0.925424,
        0.955348,
        0.930564,
        0.894332,
        0.911647,
        0.892012,
        0.916806,
        0.867828,
        0.833198,
        0.872862,
        0.872558,
        0.858554,
        0.810793,
        0.806162,
        0.76801,
        0.781529,
        0.813013,
        0.861835,
        0.856733,
        0.790122,
        0.82373,
        0.8562,
        0.878693,
        0.924596,
        0.877937,
        0.842364,
        0.829619,
        0.796324,
        0.806641,
        0.857452,
        0.863733,
        0.819247,
        0.817901,
        0.803889,
        0.85301,
        0.859637,
        0.77775,
        0.77385,
        0.814618,
        0.803622,
        0.777611,
        0.765729,
        0.797633,
        0.820521,
        0.696873,
        0.613495,
        0.67626,
        0.742245,
        0.724291,
        0.795996,
        0.825719,
        0.860532,
        0.782051,
        0.769567,
        0.857511,
        0.903631,
        0.836765,
        0.842057,
        0.903035,
        0.953313,
        0.929142,
        0.869576,
        0.905256,
        0.914708,
        0.773708,
        0.733706,
        0.840982,
        0.936001,
        0.96948,
        1.017402,
        0.951591,
        0.9131,
        1.004902,
        1.048689,
        1.037539,
        0.993109,
        0.902965,
        0.868026,
        0.958859,
        0.965612,
        0.959239,
        0.981415,
        1.062754,
        1.07218,
        1.000986,
        0.93483,
        0.986449,
        1.030323,
        1.00747,
        0.958775,
        0.912387,
        0.910058,
        0.868558,
        0.901525,
        0.991939,
        1.015935,
        1.000328,
        0.957164,
        0.936923,
        1.005725,
        0.998892,
        0.990006,
        0.981319,
        1.003834,
        0.995171,
        0.989041,
        0.949886,
        0.936291,
        0.965402,
        0.976013,
        1.000412,
        1.01415,
        0.984398,
        0.968062,
        0.962034,
        1.004599,
        1.001959,
        0.988371,
        0.99697,
        1.009464,
        1.034999,
        1.054514,
        1.046078,
        1.024436,
        1.008144,
        0.994844,
        1.017183,
        1.024579,
        0.976528,
        0.933258,
        0.967324,
        0.989658,
        1.018428,
        1.066116,
        1.019775,
        0.984489,
        0.991803,
        1.009393,
        1.026483,
        1.008596,
        1.005154,
        1.023535,
        1.003424,
        0.971514,
        0.989775,
        1.019158,
        1.063975,
        1.061299,
        1.025049,
        1.025282,
        1.04271,
        1.007729,
        0.960781,
        0.944259,
        0.998695,
        1.061878,
        1.088158,
        1.062956,
        1.067422,
        1.07212,
        1.062332,
        1.050062,
        1.032,
        1.037419,
        1.065028,
        1.099525,
        1.074989,
        1.015654,
        0.965189,
        1.013355,
        1.05541,
        1.075834,
        1.076585,
        1.072619,
        1.083956,
        1.110566,
        1.124575,
        1.124292,
        1.104862,
        1.108976,
        1.106932,
        1.092907,
        1.056159,
        1.04575,
        1.076173,
        1.098562,
        1.106068,
        1.065063,
        0.994044,
        0.843807,
        0.837082,
        0.9672,
        1.058268,
        1.085619,
        1.067479,
        1.068747,
        1.086932,
        1.082563,
        1.081614,
        1.077586,
        1.075787,
        1.075365,
        1.066559,
        1.085958,
        1.099569,
        1.110215,
        1.088196,
        1.068585,
        1.051336,
        1.070658,
        1.078305,
        1.071527,
        1.061902,
        1.051039,
        1.035315,
        1.031606,
        1.067792,
        1.09399,
        1.107576,
        1.101591,
        1.112166,
        1.119796,
        1.095227,
        1.082465,
        1.078096,
        1.103481,
        1.103036,
        1.070365,
        1.055808,
        1.044459,
        1.052465,
        1.050427,
        1.047933,
        1.069822,
        1.08652,
        1.042793,
        1.038678,
        1.045899,
        1.006461,
        1.003108,
        1.042115,
        1.052369,
        1.041857,
        0.998668,
        0.986182,
        0.995493,
        1.034707,
        1.070632,
        1.061466,
        1.018365,
        1.043146,
        1.073773,
        1.081839,
        1.074053,
        1.013472,
        0.993851,
        1.010374,
        1.009852,
        1.019784,
        1.021687,
        1.000664,
        1.01297,
        0.95931,
        0.949053,
        0.99573,
        1.024106,
        1.025903,
        1.008646,
        1.02549,
        1.05571,
        1.025306,
        1.002384,
        1.015233,
        1.034373,
        1.005314,
        0.989266,
        1.036638,
        1.053415,
        1.037963,
        1.01443,
        1.026459,
        1.045668,
        1.022181,
        0.977298,
        0.98612,
        1.048564,
        1.071282,
        1.059875,
        1.069787,
        1.065772,
        1.03816,
        1.027447,
        1.04734,
        1.037514,
        1.037172,
        1.034951,
        1.056994,
        1.055632,
        1.045599,
        1.051138,
        1.065186,
        1.025944,
        1.032427,
        1.064372,
        1.050267,
        1.056244,
        1.062956,
        1.059551,
        1.052316,
        1.034041,
        0.950164,
        0.960014,
        1.031008,
        1.06626,
        1.071947,
        1.066135,
        1.071413,
        1.05678,
        1.061359,
        1.078624,
        1.059601,
        1.046146,
        1.019068,
        0.970622,
        0.96722,
        1.0213,
        1.031672,
        1.052455,
        1.066485,
        1.063917,
        1.033649,
        1.059138,
        1.054421,
        1.042019,
        1.078417,
        1.091859,
        1.073923,
        1.044014,
        1.038935,
        1.054399,
        1.050992,
        1.062202,
        1.074355,
        1.061142,
        1.03035,
        1.041237,
        1.047611,
        1.038743,
        1.07323,
        1.082734,
        1.064365,
        1.042842,
        1.036982,
        1.022269,
        1.014475,
        1.035051,
        1.060961,
        1.064687,
        1.057645,
        1.036874,
        1.028505,
        1.030783,
        1.039711,
        1.067174,
        1.048002,
        1.029537,
        1.052431,
        1.062666,
        1.041155,
        1.047774,
        1.043551,
        1.043744,
        1.04878,
        1.045207,
        1.044506,
        1.047577,
        1.053908,
        1.047126,
        1.042527,
        1.033666,
        1.036874,
        1.041446,
        1.036311,
        1.033683,
        1.039964,
        1.043751,
        1.034344,
        1.033875,
        1.036473,
        1.042289,
        1.040433,
        1.038697,
        1.037708,
        1.034305,
        1.026554,
        1.031887,
        1.022746,
        1.02398,
        1.023292,
        1.024571,
        1.015445,
        1.014345,
        1.008981,
        1.020122,
        1.018802,
        1.012507,
        0.986428,
        0.95639,
        0.998478,
        1.010185,
        1.011707,
        0.989557,
        0.977008,
        0.985501,
        0.968873,
        0.968763,
        0.965798,
        0.978267,
        0.985789,
        0.997028,
        1.0282,
        1.022798,
        1.013099,
        1.012335,
        0.994466,
        0.992602,
        1.021012,
        1.024914,
        0.983558,
        0.968613,
        0.977734,
        0.993987,
        0.98728,
        0.964775,
        0.970925,
        0.968593,
        0.965454,
        0.95956,
        0.970585,
        0.980916,
        0.970648,
        0.961804,
        0.975469,
        0.97726,
        0.957364,
        0.954867,
        0.953986,
        0.935968,
        0.905478,
        0.887244,
        0.904934,
        0.926181,
        0.929504,
        0.936944,
        0.962622,
        0.975026,
        0.973003,
        0.972565,
        0.962483,
        0.9632,
        0.959324,
        0.957619,
        0.951208,
        0.948939,
        0.947007,
        0.955651,
        0.94141,
        0.937345,
        0.924358,
        0.911102,
        0.9219,
        0.947663,
        0.940318,
        0.93962,
        0.93824,
        0.93993,
        0.94336,
        0.942437,
        0.957568,
        0.973536,
        0.966004,
        0.952744,
        0.93,
        0.936608,
        0.937601,
        0.957688,
        0.981377,
        0.981957,
        0.946937,
        0.923089,
        0.954064,
        0.96486,
        0.969777,
        0.95894,
        0.932499,
        0.927525,
        0.964233,
        0.980425,
        0.983111,
        0.973071,
        0.960534,
        0.975323,
        0.987991,
        0.97241,
        0.966578,
        0.97765,
        0.967035,
        0.96996,
        0.974962,
        0.970248,
        0.951418,
        0.966132,
        0.974539,
        0.971588,
        0.985508,
        0.991357,
        0.976654,
        0.976565,
        0.991504,
        0.996465,
        0.990964,
        0.987857,
        0.985741,
        0.987725,
        0.986748,
        0.982438,
        0.985775,
        0.984953,
        0.97805,
        0.983358,
        0.989465,
        0.988972,
        0.987374,
        0.978435,
        0.972831,
        0.974258,
        0.984001,
        0.984881,
        0.985332,
        0.985953,
        0.989743,
        0.980777,
        0.970599,
        0.964176,
        0.966342,
        0.976388,
        0.984764,
        0.986045,
        0.985518,
        0.980292,
        0.978622,
        0.976231,
        0.978789,
        0.971517,
        0.96038,
        0.970557,
        0.968215,
        0.97405,
        0.987956,
        0.992723,
        0.965951,
        0.947837,
        0.977141,
        0.997475,
        0.992634,
        0.992138,
        0.988896,
        0.980433,
        0.978096,
        0.974077,
        0.974836,
        0.96987,
        0.974124,
        0.97085,
        0.982491,
        0.995335,
        0.997406,
        0.984048,
        0.958013,
        0.966749,
        0.978398,
        0.970523,
        0.963453,
        0.973813,
        0.981532,
        0.96901,
        0.949142,
        0.943126,
        0.949122,
        0.952605,
        0.92464,
        0.923166,
        0.935845,
        0.922674,
        0.903917,
        0.903276,
        0.918484,
        0.920306,
        0.911736,
        0.901991,
        0.894899,
        0.905887,
        0.917028,
        0.923577,
        0.933203,
        0.937388,
        0.942758,
        0.935768,
        0.942948,
        0.936767,
        0.920878,
        0.916997,
        0.929194,
        0.939176,
        0.949386,
        0.947536,
        0.912202,
        0.906208,
        0.950694,
        0.950655,
        0.912136,
        0.901775,
        0.92521,
        0.94176,
        0.928299,
        0.893671,
        0.889478,
        0.897506,
        0.893161,
        0.882432,
        0.862534,
        0.864387,
        0.872674,
        0.871648,
        0.862555,
        0.860929,
        0.869422,
        0.872551,
        0.872842,
        0.870999,
        0.861428,
        0.858589,
        0.863066,
        0.859404,
        0.844952,
        0.847749,
        0.856585,
        0.856414,
        0.848855,
        0.848884,
        0.845151,
        0.83963,
        0.852622,
        0.868324,
        0.879329,
        0.867427,
        0.861152,
        0.846658,
        0.848378,
        0.866938,
        0.877932,
        0.882789,
        0.872074,
        0.873845,
        0.885897,
        0.885647,
        0.871208,
        0.864299,
        0.865739,
        0.867748,
        0.862231,
        0.859447,
        0.854084,
        0.841494,
        0.855119,
        0.863458,
        0.857551,
        0.85201,
        0.849302,
        0.852735,
        0.852085,
        0.858811,
        0.867604,
        0.86459,
        0.861989,
        0.868841,
        0.872013,
        0.863984,
        0.847559,
        0.847635,
        0.866233,
        0.878042,
        0.881804,
        0.880813,
        0.873942,
        0.864115,
        0.853169,
        0.86412,
        0.846759,
        0.842579,
        0.86254,
        0.874555,
        0.884586,
        0.880607,
        0.865455,
        0.854915,
        0.88102,
        0.885007,
        0.887166,
        0.878283,
        0.807365,
        0.739983,
        0.813933,
        0.865026,
        0.833841,
        0.823038,
        0.833543,
        0.836808,
        0.803201,
        0.684488,
        0.616843,
        0.717,
        0.78979,
        0.831719,
        0.842186,
        0.834586,
        0.830431,
        0.829224,
        0.820827,
        0.824549,
        0.846355,
        0.824508,
        0.843048,
        0.831048,
        0.832537,
        0.846223,
        0.847827,
        0.854368,
        0.860225,
        0.86346,
        0.851455,
        0.834537,
        0.79921,
        0.66941,
        0.656857,
        0.75972,
        0.797665,
        0.811325,
        0.812931,
        0.800103,
        0.831516,
        0.833611,
        0.835171,
        0.837724,
        0.845623,
        0.863008,
        0.857959,
        0.848256,
        0.843962,
        0.841109,
        0.845883,
        0.841273,
        0.846508,
        0.85521,
        0.841498,
        0.842052,
        0.836431,
        0.851195,
        0.85879,
        0.849516,
        0.840671,
        0.838057,
        0.795534,
        0.797778,
        0.848924,
        0.83457,
        0.837496,
        0.854525,
        0.852272,
        0.843044,
        0.858425,
        0.868585,
        0.869763,
        0.855681,
        0.841641,
        0.85395,
        0.859491,
        0.854381,
        0.869381,
        0.871041,
        0.866889,
        0.872611,
        0.877492,
        0.873779,
        0.863552,
        0.859305,
        0.844619,
        0.846038,
        0.839961,
        0.850038,
        0.833918,
        0.826385,
        0.840382,
        0.843443,
        0.841339,
        0.843199,
        0.83936,
        0.817647,
        0.8278,
        0.792793,
        0.819226,
        0.816232,
        0.794767,
        0.800623,
        0.781687,
        0.784333,
        0.793792,
        0.804041,
        0.844198,
        0.848779,
        0.863327,
        0.844398,
        0.834453,
        0.842077,
        0.827657,
        0.808366,
        0.799196,
        0.794177,
        0.763898,
        0.761576,
        0.76316,
        0.78072,
        0.779069,
        0.778488,
        0.797659,
        0.75905,
        0.765936,
        0.788172,
        0.771168,
        0.752207,
        0.74924,
        0.737556,
        0.721944,
        0.742833,
        0.748884,
        0.727979,
        0.688612,
        0.704026,
        0.728469,
        0.730944,
        0.719719,
        0.72115,
        0.724532,
        0.726876,
        0.713081,
        0.714357,
        0.724017,
        0.725882,
        0.726337,
        0.717269,
        0.723543,
        0.724558,
        0.734457,
        0.726573,
        0.737994,
        0.748433,
        0.751309,
        0.742872,
        0.734159,
        0.737666,
        0.738948,
        0.739394,
        0.741669,
        0.730093,
        0.726812,
        0.708757,
        0.71462,
        0.708917,
        0.713952,
        0.705106,
        0.682276,
        0.703588,
        0.691204,
        0.685235,
        0.719867,
        0.710045,
        0.706446,
        0.718172,
        0.72312,
        0.748727,
        0.782916,
        0.766708,
        0.756833,
        0.744292,
        0.729576,
        0.730763,
        0.728959,
        0.705886,
        0.726171,
        0.703912,
        0.686766,
        0.719972,
        0.713738,
        0.701911,
        0.714739,
        0.711899,
        0.717368,
        0.721263,
        0.721569,
        0.739514,
        0.720153,
        0.707447,
        0.714049,
        0.744902,
        0.754182,
        0.696599,
        0.707419,
        0.737619,
        0.735109,
        0.726374,
        0.712945,
        0.71389,
        0.716387,
        0.714489,
        0.716202,
        0.711642,
        0.714504,
        0.716084,
        0.716048,
        0.697408,
        0.70302,
        0.726012,
        0.697024,
        0.71059,
        0.71339,
        0.709197,
        0.702239,
        0.707671,
        0.704172,
        0.685738,
        0.694519,
        0.687449,
        0.699596,
        0.698084,
        0.688559,
        0.691988,
        0.691759,
        0.688428,
        0.697024,
        0.701409,
        0.701543,
        0.704811,
        0.696053,
        0.693859,
        0.69868,
        0.695193,
        0.695139,
        0.693072,
        0.686482,
        0.673569,
        0.681038,
        0.670726,
        0.684635,
        0.690928,
        0.693036,
        0.687645,
        0.68965,
        0.699954,
        0.688172,
        0.68132,
        0.69093,
        0.694106,
        0.697317,
        0.702918,
        0.699636,
        0.690958,
        0.682235,
        0.717522,
        0.708868,
        0.692491,
        0.700792,
        0.693675,
        0.696665,
        0.710612,
        0.691117,
        0.689114,
        0.699829,
        0.71017,
        0.693681,
        0.698787,
        0.681236,
        0.71672,
        0.692477,
        0.665378,
        0.683222,
        0.693869,
        0.703734,
        0.686028,
        0.697803,
        0.689057,
        0.699028,
        0.694288,
        0.703458,
        0.696589,
        0.700149,
        0.688593,
        0.704204,
        0.731828,
        0.696101,
        0.70275,
        0.715819,
        0.697174,
        0.701402,
        0.692986,
        0.688245,
        0.719783,
        0.696368,
        0.698662,
        0.70192,
        0.692737,
        0.689308,
        0.697853,
        0.681342,
        0.676778,
        0.70774,
        0.691434,
        0.683131,
        0.681919,
        0.68082,
        0.681986,
        0.68858,
        0.678337,
        0.689488,
        0.69178,
        0.699255,
        0.694237,
        0.693068,
        0.691996,
        0.693702,
        0.676833,
        0.675995,
        0.675247,
        0.674601,
        0.674057,
        0.673614,
        0.673271,
        0.673028,
        0.672884,
        0.672836,
        0.672885,
        0.673029,
        0.673267,
        0.673595,
        0.673995,
        0.674445,
        0.674924,
        0.675412,
        0.675886,
        0.676326,
        0.676711,
        0.677018,
        0.677228,
        0.677323,
        0.677308,
        0.677191,
        0.676981,
        0.676686,
        0.676317,
        0.67588,
        0.675385,
        0.674842,
        0.674257,
        0.67234,
        0.671816,
        0.671281,
        0.670737,
        0.670185,
        0.669628,
        0.669068,
        0.668507,
        0.667947,
        0.66739,
        0.666837,
        0.666292,
        0.665757,
        0.665233,
        0.664724,
        0.664232,
        0.66376,
        0.66331,
        0.662883,
        0.662483,
        0.662112,
        0.661767,
        0.661445,
        0.661144,
        0.660861,
        0.660593,
        0.660338,
        0.660092,
        0.659853,
        0.659618,
        0.659384,
        0.659152,
        0.658921,
        0.65869,
        0.65846,
        0.658229,
        0.657999,
        0.657769,
        0.657538,
        0.657306
      ],
      "range":1
    }
  }
]
