[
  {
    "model":"Star, type B3(v)",
    "name":"Star, type B3(v)",
    "type":"WB_REF",
    "dataQualityMarker":3,
    "dataSource":"https://www.eso.org/sci/facilities/paranal/decommissioned/isaac/tools/lib.html",
    "manufacturer":"A. Pickles (A.J. Pickles, PASP 110,863, 1998)",
    "version":1,
    "wavelength":{
      "value":[
        1150.0,
        1155.0,
        1160.0,
        1165.0,
        1170.0,
        1175.0,
        1180.0,
        1185.0,
        1190.0,
        1195.0,
        1200.0,
        1205.0,
        1210.0,
        1215.0,
        1220.0,
        1225.0,
        1230.0,
        1235.0,
        1240.0,
        1245.0,
        1250.0,
        1255.0,
        1260.0,
        1265.0,
        1270.0,
        1275.0,
        1280.0,
        1285.0,
        1290.0,
        1295.0,
        1300.0,
        1305.0,
        1310.0,
        1315.0,
        1320.0,
        1325.0,
        1330.0,
        1335.0,
        1340.0,
        1345.0,
        1350.0,
        1355.0,
        1360.0,
        1365.0,
        1370.0,
        1375.0,
        1380.0,
        1385.0,
        1390.0,
        1395.0,
        1400.0,
        1405.0,
        1410.0,
        1415.0,
        1420.0,
        1425.0,
        1430.0,
        1435.0,
        1440.0,
        1445.0,
        1450.0,
        1455.0,
        1460.0,
        1465.0,
        1470.0,
        1475.0,
        1480.0,
        1485.0,
        1490.0,
        1495.0,
        1500.0,
        1505.0,
        1510.0,
        1515.0,
        1520.0,
        1525.0,
        1530.0,
        1535.0,
        1540.0,
        1545.0,
        1550.0,
        1555.0,
        1560.0,
        1565.0,
        1570.0,
        1575.0,
        1580.0,
        1585.0,
        1590.0,
        1595.0,
        1600.0,
        1605.0,
        1610.0,
        1615.0,
        1620.0,
        1625.0,
        1630.0,
        1635.0,
        1640.0,
        1645.0,
        1650.0,
        1655.0,
        1660.0,
        1665.0,
        1670.0,
        1675.0,
        1680.0,
        1685.0,
        1690.0,
        1695.0,
        1700.0,
        1705.0,
        1710.0,
        1715.0,
        1720.0,
        1725.0,
        1730.0,
        1735.0,
        1740.0,
        1745.0,
        1750.0,
        1755.0,
        1760.0,
        1765.0,
        1770.0,
        1775.0,
        1780.0,
        1785.0,
        1790.0,
        1795.0,
        1800.0,
        1805.0,
        1810.0,
        1815.0,
        1820.0,
        1825.0,
        1830.0,
        1835.0,
        1840.0,
        1845.0,
        1850.0,
        1855.0,
        1860.0,
        1865.0,
        1870.0,
        1875.0,
        1880.0,
        1885.0,
        1890.0,
        1895.0,
        1900.0,
        1905.0,
        1910.0,
        1915.0,
        1920.0,
        1925.0,
        1930.0,
        1935.0,
        1940.0,
        1945.0,
        1950.0,
        1955.0,
        1960.0,
        1965.0,
        1970.0,
        1975.0,
        1980.0,
        1985.0,
        1990.0,
        1995.0,
        2000.0,
        2005.0,
        2010.0,
        2015.0,
        2020.0,
        2025.0,
        2030.0,
        2035.0,
        2040.0,
        2045.0,
        2050.0,
        2055.0,
        2060.0,
        2065.0,
        2070.0,
        2075.0,
        2080.0,
        2085.0,
        2090.0,
        2095.0,
        2100.0,
        2105.0,
        2110.0,
        2115.0,
        2120.0,
        2125.0,
        2130.0,
        2135.0,
        2140.0,
        2145.0,
        2150.0,
        2155.0,
        2160.0,
        2165.0,
        2170.0,
        2175.0,
        2180.0,
        2185.0,
        2190.0,
        2195.0,
        2200.0,
        2205.0,
        2210.0,
        2215.0,
        2220.0,
        2225.0,
        2230.0,
        2235.0,
        2240.0,
        2245.0,
        2250.0,
        2255.0,
        2260.0,
        2265.0,
        2270.0,
        2275.0,
        2280.0,
        2285.0,
        2290.0,
        2295.0,
        2300.0,
        2305.0,
        2310.0,
        2315.0,
        2320.0,
        2325.0,
        2330.0,
        2335.0,
        2340.0,
        2345.0,
        2350.0,
        2355.0,
        2360.0,
        2365.0,
        2370.0,
        2375.0,
        2380.0,
        2385.0,
        2390.0,
        2395.0,
        2400.0,
        2405.0,
        2410.0,
        2415.0,
        2420.0,
        2425.0,
        2430.0,
        2435.0,
        2440.0,
        2445.0,
        2450.0,
        2455.0,
        2460.0,
        2465.0,
        2470.0,
        2475.0,
        2480.0,
        2485.0,
        2490.0,
        2495.0,
        2500.0,
        2505.0,
        2510.0,
        2515.0,
        2520.0,
        2525.0,
        2530.0,
        2535.0,
        2540.0,
        2545.0,
        2550.0,
        2555.0,
        2560.0,
        2565.0,
        2570.0,
        2575.0,
        2580.0,
        2585.0,
        2590.0,
        2595.0,
        2600.0,
        2605.0,
        2610.0,
        2615.0,
        2620.0,
        2625.0,
        2630.0,
        2635.0,
        2640.0,
        2645.0,
        2650.0,
        2655.0,
        2660.0,
        2665.0,
        2670.0,
        2675.0,
        2680.0,
        2685.0,
        2690.0,
        2695.0,
        2700.0,
        2705.0,
        2710.0,
        2715.0,
        2720.0,
        2725.0,
        2730.0,
        2735.0,
        2740.0,
        2745.0,
        2750.0,
        2755.0,
        2760.0,
        2765.0,
        2770.0,
        2775.0,
        2780.0,
        2785.0,
        2790.0,
        2795.0,
        2800.0,
        2805.0,
        2810.0,
        2815.0,
        2820.0,
        2825.0,
        2830.0,
        2835.0,
        2840.0,
        2845.0,
        2850.0,
        2855.0,
        2860.0,
        2865.0,
        2870.0,
        2875.0,
        2880.0,
        2885.0,
        2890.0,
        2895.0,
        2900.0,
        2905.0,
        2910.0,
        2915.0,
        2920.0,
        2925.0,
        2930.0,
        2935.0,
        2940.0,
        2945.0,
        2950.0,
        2955.0,
        2960.0,
        2965.0,
        2970.0,
        2975.0,
        2980.0,
        2985.0,
        2990.0,
        2995.0,
        3000.0,
        3005.0,
        3010.0,
        3015.0,
        3020.0,
        3025.0,
        3030.0,
        3035.0,
        3040.0,
        3045.0,
        3050.0,
        3055.0,
        3060.0,
        3065.0,
        3070.0,
        3075.0,
        3080.0,
        3085.0,
        3090.0,
        3095.0,
        3100.0,
        3105.0,
        3110.0,
        3115.0,
        3120.0,
        3125.0,
        3130.0,
        3135.0,
        3140.0,
        3145.0,
        3150.0,
        3155.0,
        3160.0,
        3165.0,
        3170.0,
        3175.0,
        3180.0,
        3185.0,
        3190.0,
        3195.0,
        3200.0,
        3205.0,
        3210.0,
        3215.0,
        3220.0,
        3225.0,
        3230.0,
        3235.0,
        3240.0,
        3245.0,
        3250.0,
        3255.0,
        3260.0,
        3265.0,
        3270.0,
        3275.0,
        3280.0,
        3285.0,
        3290.0,
        3295.0,
        3300.0,
        3305.0,
        3310.0,
        3315.0,
        3320.0,
        3325.0,
        3330.0,
        3335.0,
        3340.0,
        3345.0,
        3350.0,
        3355.0,
        3360.0,
        3365.0,
        3370.0,
        3375.0,
        3380.0,
        3385.0,
        3390.0,
        3395.0,
        3400.0,
        3405.0,
        3410.0,
        3415.0,
        3420.0,
        3425.0,
        3430.0,
        3435.0,
        3440.0,
        3445.0,
        3450.0,
        3455.0,
        3460.0,
        3465.0,
        3470.0,
        3475.0,
        3480.0,
        3485.0,
        3490.0,
        3495.0,
        3500.0,
        3505.0,
        3510.0,
        3515.0,
        3520.0,
        3525.0,
        3530.0,
        3535.0,
        3540.0,
        3545.0,
        3550.0,
        3555.0,
        3560.0,
        3565.0,
        3570.0,
        3575.0,
        3580.0,
        3585.0,
        3590.0,
        3595.0,
        3600.0,
        3605.0,
        3610.0,
        3615.0,
        3620.0,
        3625.0,
        3630.0,
        3635.0,
        3640.0,
        3645.0,
        3650.0,
        3655.0,
        3660.0,
        3665.0,
        3670.0,
        3675.0,
        3680.0,
        3685.0,
        3690.0,
        3695.0,
        3700.0,
        3705.0,
        3710.0,
        3715.0,
        3720.0,
        3725.0,
        3730.0,
        3735.0,
        3740.0,
        3745.0,
        3750.0,
        3755.0,
        3760.0,
        3765.0,
        3770.0,
        3775.0,
        3780.0,
        3785.0,
        3790.0,
        3795.0,
        3800.0,
        3805.0,
        3810.0,
        3815.0,
        3820.0,
        3825.0,
        3830.0,
        3835.0,
        3840.0,
        3845.0,
        3850.0,
        3855.0,
        3860.0,
        3865.0,
        3870.0,
        3875.0,
        3880.0,
        3885.0,
        3890.0,
        3895.0,
        3900.0,
        3905.0,
        3910.0,
        3915.0,
        3920.0,
        3925.0,
        3930.0,
        3935.0,
        3940.0,
        3945.0,
        3950.0,
        3955.0,
        3960.0,
        3965.0,
        3970.0,
        3975.0,
        3980.0,
        3985.0,
        3990.0,
        3995.0,
        4000.0,
        4005.0,
        4010.0,
        4015.0,
        4020.0,
        4025.0,
        4030.0,
        4035.0,
        4040.0,
        4045.0,
        4050.0,
        4055.0,
        4060.0,
        4065.0,
        4070.0,
        4075.0,
        4080.0,
        4085.0,
        4090.0,
        4095.0,
        4100.0,
        4105.0,
        4110.0,
        4115.0,
        4120.0,
        4125.0,
        4130.0,
        4135.0,
        4140.0,
        4145.0,
        4150.0,
        4155.0,
        4160.0,
        4165.0,
        4170.0,
        4175.0,
        4180.0,
        4185.0,
        4190.0,
        4195.0,
        4200.0,
        4205.0,
        4210.0,
        4215.0,
        4220.0,
        4225.0,
        4230.0,
        4235.0,
        4240.0,
        4245.0,
        4250.0,
        4255.0,
        4260.0,
        4265.0,
        4270.0,
        4275.0,
        4280.0,
        4285.0,
        4290.0,
        4295.0,
        4300.0,
        4305.0,
        4310.0,
        4315.0,
        4320.0,
        4325.0,
        4330.0,
        4335.0,
        4340.0,
        4345.0,
        4350.0,
        4355.0,
        4360.0,
        4365.0,
        4370.0,
        4375.0,
        4380.0,
        4385.0,
        4390.0,
        4395.0,
        4400.0,
        4405.0,
        4410.0,
        4415.0,
        4420.0,
        4425.0,
        4430.0,
        4435.0,
        4440.0,
        4445.0,
        4450.0,
        4455.0,
        4460.0,
        4465.0,
        4470.0,
        4475.0,
        4480.0,
        4485.0,
        4490.0,
        4495.0,
        4500.0,
        4505.0,
        4510.0,
        4515.0,
        4520.0,
        4525.0,
        4530.0,
        4535.0,
        4540.0,
        4545.0,
        4550.0,
        4555.0,
        4560.0,
        4565.0,
        4570.0,
        4575.0,
        4580.0,
        4585.0,
        4590.0,
        4595.0,
        4600.0,
        4605.0,
        4610.0,
        4615.0,
        4620.0,
        4625.0,
        4630.0,
        4635.0,
        4640.0,
        4645.0,
        4650.0,
        4655.0,
        4660.0,
        4665.0,
        4670.0,
        4675.0,
        4680.0,
        4685.0,
        4690.0,
        4695.0,
        4700.0,
        4705.0,
        4710.0,
        4715.0,
        4720.0,
        4725.0,
        4730.0,
        4735.0,
        4740.0,
        4745.0,
        4750.0,
        4755.0,
        4760.0,
        4765.0,
        4770.0,
        4775.0,
        4780.0,
        4785.0,
        4790.0,
        4795.0,
        4800.0,
        4805.0,
        4810.0,
        4815.0,
        4820.0,
        4825.0,
        4830.0,
        4835.0,
        4840.0,
        4845.0,
        4850.0,
        4855.0,
        4860.0,
        4865.0,
        4870.0,
        4875.0,
        4880.0,
        4885.0,
        4890.0,
        4895.0,
        4900.0,
        4905.0,
        4910.0,
        4915.0,
        4920.0,
        4925.0,
        4930.0,
        4935.0,
        4940.0,
        4945.0,
        4950.0,
        4955.0,
        4960.0,
        4965.0,
        4970.0,
        4975.0,
        4980.0,
        4985.0,
        4990.0,
        4995.0,
        5000.0,
        5005.0,
        5010.0,
        5015.0,
        5020.0,
        5025.0,
        5030.0,
        5035.0,
        5040.0,
        5045.0,
        5050.0,
        5055.0,
        5060.0,
        5065.0,
        5070.0,
        5075.0,
        5080.0,
        5085.0,
        5090.0,
        5095.0,
        5100.0,
        5105.0,
        5110.0,
        5115.0,
        5120.0,
        5125.0,
        5130.0,
        5135.0,
        5140.0,
        5145.0,
        5150.0,
        5155.0,
        5160.0,
        5165.0,
        5170.0,
        5175.0,
        5180.0,
        5185.0,
        5190.0,
        5195.0,
        5200.0,
        5205.0,
        5210.0,
        5215.0,
        5220.0,
        5225.0,
        5230.0,
        5235.0,
        5240.0,
        5245.0,
        5250.0,
        5255.0,
        5260.0,
        5265.0,
        5270.0,
        5275.0,
        5280.0,
        5285.0,
        5290.0,
        5295.0,
        5300.0,
        5305.0,
        5310.0,
        5315.0,
        5320.0,
        5325.0,
        5330.0,
        5335.0,
        5340.0,
        5345.0,
        5350.0,
        5355.0,
        5360.0,
        5365.0,
        5370.0,
        5375.0,
        5380.0,
        5385.0,
        5390.0,
        5395.0,
        5400.0,
        5405.0,
        5410.0,
        5415.0,
        5420.0,
        5425.0,
        5430.0,
        5435.0,
        5440.0,
        5445.0,
        5450.0,
        5455.0,
        5460.0,
        5465.0,
        5470.0,
        5475.0,
        5480.0,
        5485.0,
        5490.0,
        5495.0,
        5500.0,
        5505.0,
        5510.0,
        5515.0,
        5520.0,
        5525.0,
        5530.0,
        5535.0,
        5540.0,
        5545.0,
        5550.0,
        5555.0,
        5560.0,
        5565.0,
        5570.0,
        5575.0,
        5580.0,
        5585.0,
        5590.0,
        5595.0,
        5600.0,
        5605.0,
        5610.0,
        5615.0,
        5620.0,
        5625.0,
        5630.0,
        5635.0,
        5640.0,
        5645.0,
        5650.0,
        5655.0,
        5660.0,
        5665.0,
        5670.0,
        5675.0,
        5680.0,
        5685.0,
        5690.0,
        5695.0,
        5700.0,
        5705.0,
        5710.0,
        5715.0,
        5720.0,
        5725.0,
        5730.0,
        5735.0,
        5740.0,
        5745.0,
        5750.0,
        5755.0,
        5760.0,
        5765.0,
        5770.0,
        5775.0,
        5780.0,
        5785.0,
        5790.0,
        5795.0,
        5800.0,
        5805.0,
        5810.0,
        5815.0,
        5820.0,
        5825.0,
        5830.0,
        5835.0,
        5840.0,
        5845.0,
        5850.0,
        5855.0,
        5860.0,
        5865.0,
        5870.0,
        5875.0,
        5880.0,
        5885.0,
        5890.0,
        5895.0,
        5900.0,
        5905.0,
        5910.0,
        5915.0,
        5920.0,
        5925.0,
        5930.0,
        5935.0,
        5940.0,
        5945.0,
        5950.0,
        5955.0,
        5960.0,
        5965.0,
        5970.0,
        5975.0,
        5980.0,
        5985.0,
        5990.0,
        5995.0,
        6000.0,
        6005.0,
        6010.0,
        6015.0,
        6020.0,
        6025.0,
        6030.0,
        6035.0,
        6040.0,
        6045.0,
        6050.0,
        6055.0,
        6060.0,
        6065.0,
        6070.0,
        6075.0,
        6080.0,
        6085.0,
        6090.0,
        6095.0,
        6100.0,
        6105.0,
        6110.0,
        6115.0,
        6120.0,
        6125.0,
        6130.0,
        6135.0,
        6140.0,
        6145.0,
        6150.0,
        6155.0,
        6160.0,
        6165.0,
        6170.0,
        6175.0,
        6180.0,
        6185.0,
        6190.0,
        6195.0,
        6200.0,
        6205.0,
        6210.0,
        6215.0,
        6220.0,
        6225.0,
        6230.0,
        6235.0,
        6240.0,
        6245.0,
        6250.0,
        6255.0,
        6260.0,
        6265.0,
        6270.0,
        6275.0,
        6280.0,
        6285.0,
        6290.0,
        6295.0,
        6300.0,
        6305.0,
        6310.0,
        6315.0,
        6320.0,
        6325.0,
        6330.0,
        6335.0,
        6340.0,
        6345.0,
        6350.0,
        6355.0,
        6360.0,
        6365.0,
        6370.0,
        6375.0,
        6380.0,
        6385.0,
        6390.0,
        6395.0,
        6400.0,
        6405.0,
        6410.0,
        6415.0,
        6420.0,
        6425.0,
        6430.0,
        6435.0,
        6440.0,
        6445.0,
        6450.0,
        6455.0,
        6460.0,
        6465.0,
        6470.0,
        6475.0,
        6480.0,
        6485.0,
        6490.0,
        6495.0,
        6500.0,
        6505.0,
        6510.0,
        6515.0,
        6520.0,
        6525.0,
        6530.0,
        6535.0,
        6540.0,
        6545.0,
        6550.0,
        6555.0,
        6560.0,
        6565.0,
        6570.0,
        6575.0,
        6580.0,
        6585.0,
        6590.0,
        6595.0,
        6600.0,
        6605.0,
        6610.0,
        6615.0,
        6620.0,
        6625.0,
        6630.0,
        6635.0,
        6640.0,
        6645.0,
        6650.0,
        6655.0,
        6660.0,
        6665.0,
        6670.0,
        6675.0,
        6680.0,
        6685.0,
        6690.0,
        6695.0,
        6700.0,
        6705.0,
        6710.0,
        6715.0,
        6720.0,
        6725.0,
        6730.0,
        6735.0,
        6740.0,
        6745.0,
        6750.0,
        6755.0,
        6760.0,
        6765.0,
        6770.0,
        6775.0,
        6780.0,
        6785.0,
        6790.0,
        6795.0,
        6800.0,
        6805.0,
        6810.0,
        6815.0,
        6820.0,
        6825.0,
        6830.0,
        6835.0,
        6840.0,
        6845.0,
        6850.0,
        6855.0,
        6860.0,
        6865.0,
        6870.0,
        6875.0,
        6880.0,
        6885.0,
        6890.0,
        6895.0,
        6900.0,
        6905.0,
        6910.0,
        6915.0,
        6920.0,
        6925.0,
        6930.0,
        6935.0,
        6940.0,
        6945.0,
        6950.0,
        6955.0,
        6960.0,
        6965.0,
        6970.0,
        6975.0,
        6980.0,
        6985.0,
        6990.0,
        6995.0,
        7000.0,
        7005.0,
        7010.0,
        7015.0,
        7020.0,
        7025.0,
        7030.0,
        7035.0,
        7040.0,
        7045.0,
        7050.0,
        7055.0,
        7060.0,
        7065.0,
        7070.0,
        7075.0,
        7080.0,
        7085.0,
        7090.0,
        7095.0,
        7100.0,
        7105.0,
        7110.0,
        7115.0,
        7120.0,
        7125.0,
        7130.0,
        7135.0,
        7140.0,
        7145.0,
        7150.0,
        7155.0,
        7160.0,
        7165.0,
        7170.0,
        7175.0,
        7180.0,
        7185.0,
        7190.0,
        7195.0,
        7200.0,
        7205.0,
        7210.0,
        7215.0,
        7220.0,
        7225.0,
        7230.0,
        7235.0,
        7240.0,
        7245.0,
        7250.0,
        7255.0,
        7260.0,
        7265.0,
        7270.0,
        7275.0,
        7280.0,
        7285.0,
        7290.0,
        7295.0,
        7300.0,
        7305.0,
        7310.0,
        7315.0,
        7320.0,
        7325.0,
        7330.0,
        7335.0,
        7340.0,
        7345.0,
        7350.0,
        7355.0,
        7360.0,
        7365.0,
        7370.0,
        7375.0,
        7380.0,
        7385.0,
        7390.0,
        7395.0,
        7400.0,
        7405.0,
        7410.0,
        7415.0,
        7420.0,
        7425.0,
        7430.0,
        7435.0,
        7440.0,
        7445.0,
        7450.0,
        7455.0,
        7460.0,
        7465.0,
        7470.0,
        7475.0,
        7480.0,
        7485.0,
        7490.0,
        7495.0,
        7500.0,
        7505.0,
        7510.0,
        7515.0,
        7520.0,
        7525.0,
        7530.0,
        7535.0,
        7540.0,
        7545.0,
        7550.0,
        7555.0,
        7560.0,
        7565.0,
        7570.0,
        7575.0,
        7580.0,
        7585.0,
        7590.0,
        7595.0,
        7600.0,
        7605.0,
        7610.0,
        7615.0,
        7620.0,
        7625.0,
        7630.0,
        7635.0,
        7640.0,
        7645.0,
        7650.0,
        7655.0,
        7660.0,
        7665.0,
        7670.0,
        7675.0,
        7680.0,
        7685.0,
        7690.0,
        7695.0,
        7700.0,
        7705.0,
        7710.0,
        7715.0,
        7720.0,
        7725.0,
        7730.0,
        7735.0,
        7740.0,
        7745.0,
        7750.0,
        7755.0,
        7760.0,
        7765.0,
        7770.0,
        7775.0,
        7780.0,
        7785.0,
        7790.0,
        7795.0,
        7800.0,
        7805.0,
        7810.0,
        7815.0,
        7820.0,
        7825.0,
        7830.0,
        7835.0,
        7840.0,
        7845.0,
        7850.0,
        7855.0,
        7860.0,
        7865.0,
        7870.0,
        7875.0,
        7880.0,
        7885.0,
        7890.0,
        7895.0,
        7900.0,
        7905.0,
        7910.0,
        7915.0,
        7920.0,
        7925.0,
        7930.0,
        7935.0,
        7940.0,
        7945.0,
        7950.0,
        7955.0,
        7960.0,
        7965.0,
        7970.0,
        7975.0,
        7980.0,
        7985.0,
        7990.0,
        7995.0,
        8000.0,
        8005.0,
        8010.0,
        8015.0,
        8020.0,
        8025.0,
        8030.0,
        8035.0,
        8040.0,
        8045.0,
        8050.0,
        8055.0,
        8060.0,
        8065.0,
        8070.0,
        8075.0,
        8080.0,
        8085.0,
        8090.0,
        8095.0,
        8100.0,
        8105.0,
        8110.0,
        8115.0,
        8120.0,
        8125.0,
        8130.0,
        8135.0,
        8140.0,
        8145.0,
        8150.0,
        8155.0,
        8160.0,
        8165.0,
        8170.0,
        8175.0,
        8180.0,
        8185.0,
        8190.0,
        8195.0,
        8200.0,
        8205.0,
        8210.0,
        8215.0,
        8220.0,
        8225.0,
        8230.0,
        8235.0,
        8240.0,
        8245.0,
        8250.0,
        8255.0,
        8260.0,
        8265.0,
        8270.0,
        8275.0,
        8280.0,
        8285.0,
        8290.0,
        8295.0,
        8300.0,
        8305.0,
        8310.0,
        8315.0,
        8320.0,
        8325.0,
        8330.0,
        8335.0,
        8340.0,
        8345.0,
        8350.0,
        8355.0,
        8360.0,
        8365.0,
        8370.0,
        8375.0,
        8380.0,
        8385.0,
        8390.0,
        8395.0,
        8400.0,
        8405.0,
        8410.0,
        8415.0,
        8420.0,
        8425.0,
        8430.0,
        8435.0,
        8440.0,
        8445.0,
        8450.0,
        8455.0,
        8460.0,
        8465.0,
        8470.0,
        8475.0,
        8480.0,
        8485.0,
        8490.0,
        8495.0,
        8500.0,
        8505.0,
        8510.0,
        8515.0,
        8520.0,
        8525.0,
        8530.0,
        8535.0,
        8540.0,
        8545.0,
        8550.0,
        8555.0,
        8560.0,
        8565.0,
        8570.0,
        8575.0,
        8580.0,
        8585.0,
        8590.0,
        8595.0,
        8600.0,
        8605.0,
        8610.0,
        8615.0,
        8620.0,
        8625.0,
        8630.0,
        8635.0,
        8640.0,
        8645.0,
        8650.0,
        8655.0,
        8660.0,
        8665.0,
        8670.0,
        8675.0,
        8680.0,
        8685.0,
        8690.0,
        8695.0,
        8700.0,
        8705.0,
        8710.0,
        8715.0,
        8720.0,
        8725.0,
        8730.0,
        8735.0,
        8740.0,
        8745.0,
        8750.0,
        8755.0,
        8760.0,
        8765.0,
        8770.0,
        8775.0,
        8780.0,
        8785.0,
        8790.0,
        8795.0,
        8800.0,
        8805.0,
        8810.0,
        8815.0,
        8820.0,
        8825.0,
        8830.0,
        8835.0,
        8840.0,
        8845.0,
        8850.0,
        8855.0,
        8860.0,
        8865.0,
        8870.0,
        8875.0,
        8880.0,
        8885.0,
        8890.0,
        8895.0,
        8900.0,
        8905.0,
        8910.0,
        8915.0,
        8920.0,
        8925.0,
        8930.0,
        8935.0,
        8940.0,
        8945.0,
        8950.0,
        8955.0,
        8960.0,
        8965.0,
        8970.0,
        8975.0,
        8980.0,
        8985.0,
        8990.0,
        8995.0,
        9000.0,
        9005.0,
        9010.0,
        9015.0,
        9020.0,
        9025.0,
        9030.0,
        9035.0,
        9040.0,
        9045.0,
        9050.0,
        9055.0,
        9060.0,
        9065.0,
        9070.0,
        9075.0,
        9080.0,
        9085.0,
        9090.0,
        9095.0,
        9100.0,
        9105.0,
        9110.0,
        9115.0,
        9120.0,
        9125.0,
        9130.0,
        9135.0,
        9140.0,
        9145.0,
        9150.0,
        9155.0,
        9160.0,
        9165.0,
        9170.0,
        9175.0,
        9180.0,
        9185.0,
        9190.0,
        9195.0,
        9200.0,
        9205.0,
        9210.0,
        9215.0,
        9220.0,
        9225.0,
        9230.0,
        9235.0,
        9240.0,
        9245.0,
        9250.0,
        9255.0,
        9260.0,
        9265.0,
        9270.0,
        9275.0,
        9280.0,
        9285.0,
        9290.0,
        9295.0,
        9300.0,
        9305.0,
        9310.0,
        9315.0,
        9320.0,
        9325.0,
        9330.0,
        9335.0,
        9340.0,
        9345.0,
        9350.0,
        9355.0,
        9360.0,
        9365.0,
        9370.0,
        9375.0,
        9380.0,
        9385.0,
        9390.0,
        9395.0,
        9400.0,
        9405.0,
        9410.0,
        9415.0,
        9420.0,
        9425.0,
        9430.0,
        9435.0,
        9440.0,
        9445.0,
        9450.0,
        9455.0,
        9460.0,
        9465.0,
        9470.0,
        9475.0,
        9480.0,
        9485.0,
        9490.0,
        9495.0,
        9500.0,
        9505.0,
        9510.0,
        9515.0,
        9520.0,
        9525.0,
        9530.0,
        9535.0,
        9540.0,
        9545.0,
        9550.0,
        9555.0,
        9560.0,
        9565.0,
        9570.0,
        9575.0,
        9580.0,
        9585.0,
        9590.0,
        9595.0,
        9600.0,
        9605.0,
        9610.0,
        9615.0,
        9620.0,
        9625.0,
        9630.0,
        9635.0,
        9640.0,
        9645.0,
        9650.0,
        9655.0,
        9660.0,
        9665.0,
        9670.0,
        9675.0,
        9680.0,
        9685.0,
        9690.0,
        9695.0,
        9700.0,
        9705.0,
        9710.0,
        9715.0,
        9720.0,
        9725.0,
        9730.0,
        9735.0,
        9740.0,
        9745.0,
        9750.0,
        9755.0,
        9760.0,
        9765.0,
        9770.0,
        9775.0,
        9780.0,
        9785.0,
        9790.0,
        9795.0,
        9800.0,
        9805.0,
        9810.0,
        9815.0,
        9820.0,
        9825.0,
        9830.0,
        9835.0,
        9840.0,
        9845.0,
        9850.0,
        9855.0,
        9860.0,
        9865.0,
        9870.0,
        9875.0,
        9880.0,
        9885.0,
        9890.0,
        9895.0,
        9900.0,
        9905.0,
        9910.0,
        9915.0,
        9920.0,
        9925.0,
        9930.0,
        9935.0,
        9940.0,
        9945.0,
        9950.0,
        9955.0,
        9960.0,
        9965.0,
        9970.0,
        9975.0,
        9980.0,
        9985.0,
        9990.0,
        9995.0,
        10000.0,
        10005.0,
        10010.0,
        10015.0,
        10020.0,
        10025.0,
        10030.0,
        10035.0,
        10040.0,
        10045.0,
        10050.0,
        10055.0,
        10060.0,
        10065.0,
        10070.0,
        10075.0,
        10080.0,
        10085.0,
        10090.0,
        10095.0,
        10100.0,
        10105.0,
        10110.0,
        10115.0,
        10120.0,
        10125.0,
        10130.0,
        10135.0,
        10140.0,
        10145.0,
        10150.0,
        10155.0,
        10160.0,
        10165.0,
        10170.0,
        10175.0,
        10180.0,
        10185.0,
        10190.0,
        10195.0,
        10200.0,
        10205.0,
        10210.0,
        10215.0,
        10220.0,
        10225.0,
        10230.0,
        10235.0,
        10240.0,
        10245.0,
        10250.0,
        10255.0,
        10260.0,
        10265.0,
        10270.0,
        10275.0,
        10280.0,
        10285.0,
        10290.0,
        10295.0,
        10300.0,
        10305.0,
        10310.0,
        10315.0,
        10320.0,
        10325.0,
        10330.0,
        10335.0,
        10340.0,
        10345.0,
        10350.0,
        10355.0,
        10360.0,
        10365.0,
        10370.0,
        10375.0,
        10380.0,
        10385.0,
        10390.0,
        10395.0,
        10400.0,
        10405.0,
        10410.0,
        10415.0,
        10420.0,
        10425.0,
        10430.0,
        10435.0,
        10440.0,
        10445.0,
        10450.0,
        10455.0,
        10460.0,
        10465.0,
        10470.0,
        10475.0,
        10480.0,
        10485.0,
        10490.0,
        10495.0,
        10500.0
      ],
      "units":"angstrom"
    },
    "values":{
      "value":[
        73.4935,
        52.056973,
        40.107903,
        38.053719,
        33.118893,
        28.777067,
        31.390661,
        32.248375,
        25.719637,
        21.616589,
        17.72102,
        9.695179,
        5.745954,
        6.16396,
        12.080103,
        19.185986,
        24.457176,
        29.298016,
        31.457657,
        30.663395,
        29.722422,
        29.280947,
        27.75099,
        27.883957,
        29.480719,
        29.160965,
        29.587063,
        29.411196,
        26.97224,
        23.183989,
        21.063238,
        21.724607,
        25.007467,
        28.309021,
        28.00708,
        25.990555,
        23.72319,
        22.362755,
        24.811134,
        25.928602,
        25.58445,
        24.986406,
        24.467216,
        23.690077,
        23.507584,
        23.137611,
        22.569839,
        21.943096,
        20.535585,
        19.633612,
        20.237179,
        20.654678,
        20.547613,
        20.258307,
        20.551321,
        20.671408,
        20.721645,
        20.73418,
        21.135206,
        21.292837,
        21.394447,
        21.27816,
        21.060345,
        20.869003,
        20.616579,
        20.397402,
        20.40134,
        20.299938,
        20.57622,
        19.938946,
        19.091181,
        18.561932,
        18.038551,
        17.589436,
        18.201942,
        17.636599,
        16.813377,
        16.917498,
        17.23234,
        17.186981,
        17.228636,
        17.070843,
        16.721367,
        16.831522,
        16.953222,
        16.842409,
        16.742388,
        16.931471,
        16.809368,
        16.322369,
        15.809428,
        15.670732,
        15.492072,
        15.779003,
        15.6847,
        15.450562,
        15.325065,
        15.218274,
        15.098079,
        15.32886,
        15.062925,
        14.646425,
        14.607845,
        14.805967,
        14.587255,
        14.891651,
        15.011142,
        14.804092,
        14.513647,
        14.393522,
        14.197844,
        13.752257,
        13.426402,
        13.180688,
        12.771022,
        12.995604,
        13.57705,
        13.675479,
        13.42698,
        13.355306,
        13.376396,
        13.453515,
        13.212234,
        13.300427,
        13.207828,
        12.884406,
        13.064225,
        12.39782,
        11.295619,
        12.484447,
        12.926625,
        12.877028,
        12.846282,
        12.639359,
        12.581686,
        12.578995,
        12.401571,
        12.074924,
        11.677075,
        11.367785,
        11.091774,
        10.868664,
        11.034284,
        11.296078,
        11.637557,
        11.564006,
        11.088074,
        10.603195,
        10.312652,
        10.32234,
        10.473283,
        10.322605,
        10.058705,
        9.841105,
        9.711845,
        9.716064,
        9.885206,
        10.026383,
        10.017025,
        10.094479,
        9.86134,
        9.499817,
        9.088276,
        9.094008,
        9.366223,
        9.61419,
        9.833552,
        9.850756,
        9.147198,
        8.769544,
        8.84793,
        8.976512,
        9.030476,
        9.138763,
        9.214747,
        9.341574,
        9.378438,
        9.175292,
        9.093633,
        8.790895,
        8.968829,
        8.820972,
        8.416173,
        8.552556,
        9.001864,
        9.185249,
        9.005774,
        8.89813,
        9.026948,
        8.620667,
        8.415735,
        8.551138,
        8.528068,
        8.664607,
        8.436861,
        8.406786,
        8.474295,
        8.263382,
        8.222071,
        8.278399,
        8.045949,
        8.101456,
        8.27502,
        8.146863,
        7.931754,
        7.675393,
        7.666683,
        7.874801,
        7.836823,
        7.813819,
        7.799505,
        7.61516,
        7.340442,
        7.082657,
        7.119599,
        7.003537,
        6.879211,
        6.816163,
        6.833563,
        6.810544,
        7.106459,
        7.070928,
        6.906289,
        6.894146,
        6.907609,
        6.873181,
        6.867875,
        6.863197,
        6.957437,
        6.849367,
        6.637064,
        6.450411,
        6.866865,
        6.916873,
        6.607712,
        6.393002,
        6.366454,
        6.461786,
        6.335679,
        6.208396,
        6.356216,
        6.417956,
        6.420489,
        6.324545,
        6.39133,
        6.327062,
        6.113898,
        6.062019,
        5.853863,
        5.99822,
        6.047224,
        5.941816,
        5.834746,
        5.886011,
        5.880982,
        5.87265,
        5.971228,
        5.948529,
        5.886805,
        5.89767,
        5.964781,
        6.137732,
        6.140841,
        6.029321,
        5.859599,
        5.731822,
        5.752573,
        5.742595,
        5.716381,
        5.619045,
        5.774584,
        5.722672,
        5.708639,
        5.62904,
        5.658534,
        5.58337,
        5.643823,
        5.66345,
        5.517419,
        5.451471,
        5.465988,
        5.368155,
        5.513126,
        5.53891,
        5.397697,
        5.363949,
        4.895626,
        4.880027,
        5.264149,
        5.41261,
        5.520313,
        5.318967,
        5.33684,
        5.42765,
        5.370316,
        5.444432,
        5.294271,
        5.291219,
        5.299521,
        5.313751,
        5.289651,
        5.247368,
        5.178174,
        5.021075,
        5.000759,
        5.080135,
        5.122729,
        5.100965,
        5.048073,
        4.841952,
        4.720706,
        4.894629,
        4.945157,
        4.805868,
        4.748075,
        4.663761,
        4.702555,
        4.774931,
        4.747327,
        4.618148,
        4.666606,
        4.624969,
        4.621388,
        4.772823,
        4.595603,
        4.611989,
        4.654745,
        4.552776,
        4.509508,
        4.566204,
        4.401586,
        4.363791,
        4.454272,
        4.53947,
        4.545746,
        4.428907,
        4.251487,
        4.213688,
        4.387358,
        4.395038,
        4.443414,
        4.314068,
        4.346256,
        4.384715,
        4.38876,
        4.341649,
        4.34443,
        4.404702,
        4.364393,
        4.428099,
        4.351735,
        4.266114,
        4.303893,
        4.334833,
        4.281896,
        4.231071,
        4.199085,
        4.182442,
        4.176818,
        4.175901,
        4.077354,
        4.192864,
        4.273727,
        4.161897,
        4.129616,
        4.178843,
        4.153203,
        4.077954,
        3.974545,
        3.905742,
        3.956516,
        3.982907,
        3.963912,
        3.880053,
        3.865638,
        3.894362,
        3.823115,
        3.792896,
        3.814362,
        3.810411,
        3.783811,
        3.823944,
        3.661724,
        3.623108,
        3.645772,
        3.616172,
        3.725528,
        3.771389,
        3.756975,
        3.775247,
        3.643733,
        3.628192,
        3.653302,
        3.685449,
        3.743898,
        3.77472,
        3.721758,
        3.691823,
        3.707745,
        3.713259,
        3.851987,
        3.821174,
        3.543354,
        3.459764,
        3.489033,
        3.525613,
        3.528223,
        3.518119,
        3.54145,
        3.617182,
        3.559664,
        3.586546,
        3.570199,
        3.521537,
        3.474725,
        3.460381,
        3.471681,
        3.490854,
        3.493783,
        3.46526,
        3.43207,
        3.421185,
        3.418353,
        3.400449,
        3.350098,
        3.266796,
        3.211754,
        3.234024,
        3.272294,
        3.260417,
        3.223271,
        3.200132,
        3.196829,
        3.20826,
        3.219054,
        3.215755,
        3.202874,
        3.187368,
        3.168046,
        3.145523,
        3.135809,
        3.148282,
        3.150411,
        3.114419,
        3.07347,
        3.063184,
        3.068086,
        3.06463,
        3.048087,
        3.022504,
        3.00822,
        3.018951,
        3.025638,
        3.001834,
        2.974339,
        2.970523,
        2.966797,
        2.939104,
        2.912483,
        2.912286,
        2.916022,
        2.900131,
        2.884606,
        2.889383,
        2.890605,
        2.864868,
        2.834363,
        2.823527,
        2.820174,
        2.806724,
        2.780643,
        2.746334,
        2.736266,
        2.736048,
        2.746903,
        2.759,
        2.730653,
        2.71958,
        2.713162,
        2.713468,
        2.698697,
        2.687329,
        2.676552,
        2.660841,
        2.632478,
        2.619043,
        2.582984,
        2.565006,
        2.551552,
        2.556665,
        2.563362,
        2.563361,
        2.49003,
        2.503907,
        2.49417,
        2.552752,
        2.547717,
        2.518447,
        2.55476,
        2.549387,
        2.489963,
        2.478839,
        2.47729,
        2.465636,
        2.422749,
        2.464737,
        2.486899,
        2.449574,
        2.412822,
        2.430993,
        2.429179,
        2.408517,
        2.426377,
        2.451469,
        2.409457,
        2.452132,
        2.492712,
        2.359264,
        2.634647,
        2.609802,
        2.293136,
        2.608634,
        2.954125,
        2.762844,
        2.296398,
        2.576893,
        3.170585,
        3.351454,
        3.035541,
        2.443274,
        2.378041,
        3.013901,
        3.443532,
        3.432026,
        3.227279,
        3.188194,
        2.702127,
        2.227773,
        2.635837,
        3.207731,
        3.473169,
        3.544153,
        3.543777,
        3.470426,
        3.370861,
        3.273494,
        2.969469,
        2.360652,
        2.127159,
        2.70031,
        3.203598,
        3.394311,
        3.464101,
        3.453123,
        3.360442,
        3.285361,
        3.238145,
        3.28861,
        3.390767,
        3.350771,
        3.269003,
        3.119823,
        2.825186,
        2.282819,
        1.925824,
        2.358512,
        2.835714,
        3.054482,
        3.14348,
        3.156434,
        3.1467,
        3.034484,
        2.967404,
        3.012992,
        2.922886,
        2.724925,
        2.853624,
        3.015009,
        3.030313,
        3.041512,
        3.021606,
        3.008871,
        3.004046,
        2.952215,
        2.91778,
        2.924573,
        2.88831,
        2.817917,
        2.667233,
        2.262539,
        1.794532,
        1.913638,
        2.364995,
        2.60553,
        2.668295,
        2.715167,
        2.737748,
        2.733899,
        2.644686,
        2.597587,
        2.694438,
        2.738288,
        2.737101,
        2.717587,
        2.686424,
        2.683566,
        2.683127,
        2.648388,
        2.633761,
        2.633898,
        2.621143,
        2.605884,
        2.604672,
        2.594669,
        2.573302,
        2.553482,
        2.550446,
        2.531052,
        2.53634,
        2.535518,
        2.51144,
        2.481486,
        2.458851,
        2.43702,
        2.426771,
        2.439618,
        2.450742,
        2.439488,
        2.422938,
        2.434139,
        2.430593,
        2.409024,
        2.375741,
        2.350765,
        2.319305,
        2.255063,
        2.076256,
        1.770826,
        1.479347,
        1.63899,
        1.967291,
        2.1679,
        2.261876,
        2.27158,
        2.280192,
        2.28873,
        2.251333,
        2.125321,
        2.111439,
        2.217393,
        2.239258,
        2.225871,
        2.210438,
        2.204139,
        2.175623,
        2.147827,
        2.109094,
        2.074316,
        2.099449,
        2.144129,
        2.149401,
        2.147334,
        2.115809,
        2.033346,
        1.897902,
        1.94795,
        2.020987,
        2.059874,
        2.091089,
        2.087947,
        2.074076,
        2.071098,
        2.060829,
        2.049373,
        2.047136,
        2.04197,
        2.030078,
        2.025507,
        2.001442,
        1.976805,
        1.971684,
        1.987447,
        1.993515,
        1.979813,
        1.961082,
        1.955474,
        1.966684,
        1.950413,
        1.93149,
        1.932144,
        1.927761,
        1.906346,
        1.913828,
        1.918373,
        1.905428,
        1.894777,
        1.870108,
        1.858903,
        1.855171,
        1.871877,
        1.870811,
        1.87866,
        1.864412,
        1.858785,
        1.861371,
        1.843665,
        1.833958,
        1.824789,
        1.828571,
        1.813454,
        1.804382,
        1.798553,
        1.760133,
        1.735192,
        1.747421,
        1.735389,
        1.727139,
        1.734609,
        1.732414,
        1.732915,
        1.732578,
        1.728628,
        1.723038,
        1.711231,
        1.702406,
        1.682609,
        1.670071,
        1.678452,
        1.68123,
        1.680904,
        1.669282,
        1.668846,
        1.660379,
        1.639604,
        1.634323,
        1.640452,
        1.636099,
        1.625604,
        1.597924,
        1.536246,
        1.424078,
        1.238995,
        1.066785,
        1.151652,
        1.347618,
        1.458268,
        1.510443,
        1.532185,
        1.538888,
        1.540676,
        1.548709,
        1.569455,
        1.56698,
        1.536737,
        1.466047,
        1.471794,
        1.554449,
        1.569869,
        1.548462,
        1.545867,
        1.543961,
        1.531182,
        1.528717,
        1.515951,
        1.501948,
        1.484763,
        1.489499,
        1.489218,
        1.504398,
        1.488778,
        1.486923,
        1.471899,
        1.444148,
        1.405277,
        1.405767,
        1.419643,
        1.420329,
        1.419791,
        1.437171,
        1.424876,
        1.407022,
        1.395612,
        1.396487,
        1.391101,
        1.392288,
        1.395216,
        1.396058,
        1.390684,
        1.37988,
        1.376962,
        1.374942,
        1.361301,
        1.354001,
        1.356383,
        1.362004,
        1.3637,
        1.349971,
        1.344213,
        1.341309,
        1.331441,
        1.326942,
        1.311358,
        1.313003,
        1.307966,
        1.304504,
        1.306725,
        1.295598,
        1.287195,
        1.291426,
        1.294675,
        1.293521,
        1.292505,
        1.283633,
        1.279056,
        1.269233,
        1.259441,
        1.254744,
        1.252312,
        1.246105,
        1.238572,
        1.228668,
        1.220913,
        1.221686,
        1.208658,
        1.205649,
        1.205527,
        1.205937,
        1.203365,
        1.198255,
        1.200599,
        1.188826,
        1.186511,
        1.194746,
        1.179391,
        1.167138,
        1.168741,
        1.159947,
        1.150422,
        1.145648,
        1.140727,
        1.145635,
        1.146133,
        1.144218,
        1.13676,
        1.132946,
        1.128643,
        1.132565,
        1.120603,
        1.110027,
        1.114362,
        1.10979,
        1.110378,
        1.108641,
        1.099823,
        1.094454,
        1.102483,
        1.093995,
        1.082653,
        1.080178,
        1.074416,
        1.077803,
        1.065251,
        1.067909,
        1.066195,
        1.062812,
        1.059494,
        1.052085,
        1.046761,
        1.032729,
        1.043428,
        1.05015,
        1.032965,
        1.022005,
        1.024724,
        1.018377,
        1.014406,
        1.01308,
        1.00239,
        0.995045,
        1.006383,
        1.008754,
        0.993917,
        0.998041,
        0.99907,
        0.991563,
        0.991893,
        0.983871,
        0.980972,
        0.986314,
        0.987916,
        0.981487,
        0.968937,
        0.964954,
        0.956628,
        0.95368,
        0.955671,
        0.94455,
        0.940623,
        0.947682,
        0.947879,
        0.939779,
        0.933294,
        0.930475,
        0.926482,
        0.917957,
        0.920472,
        0.921666,
        0.911209,
        0.924183,
        0.923685,
        0.905429,
        0.896557,
        0.897343,
        0.895515,
        0.883214,
        0.881655,
        0.883066,
        0.880092,
        0.867077,
        0.867172,
        0.870628,
        0.872672,
        0.865374,
        0.860956,
        0.862235,
        0.853292,
        0.833259,
        0.839872,
        0.850104,
        0.844438,
        0.843417,
        0.852191,
        0.851679,
        0.840175,
        0.840436,
        0.842067,
        0.840272,
        0.83711,
        0.838904,
        0.837348,
        0.833486,
        0.832909,
        0.83779,
        0.835951,
        0.816095,
        0.773741,
        0.793371,
        0.799984,
        0.773859,
        0.769205,
        0.789478,
        0.812453,
        0.818899,
        0.810845,
        0.803162,
        0.794598,
        0.781695,
        0.777045,
        0.783534,
        0.781186,
        0.777545,
        0.775734,
        0.773036,
        0.77454,
        0.765983,
        0.761045,
        0.757397,
        0.760515,
        0.757142,
        0.756342,
        0.760994,
        0.771847,
        0.767233,
        0.770452,
        0.761025,
        0.754031,
        0.749663,
        0.745953,
        0.74828,
        0.73575,
        0.736439,
        0.735525,
        0.736178,
        0.735287,
        0.738203,
        0.73294,
        0.728241,
        0.730172,
        0.728733,
        0.724074,
        0.71825,
        0.715617,
        0.716259,
        0.712857,
        0.716132,
        0.713218,
        0.712779,
        0.708209,
        0.704858,
        0.702954,
        0.702256,
        0.698737,
        0.69646,
        0.694869,
        0.6955,
        0.690182,
        0.686378,
        0.687543,
        0.687613,
        0.688787,
        0.685869,
        0.683968,
        0.680965,
        0.678379,
        0.677085,
        0.671795,
        0.674369,
        0.678849,
        0.675121,
        0.672218,
        0.673642,
        0.667591,
        0.662452,
        0.662623,
        0.655101,
        0.641127,
        0.631305,
        0.636707,
        0.643875,
        0.641291,
        0.643233,
        0.641256,
        0.641738,
        0.639663,
        0.636857,
        0.641107,
        0.639413,
        0.633958,
        0.627401,
        0.619612,
        0.622327,
        0.627038,
        0.622534,
        0.623127,
        0.617887,
        0.618173,
        0.614131,
        0.616066,
        0.617469,
        0.617374,
        0.609454,
        0.613481,
        0.615681,
        0.614688,
        0.610809,
        0.611239,
        0.609393,
        0.607449,
        0.606186,
        0.60135,
        0.599325,
        0.599565,
        0.598271,
        0.59382,
        0.592434,
        0.590417,
        0.586728,
        0.585607,
        0.581265,
        0.581291,
        0.586006,
        0.588291,
        0.585224,
        0.584624,
        0.583727,
        0.579526,
        0.577485,
        0.567788,
        0.564234,
        0.547138,
        0.522812,
        0.490172,
        0.430326,
        0.422269,
        0.480745,
        0.520248,
        0.533004,
        0.545219,
        0.555162,
        0.554704,
        0.559251,
        0.558955,
        0.557072,
        0.55297,
        0.553148,
        0.555259,
        0.552236,
        0.547379,
        0.544695,
        0.546655,
        0.547503,
        0.544349,
        0.541012,
        0.536744,
        0.53399,
        0.509858,
        0.512364,
        0.524611,
        0.529101,
        0.527796,
        0.529976,
        0.528497,
        0.528241,
        0.521915,
        0.515813,
        0.512941,
        0.518072,
        0.516786,
        0.517709,
        0.515287,
        0.514103,
        0.512407,
        0.512412,
        0.513336,
        0.509831,
        0.506538,
        0.505062,
        0.505816,
        0.504718,
        0.502919,
        0.497464,
        0.501485,
        0.500203,
        0.498915,
        0.493959,
        0.494223,
        0.496562,
        0.492182,
        0.493623,
        0.492259,
        0.491267,
        0.489991,
        0.487925,
        0.485021,
        0.485552,
        0.485074,
        0.483894,
        0.481796,
        0.481135,
        0.479758,
        0.479352,
        0.478465,
        0.477271,
        0.476196,
        0.474731,
        0.473541,
        0.473042,
        0.472448,
        0.471344,
        0.470445,
        0.469948,
        0.469027,
        0.467921,
        0.466559,
        0.465648,
        0.467918,
        0.472465,
        0.463655,
        0.461208,
        0.460341,
        0.455312,
        0.453803,
        0.452516,
        0.457215,
        0.455831,
        0.458729,
        0.4589,
        0.450369,
        0.446921,
        0.448439,
        0.449911,
        0.448625,
        0.440474,
        0.43829,
        0.445473,
        0.443204,
        0.440242,
        0.44406,
        0.446347,
        0.437114,
        0.433552,
        0.445598,
        0.433876,
        0.434221,
        0.438107,
        0.44372,
        0.443771,
        0.445586,
        0.444532,
        0.438201,
        0.435,
        0.437418,
        0.436289,
        0.426406,
        0.422197,
        0.418547,
        0.408243,
        0.403428,
        0.4084,
        0.408262,
        0.405184,
        0.412386,
        0.428664,
        0.432666,
        0.432668,
        0.42647,
        0.420452,
        0.408242,
        0.411563,
        0.413287,
        0.409456,
        0.410904,
        0.420781,
        0.408146,
        0.406263,
        0.398778,
        0.404155,
        0.405719,
        0.398056,
        0.406509,
        0.401019,
        0.39707,
        0.396559,
        0.399072,
        0.403348,
        0.407229,
        0.401945,
        0.388393,
        0.400011,
        0.395586,
        0.396394,
        0.397259,
        0.395057,
        0.390581,
        0.388475,
        0.387922,
        0.386397,
        0.38567,
        0.385315,
        0.386346,
        0.383797,
        0.379608,
        0.374922,
        0.375602,
        0.379501,
        0.38262,
        0.381241,
        0.382529,
        0.381067,
        0.384492,
        0.379338,
        0.376654,
        0.377731,
        0.37577,
        0.374384,
        0.372718,
        0.371187,
        0.370657,
        0.377147,
        0.36832,
        0.366531,
        0.367597,
        0.366207,
        0.365727,
        0.362884,
        0.360904,
        0.362551,
        0.360243,
        0.363402,
        0.360293,
        0.362257,
        0.361165,
        0.360125,
        0.359022,
        0.357881,
        0.356777,
        0.355515,
        0.354225,
        0.353587,
        0.352964,
        0.351137,
        0.349622,
        0.348457,
        0.348262,
        0.348093,
        0.347264,
        0.346389,
        0.345923,
        0.345131,
        0.344272,
        0.343546,
        0.34297,
        0.342512,
        0.341976,
        0.341416,
        0.340661,
        0.339796,
        0.339232,
        0.338912,
        0.338417,
        0.337756,
        0.337153,
        0.336088,
        0.334998,
        0.334677,
        0.334099,
        0.332825,
        0.333519,
        0.331926,
        0.330531,
        0.322426,
        0.32591,
        0.327478,
        0.329231,
        0.318135,
        0.315646,
        0.322182,
        0.326168,
        0.327078,
        0.317788,
        0.315986,
        0.320234,
        0.31919,
        0.319642,
        0.316705,
        0.318036,
        0.318873,
        0.315212,
        0.313137,
        0.312505,
        0.31284,
        0.311005,
        0.311076,
        0.308713,
        0.309013,
        0.315816,
        0.310002,
        0.307973,
        0.304912,
        0.305287,
        0.30553,
        0.301617,
        0.302317,
        0.305267,
        0.305969,
        0.302969,
        0.306104,
        0.30643,
        0.304581,
        0.304598,
        0.299811,
        0.294422,
        0.301323,
        0.301173,
        0.302154,
        0.299642,
        0.298672,
        0.299736,
        0.298736,
        0.299472,
        0.298986,
        0.299383,
        0.294634,
        0.295492,
        0.29432,
        0.294462,
        0.28699,
        0.290492,
        0.296701,
        0.294373,
        0.295187,
        0.295057,
        0.298185,
        0.29648,
        0.292406,
        0.293034,
        0.289584,
        0.29242,
        0.288709,
        0.286013,
        0.285073,
        0.289499,
        0.294851,
        0.288656,
        0.28797,
        0.285189,
        0.283588,
        0.28313,
        0.277654,
        0.278952,
        0.276451,
        0.274542,
        0.273845,
        0.272154,
        0.273223,
        0.274495,
        0.274168,
        0.269319,
        0.276379,
        0.275212,
        0.277587,
        0.27911,
        0.278383,
        0.277908,
        0.27257,
        0.263999,
        0.259412,
        0.266717,
        0.269413,
        0.264813,
        0.27032,
        0.266529,
        0.269761,
        0.271618,
        0.262068,
        0.263244,
        0.260981,
        0.262498,
        0.261924,
        0.261752,
        0.261415,
        0.26008,
        0.261227,
        0.260451,
        0.258509,
        0.26103,
        0.256798,
        0.256304,
        0.263387,
        0.256296,
        0.254252,
        0.254138,
        0.25277,
        0.253723,
        0.248612,
        0.250917,
        0.253412,
        0.252673,
        0.250899,
        0.25312,
        0.251436,
        0.252141,
        0.248915,
        0.246376,
        0.242296,
        0.251916,
        0.248416,
        0.248091,
        0.246568,
        0.242292,
        0.246351,
        0.243698,
        0.241597,
        0.238432,
        0.239992,
        0.238998,
        0.238084,
        0.238993,
        0.239286,
        0.241561,
        0.238264,
        0.236713,
        0.234847,
        0.235215,
        0.238283,
        0.237043,
        0.233542,
        0.233722,
        0.232103,
        0.229031,
        0.230483,
        0.232064,
        0.231998,
        0.233379,
        0.233651,
        0.227294,
        0.234074,
        0.227886,
        0.227188,
        0.224087,
        0.222559,
        0.227208,
        0.230154,
        0.23507,
        0.236227,
        0.239369,
        0.237422,
        0.236475,
        0.233424,
        0.228594,
        0.218159,
        0.213583,
        0.215413,
        0.212849,
        0.214448,
        0.220863,
        0.229091,
        0.234328,
        0.233876,
        0.235826,
        0.238199,
        0.239406,
        0.235466,
        0.233963,
        0.232643,
        0.230157,
        0.23185,
        0.218923,
        0.208724,
        0.204079,
        0.201552,
        0.202802,
        0.208858,
        0.215692,
        0.221574,
        0.222623,
        0.22417,
        0.228201,
        0.230648,
        0.230543,
        0.232341,
        0.23333,
        0.230254,
        0.228548,
        0.225158,
        0.22348,
        0.218246,
        0.214359,
        0.21166,
        0.204615,
        0.200441,
        0.192587,
        0.185902,
        0.18742,
        0.194366,
        0.203492,
        0.206923,
        0.215641,
        0.218344,
        0.219594,
        0.22072,
        0.223903,
        0.224064,
        0.222493,
        0.219018,
        0.221864,
        0.217642,
        0.217083,
        0.214477,
        0.216522,
        0.206848,
        0.207084,
        0.213376,
        0.220024,
        0.205696,
        0.20701,
        0.204112,
        0.193037,
        0.180924,
        0.178147,
        0.177536,
        0.173631,
        0.1742,
        0.173121,
        0.182274,
        0.1819,
        0.204978,
        0.211696,
        0.210951,
        0.209446,
        0.21944,
        0.211626,
        0.208242,
        0.202108,
        0.200375,
        0.198644,
        0.195135,
        0.19378,
        0.195177,
        0.19499,
        0.196636,
        0.197645,
        0.198899,
        0.201653,
        0.206314,
        0.189625,
        0.192266,
        0.190817,
        0.192814,
        0.192545,
        0.185835,
        0.188283,
        0.189326,
        0.194063,
        0.189431,
        0.19117,
        0.190922,
        0.196329,
        0.197935,
        0.185684,
        0.196663,
        0.192927,
        0.180242,
        0.174094,
        0.168751,
        0.162184,
        0.160145,
        0.16915,
        0.175241,
        0.180573,
        0.181754,
        0.187595,
        0.192192,
        0.19087,
        0.189622,
        0.186065,
        0.198085,
        0.192997,
        0.204988,
        0.196395,
        0.181119,
        0.196537,
        0.188839,
        0.160993,
        0.162347,
        0.168994,
        0.175214,
        0.154459,
        0.165107,
        0.174203,
        0.180985,
        0.178214,
        0.157984,
        0.170567,
        0.150031,
        0.162281,
        0.182677,
        0.177188,
        0.191807,
        0.204035,
        0.206532,
        0.191212,
        0.192607,
        0.194238,
        0.171565,
        0.157012,
        0.194853,
        0.174933,
        0.145829,
        0.164712,
        0.176415,
        0.162173,
        0.141305,
        0.171968,
        0.178113,
        0.169985,
        0.168842,
        0.187101,
        0.163003,
        0.163462,
        0.165511,
        0.173421,
        0.141231,
        0.16514,
        0.164984,
        0.156451,
        0.148526,
        0.158358,
        0.156609,
        0.13281,
        0.147094,
        0.152249,
        0.151758,
        0.156744,
        0.167006,
        0.168516,
        0.158505,
        0.173849,
        0.173162,
        0.149169,
        0.16992,
        0.160782,
        0.166145,
        0.1491,
        0.159499,
        0.159671,
        0.157275,
        0.161394,
        0.15438,
        0.166048,
        0.157276,
        0.156564,
        0.158929,
        0.147593,
        0.164602,
        0.171518,
        0.163786,
        0.156661,
        0.160655,
        0.172508,
        0.157111,
        0.157334,
        0.157888,
        0.158499,
        0.158889,
        0.158855,
        0.158477,
        0.157909,
        0.157304,
        0.15679,
        0.156401,
        0.156143,
        0.156027,
        0.156052,
        0.156194,
        0.156419,
        0.156695,
        0.15697,
        0.157131,
        0.157044,
        0.156579,
        0.155666,
        0.154481,
        0.153265,
        0.152257,
        0.151634,
        0.151322,
        0.151186,
        0.151089,
        0.15093,
        0.150738,
        0.150579,
        0.150516,
        0.150578,
        0.150652,
        0.150589,
        0.150241,
        0.149516,
        0.148559,
        0.147574,
        0.146762,
        0.14628,
        0.146104,
        0.146159,
        0.146374,
        0.14667,
        0.146944,
        0.147088,
        0.146992,
        0.146591,
        0.145996,
        0.145361,
        0.144841,
        0.144549,
        0.144436,
        0.14441,
        0.144382,
        0.144276,
        0.144083,
        0.14381,
        0.143464,
        0.142991,
        0.142096,
        0.140425,
        0.137622,
        0.133549,
        0.12893,
        0.124707,
        0.121821,
        0.120979,
        0.121955,
        0.124289,
        0.127521,
        0.131174,
        0.134705,
        0.137556,
        0.139167,
        0.139182,
        0.138057,
        0.136452,
        0.135025,
        0.134278,
        0.134072,
        0.134111,
        0.134099,
        0.133811,
        0.133312,
        0.132739,
        0.132229,
        0.131878,
        0.131608,
        0.131302,
        0.130841,
        0.130171,
        0.129489,
        0.129054,
        0.129129,
        0.12985,
        0.130857,
        0.131665,
        0.13179,
        0.130939,
        0.129582,
        0.128378,
        0.127988,
        0.128849,
        0.130498,
        0.132251,
        0.133423,
        0.133502,
        0.132685,
        0.13134,
        0.129838,
        0.128489,
        0.127367,
        0.126483,
        0.125852,
        0.125466,
        0.125236,
        0.125054,
        0.124808,
        0.12451,
        0.124223,
        0.124014,
        0.123965,
        0.12412,
        0.12436,
        0.124526,
        0.124462,
        0.124061,
        0.123433,
        0.122738,
        0.122138,
        0.121757,
        0.121576,
        0.121541,
        0.121596,
        0.121681,
        0.121716,
        0.121618,
        0.121302,
        0.120726,
        0.12002,
        0.119358,
        0.118912,
        0.1188,
        0.118916,
        0.1191,
        0.119191,
        0.119074,
        0.118819,
        0.118541,
        0.118355,
        0.118339,
        0.118412,
        0.118452,
        0.11834,
        0.118,
        0.117526,
        0.117057,
        0.116731
      ],
      "range":1
    }
  }
]
