[
  {
    "model":"Star, type A5(iii)",
    "name":"Star, type A5(iii)",
    "type":"WB_REF",
    "dataQualityMarker":3,
    "dataSource":"https://www.eso.org/sci/facilities/paranal/decommissioned/isaac/tools/lib.html",
    "manufacturer":"A. Pickles (A.J. Pickles, PASP 110,863, 1998)",
    "version":1,
    "wavelength":{
      "value":[
        1150.0,
        1155.0,
        1160.0,
        1165.0,
        1170.0,
        1175.0,
        1180.0,
        1185.0,
        1190.0,
        1195.0,
        1200.0,
        1205.0,
        1210.0,
        1215.0,
        1220.0,
        1225.0,
        1230.0,
        1235.0,
        1240.0,
        1245.0,
        1250.0,
        1255.0,
        1260.0,
        1265.0,
        1270.0,
        1275.0,
        1280.0,
        1285.0,
        1290.0,
        1295.0,
        1300.0,
        1305.0,
        1310.0,
        1315.0,
        1320.0,
        1325.0,
        1330.0,
        1335.0,
        1340.0,
        1345.0,
        1350.0,
        1355.0,
        1360.0,
        1365.0,
        1370.0,
        1375.0,
        1380.0,
        1385.0,
        1390.0,
        1395.0,
        1400.0,
        1405.0,
        1410.0,
        1415.0,
        1420.0,
        1425.0,
        1430.0,
        1435.0,
        1440.0,
        1445.0,
        1450.0,
        1455.0,
        1460.0,
        1465.0,
        1470.0,
        1475.0,
        1480.0,
        1485.0,
        1490.0,
        1495.0,
        1500.0,
        1505.0,
        1510.0,
        1515.0,
        1520.0,
        1525.0,
        1530.0,
        1535.0,
        1540.0,
        1545.0,
        1550.0,
        1555.0,
        1560.0,
        1565.0,
        1570.0,
        1575.0,
        1580.0,
        1585.0,
        1590.0,
        1595.0,
        1600.0,
        1605.0,
        1610.0,
        1615.0,
        1620.0,
        1625.0,
        1630.0,
        1635.0,
        1640.0,
        1645.0,
        1650.0,
        1655.0,
        1660.0,
        1665.0,
        1670.0,
        1675.0,
        1680.0,
        1685.0,
        1690.0,
        1695.0,
        1700.0,
        1705.0,
        1710.0,
        1715.0,
        1720.0,
        1725.0,
        1730.0,
        1735.0,
        1740.0,
        1745.0,
        1750.0,
        1755.0,
        1760.0,
        1765.0,
        1770.0,
        1775.0,
        1780.0,
        1785.0,
        1790.0,
        1795.0,
        1800.0,
        1805.0,
        1810.0,
        1815.0,
        1820.0,
        1825.0,
        1830.0,
        1835.0,
        1840.0,
        1845.0,
        1850.0,
        1855.0,
        1860.0,
        1865.0,
        1870.0,
        1875.0,
        1880.0,
        1885.0,
        1890.0,
        1895.0,
        1900.0,
        1905.0,
        1910.0,
        1915.0,
        1920.0,
        1925.0,
        1930.0,
        1935.0,
        1940.0,
        1945.0,
        1950.0,
        1955.0,
        1960.0,
        1965.0,
        1970.0,
        1975.0,
        1980.0,
        1985.0,
        1990.0,
        1995.0,
        2000.0,
        2005.0,
        2010.0,
        2015.0,
        2020.0,
        2025.0,
        2030.0,
        2035.0,
        2040.0,
        2045.0,
        2050.0,
        2055.0,
        2060.0,
        2065.0,
        2070.0,
        2075.0,
        2080.0,
        2085.0,
        2090.0,
        2095.0,
        2100.0,
        2105.0,
        2110.0,
        2115.0,
        2120.0,
        2125.0,
        2130.0,
        2135.0,
        2140.0,
        2145.0,
        2150.0,
        2155.0,
        2160.0,
        2165.0,
        2170.0,
        2175.0,
        2180.0,
        2185.0,
        2190.0,
        2195.0,
        2200.0,
        2205.0,
        2210.0,
        2215.0,
        2220.0,
        2225.0,
        2230.0,
        2235.0,
        2240.0,
        2245.0,
        2250.0,
        2255.0,
        2260.0,
        2265.0,
        2270.0,
        2275.0,
        2280.0,
        2285.0,
        2290.0,
        2295.0,
        2300.0,
        2305.0,
        2310.0,
        2315.0,
        2320.0,
        2325.0,
        2330.0,
        2335.0,
        2340.0,
        2345.0,
        2350.0,
        2355.0,
        2360.0,
        2365.0,
        2370.0,
        2375.0,
        2380.0,
        2385.0,
        2390.0,
        2395.0,
        2400.0,
        2405.0,
        2410.0,
        2415.0,
        2420.0,
        2425.0,
        2430.0,
        2435.0,
        2440.0,
        2445.0,
        2450.0,
        2455.0,
        2460.0,
        2465.0,
        2470.0,
        2475.0,
        2480.0,
        2485.0,
        2490.0,
        2495.0,
        2500.0,
        2505.0,
        2510.0,
        2515.0,
        2520.0,
        2525.0,
        2530.0,
        2535.0,
        2540.0,
        2545.0,
        2550.0,
        2555.0,
        2560.0,
        2565.0,
        2570.0,
        2575.0,
        2580.0,
        2585.0,
        2590.0,
        2595.0,
        2600.0,
        2605.0,
        2610.0,
        2615.0,
        2620.0,
        2625.0,
        2630.0,
        2635.0,
        2640.0,
        2645.0,
        2650.0,
        2655.0,
        2660.0,
        2665.0,
        2670.0,
        2675.0,
        2680.0,
        2685.0,
        2690.0,
        2695.0,
        2700.0,
        2705.0,
        2710.0,
        2715.0,
        2720.0,
        2725.0,
        2730.0,
        2735.0,
        2740.0,
        2745.0,
        2750.0,
        2755.0,
        2760.0,
        2765.0,
        2770.0,
        2775.0,
        2780.0,
        2785.0,
        2790.0,
        2795.0,
        2800.0,
        2805.0,
        2810.0,
        2815.0,
        2820.0,
        2825.0,
        2830.0,
        2835.0,
        2840.0,
        2845.0,
        2850.0,
        2855.0,
        2860.0,
        2865.0,
        2870.0,
        2875.0,
        2880.0,
        2885.0,
        2890.0,
        2895.0,
        2900.0,
        2905.0,
        2910.0,
        2915.0,
        2920.0,
        2925.0,
        2930.0,
        2935.0,
        2940.0,
        2945.0,
        2950.0,
        2955.0,
        2960.0,
        2965.0,
        2970.0,
        2975.0,
        2980.0,
        2985.0,
        2990.0,
        2995.0,
        3000.0,
        3005.0,
        3010.0,
        3015.0,
        3020.0,
        3025.0,
        3030.0,
        3035.0,
        3040.0,
        3045.0,
        3050.0,
        3055.0,
        3060.0,
        3065.0,
        3070.0,
        3075.0,
        3080.0,
        3085.0,
        3090.0,
        3095.0,
        3100.0,
        3105.0,
        3110.0,
        3115.0,
        3120.0,
        3125.0,
        3130.0,
        3135.0,
        3140.0,
        3145.0,
        3150.0,
        3155.0,
        3160.0,
        3165.0,
        3170.0,
        3175.0,
        3180.0,
        3185.0,
        3190.0,
        3195.0,
        3200.0,
        3205.0,
        3210.0,
        3215.0,
        3220.0,
        3225.0,
        3230.0,
        3235.0,
        3240.0,
        3245.0,
        3250.0,
        3255.0,
        3260.0,
        3265.0,
        3270.0,
        3275.0,
        3280.0,
        3285.0,
        3290.0,
        3295.0,
        3300.0,
        3305.0,
        3310.0,
        3315.0,
        3320.0,
        3325.0,
        3330.0,
        3335.0,
        3340.0,
        3345.0,
        3350.0,
        3355.0,
        3360.0,
        3365.0,
        3370.0,
        3375.0,
        3380.0,
        3385.0,
        3390.0,
        3395.0,
        3400.0,
        3405.0,
        3410.0,
        3415.0,
        3420.0,
        3425.0,
        3430.0,
        3435.0,
        3440.0,
        3445.0,
        3450.0,
        3455.0,
        3460.0,
        3465.0,
        3470.0,
        3475.0,
        3480.0,
        3485.0,
        3490.0,
        3495.0,
        3500.0,
        3505.0,
        3510.0,
        3515.0,
        3520.0,
        3525.0,
        3530.0,
        3535.0,
        3540.0,
        3545.0,
        3550.0,
        3555.0,
        3560.0,
        3565.0,
        3570.0,
        3575.0,
        3580.0,
        3585.0,
        3590.0,
        3595.0,
        3600.0,
        3605.0,
        3610.0,
        3615.0,
        3620.0,
        3625.0,
        3630.0,
        3635.0,
        3640.0,
        3645.0,
        3650.0,
        3655.0,
        3660.0,
        3665.0,
        3670.0,
        3675.0,
        3680.0,
        3685.0,
        3690.0,
        3695.0,
        3700.0,
        3705.0,
        3710.0,
        3715.0,
        3720.0,
        3725.0,
        3730.0,
        3735.0,
        3740.0,
        3745.0,
        3750.0,
        3755.0,
        3760.0,
        3765.0,
        3770.0,
        3775.0,
        3780.0,
        3785.0,
        3790.0,
        3795.0,
        3800.0,
        3805.0,
        3810.0,
        3815.0,
        3820.0,
        3825.0,
        3830.0,
        3835.0,
        3840.0,
        3845.0,
        3850.0,
        3855.0,
        3860.0,
        3865.0,
        3870.0,
        3875.0,
        3880.0,
        3885.0,
        3890.0,
        3895.0,
        3900.0,
        3905.0,
        3910.0,
        3915.0,
        3920.0,
        3925.0,
        3930.0,
        3935.0,
        3940.0,
        3945.0,
        3950.0,
        3955.0,
        3960.0,
        3965.0,
        3970.0,
        3975.0,
        3980.0,
        3985.0,
        3990.0,
        3995.0,
        4000.0,
        4005.0,
        4010.0,
        4015.0,
        4020.0,
        4025.0,
        4030.0,
        4035.0,
        4040.0,
        4045.0,
        4050.0,
        4055.0,
        4060.0,
        4065.0,
        4070.0,
        4075.0,
        4080.0,
        4085.0,
        4090.0,
        4095.0,
        4100.0,
        4105.0,
        4110.0,
        4115.0,
        4120.0,
        4125.0,
        4130.0,
        4135.0,
        4140.0,
        4145.0,
        4150.0,
        4155.0,
        4160.0,
        4165.0,
        4170.0,
        4175.0,
        4180.0,
        4185.0,
        4190.0,
        4195.0,
        4200.0,
        4205.0,
        4210.0,
        4215.0,
        4220.0,
        4225.0,
        4230.0,
        4235.0,
        4240.0,
        4245.0,
        4250.0,
        4255.0,
        4260.0,
        4265.0,
        4270.0,
        4275.0,
        4280.0,
        4285.0,
        4290.0,
        4295.0,
        4300.0,
        4305.0,
        4310.0,
        4315.0,
        4320.0,
        4325.0,
        4330.0,
        4335.0,
        4340.0,
        4345.0,
        4350.0,
        4355.0,
        4360.0,
        4365.0,
        4370.0,
        4375.0,
        4380.0,
        4385.0,
        4390.0,
        4395.0,
        4400.0,
        4405.0,
        4410.0,
        4415.0,
        4420.0,
        4425.0,
        4430.0,
        4435.0,
        4440.0,
        4445.0,
        4450.0,
        4455.0,
        4460.0,
        4465.0,
        4470.0,
        4475.0,
        4480.0,
        4485.0,
        4490.0,
        4495.0,
        4500.0,
        4505.0,
        4510.0,
        4515.0,
        4520.0,
        4525.0,
        4530.0,
        4535.0,
        4540.0,
        4545.0,
        4550.0,
        4555.0,
        4560.0,
        4565.0,
        4570.0,
        4575.0,
        4580.0,
        4585.0,
        4590.0,
        4595.0,
        4600.0,
        4605.0,
        4610.0,
        4615.0,
        4620.0,
        4625.0,
        4630.0,
        4635.0,
        4640.0,
        4645.0,
        4650.0,
        4655.0,
        4660.0,
        4665.0,
        4670.0,
        4675.0,
        4680.0,
        4685.0,
        4690.0,
        4695.0,
        4700.0,
        4705.0,
        4710.0,
        4715.0,
        4720.0,
        4725.0,
        4730.0,
        4735.0,
        4740.0,
        4745.0,
        4750.0,
        4755.0,
        4760.0,
        4765.0,
        4770.0,
        4775.0,
        4780.0,
        4785.0,
        4790.0,
        4795.0,
        4800.0,
        4805.0,
        4810.0,
        4815.0,
        4820.0,
        4825.0,
        4830.0,
        4835.0,
        4840.0,
        4845.0,
        4850.0,
        4855.0,
        4860.0,
        4865.0,
        4870.0,
        4875.0,
        4880.0,
        4885.0,
        4890.0,
        4895.0,
        4900.0,
        4905.0,
        4910.0,
        4915.0,
        4920.0,
        4925.0,
        4930.0,
        4935.0,
        4940.0,
        4945.0,
        4950.0,
        4955.0,
        4960.0,
        4965.0,
        4970.0,
        4975.0,
        4980.0,
        4985.0,
        4990.0,
        4995.0,
        5000.0,
        5005.0,
        5010.0,
        5015.0,
        5020.0,
        5025.0,
        5030.0,
        5035.0,
        5040.0,
        5045.0,
        5050.0,
        5055.0,
        5060.0,
        5065.0,
        5070.0,
        5075.0,
        5080.0,
        5085.0,
        5090.0,
        5095.0,
        5100.0,
        5105.0,
        5110.0,
        5115.0,
        5120.0,
        5125.0,
        5130.0,
        5135.0,
        5140.0,
        5145.0,
        5150.0,
        5155.0,
        5160.0,
        5165.0,
        5170.0,
        5175.0,
        5180.0,
        5185.0,
        5190.0,
        5195.0,
        5200.0,
        5205.0,
        5210.0,
        5215.0,
        5220.0,
        5225.0,
        5230.0,
        5235.0,
        5240.0,
        5245.0,
        5250.0,
        5255.0,
        5260.0,
        5265.0,
        5270.0,
        5275.0,
        5280.0,
        5285.0,
        5290.0,
        5295.0,
        5300.0,
        5305.0,
        5310.0,
        5315.0,
        5320.0,
        5325.0,
        5330.0,
        5335.0,
        5340.0,
        5345.0,
        5350.0,
        5355.0,
        5360.0,
        5365.0,
        5370.0,
        5375.0,
        5380.0,
        5385.0,
        5390.0,
        5395.0,
        5400.0,
        5405.0,
        5410.0,
        5415.0,
        5420.0,
        5425.0,
        5430.0,
        5435.0,
        5440.0,
        5445.0,
        5450.0,
        5455.0,
        5460.0,
        5465.0,
        5470.0,
        5475.0,
        5480.0,
        5485.0,
        5490.0,
        5495.0,
        5500.0,
        5505.0,
        5510.0,
        5515.0,
        5520.0,
        5525.0,
        5530.0,
        5535.0,
        5540.0,
        5545.0,
        5550.0,
        5555.0,
        5560.0,
        5565.0,
        5570.0,
        5575.0,
        5580.0,
        5585.0,
        5590.0,
        5595.0,
        5600.0,
        5605.0,
        5610.0,
        5615.0,
        5620.0,
        5625.0,
        5630.0,
        5635.0,
        5640.0,
        5645.0,
        5650.0,
        5655.0,
        5660.0,
        5665.0,
        5670.0,
        5675.0,
        5680.0,
        5685.0,
        5690.0,
        5695.0,
        5700.0,
        5705.0,
        5710.0,
        5715.0,
        5720.0,
        5725.0,
        5730.0,
        5735.0,
        5740.0,
        5745.0,
        5750.0,
        5755.0,
        5760.0,
        5765.0,
        5770.0,
        5775.0,
        5780.0,
        5785.0,
        5790.0,
        5795.0,
        5800.0,
        5805.0,
        5810.0,
        5815.0,
        5820.0,
        5825.0,
        5830.0,
        5835.0,
        5840.0,
        5845.0,
        5850.0,
        5855.0,
        5860.0,
        5865.0,
        5870.0,
        5875.0,
        5880.0,
        5885.0,
        5890.0,
        5895.0,
        5900.0,
        5905.0,
        5910.0,
        5915.0,
        5920.0,
        5925.0,
        5930.0,
        5935.0,
        5940.0,
        5945.0,
        5950.0,
        5955.0,
        5960.0,
        5965.0,
        5970.0,
        5975.0,
        5980.0,
        5985.0,
        5990.0,
        5995.0,
        6000.0,
        6005.0,
        6010.0,
        6015.0,
        6020.0,
        6025.0,
        6030.0,
        6035.0,
        6040.0,
        6045.0,
        6050.0,
        6055.0,
        6060.0,
        6065.0,
        6070.0,
        6075.0,
        6080.0,
        6085.0,
        6090.0,
        6095.0,
        6100.0,
        6105.0,
        6110.0,
        6115.0,
        6120.0,
        6125.0,
        6130.0,
        6135.0,
        6140.0,
        6145.0,
        6150.0,
        6155.0,
        6160.0,
        6165.0,
        6170.0,
        6175.0,
        6180.0,
        6185.0,
        6190.0,
        6195.0,
        6200.0,
        6205.0,
        6210.0,
        6215.0,
        6220.0,
        6225.0,
        6230.0,
        6235.0,
        6240.0,
        6245.0,
        6250.0,
        6255.0,
        6260.0,
        6265.0,
        6270.0,
        6275.0,
        6280.0,
        6285.0,
        6290.0,
        6295.0,
        6300.0,
        6305.0,
        6310.0,
        6315.0,
        6320.0,
        6325.0,
        6330.0,
        6335.0,
        6340.0,
        6345.0,
        6350.0,
        6355.0,
        6360.0,
        6365.0,
        6370.0,
        6375.0,
        6380.0,
        6385.0,
        6390.0,
        6395.0,
        6400.0,
        6405.0,
        6410.0,
        6415.0,
        6420.0,
        6425.0,
        6430.0,
        6435.0,
        6440.0,
        6445.0,
        6450.0,
        6455.0,
        6460.0,
        6465.0,
        6470.0,
        6475.0,
        6480.0,
        6485.0,
        6490.0,
        6495.0,
        6500.0,
        6505.0,
        6510.0,
        6515.0,
        6520.0,
        6525.0,
        6530.0,
        6535.0,
        6540.0,
        6545.0,
        6550.0,
        6555.0,
        6560.0,
        6565.0,
        6570.0,
        6575.0,
        6580.0,
        6585.0,
        6590.0,
        6595.0,
        6600.0,
        6605.0,
        6610.0,
        6615.0,
        6620.0,
        6625.0,
        6630.0,
        6635.0,
        6640.0,
        6645.0,
        6650.0,
        6655.0,
        6660.0,
        6665.0,
        6670.0,
        6675.0,
        6680.0,
        6685.0,
        6690.0,
        6695.0,
        6700.0,
        6705.0,
        6710.0,
        6715.0,
        6720.0,
        6725.0,
        6730.0,
        6735.0,
        6740.0,
        6745.0,
        6750.0,
        6755.0,
        6760.0,
        6765.0,
        6770.0,
        6775.0,
        6780.0,
        6785.0,
        6790.0,
        6795.0,
        6800.0,
        6805.0,
        6810.0,
        6815.0,
        6820.0,
        6825.0,
        6830.0,
        6835.0,
        6840.0,
        6845.0,
        6850.0,
        6855.0,
        6860.0,
        6865.0,
        6870.0,
        6875.0,
        6880.0,
        6885.0,
        6890.0,
        6895.0,
        6900.0,
        6905.0,
        6910.0,
        6915.0,
        6920.0,
        6925.0,
        6930.0,
        6935.0,
        6940.0,
        6945.0,
        6950.0,
        6955.0,
        6960.0,
        6965.0,
        6970.0,
        6975.0,
        6980.0,
        6985.0,
        6990.0,
        6995.0,
        7000.0,
        7005.0,
        7010.0,
        7015.0,
        7020.0,
        7025.0,
        7030.0,
        7035.0,
        7040.0,
        7045.0,
        7050.0,
        7055.0,
        7060.0,
        7065.0,
        7070.0,
        7075.0,
        7080.0,
        7085.0,
        7090.0,
        7095.0,
        7100.0,
        7105.0,
        7110.0,
        7115.0,
        7120.0,
        7125.0,
        7130.0,
        7135.0,
        7140.0,
        7145.0,
        7150.0,
        7155.0,
        7160.0,
        7165.0,
        7170.0,
        7175.0,
        7180.0,
        7185.0,
        7190.0,
        7195.0,
        7200.0,
        7205.0,
        7210.0,
        7215.0,
        7220.0,
        7225.0,
        7230.0,
        7235.0,
        7240.0,
        7245.0,
        7250.0,
        7255.0,
        7260.0,
        7265.0,
        7270.0,
        7275.0,
        7280.0,
        7285.0,
        7290.0,
        7295.0,
        7300.0,
        7305.0,
        7310.0,
        7315.0,
        7320.0,
        7325.0,
        7330.0,
        7335.0,
        7340.0,
        7345.0,
        7350.0,
        7355.0,
        7360.0,
        7365.0,
        7370.0,
        7375.0,
        7380.0,
        7385.0,
        7390.0,
        7395.0,
        7400.0,
        7405.0,
        7410.0,
        7415.0,
        7420.0,
        7425.0,
        7430.0,
        7435.0,
        7440.0,
        7445.0,
        7450.0,
        7455.0,
        7460.0,
        7465.0,
        7470.0,
        7475.0,
        7480.0,
        7485.0,
        7490.0,
        7495.0,
        7500.0,
        7505.0,
        7510.0,
        7515.0,
        7520.0,
        7525.0,
        7530.0,
        7535.0,
        7540.0,
        7545.0,
        7550.0,
        7555.0,
        7560.0,
        7565.0,
        7570.0,
        7575.0,
        7580.0,
        7585.0,
        7590.0,
        7595.0,
        7600.0,
        7605.0,
        7610.0,
        7615.0,
        7620.0,
        7625.0,
        7630.0,
        7635.0,
        7640.0,
        7645.0,
        7650.0,
        7655.0,
        7660.0,
        7665.0,
        7670.0,
        7675.0,
        7680.0,
        7685.0,
        7690.0,
        7695.0,
        7700.0,
        7705.0,
        7710.0,
        7715.0,
        7720.0,
        7725.0,
        7730.0,
        7735.0,
        7740.0,
        7745.0,
        7750.0,
        7755.0,
        7760.0,
        7765.0,
        7770.0,
        7775.0,
        7780.0,
        7785.0,
        7790.0,
        7795.0,
        7800.0,
        7805.0,
        7810.0,
        7815.0,
        7820.0,
        7825.0,
        7830.0,
        7835.0,
        7840.0,
        7845.0,
        7850.0,
        7855.0,
        7860.0,
        7865.0,
        7870.0,
        7875.0,
        7880.0,
        7885.0,
        7890.0,
        7895.0,
        7900.0,
        7905.0,
        7910.0,
        7915.0,
        7920.0,
        7925.0,
        7930.0,
        7935.0,
        7940.0,
        7945.0,
        7950.0,
        7955.0,
        7960.0,
        7965.0,
        7970.0,
        7975.0,
        7980.0,
        7985.0,
        7990.0,
        7995.0,
        8000.0,
        8005.0,
        8010.0,
        8015.0,
        8020.0,
        8025.0,
        8030.0,
        8035.0,
        8040.0,
        8045.0,
        8050.0,
        8055.0,
        8060.0,
        8065.0,
        8070.0,
        8075.0,
        8080.0,
        8085.0,
        8090.0,
        8095.0,
        8100.0,
        8105.0,
        8110.0,
        8115.0,
        8120.0,
        8125.0,
        8130.0,
        8135.0,
        8140.0,
        8145.0,
        8150.0,
        8155.0,
        8160.0,
        8165.0,
        8170.0,
        8175.0,
        8180.0,
        8185.0,
        8190.0,
        8195.0,
        8200.0,
        8205.0,
        8210.0,
        8215.0,
        8220.0,
        8225.0,
        8230.0,
        8235.0,
        8240.0,
        8245.0,
        8250.0,
        8255.0,
        8260.0,
        8265.0,
        8270.0,
        8275.0,
        8280.0,
        8285.0,
        8290.0,
        8295.0,
        8300.0,
        8305.0,
        8310.0,
        8315.0,
        8320.0,
        8325.0,
        8330.0,
        8335.0,
        8340.0,
        8345.0,
        8350.0,
        8355.0,
        8360.0,
        8365.0,
        8370.0,
        8375.0,
        8380.0,
        8385.0,
        8390.0,
        8395.0,
        8400.0,
        8405.0,
        8410.0,
        8415.0,
        8420.0,
        8425.0,
        8430.0,
        8435.0,
        8440.0,
        8445.0,
        8450.0,
        8455.0,
        8460.0,
        8465.0,
        8470.0,
        8475.0,
        8480.0,
        8485.0,
        8490.0,
        8495.0,
        8500.0,
        8505.0,
        8510.0,
        8515.0,
        8520.0,
        8525.0,
        8530.0,
        8535.0,
        8540.0,
        8545.0,
        8550.0,
        8555.0,
        8560.0,
        8565.0,
        8570.0,
        8575.0,
        8580.0,
        8585.0,
        8590.0,
        8595.0,
        8600.0,
        8605.0,
        8610.0,
        8615.0,
        8620.0,
        8625.0,
        8630.0,
        8635.0,
        8640.0,
        8645.0,
        8650.0,
        8655.0,
        8660.0,
        8665.0,
        8670.0,
        8675.0,
        8680.0,
        8685.0,
        8690.0,
        8695.0,
        8700.0,
        8705.0,
        8710.0,
        8715.0,
        8720.0,
        8725.0,
        8730.0,
        8735.0,
        8740.0,
        8745.0,
        8750.0,
        8755.0,
        8760.0,
        8765.0,
        8770.0,
        8775.0,
        8780.0,
        8785.0,
        8790.0,
        8795.0,
        8800.0,
        8805.0,
        8810.0,
        8815.0,
        8820.0,
        8825.0,
        8830.0,
        8835.0,
        8840.0,
        8845.0,
        8850.0,
        8855.0,
        8860.0,
        8865.0,
        8870.0,
        8875.0,
        8880.0,
        8885.0,
        8890.0,
        8895.0,
        8900.0,
        8905.0,
        8910.0,
        8915.0,
        8920.0,
        8925.0,
        8930.0,
        8935.0,
        8940.0,
        8945.0,
        8950.0,
        8955.0,
        8960.0,
        8965.0,
        8970.0,
        8975.0,
        8980.0,
        8985.0,
        8990.0,
        8995.0,
        9000.0,
        9005.0,
        9010.0,
        9015.0,
        9020.0,
        9025.0,
        9030.0,
        9035.0,
        9040.0,
        9045.0,
        9050.0,
        9055.0,
        9060.0,
        9065.0,
        9070.0,
        9075.0,
        9080.0,
        9085.0,
        9090.0,
        9095.0,
        9100.0,
        9105.0,
        9110.0,
        9115.0,
        9120.0,
        9125.0,
        9130.0,
        9135.0,
        9140.0,
        9145.0,
        9150.0,
        9155.0,
        9160.0,
        9165.0,
        9170.0,
        9175.0,
        9180.0,
        9185.0,
        9190.0,
        9195.0,
        9200.0,
        9205.0,
        9210.0,
        9215.0,
        9220.0,
        9225.0,
        9230.0,
        9235.0,
        9240.0,
        9245.0,
        9250.0,
        9255.0,
        9260.0,
        9265.0,
        9270.0,
        9275.0,
        9280.0,
        9285.0,
        9290.0,
        9295.0,
        9300.0,
        9305.0,
        9310.0,
        9315.0,
        9320.0,
        9325.0,
        9330.0,
        9335.0,
        9340.0,
        9345.0,
        9350.0,
        9355.0,
        9360.0,
        9365.0,
        9370.0,
        9375.0,
        9380.0,
        9385.0,
        9390.0,
        9395.0,
        9400.0,
        9405.0,
        9410.0,
        9415.0,
        9420.0,
        9425.0,
        9430.0,
        9435.0,
        9440.0,
        9445.0,
        9450.0,
        9455.0,
        9460.0,
        9465.0,
        9470.0,
        9475.0,
        9480.0,
        9485.0,
        9490.0,
        9495.0,
        9500.0,
        9505.0,
        9510.0,
        9515.0,
        9520.0,
        9525.0,
        9530.0,
        9535.0,
        9540.0,
        9545.0,
        9550.0,
        9555.0,
        9560.0,
        9565.0,
        9570.0,
        9575.0,
        9580.0,
        9585.0,
        9590.0,
        9595.0,
        9600.0,
        9605.0,
        9610.0,
        9615.0,
        9620.0,
        9625.0,
        9630.0,
        9635.0,
        9640.0,
        9645.0,
        9650.0,
        9655.0,
        9660.0,
        9665.0,
        9670.0,
        9675.0,
        9680.0,
        9685.0,
        9690.0,
        9695.0,
        9700.0,
        9705.0,
        9710.0,
        9715.0,
        9720.0,
        9725.0,
        9730.0,
        9735.0,
        9740.0,
        9745.0,
        9750.0,
        9755.0,
        9760.0,
        9765.0,
        9770.0,
        9775.0,
        9780.0,
        9785.0,
        9790.0,
        9795.0,
        9800.0,
        9805.0,
        9810.0,
        9815.0,
        9820.0,
        9825.0,
        9830.0,
        9835.0,
        9840.0,
        9845.0,
        9850.0,
        9855.0,
        9860.0,
        9865.0,
        9870.0,
        9875.0,
        9880.0,
        9885.0,
        9890.0,
        9895.0,
        9900.0,
        9905.0,
        9910.0,
        9915.0,
        9920.0,
        9925.0,
        9930.0,
        9935.0,
        9940.0,
        9945.0,
        9950.0,
        9955.0,
        9960.0,
        9965.0,
        9970.0,
        9975.0,
        9980.0,
        9985.0,
        9990.0,
        9995.0,
        10000.0,
        10005.0,
        10010.0,
        10015.0,
        10020.0,
        10025.0,
        10030.0,
        10035.0,
        10040.0,
        10045.0,
        10050.0,
        10055.0,
        10060.0,
        10065.0,
        10070.0,
        10075.0,
        10080.0,
        10085.0,
        10090.0,
        10095.0,
        10100.0,
        10105.0,
        10110.0,
        10115.0,
        10120.0,
        10125.0,
        10130.0,
        10135.0,
        10140.0,
        10145.0,
        10150.0,
        10155.0,
        10160.0,
        10165.0,
        10170.0,
        10175.0,
        10180.0,
        10185.0,
        10190.0,
        10195.0,
        10200.0,
        10205.0,
        10210.0,
        10215.0,
        10220.0,
        10225.0,
        10230.0,
        10235.0,
        10240.0,
        10245.0,
        10250.0,
        10255.0,
        10260.0,
        10265.0,
        10270.0,
        10275.0,
        10280.0,
        10285.0,
        10290.0,
        10295.0,
        10300.0,
        10305.0,
        10310.0,
        10315.0,
        10320.0,
        10325.0,
        10330.0,
        10335.0,
        10340.0,
        10345.0,
        10350.0,
        10355.0,
        10360.0,
        10365.0,
        10370.0,
        10375.0,
        10380.0,
        10385.0,
        10390.0,
        10395.0,
        10400.0,
        10405.0,
        10410.0,
        10415.0,
        10420.0,
        10425.0,
        10430.0,
        10435.0,
        10440.0,
        10445.0,
        10450.0,
        10455.0,
        10460.0,
        10465.0,
        10470.0,
        10475.0,
        10480.0,
        10485.0,
        10490.0,
        10495.0,
        10500.0
      ],
      "units":"angstrom"
    },
    "values":{
      "value":[
        0.026927,
        0.014894,
        0.001291,
        0.0,
        0.0,
        0.004872,
        0.003105,
        0.0,
        0.0,
        0.0,
        0.006689,
        0.005307,
        0.007376,
        0.01266,
        0.011547,
        0.005638,
        0.0,
        0.0,
        0.005527,
        0.003537,
        0.004254,
        0.005771,
        0.005742,
        0.004758,
        0.00681,
        0.00834,
        0.004772,
        0.001335,
        0.003662,
        0.003939,
        0.000166,
        0.0,
        0.004129,
        0.006163,
        0.004351,
        0.001881,
        0.002113,
        0.000143,
        8.3e-05,
        0.004532,
        0.008715,
        0.008295,
        0.008447,
        0.004735,
        0.003933,
        0.002449,
        0.003085,
        0.006974,
        0.009747,
        0.008677,
        0.007379,
        0.006438,
        0.008038,
        0.009131,
        0.008766,
        0.0096,
        0.007224,
        0.009601,
        0.008386,
        0.008751,
        0.012069,
        0.008447,
        0.011224,
        0.013882,
        0.011612,
        0.012124,
        0.015548,
        0.015132,
        0.013911,
        0.012812,
        0.014799,
        0.015351,
        0.016907,
        0.014791,
        0.015878,
        0.019053,
        0.017465,
        0.021131,
        0.033751,
        0.037006,
        0.044153,
        0.049214,
        0.047787,
        0.056429,
        0.058916,
        0.066291,
        0.082387,
        0.080147,
        0.072816,
        0.077131,
        0.087259,
        0.092258,
        0.095164,
        0.101837,
        0.104245,
        0.105813,
        0.107071,
        0.119136,
        0.134052,
        0.15771,
        0.148385,
        0.112961,
        0.128042,
        0.172452,
        0.152526,
        0.153388,
        0.173973,
        0.177313,
        0.186323,
        0.203343,
        0.230561,
        0.260884,
        0.297933,
        0.307122,
        0.304923,
        0.296568,
        0.337097,
        0.339425,
        0.352878,
        0.370538,
        0.399402,
        0.424855,
        0.396523,
        0.356174,
        0.384086,
        0.4477,
        0.485428,
        0.466346,
        0.461743,
        0.50169,
        0.522021,
        0.480139,
        0.45625,
        0.474246,
        0.482297,
        0.479051,
        0.455878,
        0.450155,
        0.419773,
        0.391915,
        0.393499,
        0.394394,
        0.405884,
        0.416204,
        0.449733,
        0.453874,
        0.455894,
        0.478971,
        0.476109,
        0.461799,
        0.431202,
        0.429608,
        0.434988,
        0.464157,
        0.457875,
        0.423003,
        0.407122,
        0.419439,
        0.480797,
        0.520779,
        0.525265,
        0.535838,
        0.54889,
        0.569468,
        0.52542,
        0.587849,
        0.625521,
        0.577591,
        0.533305,
        0.504121,
        0.518605,
        0.546367,
        0.507673,
        0.527286,
        0.516846,
        0.491823,
        0.491118,
        0.526743,
        0.509464,
        0.485977,
        0.533716,
        0.579573,
        0.524017,
        0.497433,
        0.550517,
        0.595112,
        0.615108,
        0.643033,
        0.629196,
        0.616659,
        0.595618,
        0.575772,
        0.542826,
        0.529692,
        0.550592,
        0.574088,
        0.563935,
        0.459592,
        0.409099,
        0.458167,
        0.495696,
        0.492842,
        0.519009,
        0.496139,
        0.465175,
        0.444376,
        0.416226,
        0.464041,
        0.540903,
        0.569667,
        0.574567,
        0.57612,
        0.505664,
        0.440779,
        0.447912,
        0.464184,
        0.459649,
        0.484536,
        0.505314,
        0.466675,
        0.398749,
        0.412028,
        0.407446,
        0.411925,
        0.42251,
        0.424892,
        0.45695,
        0.466706,
        0.477761,
        0.47789,
        0.435337,
        0.42569,
        0.467694,
        0.473351,
        0.430114,
        0.434842,
        0.438274,
        0.440091,
        0.394213,
        0.343783,
        0.330517,
        0.357795,
        0.396246,
        0.389236,
        0.353033,
        0.391552,
        0.40364,
        0.379645,
        0.339935,
        0.360444,
        0.373212,
        0.363744,
        0.337979,
        0.336845,
        0.367998,
        0.427711,
        0.439303,
        0.410639,
        0.404759,
        0.442727,
        0.4523,
        0.454042,
        0.462132,
        0.463235,
        0.410737,
        0.400925,
        0.407608,
        0.408247,
        0.415468,
        0.401344,
        0.444912,
        0.48158,
        0.468912,
        0.449383,
        0.421146,
        0.373397,
        0.349098,
        0.37208,
        0.378161,
        0.361032,
        0.370985,
        0.387493,
        0.428455,
        0.440494,
        0.471067,
        0.509579,
        0.44007,
        0.399041,
        0.449339,
        0.484119,
        0.461585,
        0.42306,
        0.420083,
        0.407568,
        0.4444,
        0.507734,
        0.478812,
        0.46344,
        0.536417,
        0.59764,
        0.621543,
        0.641691,
        0.614951,
        0.565771,
        0.519266,
        0.523375,
        0.545026,
        0.546609,
        0.536211,
        0.501585,
        0.48671,
        0.517034,
        0.520766,
        0.488059,
        0.499343,
        0.49708,
        0.511355,
        0.547747,
        0.545626,
        0.47181,
        0.425734,
        0.41734,
        0.442597,
        0.476645,
        0.496869,
        0.498354,
        0.521114,
        0.499258,
        0.469801,
        0.415689,
        0.284374,
        0.272235,
        0.371732,
        0.520833,
        0.598465,
        0.617763,
        0.607955,
        0.558005,
        0.552929,
        0.529197,
        0.517628,
        0.508995,
        0.511133,
        0.551312,
        0.55397,
        0.54733,
        0.547772,
        0.560822,
        0.55281,
        0.550078,
        0.564966,
        0.613033,
        0.636835,
        0.635145,
        0.64895,
        0.631545,
        0.595853,
        0.605588,
        0.608794,
        0.631094,
        0.615643,
        0.615693,
        0.64148,
        0.646836,
        0.630377,
        0.617214,
        0.633769,
        0.635939,
        0.633882,
        0.661927,
        0.665986,
        0.628555,
        0.662717,
        0.652476,
        0.62956,
        0.609806,
        0.63278,
        0.6524,
        0.670481,
        0.679068,
        0.645047,
        0.66131,
        0.633662,
        0.629935,
        0.652835,
        0.660254,
        0.67168,
        0.694069,
        0.707388,
        0.698699,
        0.697399,
        0.670998,
        0.66938,
        0.699649,
        0.689074,
        0.661436,
        0.678492,
        0.665375,
        0.711914,
        0.748805,
        0.716604,
        0.72366,
        0.695225,
        0.703711,
        0.712588,
        0.738787,
        0.690439,
        0.682644,
        0.684914,
        0.715624,
        0.741529,
        0.733496,
        0.713207,
        0.699241,
        0.690031,
        0.681574,
        0.680269,
        0.691143,
        0.703329,
        0.706812,
        0.710878,
        0.723867,
        0.731033,
        0.718725,
        0.700768,
        0.693682,
        0.697295,
        0.707442,
        0.72066,
        0.732777,
        0.736082,
        0.725735,
        0.711914,
        0.705782,
        0.707427,
        0.712772,
        0.71215,
        0.699282,
        0.687025,
        0.688201,
        0.696344,
        0.701997,
        0.703023,
        0.699923,
        0.696414,
        0.696529,
        0.702337,
        0.713651,
        0.723222,
        0.72503,
        0.725014,
        0.729784,
        0.736675,
        0.741198,
        0.740845,
        0.734718,
        0.726387,
        0.72012,
        0.718499,
        0.722173,
        0.72574,
        0.724246,
        0.720583,
        0.718008,
        0.713393,
        0.704209,
        0.696732,
        0.696205,
        0.694937,
        0.686325,
        0.681045,
        0.68961,
        0.722321,
        0.725879,
        0.719981,
        0.732954,
        0.734771,
        0.740764,
        0.754028,
        0.772348,
        0.778874,
        0.748577,
        0.73093,
        0.716302,
        0.696069,
        0.686363,
        0.679017,
        0.666409,
        0.690572,
        0.7179,
        0.73356,
        0.70599,
        0.651933,
        0.649586,
        0.671732,
        0.709584,
        0.707857,
        0.705486,
        0.740137,
        0.721884,
        0.72146,
        0.761485,
        0.775397,
        0.762708,
        0.76162,
        0.768809,
        0.756139,
        0.763754,
        0.771193,
        0.786959,
        0.780456,
        0.735987,
        0.726025,
        0.799455,
        0.826356,
        0.839171,
        0.855902,
        0.797442,
        0.940461,
        0.92902,
        0.795023,
        0.932349,
        1.002873,
        0.999726,
        0.883431,
        1.037283,
        1.338516,
        1.34411,
        1.201165,
        0.991778,
        1.010336,
        1.258236,
        1.440076,
        1.453215,
        1.421075,
        1.26659,
        1.028953,
        0.899832,
        1.151483,
        1.453245,
        1.622375,
        1.622736,
        1.620339,
        1.675064,
        1.652528,
        1.524603,
        1.351464,
        1.052864,
        0.995671,
        1.241767,
        1.428246,
        1.562729,
        1.699526,
        1.71603,
        1.709116,
        1.574916,
        1.087895,
        1.101866,
        1.588989,
        1.722471,
        1.671747,
        1.566125,
        1.350546,
        0.973462,
        0.83573,
        1.205731,
        1.502852,
        1.690267,
        1.784977,
        1.803827,
        1.819015,
        1.830466,
        1.900521,
        1.937446,
        1.97278,
        1.92908,
        1.837435,
        1.87372,
        1.918882,
        1.847225,
        1.867865,
        1.826398,
        1.817423,
        1.798072,
        1.769199,
        1.698112,
        1.648894,
        1.636988,
        1.511592,
        1.264271,
        0.983581,
        1.100092,
        1.42329,
        1.615386,
        1.660561,
        1.662242,
        1.690298,
        1.781995,
        1.847534,
        1.828413,
        1.816656,
        1.797954,
        1.827782,
        1.835273,
        1.742738,
        1.67438,
        1.727225,
        1.749256,
        1.825209,
        1.855551,
        1.816001,
        1.843158,
        1.851476,
        1.826845,
        1.797665,
        1.713316,
        1.774055,
        1.762846,
        1.773065,
        1.735525,
        1.713708,
        1.740083,
        1.741016,
        1.769399,
        1.692619,
        1.714993,
        1.784119,
        1.713624,
        1.68164,
        1.672753,
        1.548472,
        1.539751,
        1.552455,
        1.534695,
        1.52369,
        1.453427,
        1.352838,
        1.127778,
        0.915358,
        1.092304,
        1.287287,
        1.442967,
        1.575824,
        1.6296,
        1.603721,
        1.621845,
        1.650807,
        1.609412,
        1.645847,
        1.620169,
        1.601298,
        1.609018,
        1.594085,
        1.521419,
        1.540444,
        1.580383,
        1.55788,
        1.552475,
        1.584367,
        1.560842,
        1.575095,
        1.529163,
        1.538245,
        1.541175,
        1.537539,
        1.566096,
        1.504314,
        1.528746,
        1.5435,
        1.574758,
        1.600461,
        1.612056,
        1.624152,
        1.578449,
        1.546135,
        1.505232,
        1.470322,
        1.518155,
        1.561641,
        1.520668,
        1.449018,
        1.443265,
        1.478963,
        1.508949,
        1.523693,
        1.507488,
        1.458688,
        1.459718,
        1.493441,
        1.528263,
        1.532825,
        1.550279,
        1.56065,
        1.52389,
        1.520939,
        1.533553,
        1.489717,
        1.478747,
        1.500962,
        1.48465,
        1.497959,
        1.506351,
        1.503378,
        1.45697,
        1.466224,
        1.510799,
        1.531136,
        1.547056,
        1.538494,
        1.510371,
        1.487743,
        1.450728,
        1.428401,
        1.457218,
        1.474606,
        1.473422,
        1.457963,
        1.447521,
        1.463954,
        1.489448,
        1.461266,
        1.420156,
        1.393664,
        1.387562,
        1.396925,
        1.414469,
        1.400967,
        1.370965,
        1.407077,
        1.422688,
        1.387043,
        1.356312,
        1.381663,
        1.396114,
        1.346421,
        1.299391,
        1.296603,
        1.290373,
        1.264006,
        1.196261,
        1.120996,
        0.946877,
        0.754936,
        0.824232,
        0.979693,
        1.080973,
        1.173239,
        1.19327,
        1.200706,
        1.263385,
        1.270735,
        1.285878,
        1.300945,
        1.301291,
        1.244134,
        1.266241,
        1.318902,
        1.295405,
        1.292448,
        1.350601,
        1.357123,
        1.313239,
        1.310114,
        1.315611,
        1.302758,
        1.283417,
        1.233211,
        1.236161,
        1.299544,
        1.307726,
        1.284588,
        1.228781,
        1.201321,
        1.173895,
        1.191171,
        1.232698,
        1.232401,
        1.215435,
        1.194471,
        1.252211,
        1.254228,
        1.273602,
        1.271772,
        1.239956,
        1.240761,
        1.234308,
        1.229871,
        1.235172,
        1.257181,
        1.248958,
        1.225872,
        1.242835,
        1.232787,
        1.241426,
        1.204917,
        1.186234,
        1.19559,
        1.18826,
        1.205458,
        1.219113,
        1.207917,
        1.192529,
        1.168771,
        1.105045,
        1.096268,
        1.180993,
        1.173567,
        1.130832,
        1.117645,
        1.135852,
        1.147101,
        1.123058,
        1.153162,
        1.179887,
        1.179775,
        1.114497,
        1.121776,
        1.119606,
        1.149984,
        1.176882,
        1.174117,
        1.170514,
        1.115584,
        1.050503,
        1.049634,
        1.073875,
        1.086992,
        1.114939,
        1.169101,
        1.152921,
        1.14331,
        1.15017,
        1.128477,
        1.094603,
        1.095109,
        1.070907,
        1.086522,
        1.101907,
        1.086751,
        1.089655,
        1.086463,
        1.104908,
        1.083604,
        1.050458,
        1.055787,
        1.089097,
        1.08455,
        1.074375,
        1.086832,
        1.061486,
        1.043162,
        1.032733,
        1.038219,
        1.052886,
        1.049545,
        1.059985,
        1.053485,
        1.056245,
        1.075106,
        1.05019,
        1.029485,
        1.01739,
        1.029829,
        1.042267,
        1.048308,
        1.005651,
        0.993533,
        1.011815,
        1.013985,
        1.033102,
        1.038184,
        1.022382,
        1.02303,
        1.038057,
        1.040595,
        0.999267,
        0.979291,
        0.985632,
        1.006202,
        1.009871,
        1.024336,
        1.02319,
        1.018979,
        1.001163,
        0.99119,
        0.991052,
        0.998051,
        0.982865,
        0.959789,
        0.97294,
        0.969625,
        0.96797,
        0.993563,
        0.983158,
        0.984305,
        0.990677,
        0.992576,
        0.977188,
        0.970645,
        0.976093,
        0.978976,
        0.956869,
        0.933915,
        0.945403,
        0.947373,
        0.953854,
        0.946293,
        0.942204,
        0.951907,
        0.961496,
        0.949133,
        0.925329,
        0.925582,
        0.943969,
        0.953129,
        0.944463,
        0.930277,
        0.94421,
        0.942646,
        0.93239,
        0.913815,
        0.916941,
        0.916564,
        0.923229,
        0.932767,
        0.912597,
        0.902283,
        0.912345,
        0.909527,
        0.925279,
        0.928234,
        0.911486,
        0.904365,
        0.908496,
        0.912923,
        0.926258,
        0.911504,
        0.905307,
        0.897844,
        0.892713,
        0.884263,
        0.865256,
        0.882992,
        0.882944,
        0.881464,
        0.882682,
        0.876919,
        0.852208,
        0.793822,
        0.785731,
        0.832867,
        0.862099,
        0.855223,
        0.843096,
        0.839318,
        0.847037,
        0.849065,
        0.845331,
        0.838998,
        0.836777,
        0.834319,
        0.83184,
        0.82933,
        0.826719,
        0.824223,
        0.821735,
        0.819126,
        0.816467,
        0.813939,
        0.805367,
        0.790434,
        0.792967,
        0.807092,
        0.797387,
        0.778209,
        0.782688,
        0.786808,
        0.785796,
        0.751169,
        0.765754,
        0.805528,
        0.825704,
        0.826389,
        0.82965,
        0.818588,
        0.794981,
        0.792969,
        0.797629,
        0.806534,
        0.80274,
        0.7768,
        0.784819,
        0.803289,
        0.792708,
        0.770645,
        0.774562,
        0.783655,
        0.760379,
        0.736887,
        0.749138,
        0.776126,
        0.771277,
        0.748714,
        0.746984,
        0.742145,
        0.764294,
        0.767828,
        0.749581,
        0.743296,
        0.765876,
        0.759793,
        0.752757,
        0.742037,
        0.740165,
        0.744034,
        0.742251,
        0.742108,
        0.7518,
        0.749689,
        0.734295,
        0.736052,
        0.7426,
        0.758503,
        0.745643,
        0.737988,
        0.705959,
        0.68731,
        0.709082,
        0.721304,
        0.726453,
        0.712382,
        0.719246,
        0.709896,
        0.697638,
        0.70383,
        0.710263,
        0.708189,
        0.705461,
        0.70644,
        0.702318,
        0.722064,
        0.712556,
        0.695189,
        0.703934,
        0.698661,
        0.698951,
        0.699152,
        0.699195,
        0.682672,
        0.668104,
        0.682364,
        0.697571,
        0.697187,
        0.684408,
        0.681396,
        0.686497,
        0.682039,
        0.682686,
        0.679806,
        0.678083,
        0.667214,
        0.659214,
        0.671628,
        0.672453,
        0.666696,
        0.668186,
        0.67538,
        0.670338,
        0.650163,
        0.635445,
        0.654228,
        0.666373,
        0.661241,
        0.660357,
        0.674856,
        0.673936,
        0.669179,
        0.664035,
        0.65799,
        0.618125,
        0.571054,
        0.513887,
        0.418854,
        0.45855,
        0.553901,
        0.598651,
        0.626449,
        0.626437,
        0.622695,
        0.631877,
        0.636027,
        0.642107,
        0.64614,
        0.648463,
        0.645928,
        0.643896,
        0.644662,
        0.639329,
        0.641793,
        0.648884,
        0.647448,
        0.633084,
        0.614512,
        0.602008,
        0.599289,
        0.607581,
        0.603814,
        0.620037,
        0.625837,
        0.629738,
        0.619893,
        0.612756,
        0.608623,
        0.602902,
        0.610154,
        0.610193,
        0.601801,
        0.59798,
        0.596303,
        0.597969,
        0.604074,
        0.612677,
        0.610872,
        0.606772,
        0.599211,
        0.603593,
        0.60431,
        0.599773,
        0.605367,
        0.603021,
        0.608733,
        0.608382,
        0.607354,
        0.606058,
        0.604903,
        0.604207,
        0.603933,
        0.603952,
        0.604136,
        0.604316,
        0.604153,
        0.603265,
        0.601273,
        0.597998,
        0.594068,
        0.590313,
        0.587565,
        0.586442,
        0.586726,
        0.587986,
        0.589793,
        0.591714,
        0.593313,
        0.59415,
        0.593787,
        0.591976,
        0.58924,
        0.586291,
        0.583845,
        0.582398,
        0.581579,
        0.580801,
        0.579477,
        0.5772,
        0.574283,
        0.571222,
        0.56851,
        0.566506,
        0.565028,
        0.563756,
        0.562374,
        0.560657,
        0.558761,
        0.556933,
        0.555423,
        0.554413,
        0.553812,
        0.553462,
        0.553204,
        0.552935,
        0.552762,
        0.552847,
        0.55335,
        0.554292,
        0.555122,
        0.555145,
        0.55367,
        0.5503,
        0.545831,
        0.541356,
        0.537966,
        0.536444,
        0.536326,
        0.536835,
        0.537197,
        0.536837,
        0.535988,
        0.535082,
        0.534554,
        0.534713,
        0.535381,
        0.536258,
        0.53704,
        0.537448,
        0.537277,
        0.536346,
        0.534471,
        0.53166,
        0.528692,
        0.526534,
        0.526157,
        0.528128,
        0.531408,
        0.534555,
        0.536129,
        0.535096,
        0.532053,
        0.528001,
        0.523944,
        0.520696,
        0.518309,
        0.516646,
        0.515568,
        0.514958,
        0.514786,
        0.515038,
        0.515703,
        0.51673,
        0.5179,
        0.518958,
        0.519645,
        0.519749,
        0.519243,
        0.518142,
        0.516464,
        0.514264,
        0.511747,
        0.509157,
        0.506735,
        0.504648,
        0.502757,
        0.500845,
        0.498695,
        0.496189,
        0.493589,
        0.491256,
        0.489548,
        0.488689,
        0.488348,
        0.488059,
        0.487356,
        0.485896,
        0.483845,
        0.481495,
        0.479136,
        0.477039,
        0.475385,
        0.474338,
        0.474059,
        0.474555,
        0.475208,
        0.475248,
        0.473901,
        0.470685,
        0.466268,
        0.461607,
        0.45766,
        0.455188,
        0.454168,
        0.45438,
        0.455606,
        0.457591,
        0.459937,
        0.462209,
        0.463972,
        0.464906,
        0.465141,
        0.464923,
        0.464494,
        0.464032,
        0.463431,
        0.452208,
        0.451336,
        0.450448,
        0.449544,
        0.448626,
        0.447695,
        0.446753,
        0.445802,
        0.444843,
        0.443878,
        0.442907,
        0.441937,
        0.44097,
        0.440012,
        0.439067,
        0.438139,
        0.437233,
        0.436354,
        0.435506,
        0.434694,
        0.433919,
        0.433178,
        0.432462,
        0.431764,
        0.431077,
        0.430394,
        0.429707,
        0.429009,
        0.428293,
        0.427551,
        0.426779,
        0.42598,
        0.425162,
        0.419568,
        0.418333,
        0.417201,
        0.416082,
        0.414882,
        0.413541,
        0.412106,
        0.410656,
        0.409268,
        0.408052,
        0.407244,
        0.407114,
        0.40793,
        0.409779,
        0.412021,
        0.413834,
        0.414398,
        0.413174,
        0.410764,
        0.408055,
        0.405933,
        0.405029,
        0.40495,
        0.405045,
        0.404667,
        0.40336,
        0.401453,
        0.399466,
        0.397923,
        0.397191,
        0.397025,
        0.397028,
        0.396798,
        0.396015,
        0.394658,
        0.392784,
        0.390448,
        0.387813,
        0.385466,
        0.384098,
        0.384402,
        0.386763,
        0.390333,
        0.393961,
        0.396493,
        0.397071,
        0.396033,
        0.394009,
        0.391634,
        0.389434,
        0.387518,
        0.385887,
        0.384545,
        0.383498,
        0.38276,
        0.382351,
        0.382288,
        0.382553,
        0.382979,
        0.383362,
        0.383497,
        0.38324,
        0.382681,
        0.381971,
        0.381258,
        0.380651,
        0.380096,
        0.379494,
        0.378752,
        0.377766,
        0.376415,
        0.374573,
        0.372113,
        0.369025,
        0.365767,
        0.36291,
        0.361028,
        0.360532,
        0.361181,
        0.36257,
        0.364298,
        0.365935,
        0.366964,
        0.36684,
        0.36502,
        0.361273,
        0.356609,
        0.35235,
        0.349816,
        0.349887,
        0.351673,
        0.353842,
        0.35506,
        0.354372,
        0.352328,
        0.349854,
        0.347878,
        0.347088,
        0.347224,
        0.347788,
        0.348284,
        0.348353,
        0.348194,
        0.348145,
        0.348547,
        0.349565,
        0.350684,
        0.351216,
        0.350473,
        0.34808,
        0.344913,
        0.34216,
        0.341008,
        0.342244,
        0.345041,
        0.348174,
        0.350412,
        0.350815,
        0.349582,
        0.347197,
        0.344146,
        0.340906,
        0.337932,
        0.335671,
        0.334569,
        0.334926,
        0.336443,
        0.338673,
        0.341169,
        0.343509,
        0.345381,
        0.346494,
        0.346561,
        0.345434,
        0.343523,
        0.341376,
        0.339543,
        0.338418,
        0.33778,
        0.337251,
        0.336454,
        0.335115,
        0.333362,
        0.331427,
        0.329542,
        0.327897,
        0.326518,
        0.325391,
        0.324499,
        0.323853,
        0.323551,
        0.323715,
        0.32447,
        0.325839,
        0.327454,
        0.328848,
        0.329554,
        0.329233,
        0.328055,
        0.326317,
        0.324316,
        0.322391,
        0.321038,
        0.320798,
        0.322208,
        0.3255,
        0.329676,
        0.333431,
        0.335461,
        0.334854,
        0.332277,
        0.328788,
        0.325446,
        0.323169,
        0.32231,
        0.323077,
        0.325683,
        0.330039,
        0.334867,
        0.338592,
        0.339638,
        0.336935,
        0.331441,
        0.324618,
        0.317929,
        0.312639,
        0.309218,
        0.307937,
        0.309068,
        0.312665,
        0.317918,
        0.323797,
        0.329275,
        0.333493,
        0.336261,
        0.337559,
        0.337369,
        0.335717,
        0.33283,
        0.328979,
        0.324438,
        0.319554,
        0.314965,
        0.311385,
        0.309526,
        0.309905,
        0.312261,
        0.316139,
        0.321081,
        0.326613,
        0.332192,
        0.337255,
        0.341239,
        0.343682,
        0.34452,
        0.343787,
        0.34152,
        0.337764,
        0.332609,
        0.326157,
        0.318509,
        0.309882,
        0.300959,
        0.292537,
        0.285414,
        0.280303,
        0.277573,
        0.27751,
        0.280399,
        0.286207,
        0.293642,
        0.301094,
        0.306953,
        0.310061,
        0.31106,
        0.311041,
        0.311098,
        0.312059,
        0.313703,
        0.315544,
        0.317099,
        0.318001,
        0.318357,
        0.318396,
        0.318342,
        0.318312,
        0.317984,
        0.316923,
        0.314696,
        0.310937,
        0.305548,
        0.2985,
        0.289764,
        0.279631,
        0.269685,
        0.261831,
        0.257975,
        0.25941,
        0.264983,
        0.272928,
        0.281482,
        0.289134,
        0.295401,
        0.300051,
        0.302856,
        0.303715,
        0.303046,
        0.301394,
        0.299306,
        0.297302,
        0.295802,
        0.295202,
        0.295896,
        0.298118,
        0.301455,
        0.305334,
        0.30918,
        0.312464,
        0.314831,
        0.315969,
        0.315567,
        0.313502,
        0.310415,
        0.307134,
        0.304488,
        0.30308,
        0.302596,
        0.302497,
        0.302242,
        0.30136,
        0.299649,
        0.296978,
        0.293214,
        0.288296,
        0.282449,
        0.27597,
        0.269156,
        0.262378,
        0.256309,
        0.251697,
        0.24929,
        0.249576,
        0.252015,
        0.255808,
        0.260155,
        0.264402,
        0.268476,
        0.272446,
        0.276385,
        0.28032,
        0.284109,
        0.287566,
        0.290506,
        0.292723,
        0.293939,
        0.293857,
        0.292178,
        0.288932,
        0.285452,
        0.283399,
        0.284435,
        0.289475,
        0.296448,
        0.302541,
        0.304937,
        0.301752,
        0.294827,
        0.286935,
        0.280849,
        0.278695,
        0.280017,
        0.283714,
        0.288686,
        0.293794,
        0.297754,
        0.299244,
        0.296942,
        0.290149,
        0.280652,
        0.270862,
        0.263188,
        0.259443,
        0.259051,
        0.260837,
        0.263629,
        0.266424,
        0.268904,
        0.27092,
        0.272327,
        0.273015,
        0.273034,
        0.272473,
        0.271419,
        0.269901,
        0.267711,
        0.264581,
        0.260242,
        0.254575,
        0.248062,
        0.241332,
        0.235015,
        0.22971,
        0.225878,
        0.223948,
        0.22435,
        0.227283,
        0.232018,
        0.237598,
        0.243064,
        0.247643,
        0.251307,
        0.254213,
        0.256517,
        0.258325,
        0.259529,
        0.259972,
        0.259494,
        0.258049,
        0.256033,
        0.253955,
        0.252325,
        0.251538,
        0.251539,
        0.25216,
        0.253235,
        0.254594,
        0.256065,
        0.257478,
        0.258658,
        0.259457,
        0.25982,
        0.259712,
        0.259102,
        0.257979,
        0.256414,
        0.254503,
        0.252338,
        0.250091,
        0.248232,
        0.247312,
        0.247877,
        0.25021,
        0.253526,
        0.256776,
        0.258908,
        0.259157,
        0.2579,
        0.255798,
        0.253514,
        0.251587,
        0.250075,
        0.248912,
        0.248034,
        0.247389,
        0.246979,
        0.24682,
        0.246926,
        0.247266,
        0.247625,
        0.247743,
        0.247359,
        0.246321,
        0.244918,
        0.243545,
        0.2426,
        0.242339,
        0.242465,
        0.242539,
        0.242124,
        0.240914,
        0.239139,
        0.237159,
        0.235338,
        0.233978,
        0.233155,
        0.232888,
        0.233193,
        0.23403,
        0.235116,
        0.236109,
        0.236668,
        0.236569,
        0.236066,
        0.235533,
        0.235342,
        0.235718,
        0.236291,
        0.236542,
        0.235951,
        0.234212,
        0.231861,
        0.22965,
        0.228325,
        0.228334,
        0.228905,
        0.228966,
        0.227444,
        0.223591,
        0.217975,
        0.211489,
        0.205027,
        0.199412,
        0.195179,
        0.192793,
        0.19272,
        0.195155,
        0.199215,
        0.203748,
        0.207601,
        0.209939,
        0.211194,
        0.212114,
        0.213448,
        0.215713,
        0.218494,
        0.221146,
        0.223023,
        0.223664,
        0.223354,
        0.22256,
        0.221751,
        0.221266,
        0.220928,
        0.220431,
        0.219469,
        0.217891,
        0.21618,
        0.214972,
        0.214905,
        0.216351,
        0.218616,
        0.220739,
        0.221761,
        0.221027,
        0.219116,
        0.216911,
        0.215295,
        0.214907,
        0.215388,
        0.216137,
        0.216548,
        0.216152,
        0.21502,
        0.213353,
        0.211355,
        0.209253,
        0.207373,
        0.206064,
        0.205673,
        0.206388,
        0.207743,
        0.20911,
        0.209859,
        0.209547,
        0.208473,
        0.207118,
        0.205966,
        0.204855,
        0.204706,
        0.204724,
        0.204819,
        0.204907,
        0.204915,
        0.204772,
        0.204408,
        0.203779,
        0.20295,
        0.202011,
        0.201054,
        0.200164,
        0.199414,
        0.198872,
        0.198606,
        0.198648,
        0.198886,
        0.199173,
        0.199363,
        0.199332,
        0.199051,
        0.198517,
        0.197725,
        0.196727,
        0.195796,
        0.195264,
        0.195459,
        0.196567,
        0.198186,
        0.199772,
        0.20078,
        0.20081,
        0.200056,
        0.198858,
        0.197556,
        0.19643,
        0.19552,
        0.194801,
        0.194254
      ],
      "range":1
    }
  }
]
