[
  {
    "model": "Baader BCF",
    "name": "Baader BCF astromod LPF",
    "type": "OSC_LPF",
    "dataQualityMarker": 2,
    "dataSource": "Scanned from response curve",
    "manufacturer": "N/A",
    "version": 1,
    "wavelength": { 
       "value":  [4010,4020,4030,4040,4050,4060,4070,4080,4090,4100,4110,4120,4130,4140,4150,4160,4170,4180,4190,4200,4210,4220,4230,4240,4250,4260,4280,4290,4300,4310,4320,4330,4340,4350,4360,4370,4380,4390,4400,4410,4420,4430,4440,4450,4460,4470,4480,4490,4500,4510,4520,4530,4540,4550,4560,4570,4580,4590,4600,4610,4620,4630,4640,4650,4660,4670,4680,4690,4700,4710,4720,4730,4740,4750,4760,4770,4780,4820,4830,4840,4850,4860,4870,4900,4910,4920,4930,4940,4950,4970,4980,4990,5000,5010,5020,5030,5040,5050,5060,5070,5080,5090,5100,5110,5120,5130,5140,5150,5160,5170,5180,5190,5200,5210,5220,5230,5240,5250,5260,5270,5280,5290,5300,5310,5320,5330,5340,5350,5360,5370,5380,5390,5400,5410,5420,5430,5440,5450,5460,5470,5480,5490,5500,5510,5520,5530,5540,5550,5560,5570,5580,5590,5600,5610,5620,5630,5640,5650,5660,5670,5680,5690,5700,5710,5720,5730,5740,5750,5760,5770,5780,5790,5800,5810,5820,5830,5840,5850,5860,5870,5880,5890,5900,5910,5920,5930,5940,5950,5960,5970,5980,5990,6000,6010,6020,6030,6040,6050,6060,6070,6080,6090,6100,6110,6120,6130,6140,6150,6160,6170,6180,6190,6200,6210,6220,6230,6240,6250,6260,6270,6280,6290,6300,6310,6320,6330,6340,6350,6360,6370,6380,6390,6400,6410,6420,6430,6440,6450,6460,6470,6480,6490,6500,6510,6520,6530,6540,6550,6560,6570,6580,6590,6600,6610,6620,6630,6640,6650,6660,6670,6680,6690,6700,6710,6720,6730,6740,6750,6760,6770,6780,6790,6800,6810,6820,6830,6840,6850,6860,6870,6880,6890,6900,6910,6920,6930,6940,6950,6960,6970,6980,6990,7000,7010,7020,7030,7040,7050,7060,7070,7080,7090,7100,7110,7120,7130,7161,7204,7262,7314,7358,7394,7433,7494],
       "units": "angstrom"
    },
    "values": {
      "value": [0.629047394168362,0.743085827763247,0.781098638961542,0.807314370822435,0.809935944008525,0.811246730601569,0.821733023345927,0.841394822241597,0.870232127288579,0.891204712777293,0.899069432335561,0.899069432335561,0.888583139591204,0.870232127288579,0.862367407730311,0.862367407730311,0.868921340695534,0.88465077981207,0.899069432335561,0.906934151893829,0.912177298266008,0.90431257870774,0.899069432335561,0.891204712777293,0.893826285963383,0.899069432335561,0.922663591010365,0.925285164196455,0.925285164196455,0.920042017824276,0.912177298266008,0.909555725079919,0.909555725079919,0.914798871452097,0.920042017824276,0.927906737382544,0.927906737382544,0.933149883754723,0.927906737382544,0.925285164196455,0.922663591010365,0.917420444638187,0.917420444638187,0.920042017824276,0.922663591010365,0.925285164196455,0.927906737382544,0.929217523975589,0.930528310568633,0.930528310568633,0.930528310568633,0.933149883754723,0.933149883754723,0.935771456940812,0.938393030126901,0.941014603312991,0.941014603312991,0.938393030126901,0.935771456940812,0.929217523975589,0.92397437760341,0.913488084859053,0.912177298266008,0.905623365300785,0.901691005521651,0.90431257870774,0.901691005521651,0.906934151893829,0.912177298266008,0.920042017824276,0.92397437760341,0.930528310568633,0.935771456940812,0.941014603312991,0.94363617649908,0.946257749685169,0.946257749685169,0.941014603312991,0.941014603312991,0.938393030126901,0.938393030126901,0.941014603312991,0.94363617649908,0.951500896057348,0.954122469243437,0.956744042429526,0.954122469243437,0.954122469243437,0.954122469243437,0.951500896057348,0.951500896057348,0.951500896057348,0.954122469243437,0.955433255836482,0.956744042429526,0.956744042429526,0.959365615615616,0.959365615615616,0.956744042429526,0.956744042429526,0.954122469243437,0.951500896057348,0.951500896057348,0.948879322871258,0.948879322871258,0.948879322871258,0.948879322871258,0.951500896057348,0.951500896057348,0.951500896057348,0.956744042429526,0.956744042429526,0.959365615615616,0.96067640220866,0.961987188801705,0.964608761987794,0.964608761987794,0.967230335173884,0.967230335173884,0.967230335173884,0.967230335173884,0.969851908359973,0.967230335173884,0.967230335173884,0.961987188801705,0.961987188801705,0.959365615615616,0.959365615615616,0.956744042429526,0.954122469243437,0.954122469243437,0.951500896057348,0.954122469243437,0.951500896057348,0.951500896057348,0.952811682650392,0.956744042429526,0.956744042429526,0.959365615615616,0.961987188801705,0.961987188801705,0.964608761987794,0.964608761987794,0.967230335173884,0.969851908359973,0.969851908359973,0.969851908359973,0.969851908359973,0.972473481546062,0.972473481546062,0.972473481546062,0.972473481546062,0.975095054732152,0.972473481546062,0.972473481546062,0.975095054732152,0.972473481546062,0.972473481546062,0.969851908359973,0.969851908359973,0.967230335173884,0.964608761987794,0.961987188801705,0.961987188801705,0.961987188801705,0.961987188801705,0.961987188801705,0.961987188801705,0.959365615615616,0.961987188801705,0.964608761987794,0.964608761987794,0.964608761987794,0.969851908359973,0.972473481546062,0.972473481546062,0.973784268139107,0.975095054732152,0.975095054732152,0.977716627918241,0.977716627918241,0.977716627918241,0.98033820110433,0.979027414511286,0.98033820110433,0.98033820110433,0.977716627918241,0.98033820110433,0.98033820110433,0.977716627918241,0.98033820110433,0.977716627918241,0.98033820110433,0.98033820110433,0.977716627918241,0.98033820110433,0.977716627918241,0.98033820110433,0.98033820110433,0.98033820110433,0.98033820110433,0.977716627918241,0.977716627918241,0.977716627918241,0.977716627918241,0.977716627918241,0.977716627918241,0.98033820110433,0.977716627918241,0.977716627918241,0.977716627918241,0.977716627918241,0.98033820110433,0.98033820110433,0.977716627918241,0.977716627918241,0.98033820110433,0.98033820110433,0.977716627918241,0.977716627918241,0.977716627918241,0.977716627918241,0.977716627918241,0.98033820110433,0.98033820110433,0.98033820110433,0.977716627918241,0.98033820110433,0.977716627918241,0.98033820110433,0.98033820110433,0.98033820110433,0.98033820110433,0.98033820110433,0.98033820110433,0.977716627918241,0.977716627918241,0.979027414511286,0.977716627918241,0.975095054732152,0.975095054732152,0.972473481546062,0.969851908359973,0.972473481546062,0.969851908359973,0.967230335173884,0.967230335173884,0.964608761987794,0.961987188801705,0.961987188801705,0.96067640220866,0.956744042429526,0.958054829022571,0.951500896057348,0.950190109464303,0.952811682650392,0.951500896057348,0.951500896057348,0.948879322871258,0.948879322871258,0.948879322871258,0.948879322871258,0.948879322871258,0.948879322871258,0.951500896057348,0.954122469243437,0.956744042429526,0.96067640220866,0.961987188801705,0.961987188801705,0.964608761987794,0.967230335173884,0.964608761987794,0.969851908359973,0.969851908359973,0.969851908359973,0.969851908359973,0.967230335173884,0.969851908359973,0.964608761987794,0.958054829022571,0.951500896057348,0.938393030126901,0.917420444638187,0.885961566405115,0.866299767509445,0.816489876973748,0.750950547321515,0.67623571151797,0.627736607575317,0.54122469243437,0.463888283444735,0.390484234234234,0.326255691175046,0.297418386128064,0.248919282185411,0.206974111207982,0.172893659788821,0.161096580451419,0.140123994962705,0.123083769253124,0.108665116729633,0.10211118376441,0.0942464642061418,0.0863817446478739,0.0798278116826505,0.0712365591397851,0.0672043010752689,0.0631720430107526,0.0618279569892474,0.0604838709677419,0.0624999999999998,0.0611559139784945,0.0618279569892474],
      "range": 1
    }
  }
]
