[
  {
    "model":"Nikon D3100",
    "name":"Nikon D3100 LPF",
    "type":"OSC_LPF",
    "dataQualityMarker":3,
    "dataSource":"SVO Filter Profile Service",
    "manufacturer":"Nikon",
    "version":1,
    "wavelength":{
      "value":[
        3143.7638,
        3171.3518,
        3198.9397,
        3226.5276,
        3254.1156,
        3281.7035,
        3309.2915,
        3336.8794,
        3364.4673,
        3392.0553,
        3419.6432,
        3447.2312,
        3474.8191,
        3502.407,
        3529.995,
        3557.5829,
        3585.1709,
        3612.7588,
        3640.3467,
        3667.9347,
        3695.5226,
        3723.1106,
        3750.6985,
        3778.2864,
        3805.8744,
        3833.4623,
        3861.0503,
        3888.6382,
        3916.2261,
        3943.8141,
        3971.402,
        3998.9899,
        4026.5779,
        4054.1658,
        4081.7538,
        4109.3417,
        4136.9296,
        4164.5176,
        4192.1055,
        4219.6935,
        4247.2814,
        4274.8693,
        4302.4573,
        4330.0452,
        4357.6332,
        4385.2211,
        4412.809,
        4440.397,
        4467.9849,
        4495.5729,
        4523.1608,
        4550.7487,
        4578.3367,
        4605.9246,
        4633.5126,
        4661.1005,
        4688.6884,
        4716.2764,
        4743.8643,
        4771.4523,
        4799.0402,
        4826.6281,
        4854.2161,
        4881.804,
        4909.392,
        4936.9799,
        4964.5678,
        4992.1558,
        5019.7437,
        5047.3317,
        5074.9196,
        5102.5075,
        5130.0955,
        5157.6834,
        5185.2714,
        5212.8593,
        5240.4472,
        5268.0352,
        5295.6231,
        5323.2111,
        5350.799,
        5378.3869,
        5405.9749,
        5433.5628,
        5461.1508,
        5488.7387,
        5516.3266,
        5543.9146,
        5571.5025,
        5599.0905,
        5626.6784,
        5654.2663,
        5681.8543,
        5709.4422,
        5737.0302,
        5764.6181,
        5792.206,
        5819.794,
        5847.3819,
        5874.9698,
        5902.5578,
        5930.1457,
        5957.7337,
        5985.3216,
        6012.9095,
        6040.4975,
        6068.0854,
        6095.6734,
        6123.2613,
        6150.8492,
        6178.4372,
        6206.0251,
        6233.6131,
        6261.201,
        6288.7889,
        6316.3769,
        6343.9648,
        6371.5528,
        6399.1407,
        6426.7286,
        6454.3166,
        6481.9045,
        6509.4925,
        6537.0804,
        6564.6683,
        6592.2563,
        6619.8442,
        6647.4322,
        6675.0201,
        6702.608,
        6730.196,
        6757.7839,
        6785.3719,
        6812.9598,
        6840.5477,
        6868.1357,
        6895.7236,
        6923.3116,
        6950.8995,
        6978.4874,
        7006.0754,
        7033.6633,
        7061.2513,
        7088.8392,
        7116.4271,
        7144.0151,
        7171.603,
        7199.191,
        7226.7789,
        7254.3668,
        7281.9548,
        7309.5427,
        7337.1307,
        7364.7186,
        7392.3065,
        7419.8945,
        7447.4824,
        7475.0704,
        7502.6583,
        7530.2462,
        7557.8342,
        7585.4221,
        7613.0101,
        7640.598,
        7668.1859,
        7695.7739,
        7723.3618,
        7750.9497,
        7778.5377,
        7806.1256,
        7833.7136,
        7861.3015,
        7888.8894,
        7916.4774,
        7944.0653,
        7971.6533,
        7999.2412,
        8026.8291,
        8054.4171,
        8082.005,
        8109.593,
        8137.1809,
        8164.7688,
        8192.3568,
        8219.9447,
        8247.5327,
        8275.1206,
        8302.7085,
        8330.2965,
        8357.8844,
        8385.4724,
        8413.0603,
        8440.6482,
        8468.2362,
        8495.8241,
        8523.4121,
        8551.0
      ],
      "units":"angstrom"
    },
    "values":{
      "value":[
        0.0083959355,
        0.0091574802,
        0.0091618755,
        0.0091662374,
        0.0091705991,
        0.0091778375,
        0.0092511567,
        0.0096532431,
        0.010804936,
        0.012868236,
        0.015410909,
        0.017633689,
        0.018977293,
        0.019503736,
        0.019637252,
        0.019676047,
        0.019694385,
        0.019699534,
        0.0197,
        0.0197,
        0.0197,
        0.0197,
        0.0197,
        0.019701536,
        0.019752986,
        0.020086375,
        0.021121034,
        0.023081655,
        0.025716995,
        0.02860679,
        0.031533648,
        0.034477518,
        0.037596272,
        0.041267804,
        0.046445053,
        0.059890943,
        0.10148082,
        0.19227604,
        0.32825058,
        0.47884677,
        0.61177747,
        0.71342071,
        0.78972289,
        0.84872936,
        0.88874775,
        0.9084755,
        0.91549801,
        0.91869778,
        0.9215998,
        0.92454107,
        0.92745669,
        0.93032032,
        0.93314645,
        0.93595944,
        0.9387123,
        0.94134141,
        0.94386213,
        0.94635923,
        0.94892964,
        0.95161854,
        0.95436588,
        0.95695802,
        0.95900326,
        0.96018445,
        0.9606151,
        0.96069552,
        0.9607,
        0.9607,
        0.9607,
        0.9607,
        0.96069801,
        0.9606453,
        0.96031354,
        0.95928966,
        0.95735196,
        0.95477037,
        0.95201519,
        0.94935014,
        0.94678141,
        0.9440481,
        0.94061729,
        0.93610327,
        0.93071957,
        0.92504146,
        0.91946271,
        0.91396909,
        0.90810238,
        0.90108156,
        0.89239121,
        0.88231738,
        0.87158123,
        0.860651,
        0.84961043,
        0.83827984,
        0.82629454,
        0.81339692,
        0.7996385,
        0.78497075,
        0.76893603,
        0.75125947,
        0.73246216,
        0.71339595,
        0.69437556,
        0.67513682,
        0.65522659,
        0.63409632,
        0.61152806,
        0.58801611,
        0.56401335,
        0.53961883,
        0.51524649,
        0.49137064,
        0.46839247,
        0.44713235,
        0.42792672,
        0.40961459,
        0.39031953,
        0.36896098,
        0.34607614,
        0.32353812,
        0.30343952,
        0.28655558,
        0.27172596,
        0.25713043,
        0.24173321,
        0.22512024,
        0.20626535,
        0.18324348,
        0.15515206,
        0.12420224,
        0.095216599,
        0.072414314,
        0.056232997,
        0.044342495,
        0.035321254,
        0.029120118,
        0.025121764,
        0.022082006,
        0.019214055,
        0.016392525,
        0.013859275,
        0.011997632,
        0.011014889,
        0.010702786,
        0.010662643,
        0.010662984,
        0.010660946,
        0.01065886,
        0.010656476,
        0.010657494,
        0.010664758,
        0.010678256,
        0.010689706,
        0.010692939,
        0.010692228,
        0.010690685,
        0.010698256,
        0.010722149,
        0.010744417,
        0.010749865,
        0.010747819,
        0.010745684,
        0.010742904,
        0.010740952,
        0.010738399,
        0.010735898,
        0.010733836,
        0.010731177,
        0.010729367,
        0.01072692,
        0.010724544,
        0.010722869,
        0.010726967,
        0.010752595,
        0.010794222,
        0.010822151,
        0.010828599,
        0.010827702,
        0.010825086,
        0.010822452,
        0.010820344,
        0.010817553,
        0.010815577,
        0.010813024,
        0.010810513,
        0.010808516,
        0.010809419,
        0.010824629,
        0.010850229,
        0.010864983,
        0.010865636,
        0.010863615,
        0.010860759,
        0.010846109,
        0.010781483,
        0.010634774,
        0.010454197
      ],
      "range":1
    }
  }
]
