[
  {
    "model":"Nikon D60",
    "name":"Nikon D60 LPF",
    "type":"OSC_LPF",
    "dataQualityMarker":3,
    "dataSource":"SVO Filter Profile Service",
    "manufacturer":"Nikon",
    "version":1,
    "wavelength":{
      "value":[
        3055.0,
        3082.4925,
        3109.9849,
        3137.4774,
        3164.9698,
        3192.4623,
        3219.9548,
        3247.4472,
        3274.9397,
        3302.4322,
        3329.9246,
        3357.4171,
        3384.9095,
        3412.402,
        3439.8945,
        3467.3869,
        3494.8794,
        3522.3719,
        3549.8643,
        3577.3568,
        3604.8492,
        3632.3417,
        3659.8342,
        3687.3266,
        3714.8191,
        3742.3116,
        3769.804,
        3797.2965,
        3824.7889,
        3852.2814,
        3879.7739,
        3907.2663,
        3934.7588,
        3962.2513,
        3989.7437,
        4017.2362,
        4044.7286,
        4072.2211,
        4099.7136,
        4127.206,
        4154.6985,
        4182.191,
        4209.6834,
        4237.1759,
        4264.6683,
        4292.1608,
        4319.6533,
        4347.1457,
        4374.6382,
        4402.1307,
        4429.6231,
        4457.1156,
        4484.608,
        4512.1005,
        4539.593,
        4567.0854,
        4594.5779,
        4622.0704,
        4649.5628,
        4677.0553,
        4704.5477,
        4732.0402,
        4759.5327,
        4787.0251,
        4814.5176,
        4842.0101,
        4869.5025,
        4896.995,
        4924.4874,
        4951.9799,
        4979.4724,
        5006.9648,
        5034.4573,
        5061.9497,
        5089.4422,
        5116.9347,
        5144.4271,
        5171.9196,
        5199.4121,
        5226.9045,
        5254.397,
        5281.8894,
        5309.3819,
        5336.8744,
        5364.3668,
        5391.8593,
        5419.3518,
        5446.8442,
        5474.3367,
        5501.8291,
        5529.3216,
        5556.8141,
        5584.3065,
        5611.799,
        5639.2915,
        5666.7839,
        5694.2764,
        5721.7688,
        5749.2613,
        5776.7538,
        5804.2462,
        5831.7387,
        5859.2312,
        5886.7236,
        5914.2161,
        5941.7085,
        5969.201,
        5996.6935,
        6024.1859,
        6051.6784,
        6079.1709,
        6106.6633,
        6134.1558,
        6161.6482,
        6189.1407,
        6216.6332,
        6244.1256,
        6271.6181,
        6299.1106,
        6326.603,
        6354.0955,
        6381.5879,
        6409.0804,
        6436.5729,
        6464.0653,
        6491.5578,
        6519.0503,
        6546.5427,
        6574.0352,
        6601.5276,
        6629.0201,
        6656.5126,
        6684.005,
        6711.4975,
        6738.9899,
        6766.4824,
        6793.9749,
        6821.4673,
        6848.9598,
        6876.4523,
        6903.9447,
        6931.4372,
        6958.9296,
        6986.4221,
        7013.9146,
        7041.407,
        7068.8995,
        7096.392,
        7123.8844,
        7151.3769,
        7178.8693,
        7206.3618,
        7233.8543,
        7261.3467,
        7288.8392,
        7316.3317,
        7343.8241,
        7371.3166,
        7398.809,
        7426.3015,
        7453.794,
        7481.2864,
        7508.7789,
        7536.2714,
        7563.7638,
        7591.2563,
        7618.7487,
        7646.2412,
        7673.7337,
        7701.2261,
        7728.7186,
        7756.2111,
        7783.7035,
        7811.196,
        7838.6884,
        7866.1809,
        7893.6734,
        7921.1658,
        7948.6583,
        7976.1508,
        8003.6432,
        8031.1357,
        8058.6281,
        8086.1206,
        8113.6131,
        8141.1055,
        8168.598,
        8196.0905,
        8223.5829,
        8251.0754,
        8278.5678,
        8306.0603,
        8333.5528,
        8361.0452,
        8388.5377,
        8416.0302,
        8443.5226,
        8471.0151,
        8498.5075,
        8526.0
      ],
      "units":"angstrom"
    },
    "values":{
      "value":[
        0.010276768,
        0.00993104,
        0.0096698518,
        0.0095850212,
        0.0095777031,
        0.0095777,
        0.0095777,
        0.0095777,
        0.0095777,
        0.0095777,
        0.0095777,
        0.0095777,
        0.0095777,
        0.0095777,
        0.0095777,
        0.0095778934,
        0.0095971992,
        0.0097755319,
        0.01047293,
        0.012031731,
        0.014374633,
        0.017093974,
        0.019876375,
        0.022666455,
        0.025490043,
        0.028159198,
        0.030355151,
        0.032053052,
        0.033512832,
        0.03492191,
        0.036327513,
        0.037896489,
        0.040323629,
        0.044666203,
        0.051311331,
        0.059944627,
        0.070624346,
        0.083627819,
        0.10260628,
        0.14402911,
        0.23258102,
        0.37373222,
        0.53999503,
        0.68911493,
        0.79174253,
        0.84835313,
        0.87872517,
        0.89639403,
        0.90409424,
        0.90469476,
        0.90358062,
        0.9048482,
        0.90968878,
        0.9167967,
        0.92370911,
        0.928508,
        0.93099677,
        0.93231278,
        0.93347192,
        0.93474736,
        0.93608246,
        0.9374174,
        0.93855924,
        0.93924388,
        0.93957425,
        0.94009458,
        0.9413624,
        0.94348854,
        0.94599777,
        0.94812466,
        0.94936393,
        0.94981201,
        0.94989515,
        0.94989982,
        0.94988053,
        0.94969963,
        0.94899476,
        0.94742861,
        0.94511219,
        0.94256832,
        0.94027293,
        0.93834295,
        0.9364586,
        0.93386361,
        0.92979394,
        0.92418072,
        0.91753813,
        0.91027904,
        0.90262889,
        0.89481293,
        0.88692423,
        0.87893086,
        0.87085458,
        0.86250184,
        0.8531064,
        0.8418505,
        0.82871241,
        0.81425943,
        0.79889379,
        0.78280754,
        0.76617018,
        0.74899332,
        0.73117381,
        0.71271617,
        0.69366415,
        0.67407425,
        0.65419876,
        0.63426607,
        0.61439983,
        0.59483223,
        0.57552852,
        0.55595629,
        0.53539305,
        0.51337067,
        0.49026502,
        0.46705944,
        0.44450994,
        0.42299559,
        0.40247427,
        0.38239644,
        0.36210692,
        0.34123516,
        0.31997495,
        0.29905725,
        0.27904256,
        0.25972541,
        0.2401608,
        0.21913051,
        0.19598076,
        0.17115232,
        0.14575413,
        0.12068377,
        0.09635026,
        0.07363292,
        0.054724596,
        0.041469765,
        0.033062046,
        0.027108886,
        0.022232023,
        0.018254129,
        0.015064306,
        0.012513344,
        0.010744354,
        0.0098697668,
        0.0096127151,
        0.0095784497,
        0.0095777,
        0.0095777,
        0.0095777,
        0.0095777,
        0.0095777,
        0.0095777,
        0.0095777,
        0.0095777,
        0.0095777,
        0.0095777,
        0.0095777,
        0.0095777,
        0.0095777,
        0.0095777,
        0.0095777,
        0.0095777,
        0.0095777,
        0.0095777,
        0.0095777,
        0.0095777,
        0.0095777,
        0.0095777,
        0.0095777,
        0.0095777,
        0.0095777,
        0.0095777,
        0.0095777,
        0.0095777,
        0.0095777,
        0.0095777,
        0.0095777,
        0.0095777,
        0.0095777,
        0.0095777,
        0.0095777,
        0.0095777,
        0.0095777,
        0.0095777,
        0.0095777,
        0.0095777,
        0.0095777,
        0.0095777,
        0.0095777,
        0.0095777,
        0.0095777,
        0.0095777,
        0.0095777,
        0.0095777,
        0.0095777,
        0.00957789,
        0.0096121796,
        0.0099080725,
        0.010741947,
        0.011823194
      ],
      "range":1
    }
  }
]
