[
  {
    "model": "IDAS LPS P3 Light Pollution",
    "name": "IDAS LPS P3",
    "type": "OSC_FILTER",
    "dataQualityMarker": 2,
    "dataSource": "Scanned from Transmission Chart",
    "manufacturer": "IDAS",
    "version": 1,
    "wavelength": { 
       "value":  [371.4936,381.3204,391.1472,400.9740,407.4826,408.1207,408.7588,409.4608,409.6522,409.9074,410.3541,410.5455,410.8008,411.2474,411.4389,411.5154,411.6941,412.1408,412.3322,412.5875,413.0341,413.2256,413.4808,414.1189,414.3345,414.3741,414.8208,416.8942,419.9659,422.0137,424.2009,424.3796,424.6476,425.0943,425.2730,425.5410,425.9876,426.1663,426.4343,426.8810,427.0596,427.3276,427.7743,427.9530,428.2210,428.6677,428.8463,429.3058,429.5610,430.0077,431.2287,443.5297,446.5346,447.2492,447.3003,447.8746,448.0660,448.3212,448.7679,448.9593,449.2146,449.6613,449.8527,450.1079,450.5546,450.7460,451.0013,451.6394,451.7160,451.8946,452.3413,452.7880,453.6813,455.0851,460.8281,470.6549,480.4817,490.3084,500.1352,509.9620,519.7888,528.3252,530.5090,530.6876,531.4023,531.5810,531.8490,532.2956,532.4743,532.7423,533.1890,533.4123,533.6357,534.0823,534.2610,534.5290,534.9757,535.1544,535.1990,535.8690,536.0924,536.3157,536.7624,536.9410,537.2090,537.8344,538.1024,538.9957,544.8025,554.6293,561.4187,562.2227,563.3075,563.8605,564.2008,564.4561,565.0942,565.3494,566.1311,566.2427,566.6894,566.8809,567.1361,567.5828,567.8805,568.0294,568.4761,568.6675,569.4539,569.9659,570.9898,573.0375,577.6451,578.3029,578.4943,578.7496,578.9282,579.1962,579.2856,579.6429,580.0896,580.2385,580.5363,580.7149,580.9829,581.4296,581.6083,581.8763,582.6803,582.7696,583.3950,583.6630,584.5563,585.6411,590.9586,601.0832,609.5700,613.1433,615.5256,616.2701,616.7167,617.7590,618.6948,619.5456,619.8434,620.4815,620.7368,621.5185,621.6301,622.0768,622.2682,622.5235,622.9701,623.1616,623.6721,624.0549,624.3102,624.9483,625.2035,625.7991,626.0968,626.7349,627.7346,628.5982,635.0303,644.8571,654.6839,664.5107,674.3375,684.1642,690.1943,691.3110,691.7577,692.4596,693.0977,693.2764,693.9910,694.1697,694.8844,695.0631,695.3311,695.7777,695.9564,696.6711,696.8497,697.1177,697.7431,698.0111,698.4578,698.6364,698.9044,699.3511,699.5298,700.4231,701.3930,702.4778,704.5836,710.4286,719.8980,727.6451,733.2765,739.5516,749.3784,759.2052,769.0320,778.8588,788.6856,798.5124,808.3392,818.1660,827.9927,837.8195,847.6463,857.4731,867.2999,877.1267,886.9535,896.7803,906.6071,916.4339,926.2607,936.0875,945.9142,955.7410,965.5678,975.3946,985.2214,995.0482,1003.9817],
       "units": "nm"
    },
    "values": {
      "value": [0.14543372203714,0.154777486911001,0.154777486911001,0.948997501189908,3.37036742707554,6.28740183246073,9.42345853590128,17.062320026178,20.1971531413613,23.2805955497382,29.8072153141361,32.9420484293194,37.1218259162304,41.78125,44.923424644727,39.2528272251309,51.3741819371728,55.6567408376963,58.7255001869858,65.8321007853403,67.8106429973822,70.8243408750935,77.960307591623,80.7207227000748,88.6910994764398,83.8188481675393,85.8744764397906,93.520942408377,91.4005235602094,94.5811518324607,89.3176537958115,79.3581348167539,81.9533655104712,76.8811027486911,65.0715183246073,69.7377945026178,58.9800065445026,62.0086321989529,56.3762107329843,49.2500327225131,35.3265772251309,42.1923756544503,32.8050065445026,23.2600392670157,30.2183409685864,18.4332283096485,11.2825785340314,14.6469568062827,8.89119764397906,4.54868291884817,0.575916230366502,1.34143562589243,3.54656413612565,5.64330497382198,8.97929599850411,11.7690772251309,14.9112518698579,20.6082787958115,22.8180791884817,25.8648139491399,29.9956479057592,36.8477421465969,39.9605506731488,47.1258835078534,49.4384653141361,54.7610742333583,64.9413285340314,70.4425813388183,66.942140052356,76.9324934554974,79.399247382199,87.4847185863874,89.9710499252057,93.641814697083,96.2273679200381,96.6945561637316,97.0776505235602,96.8627439314612,96.881431461209,96.2927742741552,95.8816486197049,95.2961060209424,92.6237892670157,90.0474018324607,87.7588023560209,80.7765183246073,83.2021596858639,74.671302356021,77.6314070680628,72.6670647905759,64.872807591623,67.6050801701571,62.1833606020942,55.1428337696335,43.7752094240838,50.3463678010471,33.969862565445,31.7086714659686,41.1131708115183,26.4325589005236,29.1391361256544,21.8930464659686,17.1822316753927,12.4679908376963,14.9553010471204,6.52722513089006,9.41271815008726,3.34100130890053,0.892934911946696,0.649997025226085,2.31318717277487,4.72855039267016,8.14236163051608,11.3031348167539,13.8540716155572,19.5119437172775,22.2968305908751,31.5716295811518,34.4580742801047,41.233082460733,43.7084015052356,46.7441239715782,56.1706479057592,58.3804482984293,60.9671138743456,66.9969568062827,69.4808409685864,72.4982096110696,76.3219895287958,86.0994764397906,90.4581151832461,95.6413612565445,88.2198952879581,82.4826897905759,72.454160433807,79.5362892670157,63.6325785340314,66.140445026178,68.471527486911,61.4467604712042,56.9357984293194,48.3935209424084,46.1665903141361,39.0678206806283,43.9396596858639,37.053304973822,27.679640052356,34.6379417539267,25.0895484293194,22.6125163612566,13.9891557591623,17.1342670157068,10.8234882198953,4.853356394914,2.01340804973822,1.41618574488339,2.72431282722513,4.77994109947645,7.17817408376963,9.7340052356021,12.1288121727749,15.1094731675393,18.6664442314884,21.4990510471204,26.7751636125655,31.7820867614061,42.8090641361257,39.6999263743456,44.1109620418848,46.509195026178,49.56327131638,62.131969895288,56.0935618455497,59.1843457834705,68.2915131824981,64.525308526552,71.2795157068063,76.0221437920718,78.9881217277487,83.2706806282723,86.1828206806283,89.0900663799551,93.0863056282723,96.1526178010471,97.5822138267492,97.451401118515,96.8627439314612,96.37686815802,96.6478373393622,96.6291498096145,94.5595058900524,92.486747382199,90.139905104712,86.608629394166,83.5105039267016,80.7559620418848,75.6305955497382,73.1193030104712,67.1339986910995,70.1489201570681,62.5430955497382,57.7466295811518,55.0194960732984,49.9352421465969,45.4114895287958,47.8453534031414,36.6627356020942,39.1089332460733,33.9184718586387,28.9952421465969,31.5544993455497,23.0750327225131,20.653502617801,14.6058442408377,11.0231778234854,7.29808573298429,3.63466249065071,0.853691099476436,0.22952760590195,0.222513089005247,1.04712041884818,0.294933960019023,0.154777486911001,0.332309019514526,0.154777486911001,0.154777486911001,0.154777486911001,0.14543372203714,0.154777486911001,0.14543372203714,0.154777486911001,0.126746192289389,0.154777486911001,0.154777486911001,0.154777486911001,0.154777486911001,0.154777486911001,0.164121251784863,0.154777486911001,0.154777486911001,0.154777486911001,0.154777486911001,0.14543372203714,0.117402427415527,0.108058662541652,0.117402427415527,0.0987148976677901,0.0987148976677901,0.10909685863875],
      "range": 100
    }
  }
]
