[
  {
    "model": "Optolong L-Pro Light Pollution",
    "name": "Optolong L-Pro",
    "type": "OSC_FILTER",
    "dataQualityMarker": 2,
    "dataSource": "Scanned from Transmission Chart",
    "manufacturer": "Optolong",
    "version": 1,
    "wavelength": { 
       "value":  [352.5483,358.4525,364.3568,370.261,376.1652,382.0695,387.9737,393.8779,399.7822,405.6864,410.8526,413.4693,414.4086,414.8111,415.3479,415.6163,415.992,416.153,416.4214,416.5556,416.6898,416.9581,417.0655,417.2265,417.4949,417.6022,417.7633,418.0316,418.139,418.3,418.6757,418.8368,419.2125,419.7095,420.2628,421.5205,423.8589,425.0094,425.5461,425.9487,426.3512,426.4854,426.888,427.0222,427.4247,427.5589,428.0957,428.6324,429.035,429.1692,429.5717,429.8401,430.1085,430.2427,430.6452,431.6651,435.804,440.9106,443.2588,444.3323,445.1375,445.4058,445.9426,446.4793,446.7477,447.1234,447.2845,447.5528,447.687,447.8212,448.1969,448.358,448.7337,448.8947,449.2704,449.4314,449.8072,449.9682,450.2366,450.7733,451.3101,451.981,455.6041,461.5083,467.4125,473.3168,479.221,485.1252,491.0295,496.9337,502.838,508.2054,513.5729,519.4772,525.3814,529.0045,529.407,529.5412,529.9438,530.2121,530.4805,530.7489,531.2856,531.6882,532.0908,532.225,532.6275,532.7617,533.1643,533.4326,533.6116,534.3272,534.5061,535.0429,535.9822,536.6531,537.995,541.6628,547.3881,551.1454,552.7556,553.8291,554.3658,554.9026,555.4393,555.5467,555.9761,556.2445,556.6202,556.7812,557.1569,557.318,557.6937,557.8547,558.1231,558.302,558.6598,558.9282,559.3039,559.6819,560.5118,562.1715,564.3845,564.9378,565.3692,565.5034,565.9954,566.1743,566.4427,566.5769,566.9794,567.1136,567.6057,567.6504,568.1424,568.1871,568.6791,568.8581,569.2875,569.5737,570.1999,571.0051,571.5418,573.1521,577.285,583.3503,588.7774,592.7971,594.0853,594.622,595.1588,595.6955,596.2323,596.3396,596.769,596.8764,597.4131,597.5741,597.8425,597.9767,598.1109,598.4866,598.6476,598.916,599.1844,599.5601,599.7211,600.0968,600.5262,601.1703,601.4523,603.3887,606.7082,606.9672,607.504,607.9065,608.3091,608.4433,608.9353,609.1142,609.3826,609.5168,609.9194,610.0535,610.4561,610.5903,610.9929,611.127,611.5296,611.798,611.9769,612.6926,612.8715,613.4082,614.1239,615.0185,616.3603,619.9387,624.6799,630.5842,634.8782,637.3472,638.6354,639.7089,640.2457,640.7824,641.4533,641.8559,642.3927,643.0368,643.5735,644.1103,644.647,645.0764,645.2106,645.6132,646.1499,646.794,647.2234,647.8943,648.2969,649.3704,650.1383,653.1276,659.0319,664.9361,670.8403,676.7446,679.4606,680.8437,682.6488,688.0163,690.249,691.2368,691.7736,692.847,693.9205,694.8867,695.5308,696.0675,696.6043,697.141,697.6778,698.2145,698.7513,699.288,699.8248,700.3615,700.8983,701.435,701.9718,702.5085,703.0453,703.582,704.1188,704.6555,705.729,706.8025,708.1444,710.5598,714.8538,720.758,726.6622,732.5665,738.4707,744.3749,748.4006],
       "units": "nm"
    },
    "values": {
      "value": [0.0878887577553655,0.0878887577553655,0.0878887577553655,0.0878887577553655,0.0878887577553655,0.0878887577553655,0.0878887577553655,0.0878887577553655,0.172333262804941,0.775508298873319,3.05701787280195,5.99297236086477,9.44313356717589,12.8711783554978,16.7415515036032,20.2580619638819,24.2124775003461,28.6180679637896,34.4568023129314,31.471085884393,36.314581424022,44.0110948842545,40.1150666912817,45.7361754874101,53.2999904397075,49.4145781273695,54.892372534928,62.3234889792904,58.9901024599622,64.7120621221212,68.5072394490634,72.8066711061588,76.3099117156439,81.5349544072948,85.0911854103343,88.5977935504289,83.1762917933131,77.2852457489665,73.5586293177907,69.456033780799,66.4371427252767,63.0201561459494,59.6695188205896,56.2193576142785,53.5653874555776,49.8697340095867,46.0679217572477,42.0537918922126,38.7031545668528,34.8880724637203,29.1488619955297,22.690867942691,16.2771067258306,12.893294773487,8.51424401163058,4.2280822053287,1.4738509517436,2.44328727360238,5.08619922330864,8.34837087671178,10.4383723766887,13.722660448081,18.3588145690616,22.8456828686152,26.3621933288938,30.3378406266277,34.7221993288015,40.5609336779434,37.5088679954374,42.286014281099,45.7892548905841,49.7171307254614,56.4847546301485,60.99650389994,64.3405062999031,68.4276203443024,72.0104800585486,75.9914352965998,81.6974711378067,84.5173144314263,88.9516562382557,92.6119234154639,95.3412904536733,94.2917658909144,97.1870060640426,97.3076410712562,97.1146250597144,95.4016079572802,97.3197045719776,97.0422440553862,95.2930364507879,95.0262990459488,97.8625621044392,97.6092285892904,94.9431949298682,91.351287590081,88.1996980266238,84.6168383123776,81.1666771060665,74.5759845452927,68.2949218363674,65.6851845136448,57.3251785137371,53.0345934238374,49.7171307254614,46.0679217572477,43.0822053287092,39.6320441223981,36.7126769478272,33.4836799214078,29.6354231912916,26.4064261648722,22.7793336146477,18.6325052416776,14.2534544798212,11.1018649163639,7.71805296402033,4.17205394642281,3.46566895973828,5.9708559428756,8.84599028146819,12.2961514877793,16.2328738898522,20.1850777845176,28.3526709479195,25.1413670558914,31.8028321542306,35.6510888843468,39.3613391662106,43.6129993604494,47.3816369858046,51.840306852422,55.5293253730162,59.8022173285246,68.1622233284323,63.4071934607599,70.6436854268176,74.2663546934443,77.8226747061034,83.3130699088146,89.0577507598784,92.887537993921,87.1428571428571,83.9969604863222,77.9819129156255,74.6423337992602,70.5507964712631,68.3612710903349,65.5082531697315,61.693171066599,55.9539605984084,52.7360217809836,48.9651725138295,44.9731590667836,40.7378650218568,36.8453754557622,32.5105575298842,29.2373276674864,24.3982554114552,20.0368977839901,16.4098052337656,12.0971037258767,8.75752460951151,5.42236877674409,2.22433473550956,1.48122309107332,2.56492757254283,6.08586131641931,9.42986371638237,12.384617159736,15.6578470221337,19.5083153940489,27.5564799003092,23.947080484476,34.1914052970614,30.7164737026024,37.4027091890894,41.6225217414238,47.4612560905656,44.8736351858323,49.8498292333964,53.5123080524036,57.811739709499,61.6268218126315,65.2428561538614,68.8363317487423,72.8066711061588,76.442610223579,81.6642965108229,86.5807762298162,89.468085106383,92.887537993921,89.0577507598784,86.2534532435765,83.0686890531354,79.1430248600571,76.1241338045349,72.8398457331426,68.6930173601725,66.5034919792443,63.6504740586409,59.9216459856661,57.0155486618887,53.2999904397075,50.1152262492665,46.4991919080366,43.3476023445793,39.8377268096974,36.8453754557622,33.6606112653212,29.7533774205671,26.4948918368289,23.1331963024745,19.209743751195,15.436682842242,12.1302783528605,8.31519624972802,4.79868578944939,3.45360545901691,4.38249501456221,7.43938609735673,11.261103125886,15.3150425433015,19.6277440511904,21.7177455511673,24.537588844787,28.7507664717246,32.3778590219491,36.5468038129084,41.3836644271407,46.6119856397814,51.9199259571831,57.3871044841068,64.7120621221212,62.2571397253229,67.9366358649427,72.6076233442562,77.3449600775373,81.8744024817201,85.7779502568092,89.3497517620608,92.8109711773665,95.2127659574468,96.5958945286956,96.969863051058,96.9939900525007,97.0181170539434,96.3908150164323,95.8966565349544,96.854103343465,96.4028785171537,96.4712383545748,94.6656534954407,92.6229816244585,90.1017099736927,87.0385860821921,83.0244562171571,78.1411511251475,74.4432860373577,71.4796860268084,68.2949218363674,65.065924809948,61.7484621115719,58.3867665772175,54.892372534928,51.3095128206819,47.7708859424141,44.1437933921896,40.4724680059867,36.9780739636973,33.5279127573862,30.2104500590101,26.9814530325907,23.8704102354469,21.0100201755138,18.3560500168129,14.7178992575938,11.1350395433477,8.05643415925468,4.62617772913384,1.93360436812459,0.71519079526648,0.37741277506818,0.292968270018619,0.220587265690412,0.220587265690412,0.220587265690412],
      "range": 100
    }
  }
]
