[
  {
    "model": "ZWO ASI1600M",
    "name": "ZWO ASI1600M",
    "type": "MONO_SENSOR",
    "dataQualityMarker": 2,
    "dataSource": "Scanned from OEM QE plot",
    "manufacturer": "ZWO",
    "version": 1,
    "wavelength": { 
       "value":  [378,390,395,400,405,410,415,420,425,430,435,440,445,450,455,460,465,470,475,480,485,490,495,500,505,510,515,520,525,530,535,540,545,550,555,560,565,570,575,580,585,590,595,600,605,610,615,620,625,630,635,640,645,650,655,660,665,670,675,680,685,690,695,704],
       "units": "nm"
    },
    "values": {
      "value": [0.192070936930095,0.245797797522043,0.273764510867656,0.306908343239857,0.332924359078142,0.356510253099421,0.372825058320733,0.388906569663296,0.41128150691427,0.434899215945115,0.453964499108721,0.467418804742058,0.476266053556794,0.48037449520963,0.47609633067174,0.477514081689875,0.484248843122317,0.499668134846559,0.520246898453077,0.537067568942146,0.540962499549958,0.538081374236651,0.538603310440734,0.544505382189394,0.557791060679185,0.57438655359627,0.583502927141404,0.590323195121674,0.586706396994183,0.578127815890881,0.56630551325065,0.552238823560439,0.541419505196642,0.527100535000246,0.518975430118747,0.518066413751784,0.524584243638001,0.529644342440682,0.540804861520691,0.542417090660198,0.52814497302847,0.5091645456688,0.493070821582197,0.473557473247389,0.47520062958579,0.477839220873997,0.47520282493469,0.474211292395272,0.475202020601093,0.47468335619579,0.465670050327187,0.455182614245852,0.442183728016538,0.430462115418678,0.422169483861267,0.413081787674676,0.403448535258646,0.390818875924431,0.371732439783223,0.353263935365294,0.333564000431702,0.315939366204371,0.311884541819752,0.293126915281068],
      "range": 1
    }
  }
]
