[
  {
    "model": "Canon EOS 50D",
    "name": "Canon EOS 50D R",
    "type": "OSC_SENSOR",
    "is_dslr": true,
    "dataQualityMarker": 3,
    "dataSource": "SVO Filter Profile Service",
    "manufacturer": "Canon",
    "channel": "RED",
    "version": 1,
    "wavelength": { 
       "value":  [4000,4100,4200,4300,4400,4500,4600,4700,4800,4900,5000,5100,5200,5300,5400,5500,5600,5700,5800,5900,6000,6100,6200,6300,6400,6500,6600,6700,6800,6900,7000,7100],
       "units": "angstrom"
    },
    "values": {
      "value": [0.0028702,0.0041069,0.011116,0.0073087,0.006094,0.0077521,0.011988,0.020974,0.040081,0.057985,0.078288,0.10762,0.12367,0.14337,0.16177,0.21597,0.24571,0.31892,0.47163,0.5751,0.52469,0.50401,0.41372,0.36871,0.27449,0.24825,0.18265,0.12534,0.038161,0.0071614,0.0015313,0.00041294],
      "range": 1
    }
  },
  {
    "model": "Canon EOS 50D",
    "name": "Canon EOS 50D G",
    "type": "OSC_SENSOR",
    "dataQualityMarker": 3,
    "dataSource": "SVO Filter Profile Service",
    "manufacturer": "Canon",
    "channel": "GREEN",
    "version": 1,
    "wavelength": { 
       "value":  [4000,4100,4200,4300,4400,4500,4600,4700,4800,4900,5000,5100,5200,5300,5400,5500,5600,5700,5800,5900,6000,6100,6200,6300,6400,6500,6600,6700,6800,6900,7000],
       "units": "angstrom"
    },
    "values": {
      "value": [0.0038429,0.0084168,0.04719,0.059687,0.07931,0.101,0.14369,0.29073,0.55534,0.71604,0.83415,0.96078,0.95231,1,0.90476,0.91429,0.77717,0.69504,0.59941,0.48003,0.30101,0.18953,0.10826,0.079299,0.055709,0.046082,0.03412,0.026783,0.010069,0.0023621,0.00062366],
      "range": 1
    }
  },
  {
    "model": "Canon EOS 50D",
    "name": "Canon EOS 50D B",
    "type": "OSC_SENSOR",
    "dataQualityMarker": 3,
    "dataSource": "SVO Filter Profile Service",
    "manufacturer": "Canon",
    "channel": "BLUE",
    "version": 1,
"wavelength": { 
       "value":  [4000,4100,4200,4300,4400,4500,4600,4700,4800,4900,5000,5100,5200,5300,5400,5500,5600,5700,5800,5900,6000,6100,6200,6300,6400,6500,6600,6700,6800,6900],
       "units": "angstrom"
    },
    "values": {
      "value": [0.019794,0.073244,0.50542,0.74601,0.76997,0.865,0.93131,0.86648,0.82817,0.72488,0.57322,0.44985,0.29398,0.22272,0.17535,0.15767,0.12188,0.11012,0.10481,0.094114,0.067215,0.050614,0.035484,0.030552,0.02425,0.023529,0.019692,0.015408,0.0053095,0.0011014],
      "range": 1
    }
  }
]
