[
  {
    "model": "Canon EOS 20D",
    "name": "Canon EOS 20D R",
    "type": "OSC_SENSOR",
    "is_dslr": true,
    "dataQualityMarker": 3,
    "dataSource": "SVO Filter Profile Service",
    "manufacturer": "Canon",
    "channel": "RED",
    "version": 1,
    "wavelength": { 
       "value":  [4000,4100,4200,4300,4400,4500,4600,4700,4800,4900,5000,5100,5200,5300,5400,5500,5600,5700,5800,5900,6000,6100,6200,6300,6400,6500,6600,6700,6800,6900,7000,7100],
       "units": "angstrom"
    },
    "values": {
      "value": [0.0012373,0.0030106,0.011758,0.025271,0.010475,0.0049324,0.0037963,0.0036845,0.005474,0.0078774,0.01422,0.033682,0.066095,0.12261,0.13197,0.10957,0.135,0.27359,0.43435,0.57273,0.58401,0.55905,0.4565,0.41415,0.31124,0.27841,0.19971,0.11555,0.020638,0.0060597,0.0017974,0.00047773],
      "range": 1
    }
  },
  {
    "model": "Canon EOS 20D",
    "name": "Canon EOS 20D G",
    "type": "OSC_SENSOR",
    "dataQualityMarker": 3,
    "dataSource": "SVO Filter Profile Service",
    "manufacturer": "Canon",
    "channel": "GREEN",
    "version": 1,
    "wavelength": { 
       "value":  [4000,4100,4200,4300,4400,4500,4600,4700,4800,4900,5000,5100,5200,5300,5400,5500,5600,5700,5800,5900,6000,6100,6200,6300,6400,6500,6600,6700,6800,6900],
       "units": "angstrom"
    },
    "values": {
      "value": [0.001769,0.002598,0.012201,0.048114,0.06259,0.10033,0.1265,0.17166,0.31169,0.45374,0.624,0.83267,0.87769,1,0.89233,0.91122,0.74353,0.67042,0.5035,0.36099,0.20583,0.1099,0.054814,0.038684,0.025423,0.020145,0.015219,0.011671,0.0030243,0.0012578],
      "range": 1
    }
  },
  {
    "model": "Canon EOS 20D",
    "name": "Canon EOS 20D B",
    "type": "OSC_SENSOR",
    "dataQualityMarker": 3,
    "dataSource": "SVO Filter Profile Service",
    "manufacturer": "Canon",
    "channel": "BLUE",
    "version": 1,
"wavelength": { 
       "value":  [4000,4100,4200,4300,4400,4500,4600,4700,4800,4900,5000,5100,5200,5300,5400,5500,5600,5700,5800,5900,6000,6100,6200,6300,6400,6500,6600,6700,6800],
       "units": "angstrom"
    },
    "values": {
      "value": [0.0042219,0.014449,0.10198,0.4902,0.56697,0.68024,0.76452,0.77047,0.76653,0.63452,0.48636,0.35011,0.17535,0.092933,0.051083,0.031774,0.014149,0.0096536,0.0069416,0.0052074,0.0031756,0.0025481,0.0022039,0.0024109,0.0019002,0.0025228,0.0028168,0.0020036,0.00045075],
      "range": 1
    }
  }
]
