[
  {
    "model":"Nikon D40",
    "name":"Nikon D40 R",
    "type":"OSC_SENSOR",
    "is_dslr": true,
    "dataQualityMarker":3,
    "dataSource":"SVO Filter Profile Service",
    "manufacturer":"Nikon",
    "version":1,
    "channel": "RED",
    "wavelength":{
      "value":[
        4000.0,
        4100.0,
        4200.0,
        4300.0,
        4400.0,
        4500.0,
        4600.0,
        4700.0,
        4800.0,
        4900.0,
        5000.0,
        5100.0,
        5200.0,
        5300.0,
        5400.0,
        5500.0,
        5600.0,
        5700.0,
        5800.0,
        5900.0,
        6000.0,
        6100.0,
        6200.0,
        6300.0,
        6400.0,
        6500.0,
        6600.0,
        6700.0,
        6800.0,
        6900.0,
        7000.0,
        7100.0,
        7200.0
      ],
      "units":"angstrom"
    },
    "values":{
      "value":[
        0.024961,
        0.021143,
        0.016001,
        0.013401,
        0.010463,
        0.0087063,
        0.0086141,
        0.013979,
        0.016986,
        0.015455,
        0.020048,
        0.036633,
        0.074621,
        0.096479,
        0.051559,
        0.031727,
        0.035235,
        0.11061,
        0.45053,
        0.67508,
        0.57488,
        0.50065,
        0.37559,
        0.30117,
        0.21377,
        0.1553,
        0.11482,
        0.078742,
        0.050859,
        0.035537,
        0.022129,
        0.015214,
        0.0098467
      ],
      "range":1
    }
  },
  {
    "model":"Nikon D40",
    "name":"Nikon D40 G",
    "type":"OSC_SENSOR",
    "dataQualityMarker":3,
    "dataSource":"SVO Filter Profile Service",
    "manufacturer":"Nikon",
    "version":1,
    "channel": "GREEN",
    "wavelength":{
      "value":[
        4000.0,
        4100.0,
        4200.0,
        4300.0,
        4400.0,
        4500.0,
        4600.0,
        4700.0,
        4800.0,
        4900.0,
        5000.0,
        5100.0,
        5200.0,
        5300.0,
        5400.0,
        5500.0,
        5600.0,
        5700.0,
        5800.0,
        5900.0,
        6000.0,
        6100.0,
        6200.0,
        6300.0,
        6400.0,
        6500.0,
        6600.0,
        6700.0,
        6800.0,
        6900.0,
        7000.0,
        7100.0,
        7200.0
      ],
      "units":"angstrom"
    },
    "values":{
      "value":[
        0.034887,
        0.04937,
        0.064249,
        0.086794,
        0.10102,
        0.13099,
        0.18292,
        0.2921,
        0.38557,
        0.42725,
        0.55215,
        0.78889,
        0.88258,
        1.0,
        0.9037,
        0.87539,
        0.69789,
        0.57496,
        0.38678,
        0.26582,
        0.11845,
        0.048996,
        0.019448,
        0.010674,
        0.0059683,
        0.0034973,
        0.0028521,
        0.0031359,
        0.0034555,
        0.0038866,
        0.0035504,
        0.0029044,
        0.0018316
      ],
      "range":1
    }
  },
  {
    "model":"Nikon D40",
    "name":"Nikon D40 B",
    "type":"OSC_SENSOR",
    "dataQualityMarker":3,
    "dataSource":"SVO Filter Profile Service",
    "manufacturer":"Nikon",
    "version":1,
    "channel": "BLUE",
    "wavelength":{
      "value":[
        4000.0,
        4100.0,
        4200.0,
        4300.0,
        4400.0,
        4500.0,
        4600.0,
        4700.0,
        4800.0,
        4900.0,
        5000.0,
        5100.0,
        5200.0,
        5300.0,
        5400.0,
        5500.0,
        5600.0,
        5700.0,
        5800.0,
        5900.0,
        6000.0,
        6100.0,
        6200.0,
        6300.0,
        6400.0,
        6500.0,
        6600.0,
        6700.0,
        6800.0
      ],
      "units":"angstrom"
    },
    "values":{
      "value":[
        0.24055,
        0.40544,
        0.52555,
        0.67595,
        0.71895,
        0.82801,
        0.82871,
        0.7974,
        0.717,
        0.55303,
        0.36349,
        0.21781,
        0.085666,
        0.035779,
        0.018275,
        0.01122,
        0.0059166,
        0.0037644,
        0.0033937,
        0.0029309,
        0.0017556,
        0.0010915,
        0.00074624,
        0.00056884,
        0.00072842,
        0.00059219,
        0.00052411,
        0.00054205,
        0.00045661
      ],
      "range":1
    }
  }
]
