[
  {
    "model":"Nikon D3",
    "name":"Nikon D3 R",
    "is_dslr": true,
    "type":"OSC_SENSOR",
    "dataQualityMarker":3,
    "dataSource":"SVO Filter Profile Service",
    "manufacturer":"Nikon",
    "version":1,
    "channel": "RED",
    "wavelength":{
      "value":[
        4000.0,
        4100.0,
        4200.0,
        4300.0,
        4400.0,
        4500.0,
        4600.0,
        4700.0,
        4800.0,
        4900.0,
        5000.0,
        5100.0,
        5200.0,
        5300.0,
        5400.0,
        5500.0,
        5600.0,
        5700.0,
        5800.0,
        5900.0,
        6000.0,
        6100.0,
        6200.0,
        6300.0,
        6400.0,
        6500.0,
        6600.0,
        6700.0,
        6800.0,
        6900.0,
        7000.0,
        7100.0
      ],
      "units":"angstrom"
    },
    "values":{
      "value":[
        0.0022762,
        0.0027981,
        0.033777,
        0.053485,
        0.040295,
        0.030923,
        0.026542,
        0.028605,
        0.033014,
        0.028928,
        0.031274,
        0.040259,
        0.061924,
        0.074348,
        0.038663,
        0.021882,
        0.025806,
        0.093019,
        0.4662,
        0.71759,
        0.67238,
        0.60074,
        0.48987,
        0.39157,
        0.30163,
        0.23531,
        0.15657,
        0.069783,
        0.014991,
        0.0031496,
        0.0010609,
        0.00047839
      ],
      "range":1
    }
  },
  {
    "model":"Nikon D3",
    "name":"Nikon D3 G",
    "type":"OSC_SENSOR",
    "dataQualityMarker":3,
    "dataSource":"SVO Filter Profile Service",
    "manufacturer":"Nikon",
    "version":1,
    "channel": "GREEN",
    "wavelength":{
      "value":[
        4000.0,
        4100.0,
        4200.0,
        4300.0,
        4400.0,
        4500.0,
        4600.0,
        4700.0,
        4800.0,
        4900.0,
        5000.0,
        5100.0,
        5200.0,
        5300.0,
        5400.0,
        5500.0,
        5600.0,
        5700.0,
        5800.0,
        5900.0,
        6000.0,
        6100.0,
        6200.0,
        6300.0,
        6400.0,
        6500.0,
        6600.0,
        6700.0,
        6800.0
      ],
      "units":"angstrom"
    },
    "values":{
      "value":[
        0.0016372,
        0.0017201,
        0.015367,
        0.038209,
        0.053617,
        0.072599,
        0.11985,
        0.22829,
        0.34829,
        0.38695,
        0.56813,
        0.79771,
        0.90616,
        1.0,
        0.92902,
        0.87187,
        0.73808,
        0.6016,
        0.41735,
        0.26827,
        0.12938,
        0.057778,
        0.027126,
        0.016111,
        0.01036,
        0.0069106,
        0.0050914,
        0.0033023,
        0.0011953
      ],
      "range":1
    }
  },
  {
    "model":"Nikon D3",
    "name":"Nikon D3 B",
    "type":"OSC_SENSOR",
    "dataQualityMarker":3,
    "dataSource":"SVO Filter Profile Service",
    "manufacturer":"Nikon",
    "version":1,
    "channel": "BLUE",
    "wavelength":{
      "value":[
        4000.0,
        4100.0,
        4200.0,
        4300.0,
        4400.0,
        4500.0,
        4600.0,
        4700.0,
        4800.0,
        4900.0,
        5000.0,
        5100.0,
        5200.0,
        5300.0,
        5400.0,
        5500.0,
        5600.0,
        5700.0,
        5800.0,
        5900.0,
        6000.0,
        6100.0,
        6200.0,
        6300.0
      ],
      "units":"angstrom"
    },
    "values":{
      "value":[
        0.007214,
        0.0137,
        0.27324,
        0.64383,
        0.75208,
        0.86078,
        0.89124,
        0.8552,
        0.81283,
        0.62369,
        0.4505,
        0.28966,
        0.13296,
        0.064311,
        0.031574,
        0.015213,
        0.0080397,
        0.0056782,
        0.0042467,
        0.0026458,
        0.0016533,
        0.0011252,
        0.00071852,
        0.00047297
      ],
      "range":1
    }
  }
]
