[
  {
    "model":"Nikon D3X",
    "name":"Nikon D3X R",
    "is_dslr": true,
    "type":"OSC_SENSOR",
    "dataQualityMarker":3,
    "dataSource":"SVO Filter Profile Service",
    "manufacturer":"Nikon",
    "version":1,
    "channel": "RED",
    "wavelength":{
      "value":[
        4000.0,
        4100.0,
        4200.0,
        4300.0,
        4400.0,
        4500.0,
        4600.0,
        4700.0,
        4800.0,
        4900.0,
        5000.0,
        5100.0,
        5200.0,
        5300.0,
        5400.0,
        5500.0,
        5600.0,
        5700.0,
        5800.0,
        5900.0,
        6000.0,
        6100.0,
        6200.0,
        6300.0,
        6400.0,
        6500.0,
        6600.0,
        6700.0,
        6800.0,
        6900.0,
        7000.0
      ],
      "units":"angstrom"
    },
    "values":{
      "value":[
        0.0024406,
        0.0074732,
        0.043482,
        0.041559,
        0.02767,
        0.024976,
        0.019662,
        0.025669,
        0.026141,
        0.024432,
        0.028678,
        0.032457,
        0.059491,
        0.070335,
        0.039702,
        0.018843,
        0.020206,
        0.07366,
        0.42166,
        0.65575,
        0.69133,
        0.54233,
        0.49941,
        0.36845,
        0.3249,
        0.24676,
        0.12792,
        0.019473,
        0.0039954,
        0.0012718,
        0.00041569
      ],
      "range":1
    }
  },
  {
    "model":"Nikon D3X",
    "name":"Nikon D3X G",
    "type":"OSC_SENSOR",
    "dataQualityMarker":3,
    "dataSource":"SVO Filter Profile Service",
    "manufacturer":"Nikon",
    "version":1,
    "channel": "GREEN",
    "wavelength":{
      "value":[
        4000.0,
        4100.0,
        4200.0,
        4300.0,
        4400.0,
        4500.0,
        4600.0,
        4700.0,
        4800.0,
        4900.0,
        5000.0,
        5100.0,
        5200.0,
        5300.0,
        5400.0,
        5500.0,
        5600.0,
        5700.0,
        5800.0,
        5900.0,
        6000.0,
        6100.0,
        6200.0,
        6300.0,
        6400.0,
        6500.0,
        6600.0,
        6700.0,
        6800.0
      ],
      "units":"angstrom"
    },
    "values":{
      "value":[
        0.003237,
        0.0094721,
        0.070843,
        0.10274,
        0.11268,
        0.15445,
        0.19984,
        0.35789,
        0.40744,
        0.42311,
        0.63972,
        0.7795,
        0.97741,
        0.98932,
        1.0,
        0.95998,
        0.78072,
        0.66026,
        0.46838,
        0.29221,
        0.18126,
        0.084093,
        0.050509,
        0.030548,
        0.024419,
        0.017637,
        0.010018,
        0.0020529,
        0.00066224
      ],
      "range":1
    }
  },
  {
    "model":"Nikon D3X",
    "name":"Nikon D3X B",
    "type":"OSC_SENSOR",
    "dataQualityMarker":3,
    "dataSource":"SVO Filter Profile Service",
    "manufacturer":"Nikon",
    "channel": "BLUE",
    "version":1,
    "wavelength":{
      "value":[
        4000.0,
        4100.0,
        4200.0,
        4300.0,
        4400.0,
        4500.0,
        4600.0,
        4700.0,
        4800.0,
        4900.0,
        5000.0,
        5100.0,
        5200.0,
        5300.0,
        5400.0,
        5500.0,
        5600.0,
        5700.0,
        5800.0,
        5900.0,
        6000.0,
        6100.0,
        6200.0,
        6300.0,
        6400.0,
        6500.0,
        6600.0,
        6700.0
      ],
      "units":"angstrom"
    },
    "values":{
      "value":[
        0.011102,
        0.06039,
        0.50664,
        0.70704,
        0.70276,
        0.88834,
        0.85506,
        0.96314,
        0.79375,
        0.62957,
        0.52002,
        0.31329,
        0.19514,
        0.11409,
        0.077371,
        0.045768,
        0.020582,
        0.010729,
        0.0069893,
        0.0043945,
        0.0035622,
        0.0021654,
        0.0022762,
        0.0023488,
        0.00355,
        0.004849,
        0.0036772,
        0.00074569
      ],
      "range":1
    }
  }
]
