[
  {
    "model": "ZWO SeeStar S50",
    "name": "ZWO SeeStar S50 R",
    "type": "OSC_SENSOR",
    "dataQualityMarker": 2,
    "dataSource": "Scanned from QE curve",
    "manufacturer": "ZWO",
    "channel": "RED",
    "version": 1,
    "wavelength": { 
       "value":  [380,400.997684265948,403.8956982674383,407.56651600265934,411.60617188352455,415.6809552068321,417.99936640802434,421.863385076678,423.71811403763184,439.2514690856197,443.88829148800414,448.5251138903886,453.161936292773,457.7987586951575,462.4355810975419,467.0724034999264,471.70922590231083,476.3460483046953,480.98287070707977,485.61969310946415,490.25651551184865,494.8933379142331,499.5301603166175,504.16698271900196,508.8038051213864,513.3854272570759,518.0774499261553,522.7142723285398,527.3510947309242,531.9879171333087,536.6247395356932,541.2615619380775,545.898384340462,550.5352067428464,555.4811506387232,559.0912480805796,561.3544590150768,562.803466015822,564.3490734832835,565.3840784838158,565.6048795505959,566.764085151192,568.3096926186536,566.3776832843266,568.6960944855189,569.565498685966,570.5315033531294,571.2721069312879,571.0145056867111,572.3669122207399,572.6705136875627,573.4295173546196,574.3955220217831,575.1361255999417,574.8785243553648,575.6513280890956,576.5958659858775,577.3686697196083,578.141473453339,578.9142771870697,579.6870809208006,580.4598846545313,581.5761567143645,582.1772262850441,581.4473560920761,582.7031621593885,583.2689648930128,585.2684412199669,586.1807789611769,586.9535826949077,587.2433840950566,588.4025896956528,589.0465928070951,589.7825963630291,590.721000896845,591.8802064974411,593.4258139649025,595.3578232992295,597.6762345004217,600.049845968309,604.6314681039983,609.2682905063828,613.9051129087673,618.2659339776765,623.1787577135361,627.8155801159205,632.452402518305,637.0892249206895,641.726047323074,646.3628697254584,650.6132902609775,652.9317014621697,657.1821219976887,661.8189444000732,666.2625658690249,671.0925892048422,675.7294116072266,680.3662340096109,685.0030564119954,690.0262806812452,693.967579723272,697.3679161516873,700.5879317088986,704.1943491329755,707.5431653124754,711.4540205710522,715.915205761225,720.1656262967442,724.9956496325613,730.1016743018538,734.4624953707629,739.3753191066226,743.4270186820395,748.3729625779163,753.0097849803007,757.646607382685,762.2834297850695,766.920252187454,771.5570745898385,776.1938969922229,780.8307193946073,785.4675417969918,790.1043641993763,794.7411866017608,799.3780090041452,804.0148314065295,808.651653808914,813.2884762112985,817.925298613683,822.5621210160673,827.0333426183668,831.0629620871055,834.9269807557591,839.5638031581436,848.0646442291818,852.7014666315663,857.3382890339508,861.9751114363353,866.6119338387196,871.248756241104,875.8855786434885,878.9767935784114,883.2272141139306,887.4776346494496,891.7280551849688,895.5920738536224,899.4560925222761,902.9337093240645,906.0249242589875,908.9873385716219,430.5543037404236,912.9337539432177,917.8008111762056,924.831004957188,935.6466876971608,930.2388463271743,939.4321766561513,949.1662911221272,956.1964849031094,962.1451104100945,971.3384407390718,978.9094186570528,984.8580441640379,999.4592158630014,991.8882379450204,968.0937359170798,945.3808021631367,921.5863001351961],
       "units": "nm"
    },
    "values": {
      "value": [0.15,0.1159721434225841,0.10470520351230428,0.09331049418036164,0.08037621611466184,0.07151419238485657,0.061583023701053285,0.05478801354897733,0.04741804099941804,0.027869319484984167,0.025604316100958924,0.022119695510150805,0.022119695510150805,0.022119695510150805,0.022119695510150805,0.02299085065785289,0.024210467864635543,0.026301240219120503,0.029437398750847832,0.03257355728257516,0.03570971581430249,0.03884587434603004,0.04198203287775737,0.04773165685259073,0.054178204945585895,0.06184437024536393,0.07107861481100564,0.07560862157905612,0.07891901114032396,0.07857054908124295,0.07543439054951562,0.07229823201778829,0.07090438378146513,0.07404054231319246,0.08055678281800371,0.09006979703091,0.11202290675300142,0.12809571922810414,0.14573661096907042,0.16309748855541828,0.17746408144837889,0.1927789889449807,0.21478436797593425,0.20297150417309462,0.23224231713588317,0.24857647615529643,0.2685694867950583,0.294477640887717,0.28242085364352076,0.3137824389607943,0.3314046630914528,0.3494562422591929,0.3689265598103335,0.3948579447069309,0.38330061974741725,0.4159689377862438,0.437254161895097,0.45943957965657567,0.48150884339836075,0.5040427232189202,0.5263442950000925,0.5482974047221839,0.5700182064048881,0.5955720907374813,0.5834920726893464,0.6153763510952411,0.6350146771391529,0.6824552974682984,0.7008366710848115,0.7191309291865543,0.7348639911540532,0.7534718651089688,0.7723585087111491,0.7876410590165506,0.8030231699102609,0.8197493487461401,0.8394810128415914,0.8595785620990775,0.876025971287692,0.8878487911493625,0.8951913845371369,0.8925779190940308,0.8859571399714953,0.8776936111418645,0.8728898127559647,0.8673144198106716,0.8610421027472169,0.8535501684769793,0.8444901549408781,0.8347332172866153,0.8241922399994206,0.8173101143325744,0.810340873150958,0.8025004768216397,0.7941373874037001,0.7882135323993262,0.7835092946017352,0.779153518863225,0.7795019809223058,0.7848595850806733,0.7936146943150788,0.8074660611635414,0.8202139648249145,0.8319455208139687,0.8460001571968949,0.8576683564479345,0.8694051921651564,0.8814271332034447,0.892665034608801,0.9029322202781465,0.9126144874911778,0.9196583991140257,0.9274241250021125,0.9386620264074688,0.9465895382515574,0.951119545019608,0.9539072414922545,0.9573918620830627,0.9601795585557092,0.9636641791465175,0.9671487997373256,0.9741180409189419,0.9812615131300987,0.9875338301935533,0.9936319162274676,0.9972907678478162,0.9992073091727607,0.9995557712318415,0.9983361540250587,0.9938061472570081,0.9853683873978368,0.9736301940362287,0.9647095653237598,0.9559980138467394,0.9221971941159002,0.9100010220480717,0.8986760051279451,0.8880479123259802,0.8768971264353941,0.8652236474561867,0.8547697856837622,0.8443159239113377,0.8358482958756739,0.826544358898216,0.8166131902144127,0.8036504016166064,0.7902694585479031,0.7779339016564422,0.7661733071624646,0.7531930954617041,0.04023408924652516,0.7381126554498902,0.7176298463789319,0.6795903438185809,0.6371616678858815,0.6561814191660571,0.612289685442575,0.5771762984637893,0.5523043160204828,0.5303584491587418,0.49817117776152153,0.4645208485735186,0.44403803950256027,0.37966349670811994,0.41331382589612276,0.5142648134601316,0.5918068763716167,0.7000731528895391],
      "range": 1
    }
  },
  {
    "model": "ZWO SeeStar S50",
    "name": "ZWO SeeStar S50 G",
    "type": "OSC_SENSOR",
    "dataQualityMarker": 2,
    "dataSource": "Scanned from QE curve",
    "manufacturer": "ZWO",
    "channel": "GREEN",
    "version": 1,
    "wavelength": { 
       "value":  [380,401.38408613281337,406.0209085351978,410.6577309375823,415.29455333996674,419.9313757423512,424.5681981447356,429.20502054712006,433.84184294950455,438.47866535188894,443.11548775427343,448.0283114901331,452.3891325590423,456.05995029426333,458.6267626955833,460.93290717084324,462.4355810975419,463.4659860758496,465.31212832865083,466.1339989661105,466.94360287763794,467.80227369289435,468.7146114341042,469.00441283425323,469.9980176347642,470.7708213684949,471.54362510222563,472.3164288359564,473.08923256968717,473.8620363034179,474.6348400371486,475.4076437708794,476.18044750461013,477.21545250514237,477.5052539052914,478.7932601281759,479.0508613727529,479.92026557319997,481.11167132936816,481.36927257394507,482.6250786412576,482.9148800414066,485.61969310946415,486.3924968431949,486.7788987100603,488.10370511074154,488.7109080443871,488.96850928896407,490.642917378714,492.531993172278,493.73413231363696,495.72134191465886,497.2117491154253,498.92295738297196,500.30296405034824,502.6213752515405,504.99498671942774,508.0310013876557,511.43133781607094,515.4830373914879,520.3958611273475,525.032683529732,529.6695059321164,534.3063283345009,538.9431507368853,543.5799731392698,548.2167955416542,551.4368110988656,555.1720291452309,558.9072471915961,562.0720624821125,564.4456739499998,566.819285417887,569.855300086115,572.946515021038,575.9825296892659,578.3561411571532,580.5089515582602,582.0269588923742,584.4419705602827,586.0841784944605,587.629785961922,589.1753934293836,590.721000896845,591.6226052528642,592.873811297952,594.391818632066,595.9374260995276,597.483033566989,599.1789084271204,600.6018486352594,601.6368536357918,603.7298637479792,605.2110709042963,606.4530769049351,607.7656165796841,608.6242873949404,610.6850973515558,613.0357087083202,614.677916642498,616.2235241099595,617.7691315774209,619.4803398449676,623.0499570912477,626.2699726484591,629.361187583382,633.9980099857664,638.6348323881509,643.2716547905354,647.9084771929199,652.5452995953043,657.1821219976887,661.8189444000732,666.2801295902461,670.1909848488228,673.4110004060343,676.5022153409573,679.5934302758802,682.6846452108032,685.7206598790311,688.0942713469184,690.4126825481106,692.7310937493028,695.049504950495,697.3679161516873,699.7415276195745,702.7775422878025,706.1778787162177,710.5055796251099,715.1424020274944,719.7792244298788,724.4160468322632,729.439271101513,733.6896916370322,738.0173925459243,741.4177289743395,743.7913404422268,746.8273551104547,749.8633697786827,752.2369812465699,754.5553924477622,756.9290039156494,759.9650185838773,763.0562335188004,766.1474484537232,769.2386633886463,772.3298783235691,775.3658929917972,777.7395044596844,780.0579156608767,782.3763268620688,784.7499383299561,786.2403455307226,787.9515537982691,789.4971612657307,791.6499716668377,793.96838286803,796.2867940692222,798.6052052704144,800.9788167383017,803.7388300730543,812.9020743444331,816.3796911462214,821.0165135486059,825.6533359509904,830.2901583533749,834.9269807557591,839.5638031581436,842.9126193376435,847.2918404954512,851.3314963763164,855.4062796996238,857.9178918342488,861.9751114363353,866.6119338387196,871.248756241104,875.8855786434885,880.467200779178,883.0340131804978,887.4776346494496,891.3416533181035,895.2056719867571,899.0696906554108,902.804908701776,906.0249242589875,909.1161391939104,912.2073541288335,915.2985690637563,918.3897839986794,921.0945970667369,923.7442098680995,925.7314194691214,928.436232537179,931.5274474721018,934.6186624070249,937.3234754750824,939.6418866762747,942.4019000110272,946.9835221467167,950.6543398819379,954.656359217329,958.9619800195433,962.8259986881969,966.3036154899853,969.0084285580429,971.3268397592351,974.0316528272926,977.509269629081,981.3732882977347,984.4645032326578,986.78291443385,989.4877275019076,992.5789424368304,995.6701573717535,997.9885685729457],
       "units": "nm"
    },
    "values": {
      "value": [0.10,0.06045052200904055,0.05400397391604539,0.04773165685259073,0.041459339789136074,0.035883946843842995,0.03466432963706012,0.03466432963706012,0.03466432963706012,0.034838560666600626,0.037626257139247166,0.040488624053125255,0.04616357758672707,0.06145235042889796,0.07692779937414773,0.0920444153657013,0.11006280767067189,0.1259613891162341,0.1440814161884365,0.16414287473266076,0.18032147033284152,0.19809303534596323,0.2176069106544889,0.23433308949036813,0.2500138821490049,0.266740060984884,0.28346623982076324,0.3006404413040321,0.31766530190483766,0.33543686691795926,0.35276040928369146,0.37083065606173937,0.38815419842747145,0.406691135463217,0.42319952551217066,0.44108724454498605,0.4580457314202524,0.4741185438953551,0.4937050154661893,0.510315040282375,0.5266491993017882,0.5416766255996485,0.5853737678083828,0.6023090238797105,0.61485365800662,0.6299370871354039,0.6444729330284893,0.658411415391722,0.6753553830145267,0.6962776258118375,0.7146133674920423,0.730294160150679,0.7439588508960625,0.7565781554642035,0.7700935053271237,0.7822896773949524,0.7940627169624686,0.8057673086255224,0.8185994239511734,0.8296058469887118,0.8390889930251254,0.8446643859704185,0.8476263134726054,0.847452082443065,0.8422251515568528,0.8356043724343173,0.825673203750514,0.8125477995251366,0.8006187817026033,0.7885039174485602,0.7750964248896413,0.7624273400273458,0.7501564975182856,0.7371638407439866,0.7239658402563006,0.7101331410181462,0.6956968557133694,0.6807129871728943,0.6667309470522764,0.6527489069316588,0.639246002142277,0.6267013680153677,0.6131113477112158,0.5991728653479831,0.5850601519552101,0.5715448020922899,0.5555279924481109,0.5384097937957658,0.5211609218712653,0.5024165669432098,0.483732363203924,0.4662781475660367,0.448753409844764,0.42929761154608503,0.4118993987391214,0.39311563441152697,0.3775509957725838,0.36082481693670454,0.34305325192358294,0.32876630750126945,0.3176155216106833,0.30698742880871843,0.29556285130028304,0.2833500858010697,0.27052958587738796,0.2602063973771187,0.2547181199465959,0.2486200339126815,0.2447869512627926,0.24374156508555012,0.24565810641049468,0.25175619244440894,0.2588996646555657,0.27177692165705225,0.28764778452973305,0.3026752108275933,0.3174412905811429,0.3320766970625372,0.34671210354393145,0.3612728395840942,0.37493753032947763,0.38748216445638706,0.4000267985832965,0.4130941257988271,0.4266841461029789,0.43982614375974116,0.45138139454033177,0.4631681236887404,0.47407498613797006,0.4805215342309651,0.486445389235339,0.490278471885228,0.4964636734339124,0.5054365714552435,0.5187826683180388,0.5344895956311065,0.550786419429904,0.5649364680432929,0.5799078915102294,0.5930747793140689,0.6045740272637359,0.6169444303611048,0.6298810843044802,0.6426870649757002,0.6562770852798521,0.6709124917612463,0.6855478982426406,0.7001273018931111,0.7136426517560315,0.7267099789715621,0.7401257682461735,0.751948588107844,0.7648665744409116,0.7776352198915157,0.7906278766658148,0.804765480205665,0.8181812694802764,0.8307259036071859,0.843618999793176,0.8575325920093315,0.8721679984907258,0.9012894705710512,0.9138341046979606,0.9215002699977386,0.9232425802931427,0.9202806527909557,0.9160991080819859,0.9091298669003696,0.9005925464528897,0.8957140776257582,0.8851335023773043,0.876461548861543,0.8694051921651564,0.8652236474561867,0.8577317131859492,0.8486716996498479,0.8392632240546658,0.8297551878711751,0.8198800220182954,0.8148708799190088,0.8033367857634337,0.7904785357833515,0.7775157471855452,0.7652731135098392,0.7532366532190893,0.7405613458200245,0.7274940186044939,0.7156027508383611,0.702796770167141,0.6876822283545105,0.673395283932197,0.6614778815116332,0.6497434216720868,0.6375908073616432,0.6250461732347339,0.6125886546225946,0.6005667135843065,0.5878229582807795,0.5761743694486493,0.5627150224166527,0.5477996017806399,0.5324772272399149,0.5216052109965933,0.5092696541051325,0.4974219440963846,0.485574234087637,0.47320383099026797,0.45992742653928875,0.4486372558250704,0.436092621698161,0.42459337374849404,0.4130941257988271,0.40107218476053885,0.3872208179120764,0.3754602234180988],
      "range": 1
    }
  },
  {
    "model": "ZWO SeeStar S50",
    "name": "ZWO SeeStar S50 B",
    "type": "OSC_SENSOR",
    "dataQualityMarker": 2,
    "dataSource": "Scanned from QE curve",
    "manufacturer": "ZWO",
    "channel": "BLUE",
    "version": 1,
"wavelength": { 
       "value":  [380,401.19088519938066,400.2248805322173,403.7576976007007,405.2481048014671,406.7937122689286,409.88492720385153,412.9761421387745,416.06735707369745,419.1585720086204,422.2497869435434,425.3410018784664,428.43221681338935,431.5234317483123,434.74344730552366,438.6543025641005,443.11548775427343,447.65570968994155,452.3891325590423,457.02595496142675,461.6627773638112,465.91319789933027,467.8452072336571,471.0652227908686,474.6072399038011,477.118852038426,478.6644595058875,480.85407008479126,483.1724812859835,485.5230926427478,487.1653005769257,488.7109080443871,490.25651551184865,491.80212297931007,493.3477304467716,494.8933379142331,496.05254351482915,497.04614831534013,498.71442304212394,500.1373632502631,501.8056379770469,503.22857818518605,504.7465855193,506.2921929867615,507.837800454223,509.5214085884221,510.92901538914595,513.0542256569055,514.7286337466554,516.5870427253889,517.69104805929,518.850253659886,521.0030640609931,522.6590720618447,525.7502869967677,528.123898464655,530.4975099325422,533.6623252230586,537.3975432694239,542.0343656718082,546.4779871407601,549.1828002088176,553.5712214110744,558.2632440801539,562.9000664825383,567.5368888849227,572.1737112873072,576.8105336896916,581.4473560920761,586.0841784944605,590.721000896845,595.3578232992295,599.9946457016139,604.6314681039983,609.2682905063828,613.9051129087673,618.5419353111517,623.1787577135361,627.8155801159205,632.452402518305,637.0892249206895,641.726047323074,646.3628697254584,650.9444918611478,655.6365145302273,660.549338266087,664.9101593349961,669.5469817373806,674.183804139765,678.8206265421495,683.457448944534,688.0942713469184,692.7862940159979,697.6439174851625,702.0047385540718,706.6415609564563,711.2783833588406,715.915205761225,720.5520281636095,725.188850565994,729.8256729683784,734.4624953707629,739.0993177731473,743.5605029633202,748.5661635113489,752.2369812465699,756.1009999152236,759.7718176504446,762.3386300517645,765.3194444532975,767.8862568546174,770.066667389072,771.5570745898385,773.2682828573851,774.6482895247614,775.6786945030691,777.6107038373959,779.2851119271459,780.9273198613237,781.6035231283381,783.1491305957995,781.2171212614727,784.8235386855495,785.0811399301265,786.3369459974389,786.6267473975879,787.6893525314676,788.7243575319999,789.3315604656455,790.1043641993763,790.877167933107,791.6499716668377,792.4227754005685,792.8091772674338,793.96838286803,795.6427909577799,796.2867940692222,797.9612021589721,798.218803403549,800.1508127378759,800.9236164716067,802.4692239390681,803.8216304730969,805.3028376294142,807.1612466081476,808.8172546089992,810.3628620764607,812.5156724775677,815.0272846121927,818.8737395596252,823.3349247497981,827.9717471521826,832.6085695545671,837.2453919569514,841.8822143593359,844.7415881741397,848.7822476962176,851.7354619644029,855.7926815664894,860.4295039688736,865.0111261045631,868.080260932808,871.6351581079693,873.5671674422963,878.2039898446808,881.6043262730959,885.6560258485129,889.495511065302,892.9424610522599,895.3988729201897,899.0696906554108,902.9337093240645,906.6689273704299,909.8889429276412,912.980157862564,916.0713727974871,919.16258773241,922.198602400638,923.7994101347945,926.8354248030223,929.2642365376048,932.3002512058326,935.3914661407557,938.4826810756786,941.5186957439064,943.9475074784889,946.9835221467167,950.2035377039281,953.809955128005,957.0299706852163,960.1211856201394,963.3412011773507,966.9476186014276,970.167634158639,973.2588490935618,976.3500640284849,979.5700795856962,983.3052976320616,986.9761153672825,989.5429277686026,992.5789424368304,995.6701573717535,997.795367639513,998.374970439811],
       "units": "nm"
    },
    "values": {
      "value": [0.2,0.45429976428513374,0.4402741664071308,0.4729798196665732,0.48696808232396016,0.5009065646871929,0.5156726444407425,0.5307000707386027,0.5442900910427545,0.5569653984418192,0.570555418745971,0.5840147657779676,0.596559399904877,0.6091040340317864,0.6215905911488491,0.6337656443040061,0.6456925502352722,0.6579758378178711,0.6653806565733383,0.6688652771641466,0.6672971978982829,0.6569304516406285,0.6474348605306763,0.6370390757680986,0.6259608861398209,0.6115432684453521,0.5993470963775236,0.5846536128862825,0.5693212822867265,0.5536985666379366,0.5395858532451635,0.5270412191182541,0.5141481229322639,0.500558102628112,0.4862711582057986,0.4716357517244043,0.4580457314202524,0.44520241552841655,0.43040107473317424,0.4142888528585327,0.3982264112780456,0.3821805631289432,0.36788117363309114,0.35193903443014374,0.33651958831581763,0.32139882396641795,0.3050273297263888,0.2894398751192915,0.27353507113695996,0.25763026715462845,0.24269617890830775,0.2308484688995599,0.21745756977202568,0.20431557211526352,0.19236830151820694,0.17979877724422033,0.16847376032409378,0.15732297443350762,0.14599795751338107,0.13815756118406275,0.127181006323017,0.11738051091136903,0.11052949792836941,0.1040082793941427,0.09878134850793041,0.09738750027160714,0.0994782726260921,0.10156904498057695,0.10261443115781943,0.10540212763046586,0.10679597586678924,0.10435674145322349,0.10069788983287487,0.09808442438976872,0.09442557276942021,0.09111518320815248,0.08815325570596544,0.08989556600136961,0.09285749350355654,0.09634211409436466,0.0991298105670112,0.10331135527598101,0.10940944130989527,0.1159057696970448,0.12404484779128966,0.13113853970829203,0.13955140942038602,0.14599795751338107,0.15279296766545702,0.16150451914247743,0.1712614567967402,0.18032147033284152,0.18968016563386925,0.19834193681673518,0.20541073858666037,0.21028920741379176,0.2123799797682766,0.2123799797682766,0.2123799797682766,0.2127284418273575,0.21551613830000405,0.21934922094989295,0.22771231036783257,0.23556854588165455,0.2483151296109859,0.25900420327329,0.2719669918710963,0.2850343190866269,0.2992963733618632,0.3136330980783312,0.3273724592649462,0.34305325192358294,0.3580371204640581,0.3711293378266659,0.3872208179120764,0.4029887260854834,0.42006336698044333,0.440378705024855,0.46131256322413505,0.4768626826106165,0.49724771306684423,0.48313499967407125,0.5183296676412337,0.5345679995943998,0.5501703882897433,0.567114355912548,0.5847988054108995,0.6029063874095633,0.6185125096269685,0.6324509919902012,0.6458667812648127,0.6592825705394241,0.6721756667254142,0.6842673001755186,0.7023524810418129,0.725548438774626,0.7422165406006584,0.7596977205645461,0.7758431293019572,0.791523921960594,0.8070304835896903,0.822232140917091,0.8392196662972807,0.855989402890545,0.8717199758433363,0.8871020867370465,0.900393425276272,0.914879490875203,0.9309523033503058,0.9431999527677712,0.9554753207581183,0.958785710319386,0.956694937964901,0.9507710829605271,0.9431049176607492,0.9347418282428096,0.9280214885319653,0.9171009365018432,0.9113948702843949,0.901637932630132,0.892478358505722,0.883726982793378,0.876461548861543,0.8681855749583737,0.8629586440721614,0.8511109340634136,0.8440919125876429,0.8325262909124367,0.82393089345511,0.8130850118662195,0.8018732451152941,0.7883877634288666,0.7747977431247148,0.759116950466078,0.7444815439846837,0.7307608504083766,0.7195229490030202,0.7065489598390291,0.6930833902702632,0.6793689192307254,0.6650321945142574,0.6536636198367458,0.6420336986149235,0.6280516584943059,0.6141069535943039,0.6000689106427624,0.5883269837590928,0.5784974498425214,0.5675789719913225,0.5540905864544025,0.5405005661502507,0.5299450696105943,0.5196073618578634,0.5058721490290945,0.4904527029147684,0.47542527661690814,0.46211112210952865,0.45093710541500376,0.4379220475083353,0.4226519422764723,0.41100335344434213,0.3995041054946752,0.3882662040893189,0.3754602234180988],
      "range": 1
    }
  }
]
